%!PS-Adobe-3.0 EPSF-3.0
%%Creator: cairo 1.16.0 (https://cairographics.org)
%%CreationDate: Fri Jul 19 07:40:19 2019
%%Pages: 1
%%DocumentData: Clean7Bit
%%LanguageLevel: 2
%%BoundingBox: 5 5 379 379
%%EndComments
%%BeginProlog
50 dict begin
/q { gsave } bind def
/Q { grestore } bind def
/cm { 6 array astore concat } bind def
/w { setlinewidth } bind def
/J { setlinecap } bind def
/j { setlinejoin } bind def
/M { setmiterlimit } bind def
/d { setdash } bind def
/m { moveto } bind def
/l { lineto } bind def
/c { curveto } bind def
/h { closepath } bind def
/re { exch dup neg 3 1 roll 5 3 roll moveto 0 rlineto
      0 exch rlineto 0 rlineto closepath } bind def
/S { stroke } bind def
/f { fill } bind def
/f* { eofill } bind def
/n { newpath } bind def
/W { clip } bind def
/W* { eoclip } bind def
/BT { } bind def
/ET { } bind def
/BDC { mark 3 1 roll /BDC pdfmark } bind def
/EMC { mark /EMC pdfmark } bind def
/cairo_store_point { /cairo_point_y exch def /cairo_point_x exch def } def
/Tj { show currentpoint cairo_store_point } bind def
/TJ {
  {
    dup
    type /stringtype eq
    { show } { -0.001 mul 0 cairo_font_matrix dtransform rmoveto } ifelse
  } forall
  currentpoint cairo_store_point
} bind def
/cairo_selectfont { cairo_font_matrix aload pop pop pop 0 0 6 array astore
    cairo_font exch selectfont cairo_point_x cairo_point_y moveto } bind def
/Tf { pop /cairo_font exch def /cairo_font_matrix where
      { pop cairo_selectfont } if } bind def
/Td { matrix translate cairo_font_matrix matrix concatmatrix dup
      /cairo_font_matrix exch def dup 4 get exch 5 get cairo_store_point
      /cairo_font where { pop cairo_selectfont } if } bind def
/Tm { 2 copy 8 2 roll 6 array astore /cairo_font_matrix exch def
      cairo_store_point /cairo_font where { pop cairo_selectfont } if } bind def
/g { setgray } bind def
/rg { setrgbcolor } bind def
/d1 { setcachedevice } bind def
/cairo_data_source {
  CairoDataIndex CairoData length lt
    { CairoData CairoDataIndex get /CairoDataIndex CairoDataIndex 1 add def }
    { () } ifelse
} def
/cairo_flush_ascii85_file { cairo_ascii85_file status { cairo_ascii85_file flushfile } if } def
/cairo_image { image cairo_flush_ascii85_file } def
/cairo_imagemask { imagemask cairo_flush_ascii85_file } def
%%EndProlog
%%BeginSetup
%%EndSetup
%%Page: 1 1
%%BeginPageSetup
%%PageBoundingBox: 5 5 379 379
%%EndPageSetup
q 5 5 374 374 rectclip
1 0 0 -1 0 384 cm q
0.984314 0.54902 0 rg
192 351.188 m 189.102 351.188 186.75 348.84 186.75 345.938 c 186.75 293.5
 l 186.75 286.5 197.25 286.5 197.25 293.5 c 197.25 345.938 l 197.25 348.836
 194.902 351.188 192 351.188 c h
192 351.188 m f
0.364706 0.25098 0.215686 rg
212.656 358.094 m 212.656 369.504 203.406 378.75 192 378.75 c 180.594 378.75
 171.344 369.504 171.344 358.094 c 171.344 346.688 180.594 337.441 192 337.441
 c 203.406 337.441 212.656 346.688 212.656 358.094 c h
212.656 358.094 m f
11.25 5.25 m 372.75 5.25 l 376.074 5.25 378.75 7.926 378.75 11.25 c 378.75
 33.543 l 378.75 36.867 376.074 39.543 372.75 39.543 c 11.25 39.543 l 7.926
 39.543 5.25 36.867 5.25 33.543 c 5.25 11.25 l 5.25 7.926 7.926 5.25 11.25
 5.25 c h
11.25 5.25 m f
1 0.792157 0.564706 rg
26.75 39.543 m 357.25 39.543 l 357.25 290 l 357.25 296.629 351.875 302 
345.25 302 c 38.75 302 l 32.125 302 26.75 296.629 26.75 290 c h
26.75 39.543 m f
0.866667 0.662745 0.462745 rg
26.75 39.543 m 26.75 54.543 l 324.254 54.543 l 334.191 54.543 342.254 62.602
 342.254 72.543 c 342.254 301.996 l 345.254 301.996 l 351.879 301.996 357.254
 296.625 357.254 289.996 c 357.254 39.543 l h
26.75 39.543 m f
0.984314 0.54902 0 rg
55 245.5 273.996 21 re f
0 0.67451 0.756863 rg
73.5 183.5 35.516 62.004 re f
140.66 109 35.516 136.5 re f
207.82 149.68 35.516 95.82 re f
274.984 77.5 35.516 168 re f
0 0.592157 0.654902 rg
274.984 77.5 m 274.984 89.5 l 280.5 89.5 l 290.441 89.5 298.5 97.559 298.5
 107.5 c 298.5 245.5 l 310.5 245.5 l 310.5 77.5 l h
274.984 77.5 m f
207.82 149.68 m 207.82 161.68 l 213.336 161.68 l 223.277 161.68 231.336
 169.738 231.336 179.68 c 231.336 245.5 l 243.336 245.5 l 243.336 149.68
 l h
207.82 149.68 m f
140.66 109 m 140.66 121 l 146.176 121 l 156.117 121 164.176 129.059 164.176
 139 c 164.176 245.5 l 176.176 245.5 l 176.176 109 l h
140.66 109 m f
73.5 183.5 m 73.5 195.5 l 79.016 195.5 l 88.957 195.5 97.016 203.559 97.016
 213.5 c 97.016 245.5 l 109.016 245.5 l 109.016 183.5 l h
73.5 183.5 m f
0.937255 0.423529 0 rg
186.75 302 10.5 10.5 re f
Q Q
showpage
%%Trailer
end
%%EOF
