%!PS-Adobe-3.0 EPSF-3.0
%%Creator: cairo 1.16.0 (https://cairographics.org)
%%CreationDate: Fri Jul 19 07:40:19 2019
%%Pages: 1
%%DocumentData: Clean7Bit
%%LanguageLevel: 2
%%BoundingBox: 5 50 379 334
%%EndComments
%%BeginProlog
50 dict begin
/q { gsave } bind def
/Q { grestore } bind def
/cm { 6 array astore concat } bind def
/w { setlinewidth } bind def
/J { setlinecap } bind def
/j { setlinejoin } bind def
/M { setmiterlimit } bind def
/d { setdash } bind def
/m { moveto } bind def
/l { lineto } bind def
/c { curveto } bind def
/h { closepath } bind def
/re { exch dup neg 3 1 roll 5 3 roll moveto 0 rlineto
      0 exch rlineto 0 rlineto closepath } bind def
/S { stroke } bind def
/f { fill } bind def
/f* { eofill } bind def
/n { newpath } bind def
/W { clip } bind def
/W* { eoclip } bind def
/BT { } bind def
/ET { } bind def
/BDC { mark 3 1 roll /BDC pdfmark } bind def
/EMC { mark /EMC pdfmark } bind def
/cairo_store_point { /cairo_point_y exch def /cairo_point_x exch def } def
/Tj { show currentpoint cairo_store_point } bind def
/TJ {
  {
    dup
    type /stringtype eq
    { show } { -0.001 mul 0 cairo_font_matrix dtransform rmoveto } ifelse
  } forall
  currentpoint cairo_store_point
} bind def
/cairo_selectfont { cairo_font_matrix aload pop pop pop 0 0 6 array astore
    cairo_font exch selectfont cairo_point_x cairo_point_y moveto } bind def
/Tf { pop /cairo_font exch def /cairo_font_matrix where
      { pop cairo_selectfont } if } bind def
/Td { matrix translate cairo_font_matrix matrix concatmatrix dup
      /cairo_font_matrix exch def dup 4 get exch 5 get cairo_store_point
      /cairo_font where { pop cairo_selectfont } if } bind def
/Tm { 2 copy 8 2 roll 6 array astore /cairo_font_matrix exch def
      cairo_store_point /cairo_font where { pop cairo_selectfont } if } bind def
/g { setgray } bind def
/rg { setrgbcolor } bind def
/d1 { setcachedevice } bind def
/cairo_data_source {
  CairoDataIndex CairoData length lt
    { CairoData CairoDataIndex get /CairoDataIndex CairoDataIndex 1 add def }
    { () } ifelse
} def
/cairo_flush_ascii85_file { cairo_ascii85_file status { cairo_ascii85_file flushfile } if } def
/cairo_image { image cairo_flush_ascii85_file } def
/cairo_imagemask { imagemask cairo_flush_ascii85_file } def
%%EndProlog
%%BeginSetup
%%EndSetup
%%Page: 1 1
%%BeginPageSetup
%%PageBoundingBox: 5 50 379 334
%%EndPageSetup
q 5 50 374 284 rectclip
1 0 0 -1 0 384 cm q
0.984314 0.54902 0 rg
168.148 149.254 m 5.25 312.152 l 27 333.898 l 188.699 172.199 l 182.059
 164.379 175.207 156.73 168.148 149.254 c h
168.148 149.254 m f
0.364706 0.25098 0.215686 rg
265.695 287.852 m 257.367 272.473 l 230.438 222.738 196.449 177.164 156.461
 137.172 c 147.105 127.816 l 218.73 56.207 l 228.086 65.562 l 268.078 105.551
 313.648 139.539 363.383 166.469 c 378.766 174.797 l 356.379 225.188 316.086
 265.473 265.695 287.852 c h
265.695 287.852 m f
0.298039 0.207843 0.180392 rg
378.75 174.801 m 363.367 166.473 l 358.828 164.012 354.332 161.477 349.867
 158.898 c 328.285 202.254 293.148 237.387 249.789 258.965 c 252.367 263.438
 254.902 267.934 257.363 272.465 c 265.691 287.848 l 316.078 265.465 356.363
 225.184 378.75 174.801 c h
378.75 174.801 m f
0.984314 0.54902 0 rg
263.102 97.801 m 278.539 82.363 l 280.188 80.715 281.113 78.48 281.113 
76.148 c 281.113 73.816 280.188 71.582 278.539 69.934 c 269.219 60.613 l
 267.57 58.965 265.332 58.039 263.004 58.039 c 260.672 58.039 258.438 58.965
 256.789 60.613 c 240.148 77.258 l 247.621 84.309 255.273 91.156 263.102
 97.801 c h
263.102 97.801 m f
0.937255 0.423529 0 rg
180.301 162.578 m 18 324.898 l 27 333.898 l 188.699 172.199 l 185.949 168.957
 183.137 165.762 180.301 162.578 c h
180.301 162.578 m f
278.535 69.938 m 269.535 60.938 l 272.965 64.371 272.965 69.934 269.535
 73.367 c 266.633 76.27 l 259.551 83.383 248.141 83.703 240.664 77.004 c
 240.531 76.883 l 240.152 77.262 l 247.621 84.312 255.273 91.156 263.102
 97.801 c 278.539 82.363 l 281.965 78.93 281.965 73.371 278.535 69.938 c
 h
278.535 69.938 m f
0 0.67451 0.756863 rg
199.305 53.508 m 210.352 64.551 l 155.465 119.438 l 144.418 108.391 l 139.844
 103.816 139.844 96.398 144.418 91.82 c 182.734 53.508 l 184.934 51.309 
187.914 50.074 191.02 50.074 c 194.129 50.074 197.109 51.309 199.305 53.508
 c h
199.305 53.508 m f
0 0.592157 0.654902 rg
199.316 53.527 m 203.508 57.719 l 148.613 112.613 l 155.473 119.469 l 210.363
 64.574 l h
199.316 53.527 m f
Q Q
showpage
%%Trailer
end
%%EOF
