%!PS-Adobe-3.0 EPSF-3.0
%%Creator: cairo 1.16.0 (https://cairographics.org)
%%CreationDate: Fri Jul 19 07:40:20 2019
%%Pages: 1
%%DocumentData: Clean7Bit
%%LanguageLevel: 2
%%BoundingBox: 5 5 379 379
%%EndComments
%%BeginProlog
50 dict begin
/q { gsave } bind def
/Q { grestore } bind def
/cm { 6 array astore concat } bind def
/w { setlinewidth } bind def
/J { setlinecap } bind def
/j { setlinejoin } bind def
/M { setmiterlimit } bind def
/d { setdash } bind def
/m { moveto } bind def
/l { lineto } bind def
/c { curveto } bind def
/h { closepath } bind def
/re { exch dup neg 3 1 roll 5 3 roll moveto 0 rlineto
      0 exch rlineto 0 rlineto closepath } bind def
/S { stroke } bind def
/f { fill } bind def
/f* { eofill } bind def
/n { newpath } bind def
/W { clip } bind def
/W* { eoclip } bind def
/BT { } bind def
/ET { } bind def
/BDC { mark 3 1 roll /BDC pdfmark } bind def
/EMC { mark /EMC pdfmark } bind def
/cairo_store_point { /cairo_point_y exch def /cairo_point_x exch def } def
/Tj { show currentpoint cairo_store_point } bind def
/TJ {
  {
    dup
    type /stringtype eq
    { show } { -0.001 mul 0 cairo_font_matrix dtransform rmoveto } ifelse
  } forall
  currentpoint cairo_store_point
} bind def
/cairo_selectfont { cairo_font_matrix aload pop pop pop 0 0 6 array astore
    cairo_font exch selectfont cairo_point_x cairo_point_y moveto } bind def
/Tf { pop /cairo_font exch def /cairo_font_matrix where
      { pop cairo_selectfont } if } bind def
/Td { matrix translate cairo_font_matrix matrix concatmatrix dup
      /cairo_font_matrix exch def dup 4 get exch 5 get cairo_store_point
      /cairo_font where { pop cairo_selectfont } if } bind def
/Tm { 2 copy 8 2 roll 6 array astore /cairo_font_matrix exch def
      cairo_store_point /cairo_font where { pop cairo_selectfont } if } bind def
/g { setgray } bind def
/rg { setrgbcolor } bind def
/d1 { setcachedevice } bind def
/cairo_data_source {
  CairoDataIndex CairoData length lt
    { CairoData CairoDataIndex get /CairoDataIndex CairoDataIndex 1 add def }
    { () } ifelse
} def
/cairo_flush_ascii85_file { cairo_ascii85_file status { cairo_ascii85_file flushfile } if } def
/cairo_image { image cairo_flush_ascii85_file } def
/cairo_imagemask { imagemask cairo_flush_ascii85_file } def
%%EndProlog
%%BeginSetup
%%EndSetup
%%Page: 1 1
%%BeginPageSetup
%%PageBoundingBox: 5 5 379 379
%%EndPageSetup
q 5 5 374 374 rectclip
1 0 0 -1 0 384 cm q
0.364706 0.25098 0.215686 rg
5.25 350.25 373.5 28.5 re f
5.25 129 373.5 28.5 re f
0.298039 0.207843 0.180392 rg
5.25 129 m 5.25 138 l 348.75 138 l 358.691 138 366.75 146.059 366.75 156
 c 366.75 157.5 l 378.75 157.5 l 378.75 129 l h
5.25 129 m f
0.364706 0.25098 0.215686 rg
29.25 321.75 325.5 28.5 re f
1 0.792157 0.564706 rg
378.75 129 m 5.25 129 l 5.25 79.125 l 192 5.25 l 378.75 79.125 l h
378.75 129 m f
0.866667 0.662745 0.462745 rg
192 5.25 m 176.523 11.371 l 355.371 82.121 l 362.238 84.84 366.75 91.473
 366.75 98.859 c 366.75 129 l 378.75 129 l 378.75 79.125 l h
192 5.25 m f
0.984314 0.54902 0 rg
42 157.5 52.5 164.25 re f
165.75 157.5 52.5 164.25 re f
289.5 157.5 52.5 164.25 re f
0.937255 0.423529 0 rg
289.5 157.5 m 289.5 166.5 l 315 166.5 l 324.941 166.5 333 174.559 333 184.5
 c 333 321.75 l 342 321.75 l 342 157.5 l h
289.5 157.5 m f
165.75 157.5 m 165.75 166.5 l 191.25 166.5 l 201.191 166.5 209.25 174.559
 209.25 184.5 c 209.25 321.75 l 218.25 321.75 l 218.25 157.5 l h
165.75 157.5 m f
42 157.5 m 42 166.5 l 67.5 166.5 l 77.441 166.5 85.5 174.559 85.5 184.5
 c 85.5 321.75 l 94.5 321.75 l 94.5 157.5 l h
42 157.5 m f
0 0.67451 0.756863 rg
219.125 67.125 m 219.125 82.105 206.98 94.25 192 94.25 c 177.02 94.25 164.875
 82.105 164.875 67.125 c 164.875 52.145 177.02 40 192 40 c 206.98 40 219.125
 52.145 219.125 67.125 c h
219.125 67.125 m f
0 0.592157 0.654902 rg
192 40 m 190.492 40.008 188.984 40.145 187.5 40.402 c 200.555 42.59 210.117
 53.887 210.117 67.125 c 210.117 80.363 200.555 91.66 187.5 93.848 c 194.977
 95.102 202.637 93.172 208.625 88.52 c 214.613 83.867 218.379 76.922 219.012
 69.367 c 219.641 61.812 217.082 54.34 211.949 48.758 c 206.816 43.176 199.582
 40 192 40 c h
192 40 m f
0.364706 0.25098 0.215686 rg
132.75 321.75 118.5 28.5 re f
97 350.25 189.996 28.5 re f
0.298039 0.207843 0.180392 rg
287 350.25 9.375 28.5 re f
260.625 340.875 m 260.625 321.75 l 251.25 321.75 l 251.25 340.875 l 132.75
 340.875 l 132.75 321.75 l 123.375 321.75 l 123.375 340.875 l 29.25 340.875
 l 29.25 350.25 l 354.75 350.25 l 354.75 340.875 l h
260.625 340.875 m f
87.625 350.25 9.375 28.5 re f
Q Q
showpage
%%Trailer
end
%%EOF
