%!PS-Adobe-3.0 EPSF-3.0
%%Creator: cairo 1.16.0 (https://cairographics.org)
%%CreationDate: Fri Jul 19 07:40:20 2019
%%Pages: 1
%%DocumentData: Clean7Bit
%%LanguageLevel: 2
%%BoundingBox: 5 5 379 379
%%EndComments
%%BeginProlog
50 dict begin
/q { gsave } bind def
/Q { grestore } bind def
/cm { 6 array astore concat } bind def
/w { setlinewidth } bind def
/J { setlinecap } bind def
/j { setlinejoin } bind def
/M { setmiterlimit } bind def
/d { setdash } bind def
/m { moveto } bind def
/l { lineto } bind def
/c { curveto } bind def
/h { closepath } bind def
/re { exch dup neg 3 1 roll 5 3 roll moveto 0 rlineto
      0 exch rlineto 0 rlineto closepath } bind def
/S { stroke } bind def
/f { fill } bind def
/f* { eofill } bind def
/n { newpath } bind def
/W { clip } bind def
/W* { eoclip } bind def
/BT { } bind def
/ET { } bind def
/BDC { mark 3 1 roll /BDC pdfmark } bind def
/EMC { mark /EMC pdfmark } bind def
/cairo_store_point { /cairo_point_y exch def /cairo_point_x exch def } def
/Tj { show currentpoint cairo_store_point } bind def
/TJ {
  {
    dup
    type /stringtype eq
    { show } { -0.001 mul 0 cairo_font_matrix dtransform rmoveto } ifelse
  } forall
  currentpoint cairo_store_point
} bind def
/cairo_selectfont { cairo_font_matrix aload pop pop pop 0 0 6 array astore
    cairo_font exch selectfont cairo_point_x cairo_point_y moveto } bind def
/Tf { pop /cairo_font exch def /cairo_font_matrix where
      { pop cairo_selectfont } if } bind def
/Td { matrix translate cairo_font_matrix matrix concatmatrix dup
      /cairo_font_matrix exch def dup 4 get exch 5 get cairo_store_point
      /cairo_font where { pop cairo_selectfont } if } bind def
/Tm { 2 copy 8 2 roll 6 array astore /cairo_font_matrix exch def
      cairo_store_point /cairo_font where { pop cairo_selectfont } if } bind def
/g { setgray } bind def
/rg { setrgbcolor } bind def
/d1 { setcachedevice } bind def
/cairo_data_source {
  CairoDataIndex CairoData length lt
    { CairoData CairoDataIndex get /CairoDataIndex CairoDataIndex 1 add def }
    { () } ifelse
} def
/cairo_flush_ascii85_file { cairo_ascii85_file status { cairo_ascii85_file flushfile } if } def
/cairo_image { image cairo_flush_ascii85_file } def
/cairo_imagemask { imagemask cairo_flush_ascii85_file } def
%%EndProlog
%%BeginSetup
%%EndSetup
%%Page: 1 1
%%BeginPageSetup
%%PageBoundingBox: 5 5 379 379
%%EndPageSetup
q 5 5 374 374 rectclip
1 0 0 -1 0 384 cm q
0.364706 0.25098 0.215686 rg
5.25 345.75 373.5 33 re f
0.984314 0.54902 0 rg
42.75 278 33 67.75 re f
42.75 133.996 33 41.004 re f
0.937255 0.423529 0 rg
42.75 134 33 18.75 re f
0.984314 0.54902 0 rg
42.75 5.254 33 25.75 re f
308.25 278 33 67.75 re f
308.25 133.996 33 41.004 re f
308.25 5.254 33 25.75 re f
1 0.792157 0.564706 rg
5.25 175 373.5 102.996 re f
5.25 31 373.5 102.996 re f
0.866667 0.662745 0.462745 rg
5.25 31 m 5.25 43 l 348.75 43 l 358.691 43 366.75 51.059 366.75 61 c 366.75
 134 l 378.75 134 l 378.75 31 l h
5.25 31 m f
0 0.67451 0.756863 rg
63.5 134 m 19 134 l 79 31 l 123.5 31 l h
63.5 134 m f
305 134 m 260.5 134 l 320.5 31 l 365 31 l h
305 134 m f
0 0.592157 0.654902 rg
348.75 43 m 351.574 43 354.359 43.668 356.875 44.953 c 365 31 l 320.5 31
 l 313.508 43 l h
348.75 43 m f
0 0.67451 0.756863 rg
184.25 134 m 139.75 134 l 199.75 31 l 244.25 31 l h
184.25 134 m f
0 0.592157 0.654902 rg
237.262 43 m 244.25 31 l 199.75 31 l 192.758 43 l h
237.262 43 m f
116.512 43 m 123.5 31 l 79 31 l 72.008 43 l h
116.512 43 m f
0 0.67451 0.756863 rg
63.5 278 m 19 278 l 79 175 l 123.5 175 l h
63.5 278 m f
305 278 m 260.5 278 l 320.5 175 l 365 175 l h
305 278 m f
184.25 278 m 139.75 278 l 199.75 175 l 244.25 175 l h
184.25 278 m f
0.866667 0.662745 0.462745 rg
5.25 175 m 5.25 187 l 348.75 187 l 358.691 187 366.75 195.059 366.75 205
 c 366.75 278 l 378.75 278 l 378.75 175 l h
5.25 175 m f
0 0.592157 0.654902 rg
348.75 187 m 351.574 187 354.359 187.668 356.875 188.953 c 365 175 l 320.5
 175 l 313.508 187 l h
348.75 187 m f
237.262 187 m 244.25 175 l 199.75 175 l 192.758 187 l h
237.262 187 m f
116.512 187 m 123.5 175 l 79 175 l 72.008 187 l h
116.512 187 m f
0.937255 0.423529 0 rg
308.25 134 33 18.75 re f
42.75 278 33 18.75 re f
308.25 278 33 18.75 re f
Q Q
showpage
%%Trailer
end
%%EOF
