%!PS-Adobe-3.0 EPSF-3.0
%%Creator: cairo 1.16.0 (https://cairographics.org)
%%CreationDate: Fri Jul 19 07:40:20 2019
%%Pages: 1
%%DocumentData: Clean7Bit
%%LanguageLevel: 2
%%BoundingBox: 5 22 379 362
%%EndComments
%%BeginProlog
50 dict begin
/q { gsave } bind def
/Q { grestore } bind def
/cm { 6 array astore concat } bind def
/w { setlinewidth } bind def
/J { setlinecap } bind def
/j { setlinejoin } bind def
/M { setmiterlimit } bind def
/d { setdash } bind def
/m { moveto } bind def
/l { lineto } bind def
/c { curveto } bind def
/h { closepath } bind def
/re { exch dup neg 3 1 roll 5 3 roll moveto 0 rlineto
      0 exch rlineto 0 rlineto closepath } bind def
/S { stroke } bind def
/f { fill } bind def
/f* { eofill } bind def
/n { newpath } bind def
/W { clip } bind def
/W* { eoclip } bind def
/BT { } bind def
/ET { } bind def
/BDC { mark 3 1 roll /BDC pdfmark } bind def
/EMC { mark /EMC pdfmark } bind def
/cairo_store_point { /cairo_point_y exch def /cairo_point_x exch def } def
/Tj { show currentpoint cairo_store_point } bind def
/TJ {
  {
    dup
    type /stringtype eq
    { show } { -0.001 mul 0 cairo_font_matrix dtransform rmoveto } ifelse
  } forall
  currentpoint cairo_store_point
} bind def
/cairo_selectfont { cairo_font_matrix aload pop pop pop 0 0 6 array astore
    cairo_font exch selectfont cairo_point_x cairo_point_y moveto } bind def
/Tf { pop /cairo_font exch def /cairo_font_matrix where
      { pop cairo_selectfont } if } bind def
/Td { matrix translate cairo_font_matrix matrix concatmatrix dup
      /cairo_font_matrix exch def dup 4 get exch 5 get cairo_store_point
      /cairo_font where { pop cairo_selectfont } if } bind def
/Tm { 2 copy 8 2 roll 6 array astore /cairo_font_matrix exch def
      cairo_store_point /cairo_font where { pop cairo_selectfont } if } bind def
/g { setgray } bind def
/rg { setrgbcolor } bind def
/d1 { setcachedevice } bind def
/cairo_data_source {
  CairoDataIndex CairoData length lt
    { CairoData CairoDataIndex get /CairoDataIndex CairoDataIndex 1 add def }
    { () } ifelse
} def
/cairo_flush_ascii85_file { cairo_ascii85_file status { cairo_ascii85_file flushfile } if } def
/cairo_image { image cairo_flush_ascii85_file } def
/cairo_imagemask { imagemask cairo_flush_ascii85_file } def
%%EndProlog
%%BeginSetup
%%EndSetup
%%Page: 1 1
%%BeginPageSetup
%%PageBoundingBox: 5 22 379 362
%%EndPageSetup
q 5 22 374 340 rectclip
1 0 0 -1 0 384 cm q
0.364706 0.25098 0.215686 rg
131.477 128.387 29.996 18.152 re f
1 0.792157 0.564706 rg
146.477 298.844 m 152.449 298.844 158.18 301.219 162.406 305.445 c 166.633
 309.668 169.004 315.398 169.004 321.375 c 169.004 361.273 l 123.945 361.273
 l 123.945 321.375 l 123.945 308.934 134.031 298.844 146.477 298.844 c h
146.477 298.844 m f
0.866667 0.662745 0.462745 rg
146.477 298.844 m 145.473 298.852 144.469 298.926 143.477 299.066 c 154.652
 300.566 162.996 310.098 163.004 321.375 c 163.004 361.273 l 169.004 361.273
 l 169.004 321.375 l 169.004 308.934 158.918 298.848 146.477 298.844 c h
146.477 298.844 m f
0 0.67451 0.756863 rg
69.305 331.094 54.641 30.188 re f
169.004 331.094 54.641 30.188 re f
0 0.592157 0.654902 rg
169.004 331.094 m 169.004 337.094 l 199.641 337.094 l 209.582 337.094 217.641
 345.152 217.641 355.094 c 217.641 361.277 l 223.641 361.277 l 223.641 331.094
 l h
169.004 331.094 m f
69.301 331.094 m 69.301 337.094 l 99.938 337.094 l 109.879 337.094 117.938
 345.152 117.938 355.094 c 117.938 361.277 l 123.938 361.277 l 123.938 331.094
 l h
69.301 331.094 m f
0.364706 0.25098 0.215686 rg
5.25 200.457 m 19.332 231.977 54.602 252.27 89.129 252.27 c 91.617 252.27
 l 104.426 275.305 99.543 304.145 79.867 321.68 c 69.305 331.094 l 123.945
 331.094 l 123.945 321.379 l 123.945 315.402 126.32 309.672 130.543 305.445
 c 134.77 301.223 140.5 298.848 146.477 298.848 c 152.449 298.848 158.18
 301.223 162.406 305.445 c 166.633 309.672 169.004 315.402 169.004 321.379
 c 169.004 331.094 l 223.645 331.094 l 207.676 301.91 l 200.738 289.238 
200.238 274.023 206.328 260.922 c 212.418 247.82 224.371 238.395 238.531
 235.523 c 283.727 226.363 l 283.727 200.457 l h
5.25 200.457 m f
0.298039 0.207843 0.180392 rg
202.094 280.02 m 202.117 266.742 207.945 254.137 218.051 245.52 c 207.059
 251.074 198.789 260.848 195.133 272.613 c 191.48 284.375 192.758 297.117
 198.668 307.922 c 211.352 331.098 l 223.652 331.098 l 207.684 301.918 l
 204.008 295.203 202.086 287.672 202.094 280.02 c h
202.094 280.02 m f
114.938 327.383 m 114.938 331.094 l 123.938 331.094 l 123.938 321.379 l
 123.938 315.754 126.051 310.336 129.855 306.199 c 120.914 309.406 114.945
 317.879 114.938 327.383 c h
114.938 327.383 m f
91.617 200.457 m 5.25 200.457 l 6.168 202.508 7.184 204.508 8.27 206.457
 c 23.93 234.523 56.852 252.27 89.129 252.27 c 91.617 252.27 l 91.617 206.461
 l 252.988 206.461 l 264.988 206.461 274.715 216.188 274.715 228.188 c 283.715
 226.359 l 283.715 200.457 l h
91.617 200.457 m f
0.984314 0.54902 0 rg
178.117 80.125 200.633 31.043 re f
0.937255 0.423529 0 rg
178.117 80.125 m 178.117 86.125 l 347.699 86.125 l 354.34 86.125 360.711
 88.762 365.406 93.457 c 370.102 98.152 372.738 104.523 372.738 111.16 c
 378.738 111.16 l 378.738 80.125 l h
178.117 80.125 m f
0 0.67451 0.756863 rg
114.832 111.168 m 131.477 128.387 l 161.477 128.387 l 178.117 111.168 l
 178.117 80.125 l 161.477 62.902 l 131.477 62.902 l 114.832 80.125 l h
114.832 111.168 m f
0 0.592157 0.654902 rg
161.477 62.902 m 131.477 62.902 l 125.672 68.906 l 152.469 68.906 l 169.113
 86.129 l 169.113 117.172 l 158.27 128.387 l 161.477 128.387 l 178.117 111.168
 l 178.117 80.125 l h
161.477 62.902 m f
0.364706 0.25098 0.215686 rg
131.477 44.746 29.996 18.156 re f
0.298039 0.207843 0.180392 rg
131.477 44.746 m 131.477 50.746 l 143.477 50.746 l 150.105 50.746 155.477
 56.121 155.477 62.746 c 155.477 62.898 l 161.477 62.898 l 161.477 44.746
 l h
131.477 44.746 m f
131.477 128.398 m 131.477 134.398 l 143.477 134.398 l 150.105 134.398 155.477
 139.773 155.477 146.398 c 155.477 146.551 l 161.477 146.551 l 161.477 128.398
 l h
131.477 128.398 m f
0 0.67451 0.756863 rg
121.719 22.719 m 171.23 22.719 l 175.047 22.719 178.117 25.793 178.117 
29.605 c 178.117 37.859 l 178.117 41.676 175.047 44.746 171.23 44.746 c 
121.719 44.746 l 117.902 44.746 114.832 41.676 114.832 37.859 c 114.832 
29.605 l 114.832 25.793 117.902 22.719 121.719 22.719 c h
121.719 22.719 m f
0 0.592157 0.654902 rg
171.23 22.719 m 121.73 22.719 l 118.238 22.715 115.297 25.332 114.898 28.801
 c 115.168 28.758 115.434 28.73 115.703 28.719 c 165.203 28.719 l 169.016
 28.719 172.105 31.809 172.105 35.617 c 172.105 43.871 l 172.094 44.141 
172.066 44.41 172.023 44.676 c 175.484 44.281 178.102 41.355 178.109 37.867
 c 178.109 29.605 l 178.102 25.809 175.027 22.73 171.23 22.719 c h
171.23 22.719 m f
0 0.67451 0.756863 rg
121.719 146.539 m 171.23 146.539 l 175.047 146.539 178.117 149.613 178.117
 153.43 c 178.117 161.684 l 178.117 165.496 175.047 168.57 171.23 168.57
 c 121.719 168.57 l 117.902 168.57 114.832 165.496 114.832 161.684 c 114.832
 153.43 l 114.832 149.613 117.902 146.539 121.719 146.539 c h
121.719 146.539 m f
1 0.792157 0.564706 rg
90.648 146.879 m 89.254 146.879 87.918 146.324 86.938 145.34 c 73.855 132.258
 l 68.906 127.309 76.332 119.883 81.281 124.832 c 94.363 137.914 l 97.668
 141.219 95.324 146.871 90.652 146.875 c h
90.648 146.879 m f
75.398 166.746 m 74.48 166.746 73.574 166.504 72.781 166.039 c 56.758 156.793
 l 54.223 155.352 53.348 152.125 54.805 149.602 c 56.262 147.082 59.492 
146.227 62.008 147.699 c 78.031 156.949 l 82.688 159.633 80.777 166.754 
75.398 166.746 c h
75.398 166.746 m f
202.305 146.879 m 197.633 146.871 195.297 141.223 198.602 137.914 c 211.68
 124.836 l 216.629 119.887 224.055 127.312 219.105 132.262 c 206.023 145.34
 l 205.039 146.328 203.699 146.883 202.305 146.879 c h
202.305 146.879 m f
217.559 166.746 m 212.18 166.754 210.27 159.633 214.926 156.949 c 230.945
 147.699 l 236.992 144.262 242.195 153.273 236.195 156.793 c 220.176 166.039
 l 219.379 166.504 218.477 166.746 217.559 166.746 c h
217.559 166.746 m f
0 0.592157 0.654902 rg
171.23 146.539 m 121.73 146.539 l 118.238 146.535 115.297 149.156 114.898
 152.629 c 115.168 152.586 115.434 152.559 115.703 152.547 c 165.203 152.547
 l 169.016 152.547 172.105 155.637 172.105 159.445 c 172.105 167.699 l 172.094
 167.969 172.066 168.238 172.023 168.504 c 175.484 168.109 178.102 165.184
 178.109 161.695 c 178.109 153.434 l 178.105 149.633 175.031 146.551 171.23
 146.539 c h
171.23 146.539 m f
Q Q
showpage
%%Trailer
end
%%EOF
