%!PS-Adobe-3.0 EPSF-3.0
%%Creator: cairo 1.16.0 (https://cairographics.org)
%%CreationDate: Fri Jul 19 07:40:20 2019
%%Pages: 1
%%DocumentData: Clean7Bit
%%LanguageLevel: 2
%%BoundingBox: 24 5 360 379
%%EndComments
%%BeginProlog
50 dict begin
/q { gsave } bind def
/Q { grestore } bind def
/cm { 6 array astore concat } bind def
/w { setlinewidth } bind def
/J { setlinecap } bind def
/j { setlinejoin } bind def
/M { setmiterlimit } bind def
/d { setdash } bind def
/m { moveto } bind def
/l { lineto } bind def
/c { curveto } bind def
/h { closepath } bind def
/re { exch dup neg 3 1 roll 5 3 roll moveto 0 rlineto
      0 exch rlineto 0 rlineto closepath } bind def
/S { stroke } bind def
/f { fill } bind def
/f* { eofill } bind def
/n { newpath } bind def
/W { clip } bind def
/W* { eoclip } bind def
/BT { } bind def
/ET { } bind def
/BDC { mark 3 1 roll /BDC pdfmark } bind def
/EMC { mark /EMC pdfmark } bind def
/cairo_store_point { /cairo_point_y exch def /cairo_point_x exch def } def
/Tj { show currentpoint cairo_store_point } bind def
/TJ {
  {
    dup
    type /stringtype eq
    { show } { -0.001 mul 0 cairo_font_matrix dtransform rmoveto } ifelse
  } forall
  currentpoint cairo_store_point
} bind def
/cairo_selectfont { cairo_font_matrix aload pop pop pop 0 0 6 array astore
    cairo_font exch selectfont cairo_point_x cairo_point_y moveto } bind def
/Tf { pop /cairo_font exch def /cairo_font_matrix where
      { pop cairo_selectfont } if } bind def
/Td { matrix translate cairo_font_matrix matrix concatmatrix dup
      /cairo_font_matrix exch def dup 4 get exch 5 get cairo_store_point
      /cairo_font where { pop cairo_selectfont } if } bind def
/Tm { 2 copy 8 2 roll 6 array astore /cairo_font_matrix exch def
      cairo_store_point /cairo_font where { pop cairo_selectfont } if } bind def
/g { setgray } bind def
/rg { setrgbcolor } bind def
/d1 { setcachedevice } bind def
/cairo_data_source {
  CairoDataIndex CairoData length lt
    { CairoData CairoDataIndex get /CairoDataIndex CairoDataIndex 1 add def }
    { () } ifelse
} def
/cairo_flush_ascii85_file { cairo_ascii85_file status { cairo_ascii85_file flushfile } if } def
/cairo_image { image cairo_flush_ascii85_file } def
/cairo_imagemask { imagemask cairo_flush_ascii85_file } def
%%EndProlog
%%BeginSetup
%%EndSetup
%%Page: 1 1
%%BeginPageSetup
%%PageBoundingBox: 24 5 360 379
%%EndPageSetup
q 24 5 336 374 rectclip
1 0 0 -1 0 384 cm q
0.984314 0.54902 0 rg
171.875 47.25 m 171.875 191.852 l 171.875 204.039 164.5 215.016 153.215
 219.625 c 43.598 264.383 l 32.312 268.988 24.938 279.965 24.938 292.156
 c 24.938 339.75 l 339.188 339.75 l 339.188 47.25 l h
171.875 47.25 m f
0.937255 0.423529 0 rg
171.875 47.25 m 171.875 59.25 l 306.176 59.25 l 316.117 59.25 324.176 67.309
 324.176 77.25 c 324.176 339.75 l 339.176 339.75 l 339.176 47.25 l h
171.875 47.25 m f
0.364706 0.25098 0.215686 rg
339.18 339.75 m 339.18 378.75 l 277.051 378.75 l 255 362.25 l 227.012 362.25
 l 198.57 378.75 l 24.93 378.75 l 24.93 339.75 l h
339.18 339.75 m f
0 0.67451 0.756863 rg
339.188 250.875 m 290.102 250.875 250.312 290.664 250.312 339.75 c 339.188
 339.75 l h
339.188 250.875 m f
0.298039 0.207843 0.180392 rg
56.43 359.25 m 56.43 378.75 l 45.93 378.75 l 45.93 359.25 l 45.93 352.25
 56.43 352.25 56.43 359.25 c h
56.43 359.25 m f
87.18 359.25 m 87.18 378.75 l 76.68 378.75 l 76.68 359.25 l 76.68 352.25
 87.18 352.25 87.18 359.25 c h
87.18 359.25 m f
117.93 359.25 m 117.93 378.75 l 107.43 378.75 l 107.43 359.25 l 107.43 
352.25 117.93 352.25 117.93 359.25 c h
117.93 359.25 m f
148.68 359.25 m 148.68 378.75 l 138.18 378.75 l 138.18 359.25 l 138.18 
352.25 148.68 352.25 148.68 359.25 c h
148.68 359.25 m f
179.43 359.25 m 179.43 378.75 l 168.93 378.75 l 168.93 359.25 l 168.93 
352.25 179.43 352.25 179.43 359.25 c h
179.43 359.25 m f
296.191 359.25 m 296.191 378.75 l 285.691 378.75 l 285.691 359.25 l 285.691
 352.25 296.191 352.25 296.191 359.25 c h
296.191 359.25 m f
321.449 359.25 m 321.449 378.75 l 310.949 378.75 l 310.949 359.25 l 310.949
 352.25 321.449 352.25 321.449 359.25 c h
321.449 359.25 m f
0.364706 0.25098 0.215686 rg
164 5.25 m 347.062 5.25 l 353.711 5.25 359.062 10.602 359.062 17.25 c 359.062
 35.25 l 359.062 41.898 353.711 47.25 347.062 47.25 c 164 47.25 l 157.352
 47.25 152 41.898 152 35.25 c 152 17.25 l 152 10.602 157.352 5.25 164 5.25
 c h
164 5.25 m f
0.298039 0.207843 0.180392 rg
347.062 5.25 m 164 5.25 l 158.543 5.258 153.781 8.961 152.426 14.25 c 335.055
 14.25 l 341.684 14.25 347.055 19.621 347.055 26.25 c 347.055 44.25 l 347.043
 45.266 346.898 46.273 346.633 47.25 c 347.062 47.25 l 353.691 47.25 359.062
 41.879 359.062 35.25 c 359.062 17.25 l 359.062 14.066 357.801 11.016 355.547
 8.762 c 353.297 6.512 350.242 5.25 347.062 5.25 c h
347.062 5.25 m f
1 0.792157 0.564706 rg
254.578 312.492 m 231.656 298.914 205.508 291.75 178.867 291.75 c 132.367
 291.75 l 120.383 291.754 108.895 286.996 100.418 278.523 c 91.945 270.055
 87.188 258.562 87.188 246.582 c 43.586 264.387 l 32.301 268.992 24.93 279.969
 24.938 292.156 c 24.938 339.75 l 250.312 339.75 l 250.309 330.52 251.742
 321.34 254.566 312.551 c h
254.578 312.492 m f
171.875 76.863 48.129 19.648 re f
171.875 118.352 48.129 19.648 re f
171.875 159.844 48.129 19.645 re f
0 0.592157 0.654902 rg
324.176 339.75 m 339.176 339.75 l 339.176 250.875 l 334.148 250.883 329.129
 251.312 324.176 252.16 c h
324.176 339.75 m f
Q Q
showpage
%%Trailer
end
%%EOF
