%!PS-Adobe-3.0 EPSF-3.0
%%Creator: cairo 1.16.0 (https://cairographics.org)
%%CreationDate: Fri Jul 19 07:40:20 2019
%%Pages: 1
%%DocumentData: Clean7Bit
%%LanguageLevel: 2
%%BoundingBox: 23 5 360 379
%%EndComments
%%BeginProlog
50 dict begin
/q { gsave } bind def
/Q { grestore } bind def
/cm { 6 array astore concat } bind def
/w { setlinewidth } bind def
/J { setlinecap } bind def
/j { setlinejoin } bind def
/M { setmiterlimit } bind def
/d { setdash } bind def
/m { moveto } bind def
/l { lineto } bind def
/c { curveto } bind def
/h { closepath } bind def
/re { exch dup neg 3 1 roll 5 3 roll moveto 0 rlineto
      0 exch rlineto 0 rlineto closepath } bind def
/S { stroke } bind def
/f { fill } bind def
/f* { eofill } bind def
/n { newpath } bind def
/W { clip } bind def
/W* { eoclip } bind def
/BT { } bind def
/ET { } bind def
/BDC { mark 3 1 roll /BDC pdfmark } bind def
/EMC { mark /EMC pdfmark } bind def
/cairo_store_point { /cairo_point_y exch def /cairo_point_x exch def } def
/Tj { show currentpoint cairo_store_point } bind def
/TJ {
  {
    dup
    type /stringtype eq
    { show } { -0.001 mul 0 cairo_font_matrix dtransform rmoveto } ifelse
  } forall
  currentpoint cairo_store_point
} bind def
/cairo_selectfont { cairo_font_matrix aload pop pop pop 0 0 6 array astore
    cairo_font exch selectfont cairo_point_x cairo_point_y moveto } bind def
/Tf { pop /cairo_font exch def /cairo_font_matrix where
      { pop cairo_selectfont } if } bind def
/Td { matrix translate cairo_font_matrix matrix concatmatrix dup
      /cairo_font_matrix exch def dup 4 get exch 5 get cairo_store_point
      /cairo_font where { pop cairo_selectfont } if } bind def
/Tm { 2 copy 8 2 roll 6 array astore /cairo_font_matrix exch def
      cairo_store_point /cairo_font where { pop cairo_selectfont } if } bind def
/g { setgray } bind def
/rg { setrgbcolor } bind def
/d1 { setcachedevice } bind def
/cairo_data_source {
  CairoDataIndex CairoData length lt
    { CairoData CairoDataIndex get /CairoDataIndex CairoDataIndex 1 add def }
    { () } ifelse
} def
/cairo_flush_ascii85_file { cairo_ascii85_file status { cairo_ascii85_file flushfile } if } def
/cairo_image { image cairo_flush_ascii85_file } def
/cairo_imagemask { imagemask cairo_flush_ascii85_file } def
%%EndProlog
%%BeginSetup
%%EndSetup
%%Page: 1 1
%%BeginPageSetup
%%PageBoundingBox: 23 5 360 379
%%EndPageSetup
q 23 5 337 374 rectclip
1 0 0 -1 0 384 cm q
0.364706 0.25098 0.215686 rg
359.309 332.488 m 359.309 378.75 l 23.578 378.75 l 23.578 332.488 l 23.758
 297.688 50.332 268.711 84.988 265.531 c 116.969 262.441 l 142.68 313.5 
l 191.43 273.512 l 240.211 313.5 l 265.922 262.441 l 297.898 265.531 l 332.555
 268.711 359.133 297.688 359.309 332.488 c h
359.309 332.488 m f
0.298039 0.207843 0.180392 rg
297.898 265.531 m 265.922 262.441 l 262.344 269.543 l 282.898 271.531 l
 317.555 274.711 344.133 303.688 344.309 338.488 c 344.309 378.75 l 359.309
 378.75 l 359.309 332.488 l 359.133 297.688 332.555 268.711 297.898 265.531
 c h
297.898 265.531 m f
1 0.792157 0.564706 rg
233.664 242.902 m 230.336 217.172 l 207.234 234.285 175.656 234.285 152.555
 217.172 c 149.227 242.902 l 148.941 245.008 148.336 247.059 147.426 248.98
 c 191.457 273.5 l 235.488 248.98 l 234.57 247.059 233.957 245.008 233.664
 242.902 c h
233.664 242.902 m f
243.238 102.5 m 139.648 102.5 l 139.906 123.707 134.355 144.582 123.602
 162.859 c 127.004 178.285 l 127.426 180.16 127.918 181.996 128.477 183.805
 c 129.031 185.613 129.676 187.359 130.395 189.105 c 140.578 213.855 164.691
 230.008 191.457 230.008 c 218.219 230.008 242.332 213.855 252.516 189.105
 c 253.23 187.359 253.879 185.594 254.438 183.805 c 254.992 182.016 255.484
 180.16 255.91 178.285 c 259.312 162.859 l 248.547 144.582 242.988 123.711
 243.238 102.5 c h
243.238 102.5 m f
0.866667 0.662745 0.462745 rg
191.441 230.008 m 177.453 229.902 163.852 225.414 152.551 217.172 c 150.828
 230.477 l 163.035 237.914 177.035 241.898 191.328 242.012 c 191.527 242.012
 l 205.82 241.898 219.816 237.914 232.027 230.477 c 230.305 217.172 l 219.008
 225.406 205.418 229.895 191.441 230.008 c h
191.441 230.008 m f
1 0.792157 0.564706 rg
243.238 102.5 m 139.648 102.5 l 139.906 123.707 134.355 144.582 123.602
 162.859 c 127.004 178.285 l 127.426 180.16 127.918 181.996 128.477 183.805
 c 129.031 185.613 129.676 187.359 130.395 189.105 c 140.578 213.855 164.691
 230.008 191.457 230.008 c 218.219 230.008 242.332 213.855 252.516 189.105
 c 253.23 187.359 253.879 185.594 254.438 183.805 c 254.992 182.016 255.484
 180.16 255.91 178.285 c 259.312 162.859 l 248.547 144.582 242.988 123.711
 243.238 102.5 c h
243.238 102.5 m f
0.364706 0.25098 0.215686 rg
112.082 102.5 m 112.082 179.25 l 114.988 175.527 l 131.266 154.691 139.961
 128.938 139.648 102.5 c h
112.082 102.5 m f
1 0.792157 0.564706 rg
112.082 117.625 m 101.262 118.211 92.789 127.156 92.789 137.992 c 92.789
 148.832 101.262 157.777 112.082 158.363 c h
112.082 117.625 m f
0.364706 0.25098 0.215686 rg
198.695 160.199 m 192.758 160.199 l 189.734 160.207 186.855 158.891 184.883
 156.602 c 182.934 154.332 182.07 151.324 182.527 148.367 c 184.684 134.309
 l 185.078 131.402 187.781 129.383 190.68 129.828 c 193.582 130.273 195.555
 133.008 195.059 135.898 c 192.898 149.953 l 198.695 149.703 l 205.695 149.703
 205.695 160.203 198.695 160.203 c h
198.695 160.199 m f
193.574 197.25 m 190.426 197.25 l 178.734 197.301 168.164 190.309 163.637
 179.527 c 160.934 173.07 170.621 169.016 173.324 175.473 c 176.223 182.344
 182.969 186.793 190.426 186.75 c 193.578 186.75 l 201.035 186.793 207.781
 182.344 210.68 175.473 c 211.797 172.797 214.875 171.539 217.551 172.656
 c 220.223 173.777 221.484 176.855 220.363 179.527 c 215.84 190.309 205.266
 197.301 193.574 197.25 c h
193.574 197.25 m f
0.984314 0.54902 0 rg
135.777 242.5 m 191.441 273.5 l 142.684 313.5 l 112.082 252.75 l h
135.777 242.5 m f
0.298039 0.207843 0.180392 rg
75.359 348.512 m 75.359 378.75 l 64.859 378.75 l 64.859 348.512 l 64.859
 341.512 75.359 341.512 75.359 348.512 c h
75.359 348.512 m f
0.364706 0.25098 0.215686 rg
270.805 102.5 m 270.805 179.25 l 267.898 175.527 l 251.621 154.691 242.926
 128.938 243.238 102.5 c h
270.805 102.5 m f
1 0.792157 0.564706 rg
270.805 117.625 m 281.625 118.211 290.098 127.156 290.098 137.992 c 290.098
 148.832 281.625 157.777 270.805 158.363 c h
270.805 117.625 m f
0.984314 0.54902 0 rg
247.105 242.5 m 191.441 273.5 l 240.199 313.5 l 270.805 252.75 l h
247.105 242.5 m f
0.298039 0.207843 0.180392 rg
318.031 348.512 m 318.031 378.75 l 307.531 378.75 l 307.531 348.512 l 307.531
 341.512 318.031 341.512 318.031 348.512 c h
318.031 348.512 m f
1 0.792157 0.564706 rg
202.52 318.25 m 180.367 318.25 l 165.332 378.75 l 217.551 378.75 l h
202.52 318.25 m f
0 0.67451 0.756863 rg
191.441 273.5 m 165.332 294.918 l 180.367 318.25 l 202.52 318.25 l 217.551
 294.918 l h
191.441 273.5 m f
0.984314 0.54902 0 rg
191.441 79.5 m 45.949 79.5 l 76.301 102.5 l 306.59 102.5 l 336.938 79.5
 l h
191.441 79.5 m f
0.937255 0.423529 0 rg
191.441 79.5 m 45.941 79.5 l 53.859 85.5 l 289.16 85.5 l 293.027 85.5 296.461
 87.965 297.695 91.633 c 298.926 95.297 297.68 99.34 294.602 101.672 c 293.508
 102.5 l 306.602 102.5 l 336.938 79.5 l h
191.441 79.5 m f
0.364706 0.25098 0.215686 rg
245.582 5.25 m 230.336 5.25 l 191.441 34.828 l 152.547 5.25 l 137.301 5.25
 l 116.059 79.5 l 266.828 79.5 l h
245.582 5.25 m f
0.298039 0.207843 0.180392 rg
191.441 34.828 m 152.547 5.25 l 140.547 5.25 l 185.441 39.387 l h
191.441 34.828 m f
245.582 5.25 m 233.582 5.25 l 254.828 79.5 l 266.828 79.5 l h
245.582 5.25 m f
0 0.67451 0.756863 rg
244.371 120 m 207.578 120 l 207.578 128.188 l 175.309 128.188 l 175.309
 120 l 138.516 120 l 137.875 124.582 136.961 129.117 135.781 133.59 c 136.684
 141.184 143.133 146.898 150.781 146.875 c 160.137 146.875 l 165.797 146.875
 170.984 143.715 173.582 138.688 c 209.305 138.688 l 211.902 143.715 217.09
 146.875 222.75 146.875 c 232.109 146.875 l 239.758 146.898 246.207 141.184
 247.109 133.59 c 245.926 129.117 245.012 124.582 244.371 120 c h
244.371 120 m f
0.866667 0.662745 0.462745 rg
277.875 119.297 m 275.633 118.328 273.242 117.762 270.805 117.625 c 270.805
 158.363 l 273.242 158.227 275.633 157.66 277.875 156.691 c h
277.875 119.297 m f
105 119.297 m 107.242 118.328 109.633 117.762 112.07 117.625 c 112.07 158.363
 l 109.633 158.227 107.242 157.66 105 156.691 c h
105 119.297 m f
139.199 113.625 m 243.699 113.625 l 243.398 109.934 243.188 106.23 243.238
 102.5 c 139.648 102.5 l 139.695 106.23 139.5 109.934 139.199 113.625 c 
h
139.199 113.625 m f
0.298039 0.207843 0.180392 rg
139.648 102.5 m 112.082 102.5 l 112.082 113.625 l 139.234 113.625 l 139.543
 109.938 139.695 106.227 139.648 102.5 c h
139.648 102.5 m f
243.238 102.5 m 243.191 106.227 243.344 109.938 243.652 113.625 c 270.805
 113.625 l 270.805 102.5 l h
243.238 102.5 m f
Q Q
showpage
%%Trailer
end
%%EOF
