%!PS-Adobe-3.0 EPSF-3.0
%%Creator: cairo 1.16.0 (https://cairographics.org)
%%CreationDate: Fri Jul 19 07:40:21 2019
%%Pages: 1
%%DocumentData: Clean7Bit
%%LanguageLevel: 2
%%BoundingBox: 5 73 379 311
%%EndComments
%%BeginProlog
50 dict begin
/q { gsave } bind def
/Q { grestore } bind def
/cm { 6 array astore concat } bind def
/w { setlinewidth } bind def
/J { setlinecap } bind def
/j { setlinejoin } bind def
/M { setmiterlimit } bind def
/d { setdash } bind def
/m { moveto } bind def
/l { lineto } bind def
/c { curveto } bind def
/h { closepath } bind def
/re { exch dup neg 3 1 roll 5 3 roll moveto 0 rlineto
      0 exch rlineto 0 rlineto closepath } bind def
/S { stroke } bind def
/f { fill } bind def
/f* { eofill } bind def
/n { newpath } bind def
/W { clip } bind def
/W* { eoclip } bind def
/BT { } bind def
/ET { } bind def
/BDC { mark 3 1 roll /BDC pdfmark } bind def
/EMC { mark /EMC pdfmark } bind def
/cairo_store_point { /cairo_point_y exch def /cairo_point_x exch def } def
/Tj { show currentpoint cairo_store_point } bind def
/TJ {
  {
    dup
    type /stringtype eq
    { show } { -0.001 mul 0 cairo_font_matrix dtransform rmoveto } ifelse
  } forall
  currentpoint cairo_store_point
} bind def
/cairo_selectfont { cairo_font_matrix aload pop pop pop 0 0 6 array astore
    cairo_font exch selectfont cairo_point_x cairo_point_y moveto } bind def
/Tf { pop /cairo_font exch def /cairo_font_matrix where
      { pop cairo_selectfont } if } bind def
/Td { matrix translate cairo_font_matrix matrix concatmatrix dup
      /cairo_font_matrix exch def dup 4 get exch 5 get cairo_store_point
      /cairo_font where { pop cairo_selectfont } if } bind def
/Tm { 2 copy 8 2 roll 6 array astore /cairo_font_matrix exch def
      cairo_store_point /cairo_font where { pop cairo_selectfont } if } bind def
/g { setgray } bind def
/rg { setrgbcolor } bind def
/d1 { setcachedevice } bind def
/cairo_data_source {
  CairoDataIndex CairoData length lt
    { CairoData CairoDataIndex get /CairoDataIndex CairoDataIndex 1 add def }
    { () } ifelse
} def
/cairo_flush_ascii85_file { cairo_ascii85_file status { cairo_ascii85_file flushfile } if } def
/cairo_image { image cairo_flush_ascii85_file } def
/cairo_imagemask { imagemask cairo_flush_ascii85_file } def
%%EndProlog
%%BeginSetup
%%EndSetup
%%Page: 1 1
%%BeginPageSetup
%%PageBoundingBox: 5 73 379 311
%%EndPageSetup
q 5 73 374 238 rectclip
1 0 0 -1 0 384 cm q
0.364706 0.25098 0.215686 rg
348.75 108.188 m 255 108.188 l 255 266.062 l 256.094 266.062 l 260.035 
250.199 274.281 239.062 290.625 239.062 c 306.969 239.062 321.215 250.199
 325.156 266.062 c 378.75 266.062 l 378.75 173.625 l h
348.75 108.188 m f
0.298039 0.207843 0.180392 rg
348.75 108.188 m 255 108.188 l 255 117.188 l 339.75 117.188 l 369.75 182.625
 l 369.75 266.062 l 378.75 266.062 l 378.75 173.625 l h
348.75 108.188 m f
0 0.67451 0.756863 rg
5.25 73.688 249.75 165.375 re f
0 0.592157 0.654902 rg
5.25 73.688 m 5.25 85.688 l 225 85.688 l 229.773 85.688 234.352 87.586 
237.727 90.961 c 241.105 94.336 243 98.914 243 103.688 c 243 239.062 l 255
 239.062 l 255 73.688 l h
5.25 73.688 m f
1 0.792157 0.564706 rg
355.648 173.625 m 335.277 129.188 l 276 129.188 l 276 173.625 l h
355.648 173.625 m f
0.866667 0.662745 0.462745 rg
331.09 148.688 m 342.523 173.625 l 355.648 173.625 l 335.273 129.188 l 
276 129.188 l 276 138.188 l 314.727 138.188 l 321.766 138.188 328.156 142.289
 331.09 148.688 c h
331.09 148.688 m f
0.984314 0.54902 0 rg
358.25 200.188 20.5 20.5 re f
0.937255 0.423529 0 rg
369.75 200.188 9 20.5 re f
0.984314 0.54902 0 rg
326.25 274.688 m 326.25 294.363 310.301 310.312 290.625 310.312 c 270.949
 310.312 255 294.363 255 274.688 c 255 255.016 270.949 239.062 290.625 239.062
 c 310.301 239.062 326.25 255.016 326.25 274.688 c h
326.25 274.688 m f
103.855 274.688 m 103.855 294.363 87.902 310.312 68.23 310.312 c 48.555
 310.312 32.605 294.363 32.605 274.688 c 32.605 255.016 48.555 239.062 68.23
 239.062 c 87.902 239.062 103.855 255.016 103.855 274.688 c h
103.855 274.688 m f
0.364706 0.25098 0.215686 rg
306.375 274.688 m 306.375 283.387 299.324 290.438 290.625 290.438 c 281.926
 290.438 274.875 283.387 274.875 274.688 c 274.875 265.992 281.926 258.938
 290.625 258.938 c 299.324 258.938 306.375 265.992 306.375 274.688 c h
306.375 274.688 m f
0.298039 0.207843 0.180392 rg
290.625 258.938 m 289.617 258.941 288.613 259.043 287.625 259.238 c 295.035
 260.66 300.391 267.145 300.391 274.688 c 300.391 282.234 295.035 288.719
 287.625 290.141 c 291.98 290.984 296.492 289.953 300.047 287.297 c 303.602
 284.641 305.871 280.605 306.293 276.191 c 306.719 271.773 305.262 267.383
 302.277 264.098 c 299.293 260.812 295.062 258.941 290.625 258.938 c h
290.625 258.938 m f
0.364706 0.25098 0.215686 rg
83.98 274.688 m 83.98 283.387 76.926 290.438 68.23 290.438 c 59.531 290.438
 52.48 283.387 52.48 274.688 c 52.48 265.992 59.531 258.938 68.23 258.938
 c 76.926 258.938 83.98 265.992 83.98 274.688 c h
83.98 274.688 m f
1 0.792157 0.564706 rg
5.25 266.062 m 33.699 266.062 l 37.648 250.207 51.887 239.074 68.23 239.062
 c 5.25 239.062 l h
5.25 266.062 m f
68.23 239.062 m 84.57 239.074 98.809 250.207 102.758 266.062 c 255 266.062
 l 255 239.062 l h
68.23 239.062 m f
0.298039 0.207843 0.180392 rg
68.23 258.938 m 67.223 258.941 66.219 259.043 65.23 259.238 c 72.641 260.66
 77.996 267.145 77.996 274.688 c 77.996 282.234 72.641 288.719 65.23 290.141
 c 69.586 290.984 74.094 289.953 77.648 287.297 c 81.203 284.641 83.473 
280.605 83.898 276.191 c 84.324 271.773 82.863 267.383 79.879 264.098 c 
76.898 260.812 72.668 258.941 68.23 258.938 c h
68.23 258.938 m f
0.866667 0.662745 0.462745 rg
243 239.062 12 27 re f
Q Q
showpage
%%Trailer
end
%%EOF
