%!PS-Adobe-3.0 EPSF-3.0
%%Creator: cairo 1.16.0 (https://cairographics.org)
%%CreationDate: Fri Jul 19 07:40:21 2019
%%Pages: 1
%%DocumentData: Clean7Bit
%%LanguageLevel: 2
%%BoundingBox: 26 5 358 379
%%EndComments
%%BeginProlog
50 dict begin
/q { gsave } bind def
/Q { grestore } bind def
/cm { 6 array astore concat } bind def
/w { setlinewidth } bind def
/J { setlinecap } bind def
/j { setlinejoin } bind def
/M { setmiterlimit } bind def
/d { setdash } bind def
/m { moveto } bind def
/l { lineto } bind def
/c { curveto } bind def
/h { closepath } bind def
/re { exch dup neg 3 1 roll 5 3 roll moveto 0 rlineto
      0 exch rlineto 0 rlineto closepath } bind def
/S { stroke } bind def
/f { fill } bind def
/f* { eofill } bind def
/n { newpath } bind def
/W { clip } bind def
/W* { eoclip } bind def
/BT { } bind def
/ET { } bind def
/BDC { mark 3 1 roll /BDC pdfmark } bind def
/EMC { mark /EMC pdfmark } bind def
/cairo_store_point { /cairo_point_y exch def /cairo_point_x exch def } def
/Tj { show currentpoint cairo_store_point } bind def
/TJ {
  {
    dup
    type /stringtype eq
    { show } { -0.001 mul 0 cairo_font_matrix dtransform rmoveto } ifelse
  } forall
  currentpoint cairo_store_point
} bind def
/cairo_selectfont { cairo_font_matrix aload pop pop pop 0 0 6 array astore
    cairo_font exch selectfont cairo_point_x cairo_point_y moveto } bind def
/Tf { pop /cairo_font exch def /cairo_font_matrix where
      { pop cairo_selectfont } if } bind def
/Td { matrix translate cairo_font_matrix matrix concatmatrix dup
      /cairo_font_matrix exch def dup 4 get exch 5 get cairo_store_point
      /cairo_font where { pop cairo_selectfont } if } bind def
/Tm { 2 copy 8 2 roll 6 array astore /cairo_font_matrix exch def
      cairo_store_point /cairo_font where { pop cairo_selectfont } if } bind def
/g { setgray } bind def
/rg { setrgbcolor } bind def
/d1 { setcachedevice } bind def
/cairo_data_source {
  CairoDataIndex CairoData length lt
    { CairoData CairoDataIndex get /CairoDataIndex CairoDataIndex 1 add def }
    { () } ifelse
} def
/cairo_flush_ascii85_file { cairo_ascii85_file status { cairo_ascii85_file flushfile } if } def
/cairo_image { image cairo_flush_ascii85_file } def
/cairo_imagemask { imagemask cairo_flush_ascii85_file } def
%%EndProlog
%%BeginSetup
%%EndSetup
%%Page: 1 1
%%BeginPageSetup
%%PageBoundingBox: 26 5 358 379
%%EndPageSetup
q 26 5 332 374 rectclip
1 0 0 -1 0 384 cm q
0 0.67451 0.756863 rg
145.348 5.25 131.578 139.75 re f
0 0.592157 0.654902 rg
259.578 145 m 259.578 55.719 l 252.547 55.719 245.805 52.926 240.832 47.953
 c 235.859 42.98 233.066 36.238 233.066 29.207 c 189.203 29.207 l 189.203
 36.238 186.41 42.98 181.438 47.953 c 176.469 52.926 169.723 55.719 162.691
 55.719 c 162.691 145 l h
259.578 145 m f
1 0.792157 0.564706 rg
249.496 145 m 260.773 130.375 262.754 110.617 254.605 94.047 c 246.457 
77.477 229.602 66.98 211.137 66.98 c 192.672 66.98 175.812 77.477 167.664
 94.047 c 159.52 110.617 161.5 130.375 172.773 145 c h
249.496 145 m f
0 0.67451 0.756863 rg
133.172 145 m 113.523 66.551 l 77.969 86.238 l 110.504 145 l h
133.172 145 m f
0 0.592157 0.654902 rg
145.348 145 m 145.348 27.406 l 106.18 37.215 l 133.172 145 l h
145.348 145 m f
1 0.792157 0.564706 rg
252.438 226.324 m 347.316 226.324 l 353.223 226.324 357.98 231.078 357.98
 236.988 c 357.98 286.762 l 357.98 292.668 353.223 297.426 347.316 297.426
 c 252.438 297.426 l 246.531 297.426 241.773 292.668 241.773 286.762 c 241.773
 236.988 l 241.773 231.078 246.531 226.324 252.438 226.324 c h
252.438 226.324 m f
0.866667 0.662745 0.462745 rg
347.316 226.324 m 252.438 226.324 l 249.605 226.324 246.895 227.449 244.891
 229.449 c 242.891 231.453 241.77 234.168 241.773 237 c 241.773 238.336 
l 335.316 238.336 l 338.145 238.336 340.855 239.457 342.855 241.457 c 344.855
 243.457 345.98 246.172 345.98 249 c 345.98 297.426 l 347.316 297.426 l 
350.145 297.426 352.855 296.301 354.855 294.301 c 356.855 292.301 357.98
 289.59 357.98 286.762 c 357.98 237 l 357.984 234.168 356.863 231.453 354.863
 229.449 c 352.859 227.449 350.148 226.324 347.316 226.324 c h
347.316 226.324 m f
0.984314 0.54902 0 rg
291.211 261.875 m 291.211 269.547 284.992 275.762 277.324 275.762 c 269.652
 275.762 263.438 269.547 263.438 261.875 c 263.438 254.207 269.652 247.988
 277.324 247.988 c 284.992 247.988 291.211 254.207 291.211 261.875 c h
291.211 261.875 m f
0.364706 0.25098 0.215686 rg
328.859 161.012 m 328.859 226.32 l 252.449 226.32 l 249.617 226.316 246.898
 227.441 244.895 229.445 c 242.891 231.449 241.766 234.168 241.77 237 c 
241.77 286.77 l 241.773 289.598 242.898 292.312 244.902 294.309 c 246.906
 296.305 249.621 297.426 252.449 297.422 c 328.859 297.422 l 328.859 362.762
 l 328.863 367 327.176 371.07 324.18 374.07 c 321.18 377.066 317.109 378.75
 312.871 378.75 c 42.031 378.75 l 33.191 378.754 26.023 371.598 26.012 362.762
 c 26.012 161.012 l 26.008 156.762 27.695 152.688 30.703 149.68 c 33.707
 146.676 37.781 144.988 42.031 144.988 c 312.871 144.988 l 317.117 144.988
 321.188 146.68 324.188 149.684 c 327.188 152.688 328.867 156.766 328.859
 161.012 c h
328.859 161.012 m f
0.298039 0.207843 0.180392 rg
312.871 144.988 m 42.031 144.988 l 33.559 145 26.566 151.625 26.102 160.082
 c 26.398 160.066 26.699 159.988 27.027 159.988 c 297.871 159.988 l 302.117
 159.988 306.188 161.68 309.188 164.684 c 312.188 167.688 313.867 171.766
 313.859 176.012 c 313.859 226.32 l 328.859 226.32 l 328.859 161.012 l 328.867
 156.766 327.188 152.688 324.188 149.684 c 321.188 146.68 317.117 144.988
 312.871 144.988 c h
312.871 144.988 m f
313.859 297.422 m 313.859 377.762 l 313.859 378.059 313.789 378.359 313.77
 378.66 c 322.223 378.207 328.852 371.227 328.859 362.762 c 328.859 297.422
 l h
313.859 297.422 m f
41.762 182.219 m 41.766 185.121 39.414 187.477 36.512 187.469 c 26.012 
187.469 l 26.012 176.969 l 36.512 176.969 l 39.414 176.965 41.766 179.316
 41.762 182.219 c h
41.762 182.219 m f
296.699 176.969 m 275.012 176.969 l 268.012 176.969 268.012 187.469 275.012
 187.469 c 296.699 187.469 l 303.699 187.469 303.699 176.969 296.699 176.969
 c h
253.32 176.969 m 231.66 176.969 l 224.66 176.969 224.66 187.469 231.66 
187.469 c 253.32 187.469 l 260.32 187.469 260.32 176.969 253.32 176.969 
c h
209.969 176.969 m 188.281 176.969 l 181.281 176.969 181.281 187.469 188.281
 187.469 c 209.969 187.469 l 216.969 187.469 216.969 176.969 209.969 176.969
 c h
166.621 176.969 m 144.93 176.969 l 137.93 176.969 137.93 187.469 144.93
 187.469 c 166.621 187.469 l 173.621 187.469 173.621 176.969 166.621 176.969
 c h
123.238 176.969 m 101.551 176.969 l 94.551 176.969 94.551 187.469 101.551
 187.469 c 123.238 187.469 l 130.238 187.469 130.238 176.969 123.238 176.969
 c h
79.891 176.969 m 58.199 176.969 l 51.199 176.969 51.199 187.469 58.199 
187.469 c 79.891 187.469 l 86.891 187.469 86.891 176.969 79.891 176.969 
c h
79.891 176.969 m f
41.762 341.52 m 41.77 344.422 39.414 346.777 36.512 346.77 c 26.012 346.77
 l 26.012 336.27 l 36.512 336.27 l 39.406 336.273 41.758 338.621 41.762 
341.52 c h
41.762 341.52 m f
296.699 336.27 m 275.012 336.27 l 268.012 336.27 268.012 346.77 275.012
 346.77 c 296.699 346.77 l 303.699 346.77 303.699 336.27 296.699 336.27 
c h
253.32 336.27 m 231.66 336.27 l 224.66 336.27 224.66 346.77 231.66 346.77
 c 253.32 346.77 l 260.32 346.77 260.32 336.27 253.32 336.27 c h
209.969 336.27 m 188.281 336.27 l 181.281 336.27 181.281 346.77 188.281
 346.77 c 209.969 346.77 l 216.969 346.77 216.969 336.27 209.969 336.27 
c h
166.621 336.27 m 144.93 336.27 l 137.93 336.27 137.93 346.77 144.93 346.77
 c 166.621 346.77 l 173.621 346.77 173.621 336.27 166.621 336.27 c h
123.238 336.27 m 101.551 336.27 l 94.551 336.27 94.551 346.77 101.551 346.77
 c 123.238 346.77 l 130.238 346.77 130.238 336.27 123.238 336.27 c h
79.891 336.27 m 58.199 336.27 l 51.199 336.27 51.199 346.77 58.199 346.77
 c 79.891 346.77 l 86.891 346.77 86.891 336.27 79.891 336.27 c h
79.891 336.27 m f
0 0.67451 0.756863 rg
240.062 110.25 m 232.406 110.25 l 232.406 109.777 l 232.406 102.457 226.469
 96.52 219.148 96.52 c 211.824 96.52 205.887 102.457 205.887 109.777 c 205.887
 121.223 l 205.887 124.902 200.367 124.902 200.367 121.223 c 200.367 101.77
 l 200.367 94.77 189.867 94.77 189.867 101.77 c 189.867 110.25 l 182.207
 110.25 l 175.207 110.25 175.207 120.75 182.207 120.75 c 189.863 120.75 
l 189.863 121.223 l 189.863 128.543 195.801 134.48 203.125 134.48 c 210.449
 134.48 216.383 128.543 216.383 121.223 c 216.383 109.777 l 216.383 106.098
 221.902 106.098 221.902 109.777 c 221.902 129.23 l 221.902 136.23 232.402
 136.23 232.402 129.23 c 232.402 120.75 l 240.059 120.75 l 247.059 120.75
 247.059 110.25 240.059 110.25 c h
240.062 110.25 m f
Q Q
showpage
%%Trailer
end
%%EOF
