%!PS-Adobe-3.0 EPSF-3.0
%%Creator: cairo 1.16.0 (https://cairographics.org)
%%CreationDate: Fri Jul 19 07:40:21 2019
%%Pages: 1
%%DocumentData: Clean7Bit
%%LanguageLevel: 2
%%BoundingBox: 5 5 384 379
%%EndComments
%%BeginProlog
50 dict begin
/q { gsave } bind def
/Q { grestore } bind def
/cm { 6 array astore concat } bind def
/w { setlinewidth } bind def
/J { setlinecap } bind def
/j { setlinejoin } bind def
/M { setmiterlimit } bind def
/d { setdash } bind def
/m { moveto } bind def
/l { lineto } bind def
/c { curveto } bind def
/h { closepath } bind def
/re { exch dup neg 3 1 roll 5 3 roll moveto 0 rlineto
      0 exch rlineto 0 rlineto closepath } bind def
/S { stroke } bind def
/f { fill } bind def
/f* { eofill } bind def
/n { newpath } bind def
/W { clip } bind def
/W* { eoclip } bind def
/BT { } bind def
/ET { } bind def
/BDC { mark 3 1 roll /BDC pdfmark } bind def
/EMC { mark /EMC pdfmark } bind def
/cairo_store_point { /cairo_point_y exch def /cairo_point_x exch def } def
/Tj { show currentpoint cairo_store_point } bind def
/TJ {
  {
    dup
    type /stringtype eq
    { show } { -0.001 mul 0 cairo_font_matrix dtransform rmoveto } ifelse
  } forall
  currentpoint cairo_store_point
} bind def
/cairo_selectfont { cairo_font_matrix aload pop pop pop 0 0 6 array astore
    cairo_font exch selectfont cairo_point_x cairo_point_y moveto } bind def
/Tf { pop /cairo_font exch def /cairo_font_matrix where
      { pop cairo_selectfont } if } bind def
/Td { matrix translate cairo_font_matrix matrix concatmatrix dup
      /cairo_font_matrix exch def dup 4 get exch 5 get cairo_store_point
      /cairo_font where { pop cairo_selectfont } if } bind def
/Tm { 2 copy 8 2 roll 6 array astore /cairo_font_matrix exch def
      cairo_store_point /cairo_font where { pop cairo_selectfont } if } bind def
/g { setgray } bind def
/rg { setrgbcolor } bind def
/d1 { setcachedevice } bind def
/cairo_data_source {
  CairoDataIndex CairoData length lt
    { CairoData CairoDataIndex get /CairoDataIndex CairoDataIndex 1 add def }
    { () } ifelse
} def
/cairo_flush_ascii85_file { cairo_ascii85_file status { cairo_ascii85_file flushfile } if } def
/cairo_image { image cairo_flush_ascii85_file } def
/cairo_imagemask { imagemask cairo_flush_ascii85_file } def
%%EndProlog
%%BeginSetup
%%EndSetup
%%Page: 1 1
%%BeginPageSetup
%%PageBoundingBox: 5 5 384 379
%%EndPageSetup
q 5 5 379 374 rectclip
1 0 0 -1 0 384 cm q
0.364706 0.25098 0.215686 rg
378.75 179.562 m 375.852 179.562 373.5 177.211 373.5 174.312 c 373.5 121.062
 l 373.488 111.125 365.438 103.074 355.5 103.062 c 348.5 103.062 348.5 92.562
 355.5 92.562 c 371.234 92.582 383.98 105.328 384 121.062 c 384 174.301 
l 384.008 177.203 381.652 179.562 378.75 179.562 c h
378.75 179.562 m f
1 0.792157 0.564706 rg
5.25 5.25 280 373.5 re f
0.866667 0.662745 0.462745 rg
5.25 5.25 m 5.25 17.25 l 255.25 17.25 l 265.191 17.25 273.25 25.309 273.25
 35.25 c 273.25 378.75 l 285.25 378.75 l 285.25 5.25 l h
5.25 5.25 m f
0.364706 0.25098 0.215686 rg
145.246 34.875 110.004 15 re f
0.298039 0.207843 0.180392 rg
244 34.875 11.25 15 re f
0.364706 0.25098 0.215686 rg
35.25 67.5 220.004 15 re f
35.25 100.125 220.004 15 re f
35.25 132.75 220.004 15 re f
35.25 165.375 220.004 15 re f
35.25 198 220.004 15 re f
35.25 230.625 220.004 15 re f
0 0.67451 0.756863 rg
189.559 334.305 m 189.172 334.305 188.785 334.285 188.398 334.242 c 183.816
 333.809 180.039 330.465 179.059 325.965 c 174 303.812 l 169.199 300.898
 l 173.609 303.742 l 160.148 324.594 l 156.32 330.34 147.664 324.742 151.332
 318.895 c 164.793 298.043 l 167.129 294.422 171.41 292.555 175.656 293.305
 c 179.898 294.055 183.281 297.277 184.234 301.48 c 189.281 323.629 l 189.348
 323.75 189.488 323.812 189.625 323.777 c 192.055 318.508 l 193.773 314.699
 197.57 312.254 201.75 312.266 c 201.793 312.266 l 205.957 312.238 209.75
 314.652 211.492 318.434 c 211.855 318.473 l 213.883 315.801 l 216.043 312.957
 219.477 311.379 223.043 311.586 c 226.609 311.797 229.832 313.77 231.645
 316.848 c 233.504 320.004 l 243.551 316.777 l 246.309 315.801 249.332 317.27
 250.27 320.039 c 251.211 322.809 249.707 325.812 246.926 326.719 c 237.133
 330.039 l 232.328 331.652 227.051 329.691 224.461 325.34 c 222.598 322.176
 l 218.062 318.977 l 222.242 322.156 l 220.215 324.824 l 217.949 327.812
 214.285 329.395 210.555 329 c 206.828 328.605 203.578 326.289 201.984 322.895
 c 201.602 322.895 l 199.23 328.059 l 197.523 331.871 193.734 334.316 189.559
 334.305 c h
189.559 334.305 m f
316.5 65.062 39 248.25 re f
0.364706 0.25098 0.215686 rg
329.625 33.188 m 342.375 33.188 l 345.688 33.188 348.375 35.875 348.375
 39.188 c 348.375 65.062 l 323.625 65.062 l 323.625 39.188 l 323.625 35.875
 326.312 33.188 329.625 33.188 c h
329.625 33.188 m f
0.298039 0.207843 0.180392 rg
342.375 33.188 m 329.625 33.188 l 326.312 33.188 323.625 35.875 323.625
 39.188 c 336.375 39.188 l 339.688 39.188 342.375 41.875 342.375 45.188 
c 342.375 65.062 l 348.375 65.062 l 348.375 39.188 l 348.375 35.875 345.688
 33.188 342.375 33.188 c h
342.375 33.188 m f
1 0.792157 0.564706 rg
337.5 350.812 m 334.5 350.812 l 316.5 313.312 l 355.5 313.312 l h
337.5 350.812 m f
0.866667 0.662745 0.462745 rg
316.5 313.312 m 319.379 319.312 l 336.965 319.312 l 339.027 319.316 340.941
 320.379 342.035 322.121 c 343.133 323.867 343.258 326.051 342.367 327.91
 c 332.93 347.562 l 334.492 350.812 l 337.492 350.812 l 355.492 313.312 
l h
316.5 313.312 m f
0 0.592157 0.654902 rg
316.5 65.062 m 316.5 74.062 l 337.5 74.062 l 342.469 74.062 346.5 78.094
 346.5 83.062 c 316.5 83.062 l 316.5 93.562 l 346.5 93.562 l 346.5 313.312
 l 355.5 313.312 l 355.5 65.062 l h
316.5 65.062 m f
0.298039 0.207843 0.180392 rg
365.25 105.953 m 365.25 94.316 l 362.129 93.164 358.828 92.57 355.5 92.562
 c 355.5 103.062 l 358.961 103.062 362.348 104.066 365.25 105.953 c h
365.25 105.953 m f
244 67.5 11.25 15 re f
244 100.125 11.25 15 re f
244 132.75 11.25 15 re f
244 165.375 11.25 15 re f
244 198 11.25 15 re f
244 230.625 11.25 15 re f
Q Q
showpage
%%Trailer
end
%%EOF
