%!PS-Adobe-3.0 EPSF-3.0
%%Creator: cairo 1.16.0 (https://cairographics.org)
%%CreationDate: Fri Jul 19 07:40:22 2019
%%Pages: 1
%%DocumentData: Clean7Bit
%%LanguageLevel: 2
%%BoundingBox: 5 5 379 379
%%EndComments
%%BeginProlog
50 dict begin
/q { gsave } bind def
/Q { grestore } bind def
/cm { 6 array astore concat } bind def
/w { setlinewidth } bind def
/J { setlinecap } bind def
/j { setlinejoin } bind def
/M { setmiterlimit } bind def
/d { setdash } bind def
/m { moveto } bind def
/l { lineto } bind def
/c { curveto } bind def
/h { closepath } bind def
/re { exch dup neg 3 1 roll 5 3 roll moveto 0 rlineto
      0 exch rlineto 0 rlineto closepath } bind def
/S { stroke } bind def
/f { fill } bind def
/f* { eofill } bind def
/n { newpath } bind def
/W { clip } bind def
/W* { eoclip } bind def
/BT { } bind def
/ET { } bind def
/BDC { mark 3 1 roll /BDC pdfmark } bind def
/EMC { mark /EMC pdfmark } bind def
/cairo_store_point { /cairo_point_y exch def /cairo_point_x exch def } def
/Tj { show currentpoint cairo_store_point } bind def
/TJ {
  {
    dup
    type /stringtype eq
    { show } { -0.001 mul 0 cairo_font_matrix dtransform rmoveto } ifelse
  } forall
  currentpoint cairo_store_point
} bind def
/cairo_selectfont { cairo_font_matrix aload pop pop pop 0 0 6 array astore
    cairo_font exch selectfont cairo_point_x cairo_point_y moveto } bind def
/Tf { pop /cairo_font exch def /cairo_font_matrix where
      { pop cairo_selectfont } if } bind def
/Td { matrix translate cairo_font_matrix matrix concatmatrix dup
      /cairo_font_matrix exch def dup 4 get exch 5 get cairo_store_point
      /cairo_font where { pop cairo_selectfont } if } bind def
/Tm { 2 copy 8 2 roll 6 array astore /cairo_font_matrix exch def
      cairo_store_point /cairo_font where { pop cairo_selectfont } if } bind def
/g { setgray } bind def
/rg { setrgbcolor } bind def
/d1 { setcachedevice } bind def
/cairo_data_source {
  CairoDataIndex CairoData length lt
    { CairoData CairoDataIndex get /CairoDataIndex CairoDataIndex 1 add def }
    { () } ifelse
} def
/cairo_flush_ascii85_file { cairo_ascii85_file status { cairo_ascii85_file flushfile } if } def
/cairo_image { image cairo_flush_ascii85_file } def
/cairo_imagemask { imagemask cairo_flush_ascii85_file } def
%%EndProlog
%%BeginSetup
%%EndSetup
%%Page: 1 1
%%BeginPageSetup
%%PageBoundingBox: 5 5 379 379
%%EndPageSetup
q 5 5 374 374 rectclip
1 0 0 -1 0 384 cm q
0 g
44.586 240 m 339.414 240 l 361.207 240 378.75 257.543 378.75 279.336 c 
378.75 301.125 361.207 318.668 339.414 318.668 c 44.586 318.668 l 22.793
 318.668 5.25 301.125 5.25 279.336 c 5.25 257.543 22.793 240 44.586 240 
c h
44.586 240 m f
0.364706 0.25098 0.215686 rg
44.586 240 m 339.414 240 l 361.207 240 378.75 257.543 378.75 279.336 c 
378.75 301.125 361.207 318.668 339.414 318.668 c 44.586 318.668 l 22.793
 318.668 5.25 301.125 5.25 279.336 c 5.25 257.543 22.793 240 44.586 240 
c h
44.586 240 m f
0.298039 0.207843 0.180392 rg
339.414 240 m 44.586 240 l 31.922 240 20.031 246.113 12.664 256.414 c 19.332
 251.59 27.355 248.996 35.586 249 c 330.418 249 l 345.168 248.992 358.68
 257.242 365.41 270.367 c 372.145 283.492 370.957 299.285 362.34 311.258
 c 376.234 301.312 382.109 283.527 376.875 267.262 c 371.641 251 356.5 239.977
 339.414 240 c h
339.414 240 m f
1 0.792157 0.564706 rg
44.582 297.672 m 34.457 297.672 26.246 289.461 26.246 279.336 c 26.246 
269.211 34.457 261 44.582 261 c 339.414 261 l 349.539 261 357.75 269.211
 357.75 279.336 c 357.75 289.461 349.539 297.672 339.414 297.672 c h
44.582 297.672 m f
0.364706 0.25098 0.215686 rg
83.688 69.75 m 83.688 51.191 l 113.902 42.062 l 131.762 15.898 l 155.797
 11.336 l 186.828 31.109 l 211.473 40.543 l 220.297 69.75 l h
83.688 69.75 m f
83.688 69.75 m 83.688 51.191 l 113.902 42.062 l 131.762 15.898 l 155.797
 11.336 l 186.828 31.109 l 211.473 40.543 l 220.297 69.75 l h
83.688 69.75 m f
186.828 31.109 m 225.16 19.246 l 238.246 5.25 l 268.062 5.25 l 278.102 
19.551 l 300.312 31.109 l 300.312 69.75 l 220.297 69.75 l 211.473 40.543
 l h
186.828 31.109 m f
0.298039 0.207843 0.180392 rg
221.258 31.438 m 205.391 25.363 l 186.828 31.109 l 211.473 40.543 l 220.297
 69.75 l 232.828 69.75 l h
221.258 31.438 m f
0.984314 0.54902 0 rg
62.922 279.336 m 62.922 289.461 54.711 297.672 44.586 297.672 c 34.461 
297.672 26.25 289.461 26.25 279.336 c 26.25 269.211 34.461 261 44.586 261
 c 49.449 261 54.113 262.934 57.551 266.371 c 60.988 269.809 62.922 274.473
 62.922 279.336 c h
62.922 279.336 m f
357.75 279.336 m 357.75 289.461 349.539 297.672 339.414 297.672 c 329.289
 297.672 321.078 289.461 321.078 279.336 c 321.078 269.211 329.289 261 339.414
 261 c 349.539 261 357.75 269.211 357.75 279.336 c h
357.75 279.336 m f
0.937255 0.423529 0 rg
339.414 261 m 338.41 261.008 337.406 261.098 336.414 261.266 c 345.289 
262.691 351.816 270.348 351.816 279.336 c 351.816 288.324 345.289 295.98
 336.414 297.406 c 341.469 298.246 346.645 296.934 350.688 293.785 c 354.73
 290.637 357.27 285.938 357.691 280.832 c 358.109 275.727 356.375 270.676
 352.902 266.906 c 349.43 263.141 344.539 260.996 339.414 261 c h
339.414 261 m f
0.984314 0.54902 0 rg
210.336 279.336 m 210.336 289.461 202.125 297.672 192 297.672 c 181.875
 297.672 173.664 289.461 173.664 279.336 c 173.664 269.211 181.875 261 192
 261 c 202.125 261 210.336 269.211 210.336 279.336 c h
210.336 279.336 m f
0 0.67451 0.756863 rg
57 318.668 44 60.082 re f
283 318.668 44 60.082 re f
0 0.592157 0.654902 rg
283 318.668 44 20.332 re f
57 318.668 44 20.332 re f
1 0.792157 0.564706 rg
67.438 104.25 249.125 135.75 re f
0.866667 0.662745 0.462745 rg
67.438 104.25 m 67.438 119.25 l 283.562 119.25 l 293.504 119.25 301.562
 127.309 301.562 137.25 c 301.562 240 l 316.562 240 l 316.562 104.25 l h
67.438 104.25 m f
0 0.67451 0.756863 rg
57.562 69.75 m 326.438 69.75 l 329.762 69.75 332.438 72.426 332.438 75.75
 c 332.438 98.25 l 332.438 101.574 329.762 104.25 326.438 104.25 c 57.562
 104.25 l 54.238 104.25 51.562 101.574 51.562 98.25 c 51.562 75.75 l 51.562
 72.426 54.238 69.75 57.562 69.75 c h
57.562 69.75 m f
0 0.592157 0.654902 rg
326.438 69.75 m 57.562 69.75 l 54.246 69.75 51.562 72.438 51.562 75.75 
c 51.562 81.75 l 314.438 81.75 l 317.75 81.75 320.438 84.438 320.438 87.75
 c 320.438 104.25 l 326.438 104.25 l 329.75 104.25 332.438 101.562 332.438
 98.25 c 332.438 75.75 l 332.438 72.438 329.75 69.75 326.438 69.75 c h
326.438 69.75 m f
0.937255 0.423529 0 rg
192 261 m 190.996 261.008 189.992 261.098 189 261.266 c 197.875 262.691
 204.402 270.348 204.402 279.336 c 204.402 288.324 197.875 295.98 189 297.406
 c 194.055 298.246 199.23 296.934 203.273 293.785 c 207.316 290.637 209.855
 285.938 210.277 280.832 c 210.695 275.727 208.961 270.676 205.488 266.906
 c 202.016 263.141 197.125 260.996 192 261 c h
192 261 m f
44.586 261 m 43.582 261.008 42.578 261.098 41.586 261.266 c 50.461 262.691
 56.988 270.348 56.988 279.336 c 56.988 288.324 50.461 295.98 41.586 297.406
 c 46.641 298.246 51.816 296.934 55.859 293.785 c 59.902 290.637 62.441 
285.938 62.863 280.832 c 63.281 275.727 61.547 270.676 58.074 266.906 c 
54.602 263.141 49.711 260.996 44.586 261 c h
44.586 261 m f
Q Q
showpage
%%Trailer
end
%%EOF
