%!PS-Adobe-3.0 EPSF-3.0
%%Creator: cairo 1.16.0 (https://cairographics.org)
%%CreationDate: Fri Jul 19 07:40:22 2019
%%Pages: 1
%%DocumentData: Clean7Bit
%%LanguageLevel: 2
%%BoundingBox: 35 5 349 379
%%EndComments
%%BeginProlog
50 dict begin
/q { gsave } bind def
/Q { grestore } bind def
/cm { 6 array astore concat } bind def
/w { setlinewidth } bind def
/J { setlinecap } bind def
/j { setlinejoin } bind def
/M { setmiterlimit } bind def
/d { setdash } bind def
/m { moveto } bind def
/l { lineto } bind def
/c { curveto } bind def
/h { closepath } bind def
/re { exch dup neg 3 1 roll 5 3 roll moveto 0 rlineto
      0 exch rlineto 0 rlineto closepath } bind def
/S { stroke } bind def
/f { fill } bind def
/f* { eofill } bind def
/n { newpath } bind def
/W { clip } bind def
/W* { eoclip } bind def
/BT { } bind def
/ET { } bind def
/BDC { mark 3 1 roll /BDC pdfmark } bind def
/EMC { mark /EMC pdfmark } bind def
/cairo_store_point { /cairo_point_y exch def /cairo_point_x exch def } def
/Tj { show currentpoint cairo_store_point } bind def
/TJ {
  {
    dup
    type /stringtype eq
    { show } { -0.001 mul 0 cairo_font_matrix dtransform rmoveto } ifelse
  } forall
  currentpoint cairo_store_point
} bind def
/cairo_selectfont { cairo_font_matrix aload pop pop pop 0 0 6 array astore
    cairo_font exch selectfont cairo_point_x cairo_point_y moveto } bind def
/Tf { pop /cairo_font exch def /cairo_font_matrix where
      { pop cairo_selectfont } if } bind def
/Td { matrix translate cairo_font_matrix matrix concatmatrix dup
      /cairo_font_matrix exch def dup 4 get exch 5 get cairo_store_point
      /cairo_font where { pop cairo_selectfont } if } bind def
/Tm { 2 copy 8 2 roll 6 array astore /cairo_font_matrix exch def
      cairo_store_point /cairo_font where { pop cairo_selectfont } if } bind def
/g { setgray } bind def
/rg { setrgbcolor } bind def
/d1 { setcachedevice } bind def
/cairo_data_source {
  CairoDataIndex CairoData length lt
    { CairoData CairoDataIndex get /CairoDataIndex CairoDataIndex 1 add def }
    { () } ifelse
} def
/cairo_flush_ascii85_file { cairo_ascii85_file status { cairo_ascii85_file flushfile } if } def
/cairo_image { image cairo_flush_ascii85_file } def
/cairo_imagemask { imagemask cairo_flush_ascii85_file } def
%%EndProlog
%%BeginSetup
%%EndSetup
%%Page: 1 1
%%BeginPageSetup
%%PageBoundingBox: 35 5 349 379
%%EndPageSetup
q 35 5 314 374 rectclip
1 0 0 -1 0 384 cm q
0.984314 0.54902 0 rg
348.656 152 m 35.344 152 l 35.344 110.207 l 115 80.207 l 269 80.207 l 348.656
 110.207 l h
348.656 152 m f
0.937255 0.423529 0 rg
269 80.207 m 115 80.207 l 35.344 110.207 l 35.344 119.566 l 99.988 95.219
 l 253.988 95.219 l 333.645 125.219 l 333.645 152 l 348.656 152 l 348.656
 110.207 l h
269 80.207 m f
0 0.67451 0.756863 rg
269 80.207 m 245 80.207 l 245 62.25 l 244.98 44.031 230.219 29.27 212 29.25
 c 172 29.25 l 153.781 29.27 139.02 44.031 139 62.25 c 139 80.207 l 115 
80.207 l 115 62.25 l 115.035 30.785 140.535 5.285 172 5.25 c 212 5.25 l 
243.465 5.285 268.965 30.785 269 62.25 c h
269 80.207 m f
0 0.592157 0.654902 rg
129.5 62.25 m 129.5 80.207 l 139.004 80.207 l 139.004 62.25 l 139.023 44.031
 153.785 29.27 172.004 29.25 c 162.5 29.25 l 144.285 29.27 129.52 44.031
 129.5 62.25 c h
129.5 62.25 m f
212 5.25 m 202.5 5.25 l 233.965 5.285 259.465 30.785 259.5 62.25 c 259.5
 80.207 l 269 80.207 l 269 62.25 l 268.965 30.785 243.465 5.285 212 5.25
 c h
212 5.25 m f
0.364706 0.25098 0.215686 rg
272.25 378.75 m 111.75 378.75 l 104.781 365.582 l 69.957 299.777 51.75 
226.453 51.75 152 c 332.25 152 l 332.25 226.453 314.043 299.777 279.219 
365.582 c h
272.25 378.75 m f
0.298039 0.207843 0.180392 rg
51.75 152 m 51.75 157.012 51.848 162.016 52.012 167 c 311.23 167 l 311.227
 240.754 293.352 313.41 259.145 378.75 c 272.25 378.75 l 279.219 365.582
 l 314.043 299.777 332.25 226.453 332.25 152 c h
51.75 152 m f
Q Q
showpage
%%Trailer
end
%%EOF
