%!PS-Adobe-3.0 EPSF-3.0
%%Creator: cairo 1.16.0 (https://cairographics.org)
%%CreationDate: Fri Jul 19 07:40:22 2019
%%Pages: 1
%%DocumentData: Clean7Bit
%%LanguageLevel: 2
%%BoundingBox: 24 0 367 384
%%EndComments
%%BeginProlog
50 dict begin
/q { gsave } bind def
/Q { grestore } bind def
/cm { 6 array astore concat } bind def
/w { setlinewidth } bind def
/J { setlinecap } bind def
/j { setlinejoin } bind def
/M { setmiterlimit } bind def
/d { setdash } bind def
/m { moveto } bind def
/l { lineto } bind def
/c { curveto } bind def
/h { closepath } bind def
/re { exch dup neg 3 1 roll 5 3 roll moveto 0 rlineto
      0 exch rlineto 0 rlineto closepath } bind def
/S { stroke } bind def
/f { fill } bind def
/f* { eofill } bind def
/n { newpath } bind def
/W { clip } bind def
/W* { eoclip } bind def
/BT { } bind def
/ET { } bind def
/BDC { mark 3 1 roll /BDC pdfmark } bind def
/EMC { mark /EMC pdfmark } bind def
/cairo_store_point { /cairo_point_y exch def /cairo_point_x exch def } def
/Tj { show currentpoint cairo_store_point } bind def
/TJ {
  {
    dup
    type /stringtype eq
    { show } { -0.001 mul 0 cairo_font_matrix dtransform rmoveto } ifelse
  } forall
  currentpoint cairo_store_point
} bind def
/cairo_selectfont { cairo_font_matrix aload pop pop pop 0 0 6 array astore
    cairo_font exch selectfont cairo_point_x cairo_point_y moveto } bind def
/Tf { pop /cairo_font exch def /cairo_font_matrix where
      { pop cairo_selectfont } if } bind def
/Td { matrix translate cairo_font_matrix matrix concatmatrix dup
      /cairo_font_matrix exch def dup 4 get exch 5 get cairo_store_point
      /cairo_font where { pop cairo_selectfont } if } bind def
/Tm { 2 copy 8 2 roll 6 array astore /cairo_font_matrix exch def
      cairo_store_point /cairo_font where { pop cairo_selectfont } if } bind def
/g { setgray } bind def
/rg { setrgbcolor } bind def
/d1 { setcachedevice } bind def
/cairo_data_source {
  CairoDataIndex CairoData length lt
    { CairoData CairoDataIndex get /CairoDataIndex CairoDataIndex 1 add def }
    { () } ifelse
} def
/cairo_flush_ascii85_file { cairo_ascii85_file status { cairo_ascii85_file flushfile } if } def
/cairo_image { image cairo_flush_ascii85_file } def
/cairo_imagemask { imagemask cairo_flush_ascii85_file } def
%%EndProlog
%%BeginSetup
%%EndSetup
%%Page: 1 1
%%BeginPageSetup
%%PageBoundingBox: 24 0 367 384
%%EndPageSetup
q 24 0 343 384 rectclip
1 0 0 -1 0 384 cm q
0.364706 0.25098 0.215686 rg
234.656 327.406 m 231.758 327.406 229.406 329.754 229.406 332.656 c 229.406
 340.125 l 229.406 358.559 214.465 373.5 196.031 373.5 c 177.598 373.5 162.656
 358.559 162.656 340.125 c 162.656 332.656 l 162.656 325.656 152.156 325.656
 152.156 332.656 c 152.156 340.125 l 152.156 358.559 137.215 373.5 118.781
 373.5 c 100.348 373.5 85.406 358.559 85.406 340.125 c 85.406 332.656 l 
85.406 325.656 74.906 325.656 74.906 332.656 c 74.906 340.125 l 74.902 360.227
 88.562 377.762 108.055 382.672 c 127.547 387.586 147.887 378.617 157.406
 360.91 c 166.93 378.617 187.266 387.586 206.758 382.672 c 226.254 377.762
 239.91 360.227 239.906 340.125 c 239.906 332.656 l 239.906 329.754 237.555
 327.406 234.656 327.406 c h
234.656 327.406 m f
196.031 0 m 179.891 0.016 165.059 8.887 157.406 23.102 c 147.887 5.395 
127.547 -3.57 108.055 1.34 c 88.562 6.25 74.902 23.785 74.906 43.887 c 74.906
 51.355 l 74.906 58.355 85.406 58.355 85.406 51.355 c 85.406 43.887 l 85.406
 25.453 100.348 10.512 118.781 10.512 c 137.215 10.512 152.156 25.453 152.156
 43.887 c 152.156 51.355 l 152.156 58.355 162.656 58.355 162.656 51.355 
c 162.656 43.887 l 162.656 25.453 177.598 10.512 196.031 10.512 c 214.465
 10.512 229.406 25.453 229.406 43.887 c 229.406 51.355 l 229.406 58.355 
239.906 58.355 239.906 51.355 c 239.906 43.887 l 239.887 19.66 220.258 0.027
 196.031 0 c h
196.031 0 m f
196.031 0 m 179.891 0.016 165.059 8.887 157.406 23.102 c 147.887 5.395 
127.547 -3.57 108.055 1.34 c 88.562 6.25 74.902 23.785 74.906 43.887 c 74.906
 51.355 l 74.906 58.355 85.406 58.355 85.406 51.355 c 85.406 43.887 l 85.406
 25.453 100.348 10.512 118.781 10.512 c 137.215 10.512 152.156 25.453 152.156
 43.887 c 152.156 51.355 l 152.156 58.355 162.656 58.355 162.656 51.355 
c 162.656 43.887 l 162.656 25.453 177.598 10.512 196.031 10.512 c 214.465
 10.512 229.406 25.453 229.406 43.887 c 229.406 51.355 l 229.406 58.355 
239.906 58.355 239.906 51.355 c 239.906 43.887 l 239.887 19.66 220.258 0.027
 196.031 0 c h
196.031 0 m f
321.844 197.25 m 314.844 197.25 314.844 186.75 321.844 186.75 c 340.785
 186.73 356.137 171.379 356.156 152.438 c 356.156 123.176 l 356.137 104.23
 340.785 88.879 321.844 88.859 c 273.281 88.859 l 266.281 88.859 266.281
 78.359 273.281 78.359 c 321.848 78.359 l 346.586 78.387 366.633 98.438 
366.66 123.176 c 366.66 152.438 l 366.629 177.176 346.582 197.223 321.844
 197.25 c h
321.844 197.25 m f
0.984314 0.54902 0 rg
41.531 266.609 77.25 66.047 re f
118.781 266.609 77.25 66.047 re f
196.031 266.609 77.25 66.047 re f
0.937255 0.423529 0 rg
196.031 266.609 m 41.531 266.609 l 41.531 275.609 l 91.773 275.609 l 101.715
 275.609 109.773 283.668 109.773 293.609 c 109.773 332.648 l 118.773 332.648
 l 118.773 275.617 l 169.023 275.617 l 178.965 275.617 187.023 283.676 187.023
 293.617 c 187.023 332.656 l 196.023 332.656 l 196.023 275.617 l 246.273
 275.617 l 256.215 275.617 264.273 283.676 264.273 293.617 c 264.273 332.656
 l 273.273 332.656 l 273.273 266.609 l h
196.031 266.609 m f
0.984314 0.54902 0 rg
41.531 51.344 77.25 66.406 re f
118.781 51.344 77.25 66.406 re f
196.031 51.344 77.25 66.406 re f
41.531 139.094 231.75 106.172 re f
0.937255 0.423529 0 rg
41.531 139.094 m 41.531 151.094 l 246.273 151.094 l 256.215 151.094 264.273
 159.152 264.273 169.094 c 264.273 245.266 l 273.273 245.266 l 273.273 139.094
 l h
41.531 139.094 m f
0.364706 0.25098 0.215686 rg
34.953 117.75 m 279.859 117.75 l 285.773 117.75 290.531 122.508 290.531
 128.422 c 290.531 128.426 l 290.531 134.336 285.773 139.094 279.859 139.094
 c 34.953 139.094 l 29.043 139.094 24.281 134.336 24.281 128.426 c 24.281
 128.422 l 24.281 122.508 29.043 117.75 34.953 117.75 c h
34.953 117.75 m f
0.298039 0.207843 0.180392 rg
279.859 117.75 m 34.953 117.75 l 30.578 117.758 26.652 120.441 25.055 124.516
 c 26.293 124.02 27.617 123.758 28.953 123.754 c 273.855 123.754 l 276.684
 123.754 279.398 124.879 281.402 126.879 c 283.402 128.879 284.527 131.594
 284.527 134.426 c 284.52 135.762 284.262 137.082 283.766 138.324 c 288.535
 136.453 291.301 131.453 290.348 126.414 c 289.395 121.379 284.988 117.734
 279.863 117.742 c h
279.859 117.75 m f
0.364706 0.25098 0.215686 rg
34.953 245.266 m 279.859 245.266 l 285.773 245.266 290.531 250.023 290.531
 255.938 c 290.531 261.852 285.773 266.609 279.859 266.609 c 34.953 266.609
 l 29.043 266.609 24.281 261.852 24.281 255.938 c 24.281 250.023 29.043 
245.266 34.953 245.266 c h
34.953 245.266 m f
1 0.792157 0.564706 rg
191.156 192 m 191.156 210.641 176.047 225.75 157.406 225.75 c 138.766 225.75
 123.656 210.641 123.656 192 c 123.656 173.359 138.766 158.25 157.406 158.25
 c 176.047 158.25 191.156 173.359 191.156 192 c h
191.156 192 m f
0.866667 0.662745 0.462745 rg
157.406 158.25 m 155.902 158.262 154.398 158.375 152.906 158.586 c 169.656
 160.816 182.164 175.105 182.164 192 c 182.164 208.898 169.656 223.184 152.906
 225.418 c 162.168 226.672 171.531 224.031 178.773 218.121 c 186.012 212.215
 190.477 203.566 191.102 194.242 c 191.723 184.918 188.453 175.754 182.066
 168.934 c 175.68 162.109 166.75 158.242 157.406 158.254 c h
157.406 158.25 m f
0 0.67451 0.756863 rg
164.293 204.137 m 162.898 204.137 161.562 203.582 160.582 202.598 c 153.695
 195.711 l 152.711 194.727 152.156 193.391 152.156 192 c 152.156 178.781
 l 152.156 171.781 162.656 171.781 162.656 178.781 c 162.656 189.824 l 168
 195.176 l 171.305 198.48 168.965 204.133 164.289 204.137 c h
164.293 204.137 m f
273.281 167.719 m 309.844 167.719 l 316.469 167.719 321.844 173.09 321.844
 179.719 c 321.844 204.281 l 321.844 210.91 316.469 216.281 309.844 216.281
 c 273.281 216.281 l h
273.281 167.719 m f
0 0.592157 0.654902 rg
309.844 167.719 m 273.281 167.719 l 273.281 176.719 l 300.836 176.719 l
 307.465 176.719 312.836 182.09 312.836 188.719 c 312.836 213.301 l 312.832
 214.199 312.723 215.094 312.516 215.969 c 317.969 214.727 321.836 209.883
 321.848 204.289 c 321.848 179.719 l 321.848 176.535 320.582 173.48 318.332
 171.23 c 316.078 168.98 313.027 167.719 309.844 167.719 c h
309.844 167.719 m f
0.937255 0.423529 0 rg
196.031 51.344 m 41.531 51.344 l 41.531 60.344 l 91.773 60.344 l 101.715
 60.344 109.773 68.402 109.773 78.344 c 109.773 117.391 l 118.773 117.391
 l 118.773 60.352 l 169.023 60.352 l 178.965 60.352 187.023 68.41 187.023
 78.352 c 187.023 117.391 l 196.023 117.391 l 196.023 60.352 l 246.273 60.352
 l 256.215 60.352 264.273 68.41 264.273 78.352 c 264.273 117.391 l 273.273
 117.391 l 273.273 51.344 l h
196.031 51.344 m f
0.298039 0.207843 0.180392 rg
279.859 245.645 m 34.953 245.645 l 30.578 245.656 26.652 248.336 25.055
 252.41 c 26.293 251.914 27.617 251.656 28.953 251.648 c 273.855 251.648
 l 276.684 251.648 279.398 252.773 281.402 254.773 c 283.402 256.777 284.527
 259.488 284.527 262.32 c 284.52 263.656 284.262 264.98 283.766 266.219 
c 288.535 264.352 291.301 259.348 290.348 254.312 c 289.395 249.277 284.988
 245.633 279.863 245.637 c h
279.859 245.645 m f
273.281 78.359 11.469 10.5 re f
85.406 51.344 m 85.406 43.875 l 85.406 42.746 85.465 41.621 85.578 40.5
 c 75.078 40.5 l 74.992 41.617 74.906 42.734 74.906 43.875 c 74.906 51.344
 l 74.906 51.484 74.938 51.613 74.949 51.75 c 85.367 51.75 l 85.379 51.602
 85.406 51.484 85.406 51.344 c h
85.406 51.344 m f
229.406 43.875 m 229.406 51.344 l 229.406 51.484 229.438 51.613 229.449
 51.75 c 239.867 51.75 l 239.867 51.613 239.91 51.484 239.91 51.344 c 239.91
 43.875 l 239.91 42.734 239.824 41.617 239.738 40.5 c 229.238 40.5 l 229.352
 41.621 229.406 42.746 229.406 43.875 c h
229.406 43.875 m f
162.656 51.344 m 162.656 43.875 l 162.656 42.746 162.715 41.621 162.828
 40.5 c 151.984 40.5 l 152.098 41.621 152.156 42.746 152.156 43.875 c 152.156
 51.344 l 152.156 51.484 152.188 51.613 152.199 51.75 c 162.617 51.75 l 
162.629 51.602 162.656 51.484 162.656 51.344 c h
162.656 51.344 m f
162.656 340.125 m 162.656 332.609 l 152.156 332.609 l 152.156 340.125 l
 152.152 341.375 152.078 342.621 151.934 343.859 c 162.879 343.859 l 162.734
 342.621 162.66 341.375 162.656 340.125 c h
162.656 340.125 m f
229.406 332.656 m 229.406 340.125 l 229.402 341.375 229.328 342.621 229.184
 343.859 c 239.719 343.859 l 239.824 342.629 239.906 341.387 239.906 340.125
 c 239.906 332.609 l 229.406 332.609 l h
229.406 332.656 m f
85.406 340.125 m 85.406 332.609 l 74.906 332.609 l 74.906 340.125 l 74.906
 341.387 74.992 342.629 75.098 343.859 c 85.629 343.859 l 85.484 342.621
 85.41 341.375 85.406 340.125 c h
85.406 340.125 m f
332.75 184.945 m 329.238 186.133 325.555 186.742 321.848 186.742 c 321.848
 197.242 l 325.523 197.23 329.188 196.762 332.75 195.848 c h
332.75 184.945 m f
Q Q
showpage
%%Trailer
end
%%EOF
