%!PS-Adobe-3.0 EPSF-3.0
%%Creator: cairo 1.16.0 (https://cairographics.org)
%%CreationDate: Fri Jul 19 07:40:23 2019
%%Pages: 1
%%DocumentData: Clean7Bit
%%LanguageLevel: 2
%%BoundingBox: 5 34 379 350
%%EndComments
%%BeginProlog
50 dict begin
/q { gsave } bind def
/Q { grestore } bind def
/cm { 6 array astore concat } bind def
/w { setlinewidth } bind def
/J { setlinecap } bind def
/j { setlinejoin } bind def
/M { setmiterlimit } bind def
/d { setdash } bind def
/m { moveto } bind def
/l { lineto } bind def
/c { curveto } bind def
/h { closepath } bind def
/re { exch dup neg 3 1 roll 5 3 roll moveto 0 rlineto
      0 exch rlineto 0 rlineto closepath } bind def
/S { stroke } bind def
/f { fill } bind def
/f* { eofill } bind def
/n { newpath } bind def
/W { clip } bind def
/W* { eoclip } bind def
/BT { } bind def
/ET { } bind def
/BDC { mark 3 1 roll /BDC pdfmark } bind def
/EMC { mark /EMC pdfmark } bind def
/cairo_store_point { /cairo_point_y exch def /cairo_point_x exch def } def
/Tj { show currentpoint cairo_store_point } bind def
/TJ {
  {
    dup
    type /stringtype eq
    { show } { -0.001 mul 0 cairo_font_matrix dtransform rmoveto } ifelse
  } forall
  currentpoint cairo_store_point
} bind def
/cairo_selectfont { cairo_font_matrix aload pop pop pop 0 0 6 array astore
    cairo_font exch selectfont cairo_point_x cairo_point_y moveto } bind def
/Tf { pop /cairo_font exch def /cairo_font_matrix where
      { pop cairo_selectfont } if } bind def
/Td { matrix translate cairo_font_matrix matrix concatmatrix dup
      /cairo_font_matrix exch def dup 4 get exch 5 get cairo_store_point
      /cairo_font where { pop cairo_selectfont } if } bind def
/Tm { 2 copy 8 2 roll 6 array astore /cairo_font_matrix exch def
      cairo_store_point /cairo_font where { pop cairo_selectfont } if } bind def
/g { setgray } bind def
/rg { setrgbcolor } bind def
/d1 { setcachedevice } bind def
/cairo_data_source {
  CairoDataIndex CairoData length lt
    { CairoData CairoDataIndex get /CairoDataIndex CairoDataIndex 1 add def }
    { () } ifelse
} def
/cairo_flush_ascii85_file { cairo_ascii85_file status { cairo_ascii85_file flushfile } if } def
/cairo_image { image cairo_flush_ascii85_file } def
/cairo_imagemask { imagemask cairo_flush_ascii85_file } def
%%EndProlog
%%BeginSetup
%%EndSetup
%%Page: 1 1
%%BeginPageSetup
%%PageBoundingBox: 5 34 379 350
%%EndPageSetup
q 5 34 374 316 rectclip
1 0 0 -1 0 384 cm q
0.984314 0.54902 0 rg
123.121 118.125 m 91.48 160.055 l 24.238 160.055 l 24.238 227.297 l 222.008
 227.297 l 222.008 118.125 l h
123.121 118.125 m f
0.937255 0.423529 0 rg
82.531 172.062 m 91.594 160.055 l 24.238 160.055 l 24.238 172.062 l h
82.531 172.062 m f
123.121 118.125 m 114.059 130.125 l 192 130.125 l 201.941 130.125 210 138.184
 210 148.125 c 210 227.297 l 222 227.297 l 222 118.125 l h
123.121 118.125 m f
0.984314 0.54902 0 rg
240.988 307.078 m 240.992 318.234 236.562 328.938 228.676 336.824 c 220.785
 344.715 210.086 349.145 198.93 349.141 c 47.309 349.141 l 36.156 349.141
 25.457 344.707 17.57 336.82 c 9.68 328.934 5.25 318.234 5.25 307.078 c 
5.25 295.926 9.68 285.227 17.57 277.34 c 25.457 269.453 36.156 265.02 47.309
 265.02 c 198.93 265.02 l 210.086 265.012 220.789 269.441 228.68 277.332
 c 236.566 285.219 240.996 295.922 240.988 307.078 c h
240.988 307.078 m f
0.937255 0.423529 0 rg
198.93 265.02 m 47.309 265.02 l 36.16 265.012 25.465 269.438 17.578 277.32
 c 16.074 278.848 14.684 280.488 13.426 282.227 c 20.625 276.902 29.344 
274.027 38.301 274.027 c 189.922 274.027 l 205.777 274 220.301 282.906 227.461
 297.055 c 234.625 311.203 233.207 328.18 223.801 340.945 c 238.461 330.195
 244.555 311.242 238.895 293.965 c 233.234 276.688 217.109 265.008 198.93
 265.02 c h
198.93 265.02 m f
0.364706 0.25098 0.215686 rg
76.547 227.297 93.152 37.707 re f
0.298039 0.207843 0.180392 rg
76.547 227.297 m 76.547 236.297 l 139.688 236.297 l 149.629 236.297 157.688
 244.355 157.688 254.297 c 157.688 264.996 l 169.688 264.996 l 169.688 227.297
 l h
76.547 227.297 m f
1 0.792157 0.564706 rg
189.75 312.301 m 56.496 312.301 l 49.496 312.301 49.496 301.801 56.496 
301.801 c 189.75 301.801 l 196.75 301.801 196.75 312.301 189.75 312.301 
c h
189.75 312.301 m f
81.809 265.02 m 81.809 282.27 l 81.809 289.27 71.309 289.27 71.309 282.27
 c 71.309 265.02 l h
81.809 265.02 m f
105.09 265.02 m 105.09 282.27 l 105.09 289.27 94.59 289.27 94.59 282.27
 c 94.59 265.02 l h
105.09 265.02 m f
128.371 265.02 m 128.371 282.27 l 128.371 289.27 117.871 289.27 117.871
 282.27 c 117.871 265.02 l h
128.371 265.02 m f
151.648 265.02 m 151.648 282.27 l 151.648 289.27 141.148 289.27 141.148
 282.27 c 141.148 265.02 l h
151.648 265.02 m f
174.961 265.02 m 174.961 282.27 l 174.961 289.27 164.461 289.27 164.461
 282.27 c 164.461 265.02 l h
174.961 265.02 m f
78.211 330.512 m 78.211 349.141 l 67.711 349.141 l 67.711 330.512 l 67.711
 323.512 78.211 323.512 78.211 330.512 c h
78.211 330.512 m f
103.289 330.512 m 103.289 349.141 l 92.789 349.141 l 92.789 330.512 l 92.789
 323.512 103.289 323.512 103.289 330.512 c h
103.289 330.512 m f
128.371 330.512 m 128.371 349.141 l 117.871 349.141 l 117.871 330.512 l
 117.871 323.512 128.371 323.512 128.371 330.512 c h
128.371 330.512 m f
153.449 330.512 m 153.449 349.141 l 142.949 349.141 l 142.949 330.512 l
 142.949 323.512 153.449 323.512 153.449 330.512 c h
153.449 330.512 m f
178.531 330.512 m 178.531 349.141 l 168.031 349.141 l 168.031 330.512 l
 168.031 323.512 178.531 323.512 178.531 330.512 c h
178.531 330.512 m f
0.364706 0.25098 0.215686 rg
136.836 149.242 85.176 46.938 re f
24.238 200.102 m 97.281 200.102 l 104.281 200.102 104.281 189.602 97.281
 189.602 c 24.238 189.602 l h
24.238 200.102 m f
1 0.792157 0.564706 rg
378.75 34.859 m 378.75 248.371 l 348.75 248.371 l 348.75 64.859 l 215.461
 64.859 l 211.441 68.879 l 193.77 86.578 l 189.75 90.602 l 189.75 118.141
 l 159.75 118.141 l 159.75 78.148 l 203.039 34.859 l h
378.75 34.859 m f
0.866667 0.662745 0.462745 rg
203.039 34.859 m 194.035 43.867 l 369.742 43.867 l 369.742 248.371 l 378.75
 248.371 l 378.75 34.859 l h
203.039 34.859 m f
0.984314 0.54902 0 rg
378.75 299.375 m 301.5 299.375 l 271.5 248.375 l 378.75 248.375 l h
378.75 299.375 m f
0.937255 0.423529 0 rg
271.5 248.375 m 276.797 257.375 l 351.742 257.375 l 361.684 257.375 369.742
 265.434 369.742 275.375 c 369.742 299.375 l 378.742 299.375 l 378.742 248.375
 l h
271.5 248.375 m f
0.364706 0.25098 0.215686 rg
329.5 268.625 m 283.414 268.625 l 289.59 279.125 l 329.488 279.125 l 336.488
 279.125 336.488 268.625 329.488 268.625 c h
329.5 268.625 m f
0 0.67451 0.756863 rg
348.75 34.875 30 30 re f
0.984314 0.54902 0 rg
221.16 64.859 m 215.461 64.859 l 211.441 68.879 l 199.02 38.879 l 203.039
 34.859 l 208.711 34.859 l h
221.16 64.859 m f
193.77 86.578 m 189.75 90.602 l 189.75 96.27 l 159.75 83.852 l 159.75 78.148
 l 163.77 74.129 l h
193.77 86.578 m f
0.364706 0.25098 0.215686 rg
271.5 222.75 m 272.5 222.75 l 282.441 222.75 290.5 230.809 290.5 240.75
 c 290.5 248.375 l 271.5 248.375 l h
271.5 222.75 m f
64.055 307.066 m 64.055 316.312 56.559 323.812 47.309 323.812 c 38.062 
323.812 30.562 316.312 30.562 307.066 c 30.562 297.816 38.062 290.32 47.309
 290.32 c 56.559 290.32 64.055 297.816 64.055 307.066 c h
64.055 307.066 m f
215.684 307.066 m 215.684 316.312 208.184 323.812 198.938 323.812 c 189.688
 323.812 182.191 316.312 182.191 307.066 c 182.191 297.816 189.688 290.32
 198.938 290.32 c 208.184 290.32 215.684 297.816 215.684 307.066 c h
215.684 307.066 m f
0.298039 0.207843 0.180392 rg
198.938 290.32 m 197.93 290.324 196.926 290.418 195.938 290.602 c 203.891
 292.047 209.672 298.977 209.672 307.062 c 209.672 315.148 203.891 322.078
 195.938 323.523 c 200.562 324.367 205.332 323.23 209.078 320.383 c 212.82
 317.535 215.195 313.246 215.617 308.562 c 216.043 303.879 214.477 299.23
 211.301 295.762 c 208.129 292.289 203.641 290.312 198.938 290.316 c h
198.938 290.32 m f
47.309 290.32 m 46.305 290.324 45.301 290.418 44.309 290.602 c 52.266 292.047
 58.047 298.977 58.047 307.062 c 58.047 315.148 52.266 322.078 44.309 323.523
 c 48.938 324.367 53.707 323.23 57.449 320.383 c 61.195 317.535 63.57 313.246
 63.992 308.562 c 64.418 303.879 62.848 299.23 59.676 295.762 c 56.5 292.289
 52.012 290.312 47.309 290.316 c h
47.309 290.32 m f
0 0.592157 0.654902 rg
348.75 43.867 m 351.75 43.867 l 361.691 43.867 369.75 51.926 369.75 61.867
 c 369.75 64.867 l 378.75 64.867 l 378.75 34.867 l 348.75 34.867 l h
348.75 43.867 m f
0.298039 0.207843 0.180392 rg
210 149.242 12.008 46.938 re f
0.866667 0.662745 0.462745 rg
164.461 265.02 10.5 8.855 re f
141.148 265.02 10.5 8.855 re f
117.84 265.02 10.5 8.855 re f
94.531 265.02 10.5 8.855 re f
71.219 265.02 10.5 8.855 re f
Q Q
showpage
%%Trailer
end
%%EOF
