%!PS-Adobe-3.0 EPSF-3.0
%%Creator: cairo 1.16.0 (https://cairographics.org)
%%CreationDate: Fri Jul 19 07:40:23 2019
%%Pages: 1
%%DocumentData: Clean7Bit
%%LanguageLevel: 2
%%BoundingBox: 5 5 379 379
%%EndComments
%%BeginProlog
50 dict begin
/q { gsave } bind def
/Q { grestore } bind def
/cm { 6 array astore concat } bind def
/w { setlinewidth } bind def
/J { setlinecap } bind def
/j { setlinejoin } bind def
/M { setmiterlimit } bind def
/d { setdash } bind def
/m { moveto } bind def
/l { lineto } bind def
/c { curveto } bind def
/h { closepath } bind def
/re { exch dup neg 3 1 roll 5 3 roll moveto 0 rlineto
      0 exch rlineto 0 rlineto closepath } bind def
/S { stroke } bind def
/f { fill } bind def
/f* { eofill } bind def
/n { newpath } bind def
/W { clip } bind def
/W* { eoclip } bind def
/BT { } bind def
/ET { } bind def
/BDC { mark 3 1 roll /BDC pdfmark } bind def
/EMC { mark /EMC pdfmark } bind def
/cairo_store_point { /cairo_point_y exch def /cairo_point_x exch def } def
/Tj { show currentpoint cairo_store_point } bind def
/TJ {
  {
    dup
    type /stringtype eq
    { show } { -0.001 mul 0 cairo_font_matrix dtransform rmoveto } ifelse
  } forall
  currentpoint cairo_store_point
} bind def
/cairo_selectfont { cairo_font_matrix aload pop pop pop 0 0 6 array astore
    cairo_font exch selectfont cairo_point_x cairo_point_y moveto } bind def
/Tf { pop /cairo_font exch def /cairo_font_matrix where
      { pop cairo_selectfont } if } bind def
/Td { matrix translate cairo_font_matrix matrix concatmatrix dup
      /cairo_font_matrix exch def dup 4 get exch 5 get cairo_store_point
      /cairo_font where { pop cairo_selectfont } if } bind def
/Tm { 2 copy 8 2 roll 6 array astore /cairo_font_matrix exch def
      cairo_store_point /cairo_font where { pop cairo_selectfont } if } bind def
/g { setgray } bind def
/rg { setrgbcolor } bind def
/d1 { setcachedevice } bind def
/cairo_data_source {
  CairoDataIndex CairoData length lt
    { CairoData CairoDataIndex get /CairoDataIndex CairoDataIndex 1 add def }
    { () } ifelse
} def
/cairo_flush_ascii85_file { cairo_ascii85_file status { cairo_ascii85_file flushfile } if } def
/cairo_image { image cairo_flush_ascii85_file } def
/cairo_imagemask { imagemask cairo_flush_ascii85_file } def
%%EndProlog
%%BeginSetup
%%EndSetup
%%Page: 1 1
%%BeginPageSetup
%%PageBoundingBox: 5 5 379 379
%%EndPageSetup
q 5 5 374 374 rectclip
1 0 0 -1 0 384 cm q
0.984314 0.54902 0 rg
203.746 104.5 m 203.746 159.312 159.312 203.746 104.5 203.746 c 49.684 
203.746 5.25 159.312 5.25 104.5 c 5.25 49.684 49.684 5.25 104.5 5.25 c 159.312
 5.25 203.746 49.684 203.746 104.5 c h
203.746 104.5 m f
0.937255 0.423529 0 rg
104.5 5.25 m 102.48 5.25 100.48 5.328 98.5 5.449 c 150.879 8.621 191.734
 52.023 191.734 104.5 c 191.734 156.977 150.879 200.379 98.5 203.555 c 100.488
 203.672 102.484 203.75 104.5 203.75 c 159.312 203.75 203.75 159.316 203.75
 104.5 c 203.75 49.688 159.312 5.25 104.5 5.25 c h
104.5 5.25 m f
0.984314 0.54902 0 rg
378.75 279.5 m 378.75 334.316 334.316 378.75 279.5 378.75 c 224.688 378.75
 180.254 334.316 180.254 279.5 c 180.254 224.688 224.688 180.254 279.5 180.254
 c 334.316 180.254 378.75 224.688 378.75 279.5 c h
378.75 279.5 m f
0.937255 0.423529 0 rg
279.5 180.25 m 277.48 180.25 275.484 180.328 273.5 180.445 c 325.879 183.621
 366.734 227.023 366.734 279.5 c 366.734 331.977 325.879 375.379 273.5 378.551
 c 275.488 378.672 277.488 378.75 279.5 378.75 c 334.316 378.75 378.75 334.312
 378.75 279.5 c 378.75 224.684 334.316 180.25 279.5 180.25 c h
279.5 180.25 m f
1 0.792157 0.564706 rg
352.605 279.5 m 352.605 319.875 319.875 352.605 279.5 352.605 c 239.125
 352.605 206.398 319.875 206.398 279.5 c 206.398 239.125 239.125 206.398
 279.5 206.398 c 319.875 206.398 352.605 239.125 352.605 279.5 c h
352.605 279.5 m f
0.866667 0.662745 0.462745 rg
279.5 206.398 m 277.477 206.398 275.477 206.504 273.5 206.668 c 311.422
 209.777 340.609 241.457 340.609 279.504 c 340.609 317.551 311.422 349.234
 273.5 352.344 c 275.484 352.508 277.48 352.609 279.5 352.609 c 319.875 
352.609 352.605 319.879 352.605 279.504 c 352.605 239.129 319.875 206.398
 279.5 206.398 c h
279.5 206.398 m f
1 0.792157 0.564706 rg
177.602 104.5 m 177.602 144.875 144.875 177.602 104.5 177.602 c 64.125 
177.602 31.395 144.875 31.395 104.5 c 31.395 64.125 64.125 31.395 104.5 
31.395 c 144.875 31.395 177.602 64.125 177.602 104.5 c h
177.602 104.5 m f
0.866667 0.662745 0.462745 rg
104.5 31.395 m 102.473 31.395 100.477 31.5 98.5 31.66 c 136.418 34.773 
165.609 66.453 165.609 104.5 c 165.609 142.547 136.418 174.23 98.5 177.34
 c 100.48 177.5 102.48 177.605 104.5 177.605 c 123.887 177.605 142.48 169.902
 156.191 156.195 c 169.902 142.484 177.602 123.891 177.602 104.504 c 177.602
 85.113 169.902 66.52 156.191 52.809 c 142.48 39.102 123.887 31.398 104.5
 31.398 c h
104.5 31.395 m f
0.364706 0.25098 0.215686 rg
300.406 96.988 m 300.402 64.402 273.988 37.988 241.402 37.988 c 230.152
 37.988 l 248.941 62.836 l 256.379 72.668 260.398 84.66 260.398 96.988 c
 242.152 96.988 l 278.152 141 l 282.652 141 l 318.652 96.977 l h
300.406 96.988 m f
83.594 287.012 m 83.594 319.598 110.012 346.016 142.598 346.016 c 153.848
 346.016 l 135.059 321.168 l 127.621 311.332 123.598 299.34 123.602 287.012
 c 141.848 287.012 l 105.848 243 l 101.348 243 l 65.348 287.023 l h
83.594 287.012 m f
0 0.67451 0.756863 rg
113.977 99.25 m 95.023 99.25 l 90.598 99.25 87.008 95.66 87.008 91.23 c
 87.008 86.805 90.598 83.215 95.023 83.215 c 127.246 83.215 l 134.246 83.215
 134.246 72.715 127.246 72.715 c 109.75 72.715 l 109.75 56.59 l 109.75 49.59
 99.25 49.59 99.25 56.59 c 99.25 72.715 l 95.023 72.715 l 84.797 72.715 
76.508 81.004 76.508 91.23 c 76.508 101.457 84.797 109.75 95.023 109.75 
c 113.977 109.75 l 118.406 109.75 121.996 113.34 121.996 117.77 c 121.996
 122.195 118.406 125.785 113.977 125.785 c 81.758 125.785 l 74.758 125.785
 74.758 136.285 81.758 136.285 c 99.25 136.285 l 99.25 152.398 l 99.25 159.398
 109.75 159.398 109.75 152.398 c 109.75 136.285 l 113.977 136.285 l 124.203
 136.285 132.496 127.996 132.496 117.77 c 132.496 107.539 124.203 99.25 
113.977 99.25 c h
113.977 99.25 m f
299.656 294.898 m 295.316 299.523 289.227 302.094 282.887 301.98 c 276.547
 301.867 270.551 299.074 266.379 294.301 c 275.25 294.301 l 282.25 294.301
 282.25 283.801 275.25 283.801 c 261.188 283.801 l 260.621 280.945 260.621
 278.012 261.188 275.156 c 275.25 275.156 l 282.25 275.156 282.25 264.656
 275.25 264.656 c 266.375 264.656 l 270.547 259.883 276.543 257.09 282.883
 256.977 c 289.223 256.863 295.316 259.434 299.656 264.059 c 301.645 266.172
 304.973 266.273 307.086 264.285 c 309.199 262.297 309.301 258.969 307.312
 256.855 c 301.414 250.621 293.324 246.922 284.75 246.535 c 284.75 231.535
 l 284.75 224.535 274.25 224.535 274.25 231.535 c 274.25 247.734 l 265.383
 250.273 257.977 256.398 253.816 264.629 c 246.562 264.629 l 239.562 264.629
 239.562 275.129 246.562 275.129 c 250.578 275.129 l 250.156 277.996 250.156
 280.906 250.578 283.773 c 246.562 283.773 l 239.562 283.773 239.562 294.273
 246.562 294.273 c 253.816 294.273 l 257.977 302.504 265.383 308.629 274.25
 311.168 c 274.25 327.367 l 274.25 334.367 284.75 334.367 284.75 327.367
 c 284.75 312.367 l 293.324 311.98 301.414 308.281 307.312 302.047 c 309.301
 299.934 309.199 296.609 307.086 294.621 c 304.973 292.633 301.645 292.734
 299.656 294.848 c h
299.656 294.898 m f
Q Q
showpage
%%Trailer
end
%%EOF
