%!PS-Adobe-3.0 EPSF-3.0
%%Creator: cairo 1.16.0 (https://cairographics.org)
%%CreationDate: Fri Jul 19 07:40:23 2019
%%Pages: 1
%%DocumentData: Clean7Bit
%%LanguageLevel: 2
%%BoundingBox: 5 5 379 379
%%EndComments
%%BeginProlog
50 dict begin
/q { gsave } bind def
/Q { grestore } bind def
/cm { 6 array astore concat } bind def
/w { setlinewidth } bind def
/J { setlinecap } bind def
/j { setlinejoin } bind def
/M { setmiterlimit } bind def
/d { setdash } bind def
/m { moveto } bind def
/l { lineto } bind def
/c { curveto } bind def
/h { closepath } bind def
/re { exch dup neg 3 1 roll 5 3 roll moveto 0 rlineto
      0 exch rlineto 0 rlineto closepath } bind def
/S { stroke } bind def
/f { fill } bind def
/f* { eofill } bind def
/n { newpath } bind def
/W { clip } bind def
/W* { eoclip } bind def
/BT { } bind def
/ET { } bind def
/BDC { mark 3 1 roll /BDC pdfmark } bind def
/EMC { mark /EMC pdfmark } bind def
/cairo_store_point { /cairo_point_y exch def /cairo_point_x exch def } def
/Tj { show currentpoint cairo_store_point } bind def
/TJ {
  {
    dup
    type /stringtype eq
    { show } { -0.001 mul 0 cairo_font_matrix dtransform rmoveto } ifelse
  } forall
  currentpoint cairo_store_point
} bind def
/cairo_selectfont { cairo_font_matrix aload pop pop pop 0 0 6 array astore
    cairo_font exch selectfont cairo_point_x cairo_point_y moveto } bind def
/Tf { pop /cairo_font exch def /cairo_font_matrix where
      { pop cairo_selectfont } if } bind def
/Td { matrix translate cairo_font_matrix matrix concatmatrix dup
      /cairo_font_matrix exch def dup 4 get exch 5 get cairo_store_point
      /cairo_font where { pop cairo_selectfont } if } bind def
/Tm { 2 copy 8 2 roll 6 array astore /cairo_font_matrix exch def
      cairo_store_point /cairo_font where { pop cairo_selectfont } if } bind def
/g { setgray } bind def
/rg { setrgbcolor } bind def
/d1 { setcachedevice } bind def
/cairo_data_source {
  CairoDataIndex CairoData length lt
    { CairoData CairoDataIndex get /CairoDataIndex CairoDataIndex 1 add def }
    { () } ifelse
} def
/cairo_flush_ascii85_file { cairo_ascii85_file status { cairo_ascii85_file flushfile } if } def
/cairo_image { image cairo_flush_ascii85_file } def
/cairo_imagemask { imagemask cairo_flush_ascii85_file } def
%%EndProlog
%%BeginSetup
%%EndSetup
%%Page: 1 1
%%BeginPageSetup
%%PageBoundingBox: 5 5 379 379
%%EndPageSetup
q 5 5 374 374 rectclip
1 0 0 -1 0 384 cm q
0.364706 0.25098 0.215686 rg
5.25 242.75 373.5 136 re f
0.298039 0.207843 0.180392 rg
5.25 242.75 m 5.25 257.75 l 345.75 257.75 l 355.691 257.75 363.75 265.809
 363.75 275.75 c 363.75 378.75 l 378.75 378.75 l 378.75 242.75 l h
5.25 242.75 m f
0.984314 0.54902 0 rg
72.75 242.75 m 5.25 242.75 l 5.25 215.09 l 72.75 185.09 l h
72.75 242.75 m f
140.25 242.75 m 72.75 242.75 l 72.75 215.09 l 140.25 185.09 l h
140.25 242.75 m f
207.75 242.75 m 140.25 242.75 l 140.25 215.09 l 207.75 185.09 l h
207.75 242.75 m f
42.988 294.75 112.023 84 re f
1 0.792157 0.564706 rg
189 294.75 60.5 29 re f
285 294.75 60.5 29 re f
0.866667 0.662745 0.462745 rg
285 294.75 m 285 303.75 l 318.5 303.75 l 328.441 303.75 336.5 311.809 336.5
 321.75 c 336.5 323.75 l 345.5 323.75 l 345.5 294.75 l h
285 294.75 m f
189 294.75 m 189 303.75 l 222.5 303.75 l 232.441 303.75 240.5 311.809 240.5
 321.75 c 240.5 323.75 l 249.5 323.75 l 249.5 294.75 l h
189 294.75 m f
0.937255 0.423529 0 rg
42.988 294.75 m 42.988 303.75 l 146.012 303.75 l 146.012 310.5 l 42.988
 310.5 l 42.988 321 l 146.012 321 l 146.012 331.5 l 42.988 331.5 l 42.988
 342 l 146.012 342 l 146.012 352.5 l 42.988 352.5 l 42.988 363 l 146.012
 363 l 146.012 378.75 l 155.012 378.75 l 155.012 294.75 l h
42.988 294.75 m f
1 0.792157 0.564706 rg
354.5 242.75 m 233.5 242.75 l 260.094 71 l 327.906 71 l h
354.5 242.75 m f
0.866667 0.662745 0.462745 rg
318.266 95.246 m 341.102 242.75 l 354.496 242.75 l 327.898 71 l 260.102
 71 l 258.703 80 l 300.48 80 l 309.355 80 316.91 86.473 318.266 95.246 c
 h
318.266 95.246 m f
0 0.67451 0.756863 rg
251.93 126.5 m 336.07 126.5 l 332.246 100.5 l 255.754 100.5 l h
251.93 126.5 m f
0 0.592157 0.654902 rg
319.078 100.5 m 323.105 126.5 l 336.07 126.5 l 332.246 100.5 l h
319.078 100.5 m f
0.364706 0.25098 0.215686 rg
48.934 30.938 m 51.332 39.824 59.395 46 68.605 46.004 c 79.801 46.004 l
 86.75 46.004 92.875 50.559 94.879 57.215 c 97.922 67.328 107.238 74.254
 117.801 74.254 c 131.734 74.254 l 135.91 74.254 139.914 75.91 142.867 78.863
 c 144.43 80.426 l 153.762 89.758 166.422 95 179.621 95 c 190.266 95 200.625
 91.59 209.188 85.27 c 224.336 74.082 l 227.047 72.082 230.324 71 233.691
 71 c 328.008 71 l 328.008 53 l 328.008 47.973 330.41 43.246 334.473 40.281
 c 343.473 33.719 l 347.531 30.75 349.93 26.027 349.93 21 c 349.93 12.305
 342.879 5.254 334.184 5.254 c 68.605 5.254 l 62.262 5.254 56.285 8.207 
52.43 13.238 c 48.574 18.273 47.281 24.812 48.934 30.938 c h
48.934 30.938 m f
0.298039 0.207843 0.180392 rg
209.332 74.078 m 194.18 85.266 l 187.723 90.031 180.211 93.164 172.281 
94.395 c 185.309 96.465 198.621 93.172 209.18 85.266 c 224.332 74.078 l 
227.039 72.078 230.316 71 233.684 71 c 218.684 71 l 215.316 71 212.039 72.078
 209.332 74.078 c h
209.332 74.078 m f
334.184 5.25 m 319.184 5.25 l 325.996 5.25 332.039 9.637 334.152 16.117
 c 336.266 22.594 333.969 29.699 328.465 33.719 c 319.465 40.281 l 315.402
 43.246 313 47.973 313 53 c 313 71 l 328 71 l 328 53 l 328 47.973 330.402
 43.246 334.465 40.281 c 343.465 33.719 l 348.969 29.699 351.266 22.594 
349.152 16.117 c 347.039 9.637 340.996 5.25 334.184 5.25 c h
334.184 5.25 m f
0.937255 0.423529 0 rg
84.75 242.75 m 72.75 242.75 l 72.75 215.09 l 84.75 209.758 l h
84.75 242.75 m f
152.25 242.75 m 140.25 242.75 l 140.25 215.09 l 152.25 209.758 l h
152.25 242.75 m f
Q Q
showpage
%%Trailer
end
%%EOF
