%!PS-Adobe-3.0 EPSF-3.0
%%Creator: cairo 1.16.0 (https://cairographics.org)
%%CreationDate: Fri Jul 19 07:40:23 2019
%%Pages: 1
%%DocumentData: Clean7Bit
%%LanguageLevel: 2
%%BoundingBox: 99 5 285 379
%%EndComments
%%BeginProlog
50 dict begin
/q { gsave } bind def
/Q { grestore } bind def
/cm { 6 array astore concat } bind def
/w { setlinewidth } bind def
/J { setlinecap } bind def
/j { setlinejoin } bind def
/M { setmiterlimit } bind def
/d { setdash } bind def
/m { moveto } bind def
/l { lineto } bind def
/c { curveto } bind def
/h { closepath } bind def
/re { exch dup neg 3 1 roll 5 3 roll moveto 0 rlineto
      0 exch rlineto 0 rlineto closepath } bind def
/S { stroke } bind def
/f { fill } bind def
/f* { eofill } bind def
/n { newpath } bind def
/W { clip } bind def
/W* { eoclip } bind def
/BT { } bind def
/ET { } bind def
/BDC { mark 3 1 roll /BDC pdfmark } bind def
/EMC { mark /EMC pdfmark } bind def
/cairo_store_point { /cairo_point_y exch def /cairo_point_x exch def } def
/Tj { show currentpoint cairo_store_point } bind def
/TJ {
  {
    dup
    type /stringtype eq
    { show } { -0.001 mul 0 cairo_font_matrix dtransform rmoveto } ifelse
  } forall
  currentpoint cairo_store_point
} bind def
/cairo_selectfont { cairo_font_matrix aload pop pop pop 0 0 6 array astore
    cairo_font exch selectfont cairo_point_x cairo_point_y moveto } bind def
/Tf { pop /cairo_font exch def /cairo_font_matrix where
      { pop cairo_selectfont } if } bind def
/Td { matrix translate cairo_font_matrix matrix concatmatrix dup
      /cairo_font_matrix exch def dup 4 get exch 5 get cairo_store_point
      /cairo_font where { pop cairo_selectfont } if } bind def
/Tm { 2 copy 8 2 roll 6 array astore /cairo_font_matrix exch def
      cairo_store_point /cairo_font where { pop cairo_selectfont } if } bind def
/g { setgray } bind def
/rg { setrgbcolor } bind def
/d1 { setcachedevice } bind def
/cairo_data_source {
  CairoDataIndex CairoData length lt
    { CairoData CairoDataIndex get /CairoDataIndex CairoDataIndex 1 add def }
    { () } ifelse
} def
/cairo_flush_ascii85_file { cairo_ascii85_file status { cairo_ascii85_file flushfile } if } def
/cairo_image { image cairo_flush_ascii85_file } def
/cairo_imagemask { imagemask cairo_flush_ascii85_file } def
%%EndProlog
%%BeginSetup
%%EndSetup
%%Page: 1 1
%%BeginPageSetup
%%PageBoundingBox: 99 5 285 379
%%EndPageSetup
q 99 5 186 374 rectclip
1 0 0 -1 0 384 cm q
0.364706 0.25098 0.215686 rg
99.75 5.25 184.5 35.25 re f
0.298039 0.207843 0.180392 rg
99.75 5.25 m 99.75 17.25 l 254.25 17.25 l 264.191 17.25 272.25 25.309 272.25
 35.25 c 272.25 40.5 l 284.25 40.5 l 284.25 5.25 l h
99.75 5.25 m f
0.984314 0.54902 0 rg
250.125 147.75 m 133.875 147.75 l 99.75 40.5 l 284.25 40.5 l h
250.125 147.75 m f
0.937255 0.423529 0 rg
99.75 40.5 m 102.613 49.5 l 244.621 49.5 l 250.363 49.5 255.762 52.238 
259.152 56.875 c 262.539 61.512 263.516 67.484 261.773 72.957 c 237.977 
147.75 l 250.125 147.75 l 284.25 40.5 l h
99.75 40.5 m f
0.364706 0.25098 0.215686 rg
133.875 147.75 116.25 231 re f
0.298039 0.207843 0.180392 rg
133.875 147.75 m 133.875 159.75 l 220.117 159.75 l 230.059 159.75 238.117
 167.809 238.117 177.75 c 238.117 378.75 l 250.117 378.75 l 250.117 147.75
 l h
133.875 147.75 m f
0.984314 0.54902 0 rg
133.875 344.25 116.25 34.5 re f
0.937255 0.423529 0 rg
133.875 344.25 m 133.875 356.25 l 220.117 356.25 l 230.059 356.25 238.117
 364.309 238.117 374.25 c 238.117 378.75 l 250.117 378.75 l 250.117 344.25
 l h
133.875 344.25 m f
1 0.792157 0.564706 rg
179.25 187.5 m 204.75 187.5 l 208.074 187.5 210.75 190.176 210.75 193.5
 c 210.75 262 l 210.75 265.324 208.074 268 204.75 268 c 179.25 268 l 175.926
 268 173.25 265.324 173.25 262 c 173.25 193.5 l 173.25 190.176 175.926 187.5
 179.25 187.5 c h
179.25 187.5 m f
0.866667 0.662745 0.462745 rg
204.75 187.5 m 179.25 187.5 l 175.938 187.5 173.25 190.188 173.25 193.5
 c 195.75 193.5 l 199.062 193.5 201.75 196.188 201.75 199.5 c 201.75 268
 l 204.75 268 l 208.062 268 210.75 265.312 210.75 262 c 210.75 193.5 l 210.75
 190.188 208.062 187.5 204.75 187.5 c h
204.75 187.5 m f
0 0.67451 0.756863 rg
173.25 227.75 m 210.75 227.75 l 210.75 262 l 210.75 265.312 208.062 268
 204.75 268 c 179.25 268 l 175.938 268 173.25 265.312 173.25 262 c h
173.25 227.75 m f
0 0.592157 0.654902 rg
201.742 268 m 204.742 268 l 208.059 268 210.742 265.312 210.742 262 c 210.742
 227.75 l 201.742 227.75 l h
201.742 268 m f
Q Q
showpage
%%Trailer
end
%%EOF
