%!PS-Adobe-3.0 EPSF-3.0
%%Creator: cairo 1.16.0 (https://cairographics.org)
%%CreationDate: Fri Jul 19 07:40:24 2019
%%Pages: 1
%%DocumentData: Clean7Bit
%%LanguageLevel: 2
%%BoundingBox: 5 29 379 355
%%EndComments
%%BeginProlog
50 dict begin
/q { gsave } bind def
/Q { grestore } bind def
/cm { 6 array astore concat } bind def
/w { setlinewidth } bind def
/J { setlinecap } bind def
/j { setlinejoin } bind def
/M { setmiterlimit } bind def
/d { setdash } bind def
/m { moveto } bind def
/l { lineto } bind def
/c { curveto } bind def
/h { closepath } bind def
/re { exch dup neg 3 1 roll 5 3 roll moveto 0 rlineto
      0 exch rlineto 0 rlineto closepath } bind def
/S { stroke } bind def
/f { fill } bind def
/f* { eofill } bind def
/n { newpath } bind def
/W { clip } bind def
/W* { eoclip } bind def
/BT { } bind def
/ET { } bind def
/BDC { mark 3 1 roll /BDC pdfmark } bind def
/EMC { mark /EMC pdfmark } bind def
/cairo_store_point { /cairo_point_y exch def /cairo_point_x exch def } def
/Tj { show currentpoint cairo_store_point } bind def
/TJ {
  {
    dup
    type /stringtype eq
    { show } { -0.001 mul 0 cairo_font_matrix dtransform rmoveto } ifelse
  } forall
  currentpoint cairo_store_point
} bind def
/cairo_selectfont { cairo_font_matrix aload pop pop pop 0 0 6 array astore
    cairo_font exch selectfont cairo_point_x cairo_point_y moveto } bind def
/Tf { pop /cairo_font exch def /cairo_font_matrix where
      { pop cairo_selectfont } if } bind def
/Td { matrix translate cairo_font_matrix matrix concatmatrix dup
      /cairo_font_matrix exch def dup 4 get exch 5 get cairo_store_point
      /cairo_font where { pop cairo_selectfont } if } bind def
/Tm { 2 copy 8 2 roll 6 array astore /cairo_font_matrix exch def
      cairo_store_point /cairo_font where { pop cairo_selectfont } if } bind def
/g { setgray } bind def
/rg { setrgbcolor } bind def
/d1 { setcachedevice } bind def
/cairo_data_source {
  CairoDataIndex CairoData length lt
    { CairoData CairoDataIndex get /CairoDataIndex CairoDataIndex 1 add def }
    { () } ifelse
} def
/cairo_flush_ascii85_file { cairo_ascii85_file status { cairo_ascii85_file flushfile } if } def
/cairo_image { image cairo_flush_ascii85_file } def
/cairo_imagemask { imagemask cairo_flush_ascii85_file } def
%%EndProlog
%%BeginSetup
%%EndSetup
%%Page: 1 1
%%BeginPageSetup
%%PageBoundingBox: 5 29 379 355
%%EndPageSetup
q 5 29 374 326 rectclip
1 0 0 -1 0 384 cm q
1 0.792157 0.564706 rg
89.191 131.371 m 80.574 99.363 l 71.957 131.371 l 39.949 139.988 l 71.957
 148.609 l 80.574 180.613 l 89.191 148.609 l 121.199 139.988 l h
89.191 131.371 m f
294.621 131.371 m 303.238 99.363 l 311.855 131.371 l 343.863 139.988 l 
311.855 148.609 l 303.238 180.613 l 294.621 148.609 l 262.613 139.988 l 
h
294.621 131.371 m f
0.866667 0.662745 0.462745 rg
305.852 137.375 m 329.711 143.801 l 343.863 139.988 l 311.855 131.371 l
 303.238 99.363 l 299.426 113.516 l h
305.852 137.375 m f
83.188 137.375 m 107.047 143.801 l 121.199 139.988 l 89.191 131.371 l 80.574
 99.363 l 76.766 113.516 l h
83.188 137.375 m f
0.984314 0.54902 0 rg
129.781 354.387 m 5.344 354.387 l 25.352 300.363 l 109.77 300.363 l h
129.781 354.387 m f
254.219 354.387 m 129.781 354.387 l 149.789 300.363 l 234.211 300.363 l
 h
254.219 354.387 m f
191.906 300.363 m 67.469 300.363 l 87.48 246.344 l 171.898 246.344 l h
191.906 300.363 m f
316.344 300.363 m 191.906 300.363 l 211.918 246.344 l 296.336 246.344 l
 h
316.344 300.363 m f
254.219 246.344 m 129.781 246.344 l 149.789 192.32 l 234.211 192.32 l h
254.219 246.344 m f
0.937255 0.423529 0 rg
233.078 233.699 m 237.762 246.344 l 254.219 246.344 l 234.211 192.32 l 
149.789 192.32 l 145.34 204.32 l 190.883 204.32 l 209.707 204.324 226.543
 216.043 233.078 233.699 c h
233.078 233.699 m f
295.199 287.723 m 299.883 300.363 l 316.34 300.363 l 296.332 246.344 l 
211.918 246.344 l 207.469 258.344 l 253.004 258.344 l 271.832 258.344 288.664
 270.066 295.199 287.723 c h
295.199 287.723 m f
170.859 287.723 m 175.543 300.363 l 192 300.363 l 171.988 246.344 l 87.574
 246.344 l 83.125 258.344 l 128.66 258.344 l 147.488 258.344 164.324 270.066
 170.859 287.723 c h
170.859 287.723 m f
1 0.792157 0.564706 rg
179.641 75.176 m 191.906 29.613 l 204.176 75.176 l 249.734 87.445 l 204.176
 99.711 l 191.906 145.273 l 179.641 99.711 l 134.078 87.445 l h
179.641 75.176 m f
0.866667 0.662745 0.462745 rg
195.164 84.184 m 228.504 93.16 l 249.734 87.445 l 204.176 75.176 l 191.906
 29.613 l 186.188 50.844 l h
195.164 84.184 m f
0.984314 0.54902 0 rg
378.656 354.387 m 254.219 354.387 l 274.23 300.363 l 358.648 300.363 l 
h
378.656 354.387 m f
0.937255 0.423529 0 rg
357.516 341.742 m 362.199 354.383 l 378.656 354.383 l 358.648 300.363 l
 274.23 300.363 l 269.781 312.363 l 315.316 312.363 l 334.145 312.363 350.98
 324.086 357.516 341.742 c h
357.516 341.742 m f
233.078 341.742 m 237.762 354.383 l 254.219 354.383 l 234.211 300.363 l
 149.789 300.363 l 145.34 312.363 l 190.883 312.363 l 209.707 312.363 226.543
 324.086 233.078 341.742 c h
233.078 341.742 m f
108.641 341.742 m 113.32 354.383 l 129.781 354.383 l 109.77 300.363 l 25.352
 300.363 l 20.902 312.363 l 66.441 312.363 l 85.27 312.363 102.105 324.086
 108.641 341.742 c h
108.641 341.742 m f
Q Q
showpage
%%Trailer
end
%%EOF
