%!PS-Adobe-3.0 EPSF-3.0
%%Creator: cairo 1.16.0 (https://cairographics.org)
%%CreationDate: Fri Jul 19 07:40:24 2019
%%Pages: 1
%%DocumentData: Clean7Bit
%%LanguageLevel: 2
%%BoundingBox: 5 37 379 347
%%EndComments
%%BeginProlog
50 dict begin
/q { gsave } bind def
/Q { grestore } bind def
/cm { 6 array astore concat } bind def
/w { setlinewidth } bind def
/J { setlinecap } bind def
/j { setlinejoin } bind def
/M { setmiterlimit } bind def
/d { setdash } bind def
/m { moveto } bind def
/l { lineto } bind def
/c { curveto } bind def
/h { closepath } bind def
/re { exch dup neg 3 1 roll 5 3 roll moveto 0 rlineto
      0 exch rlineto 0 rlineto closepath } bind def
/S { stroke } bind def
/f { fill } bind def
/f* { eofill } bind def
/n { newpath } bind def
/W { clip } bind def
/W* { eoclip } bind def
/BT { } bind def
/ET { } bind def
/BDC { mark 3 1 roll /BDC pdfmark } bind def
/EMC { mark /EMC pdfmark } bind def
/cairo_store_point { /cairo_point_y exch def /cairo_point_x exch def } def
/Tj { show currentpoint cairo_store_point } bind def
/TJ {
  {
    dup
    type /stringtype eq
    { show } { -0.001 mul 0 cairo_font_matrix dtransform rmoveto } ifelse
  } forall
  currentpoint cairo_store_point
} bind def
/cairo_selectfont { cairo_font_matrix aload pop pop pop 0 0 6 array astore
    cairo_font exch selectfont cairo_point_x cairo_point_y moveto } bind def
/Tf { pop /cairo_font exch def /cairo_font_matrix where
      { pop cairo_selectfont } if } bind def
/Td { matrix translate cairo_font_matrix matrix concatmatrix dup
      /cairo_font_matrix exch def dup 4 get exch 5 get cairo_store_point
      /cairo_font where { pop cairo_selectfont } if } bind def
/Tm { 2 copy 8 2 roll 6 array astore /cairo_font_matrix exch def
      cairo_store_point /cairo_font where { pop cairo_selectfont } if } bind def
/g { setgray } bind def
/rg { setrgbcolor } bind def
/d1 { setcachedevice } bind def
/cairo_data_source {
  CairoDataIndex CairoData length lt
    { CairoData CairoDataIndex get /CairoDataIndex CairoDataIndex 1 add def }
    { () } ifelse
} def
/cairo_flush_ascii85_file { cairo_ascii85_file status { cairo_ascii85_file flushfile } if } def
/cairo_image { image cairo_flush_ascii85_file } def
/cairo_imagemask { imagemask cairo_flush_ascii85_file } def
%%EndProlog
%%BeginSetup
%%EndSetup
%%Page: 1 1
%%BeginPageSetup
%%PageBoundingBox: 5 37 379 347
%%EndPageSetup
q 5 37 374 310 rectclip
1 0 0 -1 0 384 cm q
0.364706 0.25098 0.215686 rg
5.25 346.5 m 378.75 346.5 l 378.75 190.5 l 335.25 156 l 335.25 104.25 l
 287.25 87.75 l 275.25 61.5 l 192 37.5 l 96.75 65.25 l 96.75 96 l 42 122.25
 l 42.75 158.25 l 5.25 180 l h
5.25 346.5 m f
0.298039 0.207843 0.180392 rg
335.25 156 m 335.25 104.25 l 287.25 87.75 l 275.25 61.5 l 192 37.5 l 96.75
 65.25 l 96.75 71.633 l 182.992 46.508 l 266.242 70.508 l 278.242 96.758
 l 326.242 113.258 l 326.242 165.008 l 369.742 199.508 l 369.742 346.5 l
 378.75 346.5 l 378.75 190.5 l h
335.25 156 m f
0 0.67451 0.756863 rg
96.75 188.27 190.5 32.23 re f
1 0.792157 0.564706 rg
87.77 346.5 m 117.77 220.5 l 150 220.5 l 120 346.5 l h
87.77 346.5 m f
296.23 346.5 m 266.23 220.5 l 234 220.5 l 264 346.5 l h
296.23 346.5 m f
0.984314 0.54902 0 rg
315.742 346.5 m 328.125 310.125 l 346.875 298.875 l 378.75 298.875 l 378.75
 346.5 l h
315.742 346.5 m f
0.937255 0.423529 0 rg
346.875 298.875 m 328.125 310.125 l 327.098 313.145 l 340.867 304.883 l
 372.742 304.883 l 372.742 346.5 l 378.75 346.5 l 378.75 298.875 l h
346.875 298.875 m f
0.984314 0.54902 0 rg
5.25 295.875 m 36.75 295.875 l 59.625 315 l 80.625 323.625 l 90 337.129
 l 87.77 346.5 l 5.25 346.5 l h
5.25 295.875 m f
0.937255 0.423529 0 rg
80.625 323.625 m 59.625 315 l 36.75 295.875 l 5.25 295.875 l 5.25 301.883
 l 27.742 301.883 l 50.617 321.008 l 71.617 329.633 l 80.992 343.133 l 80.191
 346.5 l 87.77 346.5 l 90 337.129 l h
80.625 323.625 m f
0.298039 0.207843 0.180392 rg
335.25 156 m 296.23 156 l 293.332 156 290.98 158.352 290.98 161.25 c 290.98
 164.148 293.332 166.5 296.23 166.5 c 348.488 166.5 l h
335.25 156 m f
166.125 101.25 m 166.125 98.352 163.773 96 160.875 96 c 96.75 96 l 74.852
 106.5 l 160.875 106.5 l 163.773 106.5 166.125 104.148 166.125 101.25 c 
h
166.125 101.25 m f
95.25 163.5 m 95.25 160.602 92.898 158.25 90 158.25 c 42.75 158.25 l 24.648
 168.75 l 90 168.75 l 92.898 168.75 95.25 166.398 95.25 163.5 c h
95.25 163.5 m f
0 0.592157 0.654902 rg
96.75 188.27 m 96.75 197.27 l 255.02 197.27 l 261.18 197.266 267.09 199.715
 271.445 204.07 c 275.801 208.43 278.246 214.34 278.242 220.5 c 287.242 
220.5 l 287.242 188.27 l h
96.75 188.27 m f
0.866667 0.662745 0.462745 rg
147.262 232 m 150 220.5 l 117.77 220.5 l 115.031 232 l h
147.262 232 m f
268.969 232 m 266.23 220.5 l 234 220.5 l 236.738 232 l h
268.969 232 m f
Q Q
showpage
%%Trailer
end
%%EOF
