%!PS-Adobe-3.0 EPSF-3.0
%%Creator: cairo 1.16.0 (https://cairographics.org)
%%CreationDate: Fri Jul 19 07:40:24 2019
%%Pages: 1
%%DocumentData: Clean7Bit
%%LanguageLevel: 2
%%BoundingBox: 5 5 379 379
%%EndComments
%%BeginProlog
50 dict begin
/q { gsave } bind def
/Q { grestore } bind def
/cm { 6 array astore concat } bind def
/w { setlinewidth } bind def
/J { setlinecap } bind def
/j { setlinejoin } bind def
/M { setmiterlimit } bind def
/d { setdash } bind def
/m { moveto } bind def
/l { lineto } bind def
/c { curveto } bind def
/h { closepath } bind def
/re { exch dup neg 3 1 roll 5 3 roll moveto 0 rlineto
      0 exch rlineto 0 rlineto closepath } bind def
/S { stroke } bind def
/f { fill } bind def
/f* { eofill } bind def
/n { newpath } bind def
/W { clip } bind def
/W* { eoclip } bind def
/BT { } bind def
/ET { } bind def
/BDC { mark 3 1 roll /BDC pdfmark } bind def
/EMC { mark /EMC pdfmark } bind def
/cairo_store_point { /cairo_point_y exch def /cairo_point_x exch def } def
/Tj { show currentpoint cairo_store_point } bind def
/TJ {
  {
    dup
    type /stringtype eq
    { show } { -0.001 mul 0 cairo_font_matrix dtransform rmoveto } ifelse
  } forall
  currentpoint cairo_store_point
} bind def
/cairo_selectfont { cairo_font_matrix aload pop pop pop 0 0 6 array astore
    cairo_font exch selectfont cairo_point_x cairo_point_y moveto } bind def
/Tf { pop /cairo_font exch def /cairo_font_matrix where
      { pop cairo_selectfont } if } bind def
/Td { matrix translate cairo_font_matrix matrix concatmatrix dup
      /cairo_font_matrix exch def dup 4 get exch 5 get cairo_store_point
      /cairo_font where { pop cairo_selectfont } if } bind def
/Tm { 2 copy 8 2 roll 6 array astore /cairo_font_matrix exch def
      cairo_store_point /cairo_font where { pop cairo_selectfont } if } bind def
/g { setgray } bind def
/rg { setrgbcolor } bind def
/d1 { setcachedevice } bind def
/cairo_data_source {
  CairoDataIndex CairoData length lt
    { CairoData CairoDataIndex get /CairoDataIndex CairoDataIndex 1 add def }
    { () } ifelse
} def
/cairo_flush_ascii85_file { cairo_ascii85_file status { cairo_ascii85_file flushfile } if } def
/cairo_image { image cairo_flush_ascii85_file } def
/cairo_imagemask { imagemask cairo_flush_ascii85_file } def
%%EndProlog
%%BeginSetup
%%EndSetup
%%Page: 1 1
%%BeginPageSetup
%%PageBoundingBox: 5 5 379 379
%%EndPageSetup
q 5 5 374 374 rectclip
1 0 0 -1 0 384 cm q
0.984314 0.54902 0 rg
378.375 378.75 m 5.25 378.75 l 65.25 252.75 l 318.375 252.75 l h
378.375 378.75 m f
0.937255 0.423529 0 rg
318.484 346.059 m 334.055 378.758 l 378.375 378.758 l 318.375 252.758 l
 65.25 252.758 l 50.953 282.773 l 218.258 282.773 l 261.074 282.77 300.078
 307.398 318.484 346.059 c h
318.484 346.059 m f
1 0.792157 0.564706 rg
174.316 70.938 m 192 5.25 l 209.688 70.938 l 275.375 88.625 l 209.688 106.312
 l 192 172 l 174.316 106.312 l 108.625 88.625 l h
174.316 70.938 m f
0.866667 0.662745 0.462745 rg
197.676 82.945 m 247.066 96.246 l 275.375 88.625 l 209.688 70.938 l 192
 5.25 l 184.379 33.559 l h
197.676 82.945 m f
1 0.792157 0.564706 rg
329.508 140.008 m 338.125 108 l 346.742 140.008 l 378.75 148.625 l 346.742
 157.242 l 338.125 189.25 l 329.508 157.242 l 297.5 148.625 l h
329.508 140.008 m f
0.866667 0.662745 0.462745 rg
340.738 146.012 m 364.598 152.438 l 378.75 148.625 l 346.742 140.008 l 
338.125 108 l 334.312 122.152 l h
340.738 146.012 m f
1 0.792157 0.564706 rg
54.492 140.008 m 45.875 108 l 37.258 140.008 l 5.25 148.625 l 37.258 157.242
 l 45.875 189.25 l 54.492 157.242 l 86.5 148.625 l h
54.492 140.008 m f
0.866667 0.662745 0.462745 rg
48.488 146.012 m 72.344 152.438 l 86.5 148.625 l 54.492 140.008 l 45.875
 108 l 42.062 122.152 l h
48.488 146.012 m f
Q Q
showpage
%%Trailer
end
%%EOF
