%!PS-Adobe-3.0 EPSF-3.0
%%Creator: cairo 1.16.0 (https://cairographics.org)
%%CreationDate: Fri Jul 19 07:40:24 2019
%%Pages: 1
%%DocumentData: Clean7Bit
%%LanguageLevel: 2
%%BoundingBox: 5 5 379 379
%%EndComments
%%BeginProlog
50 dict begin
/q { gsave } bind def
/Q { grestore } bind def
/cm { 6 array astore concat } bind def
/w { setlinewidth } bind def
/J { setlinecap } bind def
/j { setlinejoin } bind def
/M { setmiterlimit } bind def
/d { setdash } bind def
/m { moveto } bind def
/l { lineto } bind def
/c { curveto } bind def
/h { closepath } bind def
/re { exch dup neg 3 1 roll 5 3 roll moveto 0 rlineto
      0 exch rlineto 0 rlineto closepath } bind def
/S { stroke } bind def
/f { fill } bind def
/f* { eofill } bind def
/n { newpath } bind def
/W { clip } bind def
/W* { eoclip } bind def
/BT { } bind def
/ET { } bind def
/BDC { mark 3 1 roll /BDC pdfmark } bind def
/EMC { mark /EMC pdfmark } bind def
/cairo_store_point { /cairo_point_y exch def /cairo_point_x exch def } def
/Tj { show currentpoint cairo_store_point } bind def
/TJ {
  {
    dup
    type /stringtype eq
    { show } { -0.001 mul 0 cairo_font_matrix dtransform rmoveto } ifelse
  } forall
  currentpoint cairo_store_point
} bind def
/cairo_selectfont { cairo_font_matrix aload pop pop pop 0 0 6 array astore
    cairo_font exch selectfont cairo_point_x cairo_point_y moveto } bind def
/Tf { pop /cairo_font exch def /cairo_font_matrix where
      { pop cairo_selectfont } if } bind def
/Td { matrix translate cairo_font_matrix matrix concatmatrix dup
      /cairo_font_matrix exch def dup 4 get exch 5 get cairo_store_point
      /cairo_font where { pop cairo_selectfont } if } bind def
/Tm { 2 copy 8 2 roll 6 array astore /cairo_font_matrix exch def
      cairo_store_point /cairo_font where { pop cairo_selectfont } if } bind def
/g { setgray } bind def
/rg { setrgbcolor } bind def
/d1 { setcachedevice } bind def
/cairo_data_source {
  CairoDataIndex CairoData length lt
    { CairoData CairoDataIndex get /CairoDataIndex CairoDataIndex 1 add def }
    { () } ifelse
} def
/cairo_flush_ascii85_file { cairo_ascii85_file status { cairo_ascii85_file flushfile } if } def
/cairo_image { image cairo_flush_ascii85_file } def
/cairo_imagemask { imagemask cairo_flush_ascii85_file } def
%%EndProlog
%%BeginSetup
%%EndSetup
%%Page: 1 1
%%BeginPageSetup
%%PageBoundingBox: 5 5 379 379
%%EndPageSetup
q 5 5 374 374 rectclip
1 0 0 -1 0 384 cm q
0.984314 0.54902 0 rg
253.688 163.648 m 38.594 378.742 l 5.312 345.461 l 220.402 130.367 l h
253.688 163.648 m f
0.937255 0.423529 0 rg
28.258 368.469 m 243.352 153.379 l 253.602 163.625 l 38.508 378.719 l h
28.258 368.469 m f
0 0.67451 0.756863 rg
288.238 62.477 m 251.922 61.859 l 219.758 94.023 l 220.379 130.34 l 253.66
 163.621 l 289.977 164.242 l 322.141 132.078 l 321.523 95.762 l h
288.238 62.477 m f
0 0.592157 0.654902 rg
321.523 95.762 m 310.648 84.887 l 311.266 121.203 l 279.102 153.367 l 242.785
 152.746 l 253.66 163.621 l 289.977 164.242 l 322.141 132.078 l h
321.523 95.762 m f
0.364706 0.25098 0.215686 rg
341.652 151.527 m 309.496 183.684 l 290.035 164.223 l 322.191 132.066 l
 h
341.652 151.527 m f
0 0.67451 0.756863 rg
375.738 164.688 m 322.66 217.766 l 318.566 221.859 311.98 221.859 307.891
 217.766 c 299.043 208.918 l 294.949 204.828 294.949 198.242 299.043 194.148
 c 352.121 141.07 l 356.215 136.977 362.801 136.977 366.895 141.07 c 375.738
 149.914 l 379.832 154.008 379.832 160.594 375.738 164.688 c h
375.738 164.688 m f
242.941 31.914 m 189.859 84.996 l 185.77 89.086 179.18 89.086 175.09 84.996
 c 166.242 76.148 l 162.152 72.059 162.152 65.469 166.242 61.379 c 219.324
 8.297 l 223.414 4.207 230 4.207 234.094 8.297 c 242.941 17.145 l 247.031
 21.234 247.031 27.824 242.941 31.914 c h
242.941 31.914 m f
0 0.592157 0.654902 rg
375.691 149.93 m 368.566 142.801 l 372.645 146.879 372.645 153.492 368.566
 157.57 c 315.465 210.672 l 311.387 214.75 304.773 214.75 300.691 210.672
 c 307.828 217.801 l 311.91 221.879 318.523 221.879 322.602 217.801 c 375.703
 164.699 l 379.777 160.617 379.773 154.004 375.691 149.93 c h
375.691 149.93 m f
242.918 17.156 m 235.801 10.031 l 239.879 14.109 239.879 20.727 235.801
 24.805 c 182.699 77.902 l 178.621 81.984 172.008 81.984 167.93 77.902 c
 175.055 85.027 l 179.133 89.109 185.746 89.109 189.824 85.027 c 242.926
 31.93 l 247.004 27.848 247 21.234 242.918 17.156 c h
242.918 17.156 m f
0.364706 0.25098 0.215686 rg
251.949 61.844 m 219.793 94 l 200.328 74.535 l 232.484 42.379 l h
251.949 61.844 m f
0.298039 0.207843 0.180392 rg
303.02 177.348 m 335.176 145.191 l 341.551 151.562 l 309.395 183.719 l 
h
303.02 177.348 m f
232.453 42.395 m 245.547 55.484 l 213.383 87.645 l 219.758 94.02 l 251.922
 61.859 l h
232.453 42.395 m f
Q Q
showpage
%%Trailer
end
%%EOF
