%!PS-Adobe-3.0 EPSF-3.0
%%Creator: cairo 1.16.0 (https://cairographics.org)
%%CreationDate: Fri Jul 19 07:40:24 2019
%%Pages: 1
%%DocumentData: Clean7Bit
%%LanguageLevel: 2
%%BoundingBox: 5 5 379 379
%%EndComments
%%BeginProlog
50 dict begin
/q { gsave } bind def
/Q { grestore } bind def
/cm { 6 array astore concat } bind def
/w { setlinewidth } bind def
/J { setlinecap } bind def
/j { setlinejoin } bind def
/M { setmiterlimit } bind def
/d { setdash } bind def
/m { moveto } bind def
/l { lineto } bind def
/c { curveto } bind def
/h { closepath } bind def
/re { exch dup neg 3 1 roll 5 3 roll moveto 0 rlineto
      0 exch rlineto 0 rlineto closepath } bind def
/S { stroke } bind def
/f { fill } bind def
/f* { eofill } bind def
/n { newpath } bind def
/W { clip } bind def
/W* { eoclip } bind def
/BT { } bind def
/ET { } bind def
/BDC { mark 3 1 roll /BDC pdfmark } bind def
/EMC { mark /EMC pdfmark } bind def
/cairo_store_point { /cairo_point_y exch def /cairo_point_x exch def } def
/Tj { show currentpoint cairo_store_point } bind def
/TJ {
  {
    dup
    type /stringtype eq
    { show } { -0.001 mul 0 cairo_font_matrix dtransform rmoveto } ifelse
  } forall
  currentpoint cairo_store_point
} bind def
/cairo_selectfont { cairo_font_matrix aload pop pop pop 0 0 6 array astore
    cairo_font exch selectfont cairo_point_x cairo_point_y moveto } bind def
/Tf { pop /cairo_font exch def /cairo_font_matrix where
      { pop cairo_selectfont } if } bind def
/Td { matrix translate cairo_font_matrix matrix concatmatrix dup
      /cairo_font_matrix exch def dup 4 get exch 5 get cairo_store_point
      /cairo_font where { pop cairo_selectfont } if } bind def
/Tm { 2 copy 8 2 roll 6 array astore /cairo_font_matrix exch def
      cairo_store_point /cairo_font where { pop cairo_selectfont } if } bind def
/g { setgray } bind def
/rg { setrgbcolor } bind def
/d1 { setcachedevice } bind def
/cairo_data_source {
  CairoDataIndex CairoData length lt
    { CairoData CairoDataIndex get /CairoDataIndex CairoDataIndex 1 add def }
    { () } ifelse
} def
/cairo_flush_ascii85_file { cairo_ascii85_file status { cairo_ascii85_file flushfile } if } def
/cairo_image { image cairo_flush_ascii85_file } def
/cairo_imagemask { imagemask cairo_flush_ascii85_file } def
%%EndProlog
%%BeginSetup
%%EndSetup
%%Page: 1 1
%%BeginPageSetup
%%PageBoundingBox: 5 5 379 379
%%EndPageSetup
q 5 5 374 374 rectclip
1 0 0 -1 0 384 cm q
0 0.67451 0.756863 rg
360.988 170.25 m 360.988 181.891 l 247.5 181.891 l 247.492 157.867 232.023
 136.574 209.18 129.137 c 186.336 121.699 161.301 129.805 147.148 149.219
 c 143.762 153.824 141.129 158.938 139.352 164.371 c 139.109 165.031 138.898
 165.691 138.719 166.379 c 138.691 166.441 138.691 166.5 138.66 166.531 
c 138.449 167.191 138.27 167.879 138.121 168.57 c 137.969 169.262 137.789
 169.98 137.641 170.699 c 137.371 171.988 137.129 173.309 136.98 174.629
 c 136.891 175.156 136.832 175.688 136.801 176.219 c 136.711 176.852 136.68
 177.48 136.648 178.109 c 136.59 178.609 136.559 179.109 136.559 179.609
 c 136.531 180.359 136.5 181.109 136.5 181.891 c 23.012 181.891 l 23.012
 170.25 l 22.965 135.973 36.016 102.977 59.488 78 c 49.441 67.922 l 44.766
 63.234 44.766 55.652 49.441 50.969 c 61.078 39.328 l 63.328 37.07 66.383
 35.797 69.57 35.797 c 72.758 35.797 75.812 37.07 78.059 39.328 c 91.5 52.77
 l 92.879 51.988 94.289 51.238 95.699 50.488 c 97.711 49.441 99.75 48.449
 101.852 47.488 c 103.379 46.801 104.941 46.109 106.5 45.48 c 106.648 45.422
 106.801 45.359 106.922 45.301 c 108.512 44.672 110.129 44.039 111.75 43.469
 c 118.852 40.848 126.172 38.848 133.621 37.5 c 137.102 36.871 140.641 36.391
 144.18 36.031 c 147.629 35.641 151.141 35.43 154.68 35.34 c 154.68 17.25
 l 154.68 10.621 160.051 5.25 166.68 5.25 c 217.32 5.25 l 223.949 5.25 229.32
 10.621 229.32 17.25 c 229.32 35.34 l 232.859 35.43 236.371 35.641 239.82
 36.031 c 258.355 37.879 276.297 43.582 292.5 52.77 c 305.941 39.328 l 308.188
 37.07 311.242 35.797 314.43 35.797 c 317.617 35.797 320.672 37.07 322.922
 39.328 c 334.559 50.969 l 339.234 55.652 339.234 63.234 334.559 67.922 
c 324.512 78 l 347.984 102.977 361.035 135.973 360.988 170.25 c h
360.988 170.25 m f
1 0.792157 0.564706 rg
247.5 181.883 m 247.5 212.535 222.652 237.383 192 237.383 c 161.348 237.383
 136.5 212.535 136.5 181.883 c 5.25 181.883 l 5.25 235.5 l 162.602 265.5
 l 221.398 265.5 l 378.742 235.5 l 378.742 181.883 l h
247.5 181.883 m f
0.866667 0.662745 0.462745 rg
247.5 181.883 m 247.488 185.922 247.039 189.945 246.16 193.883 c 366.738
 193.883 l 366.738 237.789 l 378.738 235.5 l 378.738 181.883 l h
247.5 181.883 m f
124.5 193.895 m 124.484 217.902 139.918 239.191 162.738 246.645 c 185.555
 254.098 210.578 246.02 224.734 226.633 c 207.883 239.008 185.504 240.848
 166.859 231.391 c 148.211 221.934 136.473 202.789 136.5 181.883 c 5.25 
181.883 l 5.25 193.883 l h
124.5 193.895 m f
0.984314 0.54902 0 rg
159.344 343.5 m 224.656 343.5 l 227.969 343.5 230.656 346.188 230.656 349.5
 c 230.656 378.75 l 153.344 378.75 l 153.344 349.5 l 153.344 346.188 156.031
 343.5 159.344 343.5 c h
159.344 343.5 m f
0.937255 0.423529 0 rg
224.656 343.5 m 159.344 343.5 l 156.031 343.5 153.344 346.188 153.344 349.5
 c 153.344 352.5 l 212.645 352.5 l 215.961 352.5 218.645 355.188 218.645
 358.5 c 218.645 378.742 l 230.645 378.742 l 230.645 349.5 l 230.645 346.191
 227.965 343.504 224.656 343.5 c h
224.656 343.5 m f
0.364706 0.25098 0.215686 rg
337 243.461 m 337 276.758 l 336.949 319.816 302.059 354.711 259 354.758
 c 230.656 354.758 l 230.656 378.758 l 259 378.758 l 315.305 378.695 360.934
 333.066 361 276.758 c 361 238.883 l h
337 243.461 m f
128 354.75 m 84.941 354.703 50.051 319.809 50 276.75 c 50 244.031 l 26 
239.457 l 26 276.75 l 26.066 333.055 71.695 378.684 128 378.75 c 153.344
 378.75 l 153.344 354.75 l h
128 354.75 m f
247.5 181.883 m 247.5 212.535 222.652 237.383 192 237.383 c 161.348 237.383
 136.5 212.535 136.5 181.883 c 136.5 151.23 161.348 126.383 192 126.383 
c 222.652 126.383 247.5 151.23 247.5 181.883 c h
247.5 181.883 m f
0.298039 0.207843 0.180392 rg
192 126.383 m 189.996 126.387 187.992 126.5 186 126.719 c 214.113 129.836
 235.387 153.598 235.387 181.883 c 235.387 210.168 214.113 233.93 186 237.047
 c 201.164 238.723 216.352 234.078 227.988 224.211 c 239.629 214.344 246.691
 200.121 247.516 184.887 c 248.34 169.648 242.859 154.746 232.355 143.68
 c 221.855 132.609 207.258 126.355 192 126.383 c h
192 126.383 m f
0.984314 0.54902 0 rg
210.887 181.883 m 210.887 192.312 202.43 200.77 192 200.77 c 181.57 200.77
 173.113 192.312 173.113 181.883 c 173.113 171.453 181.57 163 192 163 c 
202.43 163 210.887 171.453 210.887 181.883 c h
210.887 181.883 m f
0.937255 0.423529 0 rg
192 163 m 190.996 163.008 189.992 163.094 189 163.262 c 198.148 164.723
 204.879 172.617 204.879 181.883 c 204.879 191.148 198.148 199.043 189 200.508
 c 194.211 201.367 199.543 200.004 203.703 196.754 c 207.859 193.5 210.469
 188.652 210.891 183.391 c 211.309 178.125 209.508 172.926 205.918 169.055
 c 202.328 165.18 197.281 162.988 192 163.008 c h
192 163 m f
0 0.592157 0.654902 rg
133.621 37.5 m 133.621 37.59 l 126.176 38.922 118.859 40.891 111.75 43.469
 c 110.129 44.039 108.512 44.672 106.922 45.301 c 106.801 45.359 106.648
 45.422 106.5 45.48 c 104.941 46.109 103.379 46.801 101.852 47.488 c 99.75
 48.449 97.711 49.441 95.699 50.488 c 94.289 51.238 92.879 51.988 91.5 52.77
 c 78.059 39.328 l 75.812 37.07 72.758 35.797 69.57 35.797 c 66.383 35.797
 63.328 37.07 61.078 39.328 c 49.441 50.969 l 49.379 51.031 49.352 51.121
 49.289 51.18 c 53.98 46.633 61.453 46.699 66.059 51.328 c 79.5 64.77 l 
95.703 55.582 113.645 49.879 132.18 48.031 c 135.629 47.641 139.141 47.43
 142.68 47.34 c 144.18 47.34 l 144.18 82.5 l 144.18 89.5 154.68 89.5 154.68
 82.5 c 154.68 35.34 l 151.141 35.43 147.629 35.641 144.18 36.031 c 140.641
 36.391 137.102 36.871 133.621 37.5 c h
133.621 37.5 m f
229.32 35.34 m 229.32 17.25 l 229.32 10.621 223.949 5.25 217.32 5.25 c 
166.68 5.25 l 160.051 5.25 154.68 10.621 154.68 17.25 c 205.312 17.25 l 
208.492 17.25 211.547 18.516 213.797 20.766 c 216.047 23.016 217.312 26.066
 217.312 29.25 c 217.312 34.949 l 217.352 41.738 222.453 47.43 229.199 48.207
 c 229.316 48.223 l 229.316 82.199 l 229.254 84.828 231.074 87.129 233.645
 87.68 c 236.867 88.25 239.82 85.77 239.82 82.5 c 239.82 49.828 l 254.102
 52.57 267.844 57.617 280.5 64.777 c 292.5 52.777 l 276.297 43.59 258.355
 37.887 239.82 36.039 c 236.371 35.641 232.859 35.43 229.32 35.34 c h
229.32 35.34 m f
324.512 78 m 334.559 67.922 l 339.234 63.234 339.234 55.652 334.559 50.969
 c 322.922 39.328 l 320.672 37.07 317.617 35.797 314.43 35.797 c 311.242
 35.797 308.188 37.07 305.941 39.328 c 293.941 51.328 l 296.188 49.07 299.242
 47.797 302.43 47.797 c 305.617 47.797 308.672 49.07 310.922 51.328 c 322.559
 62.969 l 327.234 67.652 327.234 75.234 322.559 79.922 c 312.5 90 l 335.887
 114.887 348.926 147.738 348.973 181.891 c 360.988 181.891 l 360.988 170.25
 l 361.035 135.973 347.984 102.977 324.512 78 c h
324.512 78 m f
Q Q
showpage
%%Trailer
end
%%EOF
