%!PS-Adobe-3.0 EPSF-3.0
%%Creator: cairo 1.16.0 (https://cairographics.org)
%%CreationDate: Fri Jul 19 07:40:25 2019
%%Pages: 1
%%DocumentData: Clean7Bit
%%LanguageLevel: 2
%%BoundingBox: 45 5 340 379
%%EndComments
%%BeginProlog
50 dict begin
/q { gsave } bind def
/Q { grestore } bind def
/cm { 6 array astore concat } bind def
/w { setlinewidth } bind def
/J { setlinecap } bind def
/j { setlinejoin } bind def
/M { setmiterlimit } bind def
/d { setdash } bind def
/m { moveto } bind def
/l { lineto } bind def
/c { curveto } bind def
/h { closepath } bind def
/re { exch dup neg 3 1 roll 5 3 roll moveto 0 rlineto
      0 exch rlineto 0 rlineto closepath } bind def
/S { stroke } bind def
/f { fill } bind def
/f* { eofill } bind def
/n { newpath } bind def
/W { clip } bind def
/W* { eoclip } bind def
/BT { } bind def
/ET { } bind def
/BDC { mark 3 1 roll /BDC pdfmark } bind def
/EMC { mark /EMC pdfmark } bind def
/cairo_store_point { /cairo_point_y exch def /cairo_point_x exch def } def
/Tj { show currentpoint cairo_store_point } bind def
/TJ {
  {
    dup
    type /stringtype eq
    { show } { -0.001 mul 0 cairo_font_matrix dtransform rmoveto } ifelse
  } forall
  currentpoint cairo_store_point
} bind def
/cairo_selectfont { cairo_font_matrix aload pop pop pop 0 0 6 array astore
    cairo_font exch selectfont cairo_point_x cairo_point_y moveto } bind def
/Tf { pop /cairo_font exch def /cairo_font_matrix where
      { pop cairo_selectfont } if } bind def
/Td { matrix translate cairo_font_matrix matrix concatmatrix dup
      /cairo_font_matrix exch def dup 4 get exch 5 get cairo_store_point
      /cairo_font where { pop cairo_selectfont } if } bind def
/Tm { 2 copy 8 2 roll 6 array astore /cairo_font_matrix exch def
      cairo_store_point /cairo_font where { pop cairo_selectfont } if } bind def
/g { setgray } bind def
/rg { setrgbcolor } bind def
/d1 { setcachedevice } bind def
/cairo_data_source {
  CairoDataIndex CairoData length lt
    { CairoData CairoDataIndex get /CairoDataIndex CairoDataIndex 1 add def }
    { () } ifelse
} def
/cairo_flush_ascii85_file { cairo_ascii85_file status { cairo_ascii85_file flushfile } if } def
/cairo_image { image cairo_flush_ascii85_file } def
/cairo_imagemask { imagemask cairo_flush_ascii85_file } def
%%EndProlog
%%BeginSetup
%%EndSetup
%%Page: 1 1
%%BeginPageSetup
%%PageBoundingBox: 45 5 340 379
%%EndPageSetup
q 45 5 295 374 rectclip
1 0 0 -1 0 384 cm q
0.984314 0.54902 0 rg
339 378.898 m 96.898 378.898 l 96.898 183.301 l 96.898 154.199 107.398 
126 126.602 103.801 c 113.699 88.199 114.602 65.398 129 51.301 c 156.602
 78.898 l 175.5 67.801 196.801 61.801 218.699 61.801 c 322.801 165.898 l
 322.801 183 309 196.801 291.898 196.801 c 286.801 196.801 281.699 195.602
 277.199 192.898 c 258 182.699 l 257.699 183 257.398 183.602 256.801 183.898
 c 246.898 194.699 233.102 200.699 218.699 200.699 c 223.801 205.801 l 299.699
 282.301 l 324.898 307.801 339.301 342.602 339 378.898 c h
339 378.898 m f
0.937255 0.423529 0 rg
304.801 165.898 m 304.801 179.398 295.801 191.699 282.898 195.602 c 299.398
 200.699 316.5 191.398 321.602 174.898 c 322.5 171.898 322.801 168.898 322.801
 165.898 c 218.699 61.801 l 213 61.801 207.301 62.102 201.898 63 c h
304.801 165.898 m f
328.801 326.699 m 321.898 310.199 312 295.199 299.398 282.301 c 223.5 205.801
 l 205.5 205.801 l 281.398 282.301 l 306.898 308.102 321.301 342.602 321
 378.898 c 339 378.898 l 339 360.898 335.699 343.199 328.801 326.699 c h
328.801 326.699 m f
0.364706 0.25098 0.215686 rg
96.898 200.699 m 96.898 192.301 96.602 184.199 97.199 175.801 c 98.398 
159.301 102.602 143.102 110.102 128.102 c 114.602 119.398 120.301 111.301
 126.602 103.801 c 113.699 88.199 114.602 65.398 129 51.301 c 156.602 78.898
 l 165.898 73.199 176.102 68.699 186.602 66.301 c 197.102 63.301 207.898
 62.102 218.699 62.102 c 218.699 5.398 l 122.699 5.398 45 83.102 45 179.102
 c 45 287.102 l 97.199 287.102 l 97.199 200.699 l h
96.898 200.699 m f
0.298039 0.207843 0.180392 rg
218.699 5.398 m 213.602 5.398 208.5 5.699 203.699 6 c 203.699 61.801 l 
192.898 61.801 182.102 63.301 171.602 66 c 164.699 67.801 157.801 70.199
 151.199 73.5 c 156.602 78.898 l 165.898 73.199 176.102 68.699 186.602 66.301
 c 197.102 63.301 207.898 62.102 218.699 62.102 c h
218.699 5.398 m f
0.364706 0.25098 0.215686 rg
260.398 128.102 m 248.102 115.801 l 226.199 93.898 l 225.301 93 223.801
 92.398 222.602 92.398 c 194.102 92.398 l 191.102 92.398 189 95.102 189 
97.801 c 189 100.5 191.398 102.602 194.102 102.898 c 200.699 102.898 l 203.102
 115.5 214.199 124.801 227.102 124.801 c 242.102 124.801 l 252.898 135.602
 l 255 137.699 258.301 137.699 260.398 135.898 c 262.5 133.801 262.801 130.5
 260.398 128.102 c 260.699 128.398 260.398 128.398 260.398 128.102 c h
231.898 114.602 m 227.398 114.602 l 220.199 114.602 213.898 110.102 211.801
 103.199 c 220.801 103.199 l h
231.898 114.602 m f
190.801 349.5 m 189.301 349.5 188.102 348.898 187.199 348 c 180.602 341.398
 l 155.102 315.898 141 281.699 141 246 c 141 243 143.102 240.602 146.102
 240.602 c 149.102 240.602 151.5 242.699 151.5 245.699 c 151.5 246.301 l
 151.5 279.301 164.398 311.102 187.801 334.199 c 194.398 340.801 l 196.5
 342.898 196.5 346.199 194.398 348.301 c 193.5 348.898 192.301 349.5 190.801
 349.5 c h
190.801 349.5 m f
0.937255 0.423529 0 rg
157.5 178.5 m 172.801 193.801 l 180.602 201.602 191.102 205.801 201.898
 205.801 c 223.801 205.801 l 218.398 200.398 l 226.199 200.398 234 198.602
 241.199 195 c 201.898 195 l 193.801 195 186 191.699 180 186 c 165 171 l
 162.898 168.898 159.602 168.898 157.5 170.699 c 155.398 172.5 155.398 176.398
 157.5 178.5 c 157.199 178.5 157.5 178.5 157.5 178.5 c h
157.5 178.5 m f
0.298039 0.207843 0.180392 rg
96.898 287.102 m 96.898 200.398 l 96.898 193.5 96.602 186.602 96.898 180
 c 97.199 164.102 100.801 148.801 107.398 134.398 c 107.398 134.102 107.699
 133.801 107.699 133.5 c 108.301 132 108.898 130.5 109.801 129.301 c 109.801
 129 110.102 128.699 110.102 128.699 c 110.102 128.699 110.398 128.102 110.398
 128.102 c 114.898 119.699 120 111.898 126.301 104.699 c 126.301 104.699
 126.301 104.398 126.602 104.398 c 113.699 88.801 114.898 66.301 129 51.898
 c 120.301 43.199 l 105.898 57.602 98.699 89.102 111.301 104.398 c 105 111.898
 99.301 120 94.801 128.699 c 87.301 143.398 82.801 159.602 81.898 176.398
 c 81.301 184.801 81.602 192.898 81.602 201.301 c 81.602 287.699 l 96.898
 287.699 l h
96.898 287.102 m f
Q Q
showpage
%%Trailer
end
%%EOF
