%!PS-Adobe-3.0 EPSF-3.0
%%Creator: cairo 1.16.0 (https://cairographics.org)
%%CreationDate: Fri Jul 19 07:40:26 2019
%%Pages: 1
%%DocumentData: Clean7Bit
%%LanguageLevel: 2
%%BoundingBox: 5 42 379 342
%%EndComments
%%BeginProlog
50 dict begin
/q { gsave } bind def
/Q { grestore } bind def
/cm { 6 array astore concat } bind def
/w { setlinewidth } bind def
/J { setlinecap } bind def
/j { setlinejoin } bind def
/M { setmiterlimit } bind def
/d { setdash } bind def
/m { moveto } bind def
/l { lineto } bind def
/c { curveto } bind def
/h { closepath } bind def
/re { exch dup neg 3 1 roll 5 3 roll moveto 0 rlineto
      0 exch rlineto 0 rlineto closepath } bind def
/S { stroke } bind def
/f { fill } bind def
/f* { eofill } bind def
/n { newpath } bind def
/W { clip } bind def
/W* { eoclip } bind def
/BT { } bind def
/ET { } bind def
/BDC { mark 3 1 roll /BDC pdfmark } bind def
/EMC { mark /EMC pdfmark } bind def
/cairo_store_point { /cairo_point_y exch def /cairo_point_x exch def } def
/Tj { show currentpoint cairo_store_point } bind def
/TJ {
  {
    dup
    type /stringtype eq
    { show } { -0.001 mul 0 cairo_font_matrix dtransform rmoveto } ifelse
  } forall
  currentpoint cairo_store_point
} bind def
/cairo_selectfont { cairo_font_matrix aload pop pop pop 0 0 6 array astore
    cairo_font exch selectfont cairo_point_x cairo_point_y moveto } bind def
/Tf { pop /cairo_font exch def /cairo_font_matrix where
      { pop cairo_selectfont } if } bind def
/Td { matrix translate cairo_font_matrix matrix concatmatrix dup
      /cairo_font_matrix exch def dup 4 get exch 5 get cairo_store_point
      /cairo_font where { pop cairo_selectfont } if } bind def
/Tm { 2 copy 8 2 roll 6 array astore /cairo_font_matrix exch def
      cairo_store_point /cairo_font where { pop cairo_selectfont } if } bind def
/g { setgray } bind def
/rg { setrgbcolor } bind def
/d1 { setcachedevice } bind def
/cairo_data_source {
  CairoDataIndex CairoData length lt
    { CairoData CairoDataIndex get /CairoDataIndex CairoDataIndex 1 add def }
    { () } ifelse
} def
/cairo_flush_ascii85_file { cairo_ascii85_file status { cairo_ascii85_file flushfile } if } def
/cairo_image { image cairo_flush_ascii85_file } def
/cairo_imagemask { imagemask cairo_flush_ascii85_file } def
%%EndProlog
%%BeginSetup
%%EndSetup
%%Page: 1 1
%%BeginPageSetup
%%PageBoundingBox: 5 42 379 342
%%EndPageSetup
q 5 42 374 300 rectclip
1 0 0 -1 0 384 cm q
0.364706 0.25098 0.215686 rg
186.656 73.301 m 186.656 179.387 l 186.656 182.285 189.008 184.637 191.906
 184.637 c 194.805 184.637 197.156 182.285 197.156 179.387 c 197.156 73.301
 l h
186.656 73.301 m f
0 0.67451 0.756863 rg
222.656 42.551 m 247.875 42.551 l 247.875 59.535 234.109 73.301 217.125
 73.301 c 191.906 73.301 l 191.906 56.32 205.676 42.551 222.656 42.551 c
 h
222.656 42.551 m f
0 0.592157 0.654902 rg
240.531 42.551 m 236.574 55.473 224.645 64.297 211.133 64.301 c 193.25 
64.301 l 192.359 67.219 191.906 70.25 191.906 73.301 c 217.125 73.301 l 
234.109 73.301 247.875 59.535 247.875 42.551 c h
240.531 42.551 m f
0 0.67451 0.756863 rg
234.195 99.434 m 268.875 99.434 l 268.875 110.652 264.418 121.41 256.484
 129.344 c 248.555 137.277 237.793 141.73 226.574 141.73 c 191.906 141.73
 l 191.906 118.375 210.84 99.438 234.195 99.434 c h
234.195 99.434 m f
0 0.592157 0.654902 rg
261.898 99.434 m 257.668 118.859 240.477 132.719 220.594 132.73 c 192.898
 132.73 l 192.254 135.688 191.922 138.707 191.918 141.73 c 226.598 141.73
 l 249.961 141.73 268.898 122.793 268.898 99.434 c h
261.898 99.434 m f
0 0.67451 0.756863 rg
191.906 141.719 m 157.227 141.719 l 146.008 141.719 135.25 137.262 127.316
 129.328 c 119.383 121.395 114.926 110.637 114.926 99.418 c 149.617 99.418
 l 172.98 99.418 191.918 118.355 191.918 141.719 c h
191.906 141.719 m f
191.902 73.301 m 166.688 73.301 l 149.703 73.301 135.938 59.535 135.938
 42.551 c 161.156 42.551 l 178.141 42.551 191.906 56.32 191.906 73.301 c
 h
191.902 73.301 m f
0 0.592157 0.654902 rg
143.281 42.551 m 147.242 55.473 159.168 64.297 172.684 64.301 c 190.559
 64.301 l 191.453 67.219 191.906 70.25 191.902 73.301 c 166.688 73.301 l
 149.707 73.301 135.938 59.535 135.938 42.551 c h
143.281 42.551 m f
121.922 99.434 m 126.152 118.859 143.344 132.719 163.227 132.73 c 190.926
 132.73 l 191.574 135.688 191.902 138.707 191.906 141.73 c 157.223 141.73
 l 146.004 141.73 135.246 137.277 127.312 129.344 c 119.379 121.41 114.926
 110.652 114.926 99.434 c h
121.922 99.434 m f
0 0.67451 0.756863 rg
362.375 163.168 m 329.125 163.168 l 329.125 129.914 l 309.625 129.914 l
 309.625 163.168 l 276.375 163.168 l 276.375 182.668 l 309.625 182.668 l
 309.625 215.914 l 329.125 215.914 l 329.125 182.668 l 362.375 182.668 l
 h
362.375 163.168 m f
0.984314 0.54902 0 rg
129.781 341.449 m 5.344 341.449 l 25.352 287.426 l 109.77 287.426 l h
129.781 341.449 m f
254.219 341.449 m 129.781 341.449 l 149.789 287.426 l 234.211 287.426 l
 h
254.219 341.449 m f
191.906 287.426 m 67.469 287.426 l 87.48 233.406 l 171.898 233.406 l h
191.906 287.426 m f
316.344 287.426 m 191.906 287.426 l 211.918 233.406 l 296.336 233.406 l
 h
316.344 287.426 m f
254.219 233.406 m 129.781 233.406 l 149.789 179.387 l 234.211 179.387 l
 h
254.219 233.406 m f
0.937255 0.423529 0 rg
226.559 200.133 m 238.883 233.398 l 254.219 233.398 l 234.211 179.387 l
 149.789 179.387 l 146.457 188.387 l 209.684 188.387 l 217.211 188.387 223.945
 193.074 226.559 200.133 c h
226.559 200.133 m f
288.684 254.152 m 301.008 287.426 l 316.34 287.426 l 296.336 233.398 l 
211.918 233.398 l 208.586 242.398 l 271.801 242.398 l 279.332 242.398 286.07
 247.09 288.684 254.152 c h
288.684 254.152 m f
164.344 254.152 m 176.668 287.426 l 192 287.426 l 171.988 233.398 l 87.574
 233.398 l 84.238 242.398 l 147.461 242.398 l 154.992 242.398 161.73 247.09
 164.344 254.152 c h
164.344 254.152 m f
0.984314 0.54902 0 rg
378.656 341.449 m 254.219 341.449 l 274.23 287.426 l 358.648 287.426 l 
h
378.656 341.449 m f
0.937255 0.423529 0 rg
351.094 308.176 m 363.418 341.449 l 378.75 341.449 l 358.738 287.426 l 
274.324 287.426 l 270.988 296.426 l 334.199 296.426 l 341.734 296.422 348.477
 301.109 351.094 308.176 c h
351.094 308.176 m f
226.609 308.176 m 238.934 341.449 l 254.266 341.449 l 234.254 287.426 l
 149.84 287.426 l 146.504 296.426 l 209.727 296.426 l 217.258 296.426 223.992
 301.113 226.609 308.176 c h
226.609 308.176 m f
102.121 308.176 m 114.445 341.449 l 129.781 341.449 l 109.77 287.426 l 
25.352 287.426 l 22.02 296.426 l 85.246 296.426 l 92.773 296.426 99.508 
301.113 102.121 308.176 c h
102.121 308.176 m f
Q Q
showpage
%%Trailer
end
%%EOF
