%!PS-Adobe-3.0 EPSF-3.0
%%Creator: cairo 1.16.0 (https://cairographics.org)
%%CreationDate: Fri Jul 19 07:40:26 2019
%%Pages: 1
%%DocumentData: Clean7Bit
%%LanguageLevel: 2
%%BoundingBox: 5 15 379 369
%%EndComments
%%BeginProlog
50 dict begin
/q { gsave } bind def
/Q { grestore } bind def
/cm { 6 array astore concat } bind def
/w { setlinewidth } bind def
/J { setlinecap } bind def
/j { setlinejoin } bind def
/M { setmiterlimit } bind def
/d { setdash } bind def
/m { moveto } bind def
/l { lineto } bind def
/c { curveto } bind def
/h { closepath } bind def
/re { exch dup neg 3 1 roll 5 3 roll moveto 0 rlineto
      0 exch rlineto 0 rlineto closepath } bind def
/S { stroke } bind def
/f { fill } bind def
/f* { eofill } bind def
/n { newpath } bind def
/W { clip } bind def
/W* { eoclip } bind def
/BT { } bind def
/ET { } bind def
/BDC { mark 3 1 roll /BDC pdfmark } bind def
/EMC { mark /EMC pdfmark } bind def
/cairo_store_point { /cairo_point_y exch def /cairo_point_x exch def } def
/Tj { show currentpoint cairo_store_point } bind def
/TJ {
  {
    dup
    type /stringtype eq
    { show } { -0.001 mul 0 cairo_font_matrix dtransform rmoveto } ifelse
  } forall
  currentpoint cairo_store_point
} bind def
/cairo_selectfont { cairo_font_matrix aload pop pop pop 0 0 6 array astore
    cairo_font exch selectfont cairo_point_x cairo_point_y moveto } bind def
/Tf { pop /cairo_font exch def /cairo_font_matrix where
      { pop cairo_selectfont } if } bind def
/Td { matrix translate cairo_font_matrix matrix concatmatrix dup
      /cairo_font_matrix exch def dup 4 get exch 5 get cairo_store_point
      /cairo_font where { pop cairo_selectfont } if } bind def
/Tm { 2 copy 8 2 roll 6 array astore /cairo_font_matrix exch def
      cairo_store_point /cairo_font where { pop cairo_selectfont } if } bind def
/g { setgray } bind def
/rg { setrgbcolor } bind def
/d1 { setcachedevice } bind def
/cairo_data_source {
  CairoDataIndex CairoData length lt
    { CairoData CairoDataIndex get /CairoDataIndex CairoDataIndex 1 add def }
    { () } ifelse
} def
/cairo_flush_ascii85_file { cairo_ascii85_file status { cairo_ascii85_file flushfile } if } def
/cairo_image { image cairo_flush_ascii85_file } def
/cairo_imagemask { imagemask cairo_flush_ascii85_file } def
%%EndProlog
%%BeginSetup
%%EndSetup
%%Page: 1 1
%%BeginPageSetup
%%PageBoundingBox: 5 15 379 369
%%EndPageSetup
q 5 15 374 354 rectclip
1 0 0 -1 0 384 cm q
0 0.67451 0.756863 rg
145.379 368.309 m 118.867 368.309 l 5.25 251.609 l 62.062 180.359 l 202.191
 180.359 l 259 251.609 l h
145.379 368.309 m f
0 0.592157 0.654902 rg
259 251.609 m 202.199 180.359 l 62.062 180.359 l 58.762 184.492 l 50.102
 195.371 l 69.469 195.371 l 119.609 246.371 l 9.434 246.371 l 5.234 251.621
 l 10.336 256.871 l 87.898 256.871 l 126.57 368.309 l 137.672 368.309 l 
176.336 256.859 l 239.207 256.859 l 245.809 265.148 l h
84.188 195.371 m 180.066 195.371 l 132.125 244.121 l h
132.125 352.273 m 99.027 256.859 l 165.227 256.859 l h
144.652 246.359 m 192.246 197.961 l 230.836 246.359 l h
144.652 246.359 m f
0.984314 0.54902 0 rg
344.914 179.445 m 248.84 179.445 l 215 145.609 l 215 49.531 l 248.84 15.691
 l 344.914 15.691 l 378.75 49.531 l 378.75 145.609 l h
344.914 179.445 m f
0.937255 0.423529 0 rg
373.5 44.281 m 344.91 15.691 l 248.84 15.691 l 243.602 20.945 l 236.824
 27.703 l 243.602 27.703 l 243.602 44.281 l 220.246 44.281 l 214.996 49.531
 l 214.996 54.781 l 243.602 54.781 l 243.602 140.359 l 215 140.359 l 215
 145.609 l 220.25 150.859 l 243.602 150.859 l 243.602 174.191 l 248.852 
179.441 l 254.102 179.441 l 254.102 150.859 l 339.676 150.859 l 339.676 
179.441 l 344.926 179.441 l 350.176 174.191 l 350.176 150.859 l 366.754 
150.859 l 366.754 157.617 l 378.762 145.609 l 378.762 49.531 l h
339.66 140.359 m 254.102 140.359 l 254.102 54.781 l 339.676 54.781 l h
254.102 44.281 m 254.102 27.703 l 332.918 27.703 l 339.68 34.465 l 339.68
 44.281 l h
366.758 61.543 m 366.758 140.359 l 350.18 140.359 l 350.18 54.781 l 359.996
 54.781 l h
366.758 61.543 m f
Q Q
showpage
%%Trailer
end
%%EOF
