%!PS-Adobe-3.0 EPSF-3.0
%%Creator: cairo 1.16.0 (https://cairographics.org)
%%CreationDate: Fri Jul 19 07:40:26 2019
%%Pages: 1
%%DocumentData: Clean7Bit
%%LanguageLevel: 2
%%BoundingBox: 5 13 379 371
%%EndComments
%%BeginProlog
50 dict begin
/q { gsave } bind def
/Q { grestore } bind def
/cm { 6 array astore concat } bind def
/w { setlinewidth } bind def
/J { setlinecap } bind def
/j { setlinejoin } bind def
/M { setmiterlimit } bind def
/d { setdash } bind def
/m { moveto } bind def
/l { lineto } bind def
/c { curveto } bind def
/h { closepath } bind def
/re { exch dup neg 3 1 roll 5 3 roll moveto 0 rlineto
      0 exch rlineto 0 rlineto closepath } bind def
/S { stroke } bind def
/f { fill } bind def
/f* { eofill } bind def
/n { newpath } bind def
/W { clip } bind def
/W* { eoclip } bind def
/BT { } bind def
/ET { } bind def
/BDC { mark 3 1 roll /BDC pdfmark } bind def
/EMC { mark /EMC pdfmark } bind def
/cairo_store_point { /cairo_point_y exch def /cairo_point_x exch def } def
/Tj { show currentpoint cairo_store_point } bind def
/TJ {
  {
    dup
    type /stringtype eq
    { show } { -0.001 mul 0 cairo_font_matrix dtransform rmoveto } ifelse
  } forall
  currentpoint cairo_store_point
} bind def
/cairo_selectfont { cairo_font_matrix aload pop pop pop 0 0 6 array astore
    cairo_font exch selectfont cairo_point_x cairo_point_y moveto } bind def
/Tf { pop /cairo_font exch def /cairo_font_matrix where
      { pop cairo_selectfont } if } bind def
/Td { matrix translate cairo_font_matrix matrix concatmatrix dup
      /cairo_font_matrix exch def dup 4 get exch 5 get cairo_store_point
      /cairo_font where { pop cairo_selectfont } if } bind def
/Tm { 2 copy 8 2 roll 6 array astore /cairo_font_matrix exch def
      cairo_store_point /cairo_font where { pop cairo_selectfont } if } bind def
/g { setgray } bind def
/rg { setrgbcolor } bind def
/d1 { setcachedevice } bind def
/cairo_data_source {
  CairoDataIndex CairoData length lt
    { CairoData CairoDataIndex get /CairoDataIndex CairoDataIndex 1 add def }
    { () } ifelse
} def
/cairo_flush_ascii85_file { cairo_ascii85_file status { cairo_ascii85_file flushfile } if } def
/cairo_image { image cairo_flush_ascii85_file } def
/cairo_imagemask { imagemask cairo_flush_ascii85_file } def
%%EndProlog
%%BeginSetup
%%EndSetup
%%Page: 1 1
%%BeginPageSetup
%%PageBoundingBox: 5 13 379 371
%%EndPageSetup
q 5 13 374 358 rectclip
1 0 0 -1 0 384 cm q
0 g
5.25 94.875 373.5 169.5 re f
0.364706 0.25098 0.215686 rg
5.25 94.875 373.5 169.5 re f
0.984314 0.54902 0 rg
35.25 124.875 313.5 139.5 re f
0.937255 0.423529 0 rg
35.25 124.875 m 35.25 133.875 l 315.75 133.875 l 329.004 133.875 339.75
 144.621 339.75 157.875 c 339.75 264.375 l 348.75 264.375 l 348.75 124.875
 l h
35.25 124.875 m f
0.984314 0.54902 0 rg
151.25 49.375 81.504 45.5 re f
0.937255 0.423529 0 rg
151.25 49.375 m 151.25 58.375 l 205.742 58.375 l 215.684 58.375 223.742
 66.434 223.742 76.375 c 223.742 94.867 l 232.742 94.867 l 232.742 49.375
 l h
151.25 49.375 m f
0.364706 0.25098 0.215686 rg
131 13.125 122.004 36.25 re f
0.298039 0.207843 0.180392 rg
131 13.125 m 131 22.125 l 225.992 22.125 l 235.934 22.125 243.992 30.184
 243.992 40.125 c 243.992 49.367 l 252.992 49.367 l 252.992 13.125 l h
131 13.125 m f
1 0.792157 0.564706 rg
35.25 239.625 m 42.766 236.305 l 58.551 229.328 70.758 216.148 76.5 199.875
 c 103.5 219.75 l 115.395 204.422 117.34 183.59 108.484 166.324 c 108 165.375
 l 121.391 172.34 l 140.477 182.27 154.723 199.512 160.875 220.125 c 170.812
 197.297 l 175.879 185.648 183.371 175.215 192.789 166.695 c 210 151.125
 l 209.035 156.051 l 204.824 177.516 208.637 199.781 219.75 218.625 c 221.184
 216.988 l 233.266 203.18 236.926 183.918 230.758 166.645 c 229.5 163.125
 l 250.465 179.43 l 262.789 189.016 270 203.758 270 219.375 c 284.637 213.711
 295.75 201.484 300 186.375 c 307.199 202.395 l 313.113 215.562 324.441 
225.52 338.258 229.695 c 348.758 232.867 l 348.758 264.367 l 35.25 264.367
 l h
35.25 239.625 m f
0.866667 0.662745 0.462745 rg
339.742 230.152 m 339.746 236.84 337.094 243.254 332.363 247.984 c 327.633
 252.715 321.219 255.371 314.527 255.367 c 35.25 255.367 l 35.25 264.367
 l 348.75 264.367 l 348.75 232.867 l h
339.742 230.152 m f
0.364706 0.25098 0.215686 rg
5.25 264.375 373.5 106.5 re f
0.298039 0.207843 0.180392 rg
378.75 330.125 m 352.875 330.125 l 352.875 305.129 l 378.75 305.129 l 378.75
 294.629 l 321.75 294.629 l 321.75 264.375 l 311.25 264.375 l 311.25 294.625
 l 259.5 294.625 l 259.5 264.375 l 249 264.375 l 249 294.625 l 197.25 294.625
 l 197.25 264.375 l 186.75 264.375 l 186.75 294.625 l 135 294.625 l 135 
264.375 l 124.5 264.375 l 124.5 294.625 l 72.75 294.625 l 72.75 264.375 
l 62.25 264.375 l 62.25 294.625 l 5.25 294.625 l 5.25 305.125 l 31.125 305.125
 l 31.125 330.121 l 5.25 330.121 l 5.25 340.621 l 62.25 340.621 l 62.25 
370.871 l 72.75 370.871 l 72.75 340.625 l 124.5 340.625 l 124.5 370.875 
l 135 370.875 l 135 340.625 l 186.75 340.625 l 186.75 370.875 l 197.25 370.875
 l 197.25 340.625 l 249 340.625 l 249 370.875 l 259.5 370.875 l 259.5 340.625
 l 311.25 340.625 l 311.25 370.875 l 321.75 370.875 l 321.75 340.625 l 378.75
 340.625 l h
93.375 330.125 m 41.625 330.125 l 41.625 305.129 l 93.375 305.129 l h
155.625 330.125 m 103.875 330.125 l 103.875 305.129 l 155.625 305.129 l
 h
217.875 330.125 m 166.125 330.125 l 166.125 305.129 l 217.875 305.129 l
 h
280.125 330.125 m 228.375 330.125 l 228.375 305.129 l 280.125 305.129 l
 h
342.375 330.125 m 290.625 330.125 l 290.625 305.129 l 342.375 305.129 l
 h
342.375 330.125 m f
Q Q
showpage
%%Trailer
end
%%EOF
