%!PS-Adobe-3.0 EPSF-3.0
%%Creator: cairo 1.16.0 (https://cairographics.org)
%%CreationDate: Fri Jul 19 07:40:27 2019
%%Pages: 1
%%DocumentData: Clean7Bit
%%LanguageLevel: 2
%%BoundingBox: 5 41 379 343
%%EndComments
%%BeginProlog
50 dict begin
/q { gsave } bind def
/Q { grestore } bind def
/cm { 6 array astore concat } bind def
/w { setlinewidth } bind def
/J { setlinecap } bind def
/j { setlinejoin } bind def
/M { setmiterlimit } bind def
/d { setdash } bind def
/m { moveto } bind def
/l { lineto } bind def
/c { curveto } bind def
/h { closepath } bind def
/re { exch dup neg 3 1 roll 5 3 roll moveto 0 rlineto
      0 exch rlineto 0 rlineto closepath } bind def
/S { stroke } bind def
/f { fill } bind def
/f* { eofill } bind def
/n { newpath } bind def
/W { clip } bind def
/W* { eoclip } bind def
/BT { } bind def
/ET { } bind def
/BDC { mark 3 1 roll /BDC pdfmark } bind def
/EMC { mark /EMC pdfmark } bind def
/cairo_store_point { /cairo_point_y exch def /cairo_point_x exch def } def
/Tj { show currentpoint cairo_store_point } bind def
/TJ {
  {
    dup
    type /stringtype eq
    { show } { -0.001 mul 0 cairo_font_matrix dtransform rmoveto } ifelse
  } forall
  currentpoint cairo_store_point
} bind def
/cairo_selectfont { cairo_font_matrix aload pop pop pop 0 0 6 array astore
    cairo_font exch selectfont cairo_point_x cairo_point_y moveto } bind def
/Tf { pop /cairo_font exch def /cairo_font_matrix where
      { pop cairo_selectfont } if } bind def
/Td { matrix translate cairo_font_matrix matrix concatmatrix dup
      /cairo_font_matrix exch def dup 4 get exch 5 get cairo_store_point
      /cairo_font where { pop cairo_selectfont } if } bind def
/Tm { 2 copy 8 2 roll 6 array astore /cairo_font_matrix exch def
      cairo_store_point /cairo_font where { pop cairo_selectfont } if } bind def
/g { setgray } bind def
/rg { setrgbcolor } bind def
/d1 { setcachedevice } bind def
/cairo_data_source {
  CairoDataIndex CairoData length lt
    { CairoData CairoDataIndex get /CairoDataIndex CairoDataIndex 1 add def }
    { () } ifelse
} def
/cairo_flush_ascii85_file { cairo_ascii85_file status { cairo_ascii85_file flushfile } if } def
/cairo_image { image cairo_flush_ascii85_file } def
/cairo_imagemask { imagemask cairo_flush_ascii85_file } def
%%EndProlog
%%BeginSetup
%%EndSetup
%%Page: 1 1
%%BeginPageSetup
%%PageBoundingBox: 5 41 379 343
%%EndPageSetup
q 5 41 374 302 rectclip
1 0 0 -1 0 384 cm q
0.984314 0.54902 0 rg
42.75 41.484 m 22.039 41.484 5.25 58.273 5.25 78.984 c 5.25 305.016 l 5.25
 284.305 22.039 267.516 42.75 267.516 c 63.461 267.516 80.25 284.305 80.25
 305.016 c 80.25 78.984 l 80.25 58.273 63.461 41.484 42.75 41.484 c h
42.75 41.484 m f
0.937255 0.423529 0 rg
5.25 284.066 m 5.25 305.016 l 5.242 294.93 9.312 285.266 16.535 278.227
 c 12.469 279.512 8.652 281.488 5.25 284.066 c h
5.25 284.066 m f
42.75 41.484 m 32.945 41.477 23.527 45.328 16.535 52.199 c 27.926 48.641
 40.324 50.711 49.941 57.773 c 59.559 64.836 65.242 76.051 65.25 87.984 
c 65.25 275.066 l 74.691 282.129 80.25 293.227 80.25 305.016 c 80.25 78.984
 l 80.25 58.273 63.461 41.484 42.75 41.484 c h
42.75 41.484 m f
1 0.792157 0.564706 rg
378.75 83.82 m 378.75 342.512 l 42.75 342.512 l 27.582 342.512 13.91 333.375
 8.105 319.359 c 2.301 305.348 5.508 289.219 16.234 278.492 c 26.957 267.77
 43.086 264.559 57.102 270.363 c 71.113 276.168 80.25 289.844 80.25 305.012
 c 80.25 83.82 l h
378.75 83.82 m f
0.866667 0.662745 0.462745 rg
80.25 83.82 m 80.25 98.82 l 345.75 98.82 l 355.691 98.82 363.75 106.879
 363.75 116.82 c 363.75 342.512 l 378.75 342.512 l 378.75 83.82 l h
80.25 83.82 m f
0 0.67451 0.756863 rg
334.156 212.902 m 329.617 208.359 322.258 208.359 317.719 212.902 c 291.469
 239.152 l 265.219 212.902 l 260.68 208.359 253.316 208.359 248.777 212.902
 c 244.238 217.441 244.238 224.801 248.777 229.34 c 275.027 255.59 l 248.777
 281.84 l 244.238 286.379 244.238 293.742 248.777 298.281 c 253.316 302.82
 260.68 302.82 265.219 298.281 c 291.469 272.031 l 317.719 298.281 l 322.258
 302.82 329.617 302.82 334.156 298.281 c 338.699 293.742 338.699 286.379
 334.156 281.84 c 307.906 255.59 l 334.156 229.34 l 338.699 224.801 338.699
 217.441 334.156 212.902 c h
334.156 212.902 m f
0.364706 0.25098 0.215686 rg
245.371 260.84 m 236.371 260.84 l 229.371 260.84 229.371 250.34 236.371
 250.34 c 245.371 250.34 l 252.371 250.34 252.371 260.84 245.371 260.84 
c h
245.371 260.84 m f
219.512 105.301 m 216.609 105.293 214.254 107.648 214.262 110.551 c 214.262
 119.488 l 214.254 122.027 214 124.559 213.512 127.051 c 212.945 129.898
 214.801 132.668 217.648 133.23 c 217.988 133.289 218.328 133.32 218.672
 133.32 c 221.176 133.332 223.332 131.551 223.801 129.09 c 224.438 125.93
 224.758 122.715 224.762 119.488 c 224.762 110.551 l 224.758 107.652 222.406
 105.305 219.512 105.301 c h
214.859 139.828 m 212.457 138.215 209.199 138.844 207.57 141.238 c 204.676
 145.535 200.941 149.199 196.59 152.012 c 194.16 153.59 193.473 156.844 
195.059 159.27 c 196.02 160.777 197.684 161.684 199.469 161.672 c 200.484
 161.672 201.48 161.371 202.32 160.801 c 207.844 157.227 212.59 152.574 
216.27 147.121 c 217.887 144.715 217.258 141.457 214.859 139.828 c h
188.371 161.91 m 187.871 159.062 185.16 157.156 182.309 157.648 c 180.062
 158.043 177.781 158.246 175.5 158.25 c 171.836 158.258 168.188 158.66 164.609
 159.449 c 158.523 160.84 159.504 169.793 165.75 169.828 c 166.145 169.836
 166.535 169.793 166.922 169.711 c 172.531 168.449 178.469 168.988 184.141
 168 c 186.988 167.484 188.883 164.758 188.371 161.91 c h
154.109 168.691 m 152.418 166.32 149.117 165.781 146.762 167.488 c 141.418
 171.324 136.898 176.191 133.469 181.801 c 131.898 184.281 132.66 187.566
 135.168 189.102 c 137.672 190.633 140.945 189.82 142.441 187.289 c 145.141
 182.867 148.699 179.031 152.91 176.012 c 155.254 174.312 155.789 171.047
 154.109 168.691 c h
137.219 217.68 m 136.91 215.664 136.75 213.629 136.738 211.59 c 136.738
 207.512 l 136.738 205.582 136.891 203.656 137.191 201.75 c 138.23 194.809
 127.82 193.25 126.781 200.191 c 126.418 202.613 126.238 205.059 126.238
 207.512 c 126.238 211.59 l 126.242 214.172 126.445 216.75 126.84 219.301
 c 127.25 221.852 129.445 223.73 132.031 223.738 c 132.301 223.734 132.57
 223.715 132.84 223.68 c 135.707 223.234 137.668 220.547 137.219 217.68 
c h
153.148 243.27 m 148.93 240.27 145.344 236.465 142.59 232.078 c 138.84 
226.359 130.199 231.742 133.68 237.629 c 137.156 243.207 141.715 248.035
 147.09 251.82 c 149.449 253.566 152.785 253.035 154.484 250.637 c 156.184
 248.242 155.582 244.918 153.148 243.27 c h
183.629 250.352 m 175.5 250.352 l 172.715 250.352 169.938 250.051 167.219
 249.449 c 164.355 248.762 161.488 250.566 160.863 253.445 c 160.242 256.324
 162.109 259.152 165 259.711 c 168.449 260.465 171.969 260.848 175.5 260.852
 c 183.629 260.852 l 190.629 260.852 190.629 250.352 183.629 250.352 c h
218.789 250.352 m 201.211 250.352 l 194.211 250.352 194.211 260.852 201.211
 260.852 c 218.789 260.852 l 225.789 260.852 225.789 250.352 218.789 250.352
 c h
218.789 250.352 m f
224.762 83.82 m 224.762 92.82 l 224.762 99.82 214.262 99.82 214.262 92.82
 c 214.262 83.82 l h
224.762 83.82 m f
Q Q
showpage
%%Trailer
end
%%EOF
