%!PS-Adobe-3.0 EPSF-3.0
%%Creator: cairo 1.16.0 (https://cairographics.org)
%%CreationDate: Fri Jul 19 07:40:27 2019
%%Pages: 1
%%DocumentData: Clean7Bit
%%LanguageLevel: 2
%%BoundingBox: 25 5 359 379
%%EndComments
%%BeginProlog
50 dict begin
/q { gsave } bind def
/Q { grestore } bind def
/cm { 6 array astore concat } bind def
/w { setlinewidth } bind def
/J { setlinecap } bind def
/j { setlinejoin } bind def
/M { setmiterlimit } bind def
/d { setdash } bind def
/m { moveto } bind def
/l { lineto } bind def
/c { curveto } bind def
/h { closepath } bind def
/re { exch dup neg 3 1 roll 5 3 roll moveto 0 rlineto
      0 exch rlineto 0 rlineto closepath } bind def
/S { stroke } bind def
/f { fill } bind def
/f* { eofill } bind def
/n { newpath } bind def
/W { clip } bind def
/W* { eoclip } bind def
/BT { } bind def
/ET { } bind def
/BDC { mark 3 1 roll /BDC pdfmark } bind def
/EMC { mark /EMC pdfmark } bind def
/cairo_store_point { /cairo_point_y exch def /cairo_point_x exch def } def
/Tj { show currentpoint cairo_store_point } bind def
/TJ {
  {
    dup
    type /stringtype eq
    { show } { -0.001 mul 0 cairo_font_matrix dtransform rmoveto } ifelse
  } forall
  currentpoint cairo_store_point
} bind def
/cairo_selectfont { cairo_font_matrix aload pop pop pop 0 0 6 array astore
    cairo_font exch selectfont cairo_point_x cairo_point_y moveto } bind def
/Tf { pop /cairo_font exch def /cairo_font_matrix where
      { pop cairo_selectfont } if } bind def
/Td { matrix translate cairo_font_matrix matrix concatmatrix dup
      /cairo_font_matrix exch def dup 4 get exch 5 get cairo_store_point
      /cairo_font where { pop cairo_selectfont } if } bind def
/Tm { 2 copy 8 2 roll 6 array astore /cairo_font_matrix exch def
      cairo_store_point /cairo_font where { pop cairo_selectfont } if } bind def
/g { setgray } bind def
/rg { setrgbcolor } bind def
/d1 { setcachedevice } bind def
/cairo_data_source {
  CairoDataIndex CairoData length lt
    { CairoData CairoDataIndex get /CairoDataIndex CairoDataIndex 1 add def }
    { () } ifelse
} def
/cairo_flush_ascii85_file { cairo_ascii85_file status { cairo_ascii85_file flushfile } if } def
/cairo_image { image cairo_flush_ascii85_file } def
/cairo_imagemask { imagemask cairo_flush_ascii85_file } def
%%EndProlog
%%BeginSetup
%%EndSetup
%%Page: 1 1
%%BeginPageSetup
%%PageBoundingBox: 25 5 359 379
%%EndPageSetup
q 25 5 334 374 rectclip
1 0 0 -1 0 384 cm q
0 0.67451 0.756863 rg
267.09 68.25 m 267.09 77.762 l 216.75 77.762 l 216.75 64.09 205.668 53.012
 192 53.012 c 178.332 53.012 167.25 64.09 167.25 77.762 c 116.941 77.762
 l 116.941 68.25 l 116.941 41.742 138.43 20.25 164.941 20.25 c 177.121 20.25
 l 177.121 5.25 l 206.879 5.25 l 206.879 20.25 l 219.09 20.25 l 245.602 
20.25 267.09 41.742 267.09 68.25 c h
267.09 68.25 m f
1 0.792157 0.564706 rg
266.977 117.871 m 266.977 102.5 l 116.934 102.5 l 116.934 121.699 l 116.938
 126.414 117.438 131.117 118.434 135.727 c 122.961 156.398 l 127.73 178.301
 l 128.152 180.176 128.633 182.012 129.188 183.82 c 129.746 185.629 130.391
 187.375 131.09 189.121 c 141.191 213.871 165.266 230.047 192 230.047 c 
218.73 230.047 242.805 213.871 252.91 189.121 c 253.617 187.375 254.258 
185.605 254.809 183.82 c 255.359 182.031 255.848 180.176 256.266 178.301
 c 261.035 156.398 l 265.562 135.727 l 266.316 132.23 266.789 128.68 266.973
 125.109 c 267.117 122.699 267.117 120.281 266.977 117.871 c h
266.977 117.871 m f
266.977 117.871 m 266.977 102.5 l 116.934 102.5 l 116.934 121.699 l 116.938
 126.414 117.438 131.117 118.434 135.727 c 122.961 156.398 l 127.73 178.301
 l 128.152 180.176 128.633 182.012 129.188 183.82 c 129.746 185.629 130.391
 187.375 131.09 189.121 c 141.191 213.871 165.266 230.047 192 230.047 c 
218.73 230.047 242.805 213.871 252.91 189.121 c 253.617 187.375 254.258 
185.605 254.809 183.82 c 255.359 182.031 255.848 180.176 256.266 178.301
 c 261.035 156.398 l 265.562 135.727 l 266.316 132.23 266.789 128.68 266.973
 125.109 c 267.117 122.699 267.117 120.281 266.977 117.871 c h
266.977 117.871 m f
266.977 117.871 m 266.977 102.5 l 116.934 102.5 l 116.934 121.699 l 116.938
 126.414 117.438 131.117 118.434 135.727 c 122.961 156.398 l 127.73 178.301
 l 128.152 180.176 128.633 182.012 129.188 183.82 c 129.746 185.629 130.391
 187.375 131.09 189.121 c 141.191 213.871 165.266 230.047 192 230.047 c 
218.73 230.047 242.805 213.871 252.91 189.121 c 253.617 187.375 254.258 
185.605 254.809 183.82 c 255.359 182.031 255.848 180.176 256.266 178.301
 c 261.035 156.398 l 265.562 135.727 l 266.316 132.23 266.789 128.68 266.973
 125.109 c 267.117 122.699 267.117 120.281 266.977 117.871 c h
266.977 117.871 m f
193.52 311.645 m 246.02 259.145 l 239.609 256.062 235.195 249.949 234.289
 242.895 c 231 217.172 l 207.828 234.32 176.172 234.32 153 217.172 c 149.699
 242.902 l 148.887 249.168 145.281 254.73 139.898 258.039 c h
193.52 311.645 m f
0.866667 0.662745 0.462745 rg
231 217.172 m 207.828 234.32 176.172 234.32 153 217.172 c 151.289 230.551
 l 176.27 245.859 207.727 245.859 232.703 230.551 c h
231 217.172 m f
1 0.792157 0.564706 rg
324.039 273.824 m 324.039 378.75 l 358.5 378.75 l 358.5 332.5 l 358.488
 308.145 345.305 285.695 324.039 273.824 c h
324.039 273.824 m f
25.5 332.5 m 25.5 378.75 l 63 378.75 l 63 272.191 l 40.043 283.52 25.508
 306.898 25.5 332.5 c h
25.5 332.5 m f
118.441 135.727 m 117.441 131.117 116.938 126.414 116.941 121.695 c 116.941
 117.777 l 110.543 116.887 104.098 119.074 99.566 123.684 c 95.035 128.289
 92.953 134.77 93.949 141.152 c 94.945 147.535 98.906 153.074 104.625 156.078
 c 110.344 159.086 117.148 159.207 122.973 156.406 c h
118.441 135.727 m f
265.559 135.727 m 266.559 131.117 267.062 126.414 267.059 121.695 c 267.059
 117.777 l 273.457 116.887 279.902 119.074 284.434 123.684 c 288.965 128.289
 291.047 134.77 290.051 141.152 c 289.055 147.535 285.094 153.074 279.375
 156.078 c 273.656 159.086 266.852 159.207 261.027 156.406 c h
265.559 135.727 m f
0.866667 0.662745 0.462745 rg
267.07 117.777 m 267.07 121.695 l 267.078 126.414 266.574 131.117 265.57
 135.727 c 261.07 156.406 l 264.758 158.211 268.914 158.824 272.965 158.164
 c 277.324 138.25 l 278.16 134.348 278.707 130.391 278.949 126.41 c 279.176
 124.211 279.227 121.992 279.102 119.785 c 275.41 117.875 271.215 117.172
 267.102 117.777 c h
267.07 117.777 m f
116.93 117.777 m 116.93 121.695 l 116.922 126.414 117.426 131.117 118.43
 135.727 c 122.93 156.406 l 119.242 158.211 115.086 158.824 111.035 158.164
 c 106.676 138.25 l 105.84 134.348 105.293 130.391 105.051 126.41 c 104.824
 124.211 104.773 121.992 104.898 119.785 c 108.59 117.875 112.785 117.172
 116.898 117.777 c h
116.93 117.777 m f
0.364706 0.25098 0.215686 rg
198.621 160.199 m 192.75 160.199 l 189.75 160.199 186.898 158.895 184.945
 156.617 c 182.988 154.344 182.125 151.332 182.574 148.363 c 184.699 134.305
 l 185.133 131.438 187.809 129.465 190.676 129.898 c 193.543 130.332 195.516
 133.004 195.086 135.871 c 192.984 149.695 l 198.613 149.695 l 205.613 149.695
 205.613 160.195 198.613 160.195 c h
198.621 160.199 m f
171.5 121.25 m 171.5 128.156 165.902 133.754 159 133.754 c 152.098 133.754
 146.5 128.156 146.5 121.25 c 146.5 114.348 152.098 108.75 159 108.75 c 
165.902 108.75 171.5 114.348 171.5 121.25 c h
171.5 121.25 m f
233.289 121.25 m 233.289 128.156 227.691 133.754 220.789 133.754 c 213.883
 133.754 208.285 128.156 208.285 121.25 c 208.285 114.348 213.883 108.75
 220.789 108.75 c 227.691 108.75 233.289 114.348 233.289 121.25 c h
233.289 121.25 m f
216.75 77.75 m 216.75 91.422 205.668 102.5 192 102.5 c 178.332 102.5 167.25
 91.422 167.25 77.75 c 167.25 64.082 178.332 53 192 53 c 205.668 53 216.75
 64.082 216.75 77.75 c h
216.75 77.75 m f
0.984314 0.54902 0 rg
167.25 77.75 m 101.5 77.75 l 101.5 102.5 l 192 102.5 l 178.332 102.5 167.25
 91.422 167.25 77.75 c h
167.25 77.75 m f
216.75 77.75 m 216.75 91.422 205.668 102.5 192 102.5 c 282.5 102.5 l 282.5
 77.75 l h
216.75 77.75 m f
181.25 171.703 m 181.25 192 l 181.25 197.938 186.062 202.75 192 202.75 
c 197.938 202.75 202.754 197.938 202.754 192 c 202.754 171.703 l h
181.25 171.703 m f
0.364706 0.25098 0.215686 rg
314.398 255.684 m 264.508 245.625 l 261.324 245.625 258.273 246.891 256.023
 249.141 c 193.52 311.645 l 131.016 249.141 l 128.766 246.891 125.715 245.625
 122.531 245.625 c 72.629 255.684 l 67.027 256.812 63 261.734 63 267.445
 c 63 378.746 l 324.039 378.746 l 324.039 267.445 l 324.039 261.73 320.004
 256.809 314.398 255.684 c h
314.398 255.684 m f
0.866667 0.662745 0.462745 rg
246.016 259.148 m 242.336 257.367 239.258 254.551 237.148 251.051 c 193.52
 294.672 l 147.898 249.059 l 146.164 252.762 143.387 255.883 139.91 258.039
 c 193.52 311.645 l h
246.016 259.148 m f
0.364706 0.25098 0.215686 rg
314.398 255.684 m 264.508 245.625 l 261.324 245.625 258.273 246.891 256.023
 249.141 c 193.52 311.645 l 131.016 249.141 l 128.766 246.891 125.715 245.625
 122.531 245.625 c 72.629 255.684 l 67.027 256.812 63 261.734 63 267.445
 c 63 378.746 l 324.039 378.746 l 324.039 267.445 l 324.039 261.73 320.004
 256.809 314.398 255.684 c h
314.398 255.684 m f
1 0.792157 0.564706 rg
92.621 327.363 71.277 51.375 re f
0 0.67451 0.756863 rg
142.898 353.051 m 113.621 353.051 l 92.621 340.207 l 92.621 327.363 l 163.898
 327.363 l 163.898 340.207 l h
142.898 353.051 m f
1 0.792157 0.564706 rg
220.105 327.359 71.277 51.375 re f
0.866667 0.662745 0.462745 rg
220.102 327.363 m 220.102 336.363 l 264.383 336.363 l 274.32 336.363 282.383
 344.422 282.383 354.363 c 282.383 378.738 l 291.383 378.738 l 291.383 327.363
 l h
220.102 327.363 m f
0 0.67451 0.756863 rg
241.102 353.051 m 270.383 353.051 l 291.383 340.207 l 291.383 327.363 l
 220.102 327.363 l 220.102 340.207 l h
241.102 353.051 m f
0 0.592157 0.654902 rg
220.102 327.363 m 220.102 336.363 l 264.383 336.363 l 271.371 336.371 277.723
 340.422 280.676 346.754 c 291.383 340.211 l 291.383 327.367 l h
220.102 327.363 m f
0.866667 0.662745 0.462745 rg
92.617 327.363 m 92.617 336.363 l 136.898 336.363 l 146.84 336.363 154.898
 344.422 154.898 354.363 c 154.898 378.738 l 163.898 378.738 l 163.898 327.363
 l h
92.617 327.363 m f
0 0.592157 0.654902 rg
92.617 327.363 m 92.617 336.363 l 136.898 336.363 l 143.887 336.371 150.242
 340.422 153.195 346.754 c 163.898 340.211 l 163.898 327.367 l h
92.617 327.363 m f
0.364706 0.25098 0.215686 rg
192 171.703 m 180.922 171.703 l 173.641 171.703 167.09 176.121 164.359 
182.871 c 161.66 189.562 l 178.762 189.562 l 186.074 189.555 192 183.621
 192 176.309 c h
192 171.703 m f
192 171.703 m 203.078 171.703 l 210.359 171.703 216.91 176.121 219.641 
182.871 c 222.34 189.562 l 205.238 189.562 l 197.926 189.555 192 183.621
 192 176.309 c h
192 171.703 m f
0 0.592157 0.654902 rg
217.379 20.25 m 217.379 36.988 l 217.379 43.988 206.879 43.988 206.879 
36.988 c 206.879 20.25 l h
217.379 20.25 m f
177.121 20.25 m 177.121 36.988 l 177.121 43.988 166.621 43.988 166.621 
36.988 c 166.621 20.25 l h
177.121 20.25 m f
Q Q
showpage
%%Trailer
end
%%EOF
