%!PS-Adobe-3.0 EPSF-3.0
%%Creator: cairo 1.16.0 (https://cairographics.org)
%%CreationDate: Fri Jul 19 07:40:27 2019
%%Pages: 1
%%DocumentData: Clean7Bit
%%LanguageLevel: 2
%%BoundingBox: 5 57 379 327
%%EndComments
%%BeginProlog
50 dict begin
/q { gsave } bind def
/Q { grestore } bind def
/cm { 6 array astore concat } bind def
/w { setlinewidth } bind def
/J { setlinecap } bind def
/j { setlinejoin } bind def
/M { setmiterlimit } bind def
/d { setdash } bind def
/m { moveto } bind def
/l { lineto } bind def
/c { curveto } bind def
/h { closepath } bind def
/re { exch dup neg 3 1 roll 5 3 roll moveto 0 rlineto
      0 exch rlineto 0 rlineto closepath } bind def
/S { stroke } bind def
/f { fill } bind def
/f* { eofill } bind def
/n { newpath } bind def
/W { clip } bind def
/W* { eoclip } bind def
/BT { } bind def
/ET { } bind def
/BDC { mark 3 1 roll /BDC pdfmark } bind def
/EMC { mark /EMC pdfmark } bind def
/cairo_store_point { /cairo_point_y exch def /cairo_point_x exch def } def
/Tj { show currentpoint cairo_store_point } bind def
/TJ {
  {
    dup
    type /stringtype eq
    { show } { -0.001 mul 0 cairo_font_matrix dtransform rmoveto } ifelse
  } forall
  currentpoint cairo_store_point
} bind def
/cairo_selectfont { cairo_font_matrix aload pop pop pop 0 0 6 array astore
    cairo_font exch selectfont cairo_point_x cairo_point_y moveto } bind def
/Tf { pop /cairo_font exch def /cairo_font_matrix where
      { pop cairo_selectfont } if } bind def
/Td { matrix translate cairo_font_matrix matrix concatmatrix dup
      /cairo_font_matrix exch def dup 4 get exch 5 get cairo_store_point
      /cairo_font where { pop cairo_selectfont } if } bind def
/Tm { 2 copy 8 2 roll 6 array astore /cairo_font_matrix exch def
      cairo_store_point /cairo_font where { pop cairo_selectfont } if } bind def
/g { setgray } bind def
/rg { setrgbcolor } bind def
/d1 { setcachedevice } bind def
/cairo_data_source {
  CairoDataIndex CairoData length lt
    { CairoData CairoDataIndex get /CairoDataIndex CairoDataIndex 1 add def }
    { () } ifelse
} def
/cairo_flush_ascii85_file { cairo_ascii85_file status { cairo_ascii85_file flushfile } if } def
/cairo_image { image cairo_flush_ascii85_file } def
/cairo_imagemask { imagemask cairo_flush_ascii85_file } def
%%EndProlog
%%BeginSetup
%%EndSetup
%%Page: 1 1
%%BeginPageSetup
%%PageBoundingBox: 5 57 379 327
%%EndPageSetup
q 5 57 374 270 rectclip
1 0 0 -1 0 384 cm q
0.364706 0.25098 0.215686 rg
359.539 148.723 m 331 177.262 l 278.875 177.262 l 265.047 191.102 l 269.355
 202.137 272.645 213.547 274.871 225.188 c 252.914 203.219 l 240.75 215.398
 l 240.75 257.137 l 220.5 277.387 l 175 277.387 l 148 326.637 l 378.75 326.637
 l 378.75 148.738 l h
359.539 148.723 m f
0.298039 0.207843 0.180392 rg
265.863 216.168 m 265.863 216.164 l 252.914 203.219 l h
265.863 216.168 m f
369.742 148.723 m 369.742 282.691 l 369.742 291.961 366.062 300.848 359.508
 307.398 c 352.953 313.949 344.066 317.629 334.801 317.629 c 152.938 317.629
 l 148 326.629 l 378.75 326.629 l 378.75 148.727 l h
369.742 148.723 m f
0 0.67451 0.756863 rg
274.867 225.176 m 268.789 193.406 254.887 163.656 234.422 138.613 c 239.52
 133.516 l 198.535 92.551 l 193.434 97.648 l 168.395 77.18 138.652 63.273
 106.887 57.188 c 170.398 120.691 l 166.016 125.07 l 167.84 144.391 l 187.676
 164.223 l 206.992 166.043 l 211.367 161.672 l h
274.867 225.176 m f
0 0.592157 0.654902 rg
199.055 158.109 m 179.734 156.285 l 187.672 164.223 l 206.992 166.043 l
 211.363 161.672 l 203.43 153.73 l h
199.055 158.109 m f
274.867 225.176 m 268.789 193.406 254.887 163.656 234.422 138.613 c 239.52
 133.516 l 223.867 117.859 l 221.539 115.531 l 216.438 120.633 l 218.578
 122.773 l 239.031 147.812 252.922 177.551 258.996 209.301 c h
274.867 225.176 m f
0.984314 0.54902 0 rg
167.844 144.367 m 187.672 164.199 l 25.109 326.762 l 5.277 306.934 l h
167.844 144.367 m f
223.09 89.09 m 242.922 108.922 l 228.922 122.918 l 209.094 103.086 l h
223.09 89.09 m f
0.937255 0.423529 0 rg
17.648 319.371 m 180.211 156.809 l 187.621 164.219 l 25.059 326.781 l h
17.648 319.371 m f
221.492 115.551 m 235.488 101.555 l 242.898 108.969 l 228.902 122.965 l
 h
221.492 115.551 m f
0 0.592157 0.654902 rg
211.418 145.727 m 210.027 145.727 208.691 145.172 207.707 144.188 c 187.879
 124.352 l 183.188 119.406 190.355 112.242 195.301 116.93 c 215.129 136.766
 l 218.434 140.07 216.094 145.723 211.418 145.727 c h
211.418 145.727 m f
1 0.792157 0.564706 rg
274.867 151.5 m 271.969 151.5 269.617 149.148 269.617 146.25 c 269.617 
130.559 l 269.617 123.559 280.117 123.559 280.117 130.559 c 280.117 146.25
 l 280.117 149.148 277.77 151.5 274.867 151.5 c h
274.867 151.5 m f
274.867 151.5 m 271.969 151.5 269.617 149.148 269.617 146.25 c 269.617 
130.559 l 269.617 123.559 280.117 123.559 280.117 130.559 c 280.117 146.25
 l 280.117 149.148 277.77 151.5 274.867 151.5 c h
274.867 151.5 m f
198.641 210 m 198.18 210 197.723 209.938 197.277 209.82 c 182.117 205.758
 l 179.316 205.008 177.656 202.129 178.406 199.328 c 179.156 196.527 182.035
 194.863 184.836 195.613 c 199.996 199.676 l 205.934 201.258 204.785 210.004
 198.641 210 c h
198.641 210 m f
195.945 230.426 m 180.254 230.426 l 173.254 230.426 173.254 219.926 180.254
 219.926 c 195.945 219.926 l 202.945 219.926 202.945 230.426 195.945 230.426
 c h
195.945 230.426 m f
183.473 254.914 m 177.328 254.918 176.18 246.172 182.117 244.59 c 197.273
 240.527 l 204.035 238.715 206.754 248.859 199.992 250.672 c 184.832 254.734
 l 184.391 254.852 183.934 254.914 183.473 254.914 c h
183.473 254.914 m f
314.324 162.074 m 310.289 162.066 307.77 157.699 309.781 154.199 c 317.629
 140.609 l 321.145 134.609 330.156 139.816 326.723 145.859 c 318.875 159.449
 l 317.938 161.074 316.203 162.078 314.324 162.074 c h
314.324 162.074 m f
295.301 154.199 m 291.855 154.195 289.344 150.93 290.23 147.602 c 294.301
 132.422 l 295.051 129.621 297.93 127.961 300.73 128.711 c 303.531 129.457
 305.191 132.336 304.441 135.137 c 300.367 150.301 l 299.758 152.598 297.68
 154.195 295.301 154.199 c h
295.301 154.199 m f
0.298039 0.207843 0.180392 rg
268.375 187.762 m 353.25 187.762 l 360.25 187.762 360.25 177.262 353.25
 177.262 c 278.875 177.262 l h
268.375 187.762 m f
169.242 287.887 m 264.25 287.887 l 271.25 287.887 271.25 277.387 264.25
 277.387 c 175 277.387 l h
169.242 287.887 m f
Q Q
showpage
%%Trailer
end
%%EOF
