%!PS-Adobe-3.0 EPSF-3.0
%%Creator: cairo 1.16.0 (https://cairographics.org)
%%CreationDate: Fri Jul 19 07:40:27 2019
%%Pages: 1
%%DocumentData: Clean7Bit
%%LanguageLevel: 2
%%BoundingBox: 29 4 356 379
%%EndComments
%%BeginProlog
50 dict begin
/q { gsave } bind def
/Q { grestore } bind def
/cm { 6 array astore concat } bind def
/w { setlinewidth } bind def
/J { setlinecap } bind def
/j { setlinejoin } bind def
/M { setmiterlimit } bind def
/d { setdash } bind def
/m { moveto } bind def
/l { lineto } bind def
/c { curveto } bind def
/h { closepath } bind def
/re { exch dup neg 3 1 roll 5 3 roll moveto 0 rlineto
      0 exch rlineto 0 rlineto closepath } bind def
/S { stroke } bind def
/f { fill } bind def
/f* { eofill } bind def
/n { newpath } bind def
/W { clip } bind def
/W* { eoclip } bind def
/BT { } bind def
/ET { } bind def
/BDC { mark 3 1 roll /BDC pdfmark } bind def
/EMC { mark /EMC pdfmark } bind def
/cairo_store_point { /cairo_point_y exch def /cairo_point_x exch def } def
/Tj { show currentpoint cairo_store_point } bind def
/TJ {
  {
    dup
    type /stringtype eq
    { show } { -0.001 mul 0 cairo_font_matrix dtransform rmoveto } ifelse
  } forall
  currentpoint cairo_store_point
} bind def
/cairo_selectfont { cairo_font_matrix aload pop pop pop 0 0 6 array astore
    cairo_font exch selectfont cairo_point_x cairo_point_y moveto } bind def
/Tf { pop /cairo_font exch def /cairo_font_matrix where
      { pop cairo_selectfont } if } bind def
/Td { matrix translate cairo_font_matrix matrix concatmatrix dup
      /cairo_font_matrix exch def dup 4 get exch 5 get cairo_store_point
      /cairo_font where { pop cairo_selectfont } if } bind def
/Tm { 2 copy 8 2 roll 6 array astore /cairo_font_matrix exch def
      cairo_store_point /cairo_font where { pop cairo_selectfont } if } bind def
/g { setgray } bind def
/rg { setrgbcolor } bind def
/d1 { setcachedevice } bind def
/cairo_data_source {
  CairoDataIndex CairoData length lt
    { CairoData CairoDataIndex get /CairoDataIndex CairoDataIndex 1 add def }
    { () } ifelse
} def
/cairo_flush_ascii85_file { cairo_ascii85_file status { cairo_ascii85_file flushfile } if } def
/cairo_image { image cairo_flush_ascii85_file } def
/cairo_imagemask { imagemask cairo_flush_ascii85_file } def
%%EndProlog
%%BeginSetup
%%EndSetup
%%Page: 1 1
%%BeginPageSetup
%%PageBoundingBox: 29 4 356 379
%%EndPageSetup
q 29 4 327 375 rectclip
1 0 0 -1 0 384 cm q
0.984314 0.54902 0 rg
300 223.199 m 288.898 156.602 l 284.102 127.801 258.898 106.5 229.801 106.5
 c 154.199 106.5 l 124.801 106.5 99.898 127.801 95.102 156.602 c 84 223.199
 l 77.102 263.699 60.301 302.102 34.801 334.5 c 30.898 339.301 29.102 345.301
 29.102 351.602 c 29.102 366.898 41.398 379.199 56.699 379.199 c 327.602
 379.199 l 342.898 379.199 355.199 366.898 355.199 351.602 c 355.199 345.301
 353.102 339.602 349.5 334.5 c 323.699 302.102 306.898 263.699 300 223.199
 c h
300 223.199 m f
0.937255 0.423529 0 rg
349.199 334.5 m 323.699 302.102 306.898 263.699 300 223.199 c 288.898 156.602
 l 284.102 127.801 258.898 106.5 229.801 106.5 c 154.199 106.5 l 141.301
 106.5 129 110.699 118.801 118.199 c 124.5 116.398 130.199 115.5 136.199
 115.5 c 211.801 115.5 l 241.199 115.5 266.102 136.801 270.898 165.602 c
 282 232.199 l 288.898 272.699 305.699 311.102 331.199 343.5 c 339.602 354
 339 369 330 378.898 c 345.301 377.699 356.398 364.199 354.898 348.898 c
 354.301 343.801 352.5 338.699 349.199 334.5 c h
349.199 334.5 m f
1 0.792157 0.564706 rg
266.102 242.699 m 266.102 283.625 232.926 316.801 192 316.801 c 151.074
 316.801 117.898 283.625 117.898 242.699 c 117.898 201.777 151.074 168.602
 192 168.602 c 211.652 168.602 230.5 176.406 244.398 190.305 c 258.293 204.199
 266.102 223.047 266.102 242.699 c h
266.102 242.699 m f
0.866667 0.662745 0.462745 rg
192.602 168.898 m 190.5 168.898 188.699 168.898 186.602 169.199 c 227.398
 172.5 257.699 208.199 254.398 249 c 251.398 285 222.898 313.801 186.602
 316.801 c 188.699 317.102 190.5 317.102 192.602 317.102 c 233.398 316.801
 266.398 283.5 266.102 242.699 c 265.801 201.898 233.102 169.199 192.602
 168.898 c h
192.602 168.898 m f
0.364706 0.25098 0.215686 rg
123.602 81.602 m 260.699 81.602 l 267.602 81.602 273.301 87.301 273.301
 94.199 c 273.301 101.102 267.602 106.801 260.699 106.801 c 123.602 106.801
 l 116.699 106.801 111 101.102 111 94.199 c 111 87 116.699 81.602 123.602
 81.602 c h
123.602 81.602 m f
0.298039 0.207843 0.180392 rg
260.398 81.602 m 245.398 81.602 l 252.301 81.602 258 87 258 93.898 c 258
 100.801 252.602 106.5 245.699 106.5 c 245.398 106.5 l 260.398 106.5 l 267.301
 106.5 273 101.102 273 94.199 c 273 87.301 267.602 81.602 260.699 81.602
 c 260.699 81.602 260.699 81.602 260.398 81.602 c h
260.398 81.602 m f
0 0.67451 0.756863 rg
200.699 237.602 m 183.301 237.602 l 179.398 237.602 176.102 234.602 176.102
 230.699 c 176.102 226.801 179.102 223.5 183 223.5 c 213 223.5 l 216 223.5
 218.398 221.102 218.398 218.102 c 218.398 215.102 216 213 213 213 c 197.398
 213 l 197.398 198.602 l 197.398 195.602 195 193.199 192 193.199 c 189 193.199
 186.602 195.602 186.602 198.602 c 186.602 213 l 183 213 l 173.398 213 165.301
 220.5 165.301 230.398 c 165.301 240 172.801 248.102 182.699 248.102 c 200.699
 248.102 l 204.602 248.102 207.898 251.102 207.898 255 c 207.898 258.898
 204.898 262.199 201 262.199 c 171 262.199 l 168 262.199 165.602 264.602
 165.602 267.602 c 165.602 270.602 168 273 171 273 c 186.602 273 l 186.602
 287.398 l 186.602 290.398 189 292.801 192 292.801 c 195 292.801 197.398
 290.398 197.398 287.398 c 197.398 273 l 201 273 l 210.602 273 218.699 265.5
 218.699 255.602 c 218.699 246 211.199 237.898 201.301 237.898 c 201 237.602
 201 237.602 200.699 237.602 c h
200.699 237.602 m f
0.984314 0.54902 0 rg
202.199 19.801 m 192 43.5 l 181.801 19.801 l 177.898 11.102 169.199 5.398
 159.898 5.398 c 99 5.398 l 99 29.102 111 51.301 131.102 63.898 c 159 81.602
 l 225 81.602 l 252.898 63.898 l 273 51 285 29.102 285 5.398 c 224.398 5.398
 l 214.801 5.398 206.102 10.801 202.199 19.801 c h
202.199 19.801 m f
0.937255 0.423529 0 rg
169.801 19.801 m 186 57.301 l 192 43.5 l 181.801 19.801 l 177.898 11.102
 169.199 5.398 159.898 5.398 c 147.898 5.398 l 157.199 5.398 165.898 10.801
 169.801 19.801 c h
169.801 19.801 m f
273 5.398 m 273 29.102 261 51.301 240.898 63.898 c 213 81.602 l 225 81.602
 l 252.898 63.898 l 273 51 285 29.102 285 5.398 c h
273 5.398 m f
Q Q
showpage
%%Trailer
end
%%EOF
