%!PS-Adobe-3.0 EPSF-3.0
%%Creator: cairo 1.16.0 (https://cairographics.org)
%%CreationDate: Fri Jul 19 07:40:27 2019
%%Pages: 1
%%DocumentData: Clean7Bit
%%LanguageLevel: 2
%%BoundingBox: 5 91 379 293
%%EndComments
%%BeginProlog
50 dict begin
/q { gsave } bind def
/Q { grestore } bind def
/cm { 6 array astore concat } bind def
/w { setlinewidth } bind def
/J { setlinecap } bind def
/j { setlinejoin } bind def
/M { setmiterlimit } bind def
/d { setdash } bind def
/m { moveto } bind def
/l { lineto } bind def
/c { curveto } bind def
/h { closepath } bind def
/re { exch dup neg 3 1 roll 5 3 roll moveto 0 rlineto
      0 exch rlineto 0 rlineto closepath } bind def
/S { stroke } bind def
/f { fill } bind def
/f* { eofill } bind def
/n { newpath } bind def
/W { clip } bind def
/W* { eoclip } bind def
/BT { } bind def
/ET { } bind def
/BDC { mark 3 1 roll /BDC pdfmark } bind def
/EMC { mark /EMC pdfmark } bind def
/cairo_store_point { /cairo_point_y exch def /cairo_point_x exch def } def
/Tj { show currentpoint cairo_store_point } bind def
/TJ {
  {
    dup
    type /stringtype eq
    { show } { -0.001 mul 0 cairo_font_matrix dtransform rmoveto } ifelse
  } forall
  currentpoint cairo_store_point
} bind def
/cairo_selectfont { cairo_font_matrix aload pop pop pop 0 0 6 array astore
    cairo_font exch selectfont cairo_point_x cairo_point_y moveto } bind def
/Tf { pop /cairo_font exch def /cairo_font_matrix where
      { pop cairo_selectfont } if } bind def
/Td { matrix translate cairo_font_matrix matrix concatmatrix dup
      /cairo_font_matrix exch def dup 4 get exch 5 get cairo_store_point
      /cairo_font where { pop cairo_selectfont } if } bind def
/Tm { 2 copy 8 2 roll 6 array astore /cairo_font_matrix exch def
      cairo_store_point /cairo_font where { pop cairo_selectfont } if } bind def
/g { setgray } bind def
/rg { setrgbcolor } bind def
/d1 { setcachedevice } bind def
/cairo_data_source {
  CairoDataIndex CairoData length lt
    { CairoData CairoDataIndex get /CairoDataIndex CairoDataIndex 1 add def }
    { () } ifelse
} def
/cairo_flush_ascii85_file { cairo_ascii85_file status { cairo_ascii85_file flushfile } if } def
/cairo_image { image cairo_flush_ascii85_file } def
/cairo_imagemask { imagemask cairo_flush_ascii85_file } def
%%EndProlog
%%BeginSetup
%%EndSetup
%%Page: 1 1
%%BeginPageSetup
%%PageBoundingBox: 5 91 379 293
%%EndPageSetup
q 5 91 374 202 rectclip
1 0 0 -1 0 384 cm q
0 0.67451 0.756863 rg
5.398 91.5 373.5 201 re f
0 0.592157 0.654902 rg
354 225.602 m 354 158.398 l 331.5 158.398 313.5 140.398 313.5 117.898 c
 70.5 117.898 l 70.5 140.398 52.5 158.398 30 158.398 c 30 225.301 l 52.5
 225.301 70.5 243.301 70.5 265.801 c 313.5 265.801 l 313.5 243.602 331.5
 225.602 354 225.602 c h
354 225.602 m f
1 0.792157 0.564706 rg
266.102 192 m 266.102 232.926 232.926 266.102 192 266.102 c 151.074 266.102
 117.898 232.926 117.898 192 c 117.898 151.074 151.074 117.898 192 117.898
 c 211.652 117.898 230.5 125.707 244.398 139.602 c 258.293 153.5 266.102
 172.348 266.102 192 c h
266.102 192 m f
0.866667 0.662745 0.462745 rg
192.602 117.898 m 190.5 117.898 188.699 117.898 186.602 118.199 c 227.398
 121.5 257.699 157.199 254.398 198 c 251.398 234 222.898 262.801 186.602
 265.801 c 188.699 266.102 190.5 266.102 192.602 266.102 c 233.398 265.801
 266.398 232.5 266.102 191.699 c 265.801 150.898 233.102 118.199 192.602
 117.898 c h
192.602 117.898 m f
0 0.67451 0.756863 rg
200.699 186.898 m 183.301 186.898 l 179.398 186.898 176.102 183.898 176.102
 180 c 176.102 176.102 179.102 172.801 183 172.801 c 213 172.801 l 216 172.801
 218.398 170.398 218.398 167.398 c 218.398 164.398 216 162.301 213 162.301
 c 197.398 162.301 l 197.398 147.898 l 197.398 144.898 195 142.5 192 142.5
 c 189 142.5 186.602 144.898 186.602 147.898 c 186.602 162.301 l 183 162.301
 l 173.398 162.301 165.301 169.801 165.301 179.699 c 165.301 189.301 172.801
 197.398 182.699 197.398 c 200.699 197.398 l 204.602 197.398 207.898 200.398
 207.898 204.301 c 207.898 208.199 204.898 211.5 201 211.5 c 171 211.5 l
 168 211.5 165.602 213.898 165.602 216.898 c 165.602 219.898 168 222.301
 171 222.301 c 186.602 222.301 l 186.602 236.699 l 186.602 239.699 189 242.102
 192 242.102 c 195 242.102 197.398 239.699 197.398 236.699 c 197.398 222.301
 l 201 222.301 l 210.602 222.301 218.699 214.801 218.699 204.898 c 218.699
 195.301 211.199 187.199 201.301 187.199 c 201 186.602 201 186.602 200.699
 186.898 c h
200.699 186.898 m f
Q Q
showpage
%%Trailer
end
%%EOF
