%!PS-Adobe-3.0 EPSF-3.0
%%Creator: cairo 1.16.0 (https://cairographics.org)
%%CreationDate: Fri Jul 19 07:40:28 2019
%%Pages: 1
%%DocumentData: Clean7Bit
%%LanguageLevel: 2
%%BoundingBox: 5 5 379 379
%%EndComments
%%BeginProlog
50 dict begin
/q { gsave } bind def
/Q { grestore } bind def
/cm { 6 array astore concat } bind def
/w { setlinewidth } bind def
/J { setlinecap } bind def
/j { setlinejoin } bind def
/M { setmiterlimit } bind def
/d { setdash } bind def
/m { moveto } bind def
/l { lineto } bind def
/c { curveto } bind def
/h { closepath } bind def
/re { exch dup neg 3 1 roll 5 3 roll moveto 0 rlineto
      0 exch rlineto 0 rlineto closepath } bind def
/S { stroke } bind def
/f { fill } bind def
/f* { eofill } bind def
/n { newpath } bind def
/W { clip } bind def
/W* { eoclip } bind def
/BT { } bind def
/ET { } bind def
/BDC { mark 3 1 roll /BDC pdfmark } bind def
/EMC { mark /EMC pdfmark } bind def
/cairo_store_point { /cairo_point_y exch def /cairo_point_x exch def } def
/Tj { show currentpoint cairo_store_point } bind def
/TJ {
  {
    dup
    type /stringtype eq
    { show } { -0.001 mul 0 cairo_font_matrix dtransform rmoveto } ifelse
  } forall
  currentpoint cairo_store_point
} bind def
/cairo_selectfont { cairo_font_matrix aload pop pop pop 0 0 6 array astore
    cairo_font exch selectfont cairo_point_x cairo_point_y moveto } bind def
/Tf { pop /cairo_font exch def /cairo_font_matrix where
      { pop cairo_selectfont } if } bind def
/Td { matrix translate cairo_font_matrix matrix concatmatrix dup
      /cairo_font_matrix exch def dup 4 get exch 5 get cairo_store_point
      /cairo_font where { pop cairo_selectfont } if } bind def
/Tm { 2 copy 8 2 roll 6 array astore /cairo_font_matrix exch def
      cairo_store_point /cairo_font where { pop cairo_selectfont } if } bind def
/g { setgray } bind def
/rg { setrgbcolor } bind def
/d1 { setcachedevice } bind def
/cairo_data_source {
  CairoDataIndex CairoData length lt
    { CairoData CairoDataIndex get /CairoDataIndex CairoDataIndex 1 add def }
    { () } ifelse
} def
/cairo_flush_ascii85_file { cairo_ascii85_file status { cairo_ascii85_file flushfile } if } def
/cairo_image { image cairo_flush_ascii85_file } def
/cairo_imagemask { imagemask cairo_flush_ascii85_file } def
%%EndProlog
%%BeginSetup
%%EndSetup
%%Page: 1 1
%%BeginPageSetup
%%PageBoundingBox: 5 5 379 379
%%EndPageSetup
q 5 5 374 374 rectclip
1 0 0 -1 0 384 cm q
0.984314 0.54902 0 rg
11.25 67.332 m 372.75 67.332 l 376.074 67.332 378.75 70.008 378.75 73.332
 c 378.75 94.332 l 378.75 97.656 376.074 100.332 372.75 100.332 c 11.25 
100.332 l 7.926 100.332 5.25 97.656 5.25 94.332 c 5.25 73.332 l 5.25 70.008
 7.926 67.332 11.25 67.332 c h
11.25 67.332 m f
1 0.792157 0.564706 rg
319 184.582 m 65 184.582 l 35 100.332 l 349 100.332 l h
319 184.582 m f
0.866667 0.662745 0.462745 rg
35 100.332 m 39.273 112.332 l 302.484 112.332 l 308.336 112.332 313.82 
115.176 317.191 119.957 c 320.566 124.738 321.402 130.859 319.441 136.371
 c 302.273 184.586 l 319.004 184.586 l 349.004 100.336 l h
35 100.332 m f
0.364706 0.25098 0.215686 rg
57.75 67.332 m 87.75 49.469 l 116.836 40.684 l 134.02 15.496 l 157.152 
11.105 l 187.023 30.141 l 210.742 39.219 l 219.234 67.332 l h
57.75 67.332 m f
57.75 67.332 m 87.75 49.469 l 116.836 40.684 l 134.02 15.496 l 157.152 
11.105 l 187.023 30.141 l 210.742 39.219 l 219.234 67.332 l h
57.75 67.332 m f
187.023 30.141 m 223.922 18.719 l 236.512 5.25 l 265.211 5.25 l 274.871
 19.016 l 296.25 30.141 l 326.25 67.332 l 219.234 67.332 l 210.742 39.219
 l h
187.023 30.141 m f
0.298039 0.207843 0.180392 rg
220.527 30.117 m 205.582 24.395 l 187.023 30.141 l 210.742 39.219 l 219.234
 67.332 l 231.77 67.332 l h
220.527 30.117 m f
0.364706 0.25098 0.215686 rg
5.25 378.75 m 5.25 342 l 76.715 323.25 l 97.5 307.5 l 149.25 307.5 l 169.5
 322.5 l 213.75 307.5 l 267 312 l 301.5 330.75 l 355.5 331.5 l 378.75 343.125
 l 378.75 378.75 l h
5.25 378.75 m f
0.298039 0.207843 0.180392 rg
355.5 331.5 m 301.5 330.75 l 267 312 l 213.75 307.5 l 169.5 322.5 l 149.25
 307.5 l 97.5 307.5 l 76.715 323.25 l 5.25 342 l 5.25 352.426 l 70.715 335.25
 l 91.5 319.5 l 143.25 319.5 l 163.5 334.5 l 207.75 319.5 l 261 324 l 295.5
 342.75 l 349.5 343.5 l 372.75 355.125 l 372.75 378.75 l 378.75 378.75 l
 378.75 343.125 l h
355.5 331.5 m f
0.364706 0.25098 0.215686 rg
100.5 211.75 m 94.75 229.75 l 100.5 239.5 l 114.5 250.75 l 124.5 241.5 
l 128.75 230.25 l 128.75 230.25 124.004 216.5 123.75 215.75 c 123.496 215
 100.5 211.75 100.5 211.75 c h
100.5 211.75 m f
268.262 215.27 m 255.922 221.637 l 253.844 229.691 l 255.27 242.812 l 265.273
 243.203 l 273.328 239.566 l 273.328 239.566 278.008 229.965 278.27 229.43
 c 278.527 228.898 268.262 215.27 268.262 215.27 c h
268.262 215.27 m f
182.25 231.25 m 179 241 l 182.25 249.75 l 195.5 250.75 l 204.25 247.75 
l 204.25 235.75 l h
182.25 231.25 m f
Q Q
showpage
%%Trailer
end
%%EOF
