%!PS-Adobe-3.0 EPSF-3.0
%%Creator: cairo 1.16.0 (https://cairographics.org)
%%CreationDate: Fri Jul 19 07:40:28 2019
%%Pages: 1
%%DocumentData: Clean7Bit
%%LanguageLevel: 2
%%BoundingBox: 5 5 379 379
%%EndComments
%%BeginProlog
50 dict begin
/q { gsave } bind def
/Q { grestore } bind def
/cm { 6 array astore concat } bind def
/w { setlinewidth } bind def
/J { setlinecap } bind def
/j { setlinejoin } bind def
/M { setmiterlimit } bind def
/d { setdash } bind def
/m { moveto } bind def
/l { lineto } bind def
/c { curveto } bind def
/h { closepath } bind def
/re { exch dup neg 3 1 roll 5 3 roll moveto 0 rlineto
      0 exch rlineto 0 rlineto closepath } bind def
/S { stroke } bind def
/f { fill } bind def
/f* { eofill } bind def
/n { newpath } bind def
/W { clip } bind def
/W* { eoclip } bind def
/BT { } bind def
/ET { } bind def
/BDC { mark 3 1 roll /BDC pdfmark } bind def
/EMC { mark /EMC pdfmark } bind def
/cairo_store_point { /cairo_point_y exch def /cairo_point_x exch def } def
/Tj { show currentpoint cairo_store_point } bind def
/TJ {
  {
    dup
    type /stringtype eq
    { show } { -0.001 mul 0 cairo_font_matrix dtransform rmoveto } ifelse
  } forall
  currentpoint cairo_store_point
} bind def
/cairo_selectfont { cairo_font_matrix aload pop pop pop 0 0 6 array astore
    cairo_font exch selectfont cairo_point_x cairo_point_y moveto } bind def
/Tf { pop /cairo_font exch def /cairo_font_matrix where
      { pop cairo_selectfont } if } bind def
/Td { matrix translate cairo_font_matrix matrix concatmatrix dup
      /cairo_font_matrix exch def dup 4 get exch 5 get cairo_store_point
      /cairo_font where { pop cairo_selectfont } if } bind def
/Tm { 2 copy 8 2 roll 6 array astore /cairo_font_matrix exch def
      cairo_store_point /cairo_font where { pop cairo_selectfont } if } bind def
/g { setgray } bind def
/rg { setrgbcolor } bind def
/d1 { setcachedevice } bind def
/cairo_data_source {
  CairoDataIndex CairoData length lt
    { CairoData CairoDataIndex get /CairoDataIndex CairoDataIndex 1 add def }
    { () } ifelse
} def
/cairo_flush_ascii85_file { cairo_ascii85_file status { cairo_ascii85_file flushfile } if } def
/cairo_image { image cairo_flush_ascii85_file } def
/cairo_imagemask { imagemask cairo_flush_ascii85_file } def
%%EndProlog
%%BeginSetup
%%EndSetup
%%Page: 1 1
%%BeginPageSetup
%%PageBoundingBox: 5 5 379 379
%%EndPageSetup
q 5 5 374 374 rectclip
1 0 0 -1 0 384 cm q
0 0.67451 0.756863 rg
378.75 237.953 m 370.328 193.949 351.07 152.738 322.715 118.047 c 329.766
 110.996 l 273 54.234 l 265.949 61.285 l 231.262 32.93 190.051 13.672 146.047
 5.25 c 234.016 93.223 l 227.953 99.281 l 230.48 126.047 l 257.953 153.523
 l 284.719 156.047 l 290.777 149.984 l h
378.75 237.953 m f
0 0.592157 0.654902 rg
322.715 118.047 m 329.766 110.996 l 312.141 93.371 l 305.09 100.422 l 333.445
 135.113 352.703 176.324 361.125 220.328 c 280.336 139.539 l 274.273 145.598
 l 247.5 143.074 l 257.941 153.52 l 284.707 156.043 l 290.766 149.98 l 378.75
 237.953 l 370.328 193.949 351.07 152.738 322.715 118.047 c h
322.715 118.047 m f
0.984314 0.54902 0 rg
230.48 126.023 m 257.945 153.492 l 32.75 378.688 l 5.281 351.223 l h
230.48 126.023 m f
307.016 49.449 m 334.484 76.918 l 315.094 96.309 l 287.625 68.84 l h
307.016 49.449 m f
0.937255 0.423529 0 rg
22.387 368.41 m 247.582 143.211 l 257.895 153.523 l 32.695 378.719 l h
22.387 368.41 m f
304.766 86.062 m 324.156 66.676 l 334.465 76.984 l 315.074 96.375 l h
304.766 86.062 m f
0 0.592157 0.654902 rg
290.852 125.871 m 289.457 125.871 288.121 125.32 287.141 124.332 c 259.668
 96.859 l 254.719 91.91 262.145 84.484 267.094 89.438 c 294.562 116.906 
l 297.867 120.215 295.527 125.867 290.852 125.867 c h
290.852 125.871 m f
Q Q
showpage
%%Trailer
end
%%EOF
