%!PS-Adobe-3.0 EPSF-3.0
%%Creator: cairo 1.16.0 (https://cairographics.org)
%%CreationDate: Fri Jul 19 07:40:29 2019
%%Pages: 1
%%DocumentData: Clean7Bit
%%LanguageLevel: 2
%%BoundingBox: 26 5 358 379
%%EndComments
%%BeginProlog
50 dict begin
/q { gsave } bind def
/Q { grestore } bind def
/cm { 6 array astore concat } bind def
/w { setlinewidth } bind def
/J { setlinecap } bind def
/j { setlinejoin } bind def
/M { setmiterlimit } bind def
/d { setdash } bind def
/m { moveto } bind def
/l { lineto } bind def
/c { curveto } bind def
/h { closepath } bind def
/re { exch dup neg 3 1 roll 5 3 roll moveto 0 rlineto
      0 exch rlineto 0 rlineto closepath } bind def
/S { stroke } bind def
/f { fill } bind def
/f* { eofill } bind def
/n { newpath } bind def
/W { clip } bind def
/W* { eoclip } bind def
/BT { } bind def
/ET { } bind def
/BDC { mark 3 1 roll /BDC pdfmark } bind def
/EMC { mark /EMC pdfmark } bind def
/cairo_store_point { /cairo_point_y exch def /cairo_point_x exch def } def
/Tj { show currentpoint cairo_store_point } bind def
/TJ {
  {
    dup
    type /stringtype eq
    { show } { -0.001 mul 0 cairo_font_matrix dtransform rmoveto } ifelse
  } forall
  currentpoint cairo_store_point
} bind def
/cairo_selectfont { cairo_font_matrix aload pop pop pop 0 0 6 array astore
    cairo_font exch selectfont cairo_point_x cairo_point_y moveto } bind def
/Tf { pop /cairo_font exch def /cairo_font_matrix where
      { pop cairo_selectfont } if } bind def
/Td { matrix translate cairo_font_matrix matrix concatmatrix dup
      /cairo_font_matrix exch def dup 4 get exch 5 get cairo_store_point
      /cairo_font where { pop cairo_selectfont } if } bind def
/Tm { 2 copy 8 2 roll 6 array astore /cairo_font_matrix exch def
      cairo_store_point /cairo_font where { pop cairo_selectfont } if } bind def
/g { setgray } bind def
/rg { setrgbcolor } bind def
/d1 { setcachedevice } bind def
/cairo_data_source {
  CairoDataIndex CairoData length lt
    { CairoData CairoDataIndex get /CairoDataIndex CairoDataIndex 1 add def }
    { () } ifelse
} def
/cairo_flush_ascii85_file { cairo_ascii85_file status { cairo_ascii85_file flushfile } if } def
/cairo_image { image cairo_flush_ascii85_file } def
/cairo_imagemask { imagemask cairo_flush_ascii85_file } def
%%EndProlog
%%BeginSetup
%%EndSetup
%%Page: 1 1
%%BeginPageSetup
%%PageBoundingBox: 26 5 358 379
%%EndPageSetup
q 26 5 332 374 rectclip
1 0 0 -1 0 384 cm q
0.364706 0.25098 0.215686 rg
60.75 5.25 54.75 373.5 re f
268.5 5.25 54.75 373.5 re f
0.298039 0.207843 0.180392 rg
268.5 5.25 m 268.5 17.25 l 293.25 17.25 l 303.191 17.25 311.25 25.309 311.25
 35.25 c 311.25 378.75 l 323.25 378.75 l 323.25 5.25 l h
268.5 5.25 m f
60.75 5.25 m 60.75 17.25 l 85.5 17.25 l 95.441 17.25 103.5 25.309 103.5
 35.25 c 103.5 378.75 l 115.5 378.75 l 115.5 5.25 l h
60.75 5.25 m f
0.984314 0.54902 0 rg
115.5 30.836 153 43.457 re f
0.937255 0.423529 0 rg
115.5 30.836 m 115.5 42.836 l 238.5 42.836 l 248.441 42.836 256.5 50.895
 256.5 60.836 c 256.5 74.293 l 268.5 74.293 l 268.5 30.836 l h
115.5 30.836 m f
0.984314 0.54902 0 rg
26.75 30.836 34 43.457 re f
323.25 30.836 34 43.457 re f
115.5 123.793 153 43.457 re f
26.75 123.793 34 43.457 re f
323.25 123.793 34 43.457 re f
115.5 216.75 153 43.457 re f
26.75 216.75 34 43.457 re f
323.25 216.75 34 43.457 re f
115.5 309.707 153 43.457 re f
26.75 309.707 34 43.457 re f
323.25 309.707 34 43.457 re f
0.937255 0.423529 0 rg
323.25 30.836 12 43.457 re f
48.75 30.836 12 43.457 re f
115.5 123.793 m 115.5 135.793 l 238.5 135.793 l 248.441 135.793 256.5 143.852
 256.5 153.793 c 256.5 167.25 l 268.5 167.25 l 268.5 123.793 l h
115.5 123.793 m f
323.25 123.793 12 43.457 re f
48.75 123.793 12 43.457 re f
115.5 216.75 m 115.5 228.75 l 238.5 228.75 l 248.441 228.75 256.5 236.809
 256.5 246.75 c 256.5 260.207 l 268.5 260.207 l 268.5 216.75 l h
115.5 216.75 m f
323.25 216.75 12 43.457 re f
48.75 216.75 12 43.457 re f
115.5 309.707 m 115.5 321.707 l 238.5 321.707 l 248.441 321.707 256.5 329.766
 256.5 339.707 c 256.5 353.164 l 268.5 353.164 l 268.5 309.707 l h
115.5 309.707 m f
323.25 309.707 12 43.457 re f
48.75 309.707 12 43.457 re f
Q Q
showpage
%%Trailer
end
%%EOF
