%!PS-Adobe-3.0 EPSF-3.0
%%Creator: cairo 1.16.0 (https://cairographics.org)
%%CreationDate: Fri Jul 19 07:40:29 2019
%%Pages: 1
%%DocumentData: Clean7Bit
%%LanguageLevel: 2
%%BoundingBox: 5 29 379 355
%%EndComments
%%BeginProlog
50 dict begin
/q { gsave } bind def
/Q { grestore } bind def
/cm { 6 array astore concat } bind def
/w { setlinewidth } bind def
/J { setlinecap } bind def
/j { setlinejoin } bind def
/M { setmiterlimit } bind def
/d { setdash } bind def
/m { moveto } bind def
/l { lineto } bind def
/c { curveto } bind def
/h { closepath } bind def
/re { exch dup neg 3 1 roll 5 3 roll moveto 0 rlineto
      0 exch rlineto 0 rlineto closepath } bind def
/S { stroke } bind def
/f { fill } bind def
/f* { eofill } bind def
/n { newpath } bind def
/W { clip } bind def
/W* { eoclip } bind def
/BT { } bind def
/ET { } bind def
/BDC { mark 3 1 roll /BDC pdfmark } bind def
/EMC { mark /EMC pdfmark } bind def
/cairo_store_point { /cairo_point_y exch def /cairo_point_x exch def } def
/Tj { show currentpoint cairo_store_point } bind def
/TJ {
  {
    dup
    type /stringtype eq
    { show } { -0.001 mul 0 cairo_font_matrix dtransform rmoveto } ifelse
  } forall
  currentpoint cairo_store_point
} bind def
/cairo_selectfont { cairo_font_matrix aload pop pop pop 0 0 6 array astore
    cairo_font exch selectfont cairo_point_x cairo_point_y moveto } bind def
/Tf { pop /cairo_font exch def /cairo_font_matrix where
      { pop cairo_selectfont } if } bind def
/Td { matrix translate cairo_font_matrix matrix concatmatrix dup
      /cairo_font_matrix exch def dup 4 get exch 5 get cairo_store_point
      /cairo_font where { pop cairo_selectfont } if } bind def
/Tm { 2 copy 8 2 roll 6 array astore /cairo_font_matrix exch def
      cairo_store_point /cairo_font where { pop cairo_selectfont } if } bind def
/g { setgray } bind def
/rg { setrgbcolor } bind def
/d1 { setcachedevice } bind def
/cairo_data_source {
  CairoDataIndex CairoData length lt
    { CairoData CairoDataIndex get /CairoDataIndex CairoDataIndex 1 add def }
    { () } ifelse
} def
/cairo_flush_ascii85_file { cairo_ascii85_file status { cairo_ascii85_file flushfile } if } def
/cairo_image { image cairo_flush_ascii85_file } def
/cairo_imagemask { imagemask cairo_flush_ascii85_file } def
%%EndProlog
%%BeginSetup
%%EndSetup
%%Page: 1 1
%%BeginPageSetup
%%PageBoundingBox: 5 29 379 355
%%EndPageSetup
q 5 29 374 326 rectclip
1 0 0 -1 0 384 cm q
0.364706 0.25098 0.215686 rg
313.562 154.176 m 316.461 154.176 318.812 151.824 318.812 148.926 c 318.812
 101.613 l 318.812 94.613 308.312 94.613 308.312 101.613 c 308.312 148.926
 l 308.312 151.824 310.664 154.176 313.562 154.176 c h
313.562 154.176 m f
355.5 240.715 m 318.812 192.164 l 318.812 168.551 l 318.812 161.551 308.312
 161.551 308.312 168.551 c 308.312 192.191 l 271.949 241.199 l 267.777 246.82
 276.211 253.078 280.383 247.457 c 313.598 202.695 l 347.102 247.039 l 351.332
 252.527 359.598 246.285 355.48 240.715 c h
355.5 240.715 m f
0.984314 0.54902 0 rg
228.75 74.988 150 26.625 re f
0.937255 0.423529 0 rg
228.75 75 m 228.75 84 l 352.133 84 l 356.805 84 361.285 85.855 364.586 
89.156 c 367.887 92.461 369.742 96.941 369.742 101.609 c 378.742 101.609
 l 378.742 75 l h
228.75 75 m f
0.984314 0.54902 0 rg
90 74.988 65.25 26.625 re f
0.937255 0.423529 0 rg
90 75 m 90 84 l 125.633 84 l 135.355 84 143.242 91.883 143.242 101.609 
c 155.242 101.609 l 155.242 75 l h
90 75 m f
0.364706 0.25098 0.215686 rg
5.25 319.836 373.5 34.676 re f
0.298039 0.207843 0.180392 rg
5.25 319.836 m 5.25 331.836 l 348.75 331.836 l 358.691 331.836 366.75 339.895
 366.75 349.836 c 366.75 354.5 l 378.75 354.5 l 378.75 319.836 l h
5.25 319.836 m f
0.364706 0.25098 0.215686 rg
155.25 47.613 73.5 272.223 re f
0 0.67451 0.756863 rg
155.25 47.613 73.5 27.375 re f
155.25 101.613 73.5 73.5 re f
59.977 230.738 m 35.273 230.738 l 5.25 190.16 l 5.25 29.488 l 90 29.488
 l 90 190.16 l h
59.977 230.738 m f
0 0.592157 0.654902 rg
74.988 29.488 m 74.988 189.711 l 44.965 227.141 l 32.613 227.141 l 35.273
 230.738 l 59.977 230.738 l 90 190.16 l 90 29.488 l h
74.988 29.488 m f
0.364706 0.25098 0.215686 rg
5.25 29.488 84.75 22.25 re f
1 0.792157 0.564706 rg
5.25 166.738 84.75 22.25 re f
0.866667 0.662745 0.462745 rg
74.988 166.738 15.012 22.25 re f
0 0.67451 0.756863 rg
267 240.488 93.75 79.348 re f
0 0.592157 0.654902 rg
267 240.488 m 267 249.488 l 330.742 249.488 l 340.684 249.488 348.742 257.547
 348.742 267.488 c 348.742 319.828 l 360.742 319.828 l 360.742 240.488 l
 h
267 240.488 m f
0.984314 0.54902 0 rg
267 295.238 93.75 24.598 re f
0.937255 0.423529 0 rg
348.742 295.238 12.008 24.598 re f
0 0.67451 0.756863 rg
313.562 148.926 m 319 148.926 323.375 153.301 323.375 158.738 c 323.375
 164.176 319 168.551 313.562 168.551 c 308.125 168.551 303.75 164.176 303.75
 158.738 c 303.75 153.301 308.125 148.926 313.562 148.926 c h
313.562 148.926 m f
1 0.792157 0.564706 rg
308.375 46.238 m 318.75 46.238 l 323.719 46.238 327.75 50.27 327.75 55.238
 c 327.75 75 l 299.375 75 l 299.375 55.238 l 299.375 50.27 303.406 46.238
 308.375 46.238 c h
308.375 46.238 m f
228.75 167.688 m 199.426 138.363 l 228.75 109.039 l 228.75 101.613 l 221.328
 101.613 l 192 130.938 l 162.672 101.613 l 155.25 101.613 l 155.25 109.039
 l 184.574 138.363 l 155.25 167.688 l 155.25 175.113 l 162.676 175.113 l
 192 145.789 l 221.324 175.113 l 228.75 175.113 l h
228.75 167.688 m f
0 0.67451 0.756863 rg
155.25 246.336 73.5 73.5 re f
1 0.792157 0.564706 rg
228.75 312.41 m 199.426 283.086 l 228.75 253.758 l 228.75 246.336 l 221.324
 246.336 l 192 275.66 l 162.676 246.336 l 155.25 246.336 l 155.25 253.758
 l 184.574 283.086 l 155.25 312.41 l 155.25 319.836 l 162.672 319.836 l 
192 290.508 l 221.328 319.836 l 228.75 319.836 l h
228.75 312.41 m f
0.298039 0.207843 0.180392 rg
74.988 29.488 15.012 22.25 re f
Q Q
showpage
%%Trailer
end
%%EOF
