%!PS-Adobe-3.0 EPSF-3.0
%%Creator: cairo 1.16.0 (https://cairographics.org)
%%CreationDate: Fri Jul 19 07:40:29 2019
%%Pages: 1
%%DocumentData: Clean7Bit
%%LanguageLevel: 2
%%BoundingBox: 54 5 330 379
%%EndComments
%%BeginProlog
50 dict begin
/q { gsave } bind def
/Q { grestore } bind def
/cm { 6 array astore concat } bind def
/w { setlinewidth } bind def
/J { setlinecap } bind def
/j { setlinejoin } bind def
/M { setmiterlimit } bind def
/d { setdash } bind def
/m { moveto } bind def
/l { lineto } bind def
/c { curveto } bind def
/h { closepath } bind def
/re { exch dup neg 3 1 roll 5 3 roll moveto 0 rlineto
      0 exch rlineto 0 rlineto closepath } bind def
/S { stroke } bind def
/f { fill } bind def
/f* { eofill } bind def
/n { newpath } bind def
/W { clip } bind def
/W* { eoclip } bind def
/BT { } bind def
/ET { } bind def
/BDC { mark 3 1 roll /BDC pdfmark } bind def
/EMC { mark /EMC pdfmark } bind def
/cairo_store_point { /cairo_point_y exch def /cairo_point_x exch def } def
/Tj { show currentpoint cairo_store_point } bind def
/TJ {
  {
    dup
    type /stringtype eq
    { show } { -0.001 mul 0 cairo_font_matrix dtransform rmoveto } ifelse
  } forall
  currentpoint cairo_store_point
} bind def
/cairo_selectfont { cairo_font_matrix aload pop pop pop 0 0 6 array astore
    cairo_font exch selectfont cairo_point_x cairo_point_y moveto } bind def
/Tf { pop /cairo_font exch def /cairo_font_matrix where
      { pop cairo_selectfont } if } bind def
/Td { matrix translate cairo_font_matrix matrix concatmatrix dup
      /cairo_font_matrix exch def dup 4 get exch 5 get cairo_store_point
      /cairo_font where { pop cairo_selectfont } if } bind def
/Tm { 2 copy 8 2 roll 6 array astore /cairo_font_matrix exch def
      cairo_store_point /cairo_font where { pop cairo_selectfont } if } bind def
/g { setgray } bind def
/rg { setrgbcolor } bind def
/d1 { setcachedevice } bind def
/cairo_data_source {
  CairoDataIndex CairoData length lt
    { CairoData CairoDataIndex get /CairoDataIndex CairoDataIndex 1 add def }
    { () } ifelse
} def
/cairo_flush_ascii85_file { cairo_ascii85_file status { cairo_ascii85_file flushfile } if } def
/cairo_image { image cairo_flush_ascii85_file } def
/cairo_imagemask { imagemask cairo_flush_ascii85_file } def
%%EndProlog
%%BeginSetup
%%EndSetup
%%Page: 1 1
%%BeginPageSetup
%%PageBoundingBox: 54 5 330 379
%%EndPageSetup
q 54 5 276 374 rectclip
1 0 0 -1 0 384 cm q
1 0.792157 0.564706 rg
192 104.5 m 136.539 104.5 86.539 137.906 65.312 189.148 c 44.09 240.387
 55.82 299.367 95.039 338.586 c 134.258 377.801 193.234 389.535 244.477 
368.309 c 295.715 347.086 329.125 297.086 329.125 241.621 c 329.125 165.891
 267.73 104.5 192 104.5 c h
192 355.531 m 145.93 355.531 104.395 327.781 86.762 285.215 c 69.133 242.652
 78.879 193.66 111.457 161.082 c 144.031 128.504 193.027 118.758 235.59 
136.391 c 278.156 154.02 305.906 195.555 305.906 241.625 c 305.836 304.504
 254.879 355.461 192 355.531 c h
192 355.531 m f
0.866667 0.662745 0.462745 rg
192 104.5 m 189.988 104.5 187.992 104.566 186 104.652 c 259.363 107.801
 317.223 168.191 317.223 241.625 c 317.223 315.059 259.363 375.453 186 378.602
 c 187.992 378.688 189.988 378.754 192 378.754 c 267.73 378.754 329.125 
317.359 329.125 241.629 c 329.125 165.895 267.73 104.504 192 104.504 c h
192 104.5 m f
186 127.875 m 184.012 127.77 182.012 127.719 180 127.715 c 117.09 127.715
 66.09 178.715 66.09 241.625 c 66.09 304.535 117.09 355.531 180 355.531 
c 182.012 355.531 184.012 355.48 186 355.375 c 125.512 352.176 78.109 302.195
 78.109 241.625 c 78.109 181.055 125.512 131.078 186 127.879 c h
186 127.875 m f
0 0.67451 0.756863 rg
199 104.5 m 185 104.5 l 125 42.875 l 155 5.25 l 229 5.25 l 259 42.875 l
 h
199 104.5 m f
0 0.592157 0.654902 rg
232.297 9.383 m 228.996 5.25 l 221.637 5.25 l 192 35.398 l 162.363 5.25
 l 155 5.25 l 151.699 9.383 l 179.473 37.625 l 129.188 37.625 l 124.984 
42.875 l 130.086 48.125 l 166.891 48.125 l 186.445 104.5 l 197.543 104.5
 l 217.109 48.125 l 253.887 48.125 l 258.988 42.875 l 254.785 37.625 l 204.523
 37.625 l h
205.996 48.125 m 192 88.48 l 178.004 48.125 l h
205.996 48.125 m f
Q Q
showpage
%%Trailer
end
%%EOF
