%!PS-Adobe-3.0 EPSF-3.0
%%Creator: cairo 1.16.0 (https://cairographics.org)
%%CreationDate: Fri Jul 19 07:40:30 2019
%%Pages: 1
%%DocumentData: Clean7Bit
%%LanguageLevel: 2
%%BoundingBox: 26 5 358 379
%%EndComments
%%BeginProlog
50 dict begin
/q { gsave } bind def
/Q { grestore } bind def
/cm { 6 array astore concat } bind def
/w { setlinewidth } bind def
/J { setlinecap } bind def
/j { setlinejoin } bind def
/M { setmiterlimit } bind def
/d { setdash } bind def
/m { moveto } bind def
/l { lineto } bind def
/c { curveto } bind def
/h { closepath } bind def
/re { exch dup neg 3 1 roll 5 3 roll moveto 0 rlineto
      0 exch rlineto 0 rlineto closepath } bind def
/S { stroke } bind def
/f { fill } bind def
/f* { eofill } bind def
/n { newpath } bind def
/W { clip } bind def
/W* { eoclip } bind def
/BT { } bind def
/ET { } bind def
/BDC { mark 3 1 roll /BDC pdfmark } bind def
/EMC { mark /EMC pdfmark } bind def
/cairo_store_point { /cairo_point_y exch def /cairo_point_x exch def } def
/Tj { show currentpoint cairo_store_point } bind def
/TJ {
  {
    dup
    type /stringtype eq
    { show } { -0.001 mul 0 cairo_font_matrix dtransform rmoveto } ifelse
  } forall
  currentpoint cairo_store_point
} bind def
/cairo_selectfont { cairo_font_matrix aload pop pop pop 0 0 6 array astore
    cairo_font exch selectfont cairo_point_x cairo_point_y moveto } bind def
/Tf { pop /cairo_font exch def /cairo_font_matrix where
      { pop cairo_selectfont } if } bind def
/Td { matrix translate cairo_font_matrix matrix concatmatrix dup
      /cairo_font_matrix exch def dup 4 get exch 5 get cairo_store_point
      /cairo_font where { pop cairo_selectfont } if } bind def
/Tm { 2 copy 8 2 roll 6 array astore /cairo_font_matrix exch def
      cairo_store_point /cairo_font where { pop cairo_selectfont } if } bind def
/g { setgray } bind def
/rg { setrgbcolor } bind def
/d1 { setcachedevice } bind def
/cairo_data_source {
  CairoDataIndex CairoData length lt
    { CairoData CairoDataIndex get /CairoDataIndex CairoDataIndex 1 add def }
    { () } ifelse
} def
/cairo_flush_ascii85_file { cairo_ascii85_file status { cairo_ascii85_file flushfile } if } def
/cairo_image { image cairo_flush_ascii85_file } def
/cairo_imagemask { imagemask cairo_flush_ascii85_file } def
%%EndProlog
%%BeginSetup
%%EndSetup
%%Page: 1 1
%%BeginPageSetup
%%PageBoundingBox: 26 5 358 379
%%EndPageSetup
q 26 5 332 374 rectclip
1 0 0 -1 0 384 cm q
0.364706 0.25098 0.215686 rg
336.641 350.531 m 47.359 350.531 l 47.359 298.543 l 100.684 193.227 l 283.316
 193.227 l 336.641 298.543 l h
336.641 350.531 m f
0.298039 0.207843 0.180392 rg
283.316 193.227 m 100.684 193.227 l 93.086 208.227 l 257.258 208.227 l 
264.035 208.234 270.238 212.051 273.301 218.102 c 321.629 313.547 l 321.629
 350.535 l 336.629 350.535 l 336.629 298.543 l h
283.316 193.227 m f
0.984314 0.54902 0 rg
72.688 350.531 m 311.312 350.531 l 311.312 368.102 l 311.312 370.93 310.188
 373.641 308.188 375.641 c 306.188 377.641 303.477 378.766 300.648 378.766
 c 83.352 378.766 l 80.523 378.766 77.812 377.641 75.812 375.641 c 73.812
 373.641 72.688 370.93 72.688 368.102 c h
72.688 350.531 m f
1 0.792157 0.564706 rg
126.68 149.68 31.992 43.547 re f
225.328 149.68 31.992 43.547 re f
0.364706 0.25098 0.215686 rg
26.027 108.133 m 357.973 108.133 l 357.973 119.152 353.594 129.719 345.805
 137.512 c 338.012 145.301 327.445 149.68 316.426 149.68 c 67.578 149.68
 l 56.559 149.68 45.988 145.305 38.199 137.512 c 30.406 129.719 26.027 119.152
 26.027 108.133 c h
26.027 108.133 m f
0.298039 0.207843 0.180392 rg
26.027 108.133 m 26.027 112.199 26.629 116.242 27.805 120.133 c 339.973
 120.133 l 339.977 130.211 336.297 139.945 329.633 147.5 c 346.555 141.828
 357.965 125.98 357.973 108.133 c h
26.027 108.133 m f
1 0.792157 0.564706 rg
241.324 271.883 m 241.324 299.121 219.242 321.207 192 321.207 c 164.758
 321.207 142.676 299.121 142.676 271.883 c 142.676 244.641 164.758 222.555
 192 222.555 c 219.242 222.555 241.324 244.641 241.324 271.883 c h
241.324 271.883 m f
0.984314 0.54902 0 rg
141.223 108.133 m 39.664 108.133 l 62.766 73.836 l 118.117 73.836 l h
141.223 108.133 m f
242.777 108.133 m 141.223 108.133 l 164.324 73.836 l 219.676 73.836 l h
242.777 108.133 m f
344.336 108.133 m 242.777 108.133 l 265.883 73.836 l 321.234 73.836 l h
344.336 108.133 m f
192 73.836 m 90.445 73.836 l 113.547 39.543 l 168.898 39.543 l h
192 73.836 m f
293.555 73.836 m 192 73.836 l 215.102 39.543 l 270.453 39.543 l h
293.555 73.836 m f
242.777 39.543 m 141.223 39.543 l 164.324 5.25 l 219.676 5.25 l h
242.777 39.543 m f
0.937255 0.423529 0 rg
216.027 22.199 m 227.727 39.551 l 242.789 39.551 l 219.676 5.25 l 164.324
 5.25 l 158.262 14.25 l 201.098 14.25 l 207.086 14.25 212.684 17.23 216.027
 22.199 c h
216.027 22.199 m f
0 0.67451 0.756863 rg
192 277.133 m 189.102 277.133 186.75 274.781 186.75 271.883 c 186.75 242.781
 l 186.75 235.781 197.25 235.781 197.25 242.781 c 197.25 271.883 l 197.25
 274.781 194.898 277.133 192 277.133 c h
192 277.133 m f
0.937255 0.423529 0 rg
266.805 56.488 m 278.504 73.84 l 293.566 73.84 l 270.469 39.547 l 215.102
 39.547 l 209.035 48.547 l 251.879 48.547 l 257.863 48.547 263.461 51.523
 266.805 56.488 c h
266.805 56.488 m f
165.25 56.488 m 176.949 73.84 l 192 73.84 l 168.898 39.543 l 113.547 39.543
 l 107.484 48.543 l 150.32 48.543 l 156.309 48.543 161.902 51.52 165.25 
56.488 c h
165.25 56.488 m f
317.582 90.781 m 329.281 108.133 l 344.348 108.133 l 321.246 73.84 l 265.883
 73.84 l 259.816 82.84 l 302.656 82.84 l 308.641 82.84 314.238 85.816 317.582
 90.781 c h
317.582 90.781 m f
216.027 90.781 m 227.727 108.133 l 242.789 108.133 l 219.691 73.84 l 164.324
 73.84 l 158.262 82.84 l 201.098 82.84 l 207.086 82.84 212.68 85.816 216.027
 90.781 c h
216.027 90.781 m f
114.469 90.781 m 126.168 108.133 l 141.23 108.133 l 118.133 73.84 l 62.766
 73.84 l 56.703 82.84 l 99.539 82.84 l 105.527 82.84 111.121 85.816 114.469
 90.781 c h
114.469 90.781 m f
0.866667 0.662745 0.462745 rg
126.68 149.68 31.992 17.82 re f
225.328 149.68 31.992 17.82 re f
0.937255 0.423529 0 rg
72.688 350.531 238.625 10.219 re f
Q Q
showpage
%%Trailer
end
%%EOF
