%!PS-Adobe-3.0 EPSF-3.0
%%Creator: cairo 1.16.0 (https://cairographics.org)
%%CreationDate: Fri Jul 19 07:40:30 2019
%%Pages: 1
%%DocumentData: Clean7Bit
%%LanguageLevel: 2
%%BoundingBox: 5 5 379 379
%%EndComments
%%BeginProlog
50 dict begin
/q { gsave } bind def
/Q { grestore } bind def
/cm { 6 array astore concat } bind def
/w { setlinewidth } bind def
/J { setlinecap } bind def
/j { setlinejoin } bind def
/M { setmiterlimit } bind def
/d { setdash } bind def
/m { moveto } bind def
/l { lineto } bind def
/c { curveto } bind def
/h { closepath } bind def
/re { exch dup neg 3 1 roll 5 3 roll moveto 0 rlineto
      0 exch rlineto 0 rlineto closepath } bind def
/S { stroke } bind def
/f { fill } bind def
/f* { eofill } bind def
/n { newpath } bind def
/W { clip } bind def
/W* { eoclip } bind def
/BT { } bind def
/ET { } bind def
/BDC { mark 3 1 roll /BDC pdfmark } bind def
/EMC { mark /EMC pdfmark } bind def
/cairo_store_point { /cairo_point_y exch def /cairo_point_x exch def } def
/Tj { show currentpoint cairo_store_point } bind def
/TJ {
  {
    dup
    type /stringtype eq
    { show } { -0.001 mul 0 cairo_font_matrix dtransform rmoveto } ifelse
  } forall
  currentpoint cairo_store_point
} bind def
/cairo_selectfont { cairo_font_matrix aload pop pop pop 0 0 6 array astore
    cairo_font exch selectfont cairo_point_x cairo_point_y moveto } bind def
/Tf { pop /cairo_font exch def /cairo_font_matrix where
      { pop cairo_selectfont } if } bind def
/Td { matrix translate cairo_font_matrix matrix concatmatrix dup
      /cairo_font_matrix exch def dup 4 get exch 5 get cairo_store_point
      /cairo_font where { pop cairo_selectfont } if } bind def
/Tm { 2 copy 8 2 roll 6 array astore /cairo_font_matrix exch def
      cairo_store_point /cairo_font where { pop cairo_selectfont } if } bind def
/g { setgray } bind def
/rg { setrgbcolor } bind def
/d1 { setcachedevice } bind def
/cairo_data_source {
  CairoDataIndex CairoData length lt
    { CairoData CairoDataIndex get /CairoDataIndex CairoDataIndex 1 add def }
    { () } ifelse
} def
/cairo_flush_ascii85_file { cairo_ascii85_file status { cairo_ascii85_file flushfile } if } def
/cairo_image { image cairo_flush_ascii85_file } def
/cairo_imagemask { imagemask cairo_flush_ascii85_file } def
%%EndProlog
%%BeginSetup
%%EndSetup
%%Page: 1 1
%%BeginPageSetup
%%PageBoundingBox: 5 5 379 379
%%EndPageSetup
q 5 5 374 374 rectclip
1 0 0 -1 0 384 cm q
0.984314 0.54902 0 rg
332.062 165.156 m 332.062 159 l 51.938 159 l 51.938 165.156 l 51.938 178.047
 41.484 188.5 28.594 188.5 c 28.594 354 l 355.406 354 l 355.406 188.5 l 
349.215 188.5 343.277 186.039 338.898 181.664 c 334.52 177.285 332.062 171.348
 332.062 165.156 c h
332.062 165.156 m f
0 0.67451 0.756863 rg
47 5.25 290.004 44.75 re f
0 0.592157 0.654902 rg
47 5.25 m 47 17.25 l 304.004 17.25 l 313.941 17.25 322.004 25.309 322.004
 35.25 c 322.004 50 l 337.004 50 l 337.004 5.25 l h
47 5.25 m f
0.364706 0.25098 0.215686 rg
378.75 159 m 5.25 159 l 47 50 l 337 50 l h
378.75 159 m f
0.298039 0.207843 0.180392 rg
326.426 73.562 m 359.152 159 l 378.75 159 l 337 50 l 47 50 l 42.406 62 
l 309.621 62 l 317.078 62.004 323.762 66.602 326.426 73.562 c h
326.426 73.562 m f
1 0.792157 0.564706 rg
5.25 159 m 51.938 159 l 51.938 165.156 l 51.938 178.047 41.484 188.5 28.594
 188.5 c 22.402 188.5 16.465 186.039 12.086 181.66 c 7.711 177.285 5.25 
171.348 5.25 165.156 c h
5.25 159 m f
51.938 159 m 98.625 159 l 98.625 165.156 l 98.625 178.047 88.176 188.5 
75.281 188.5 c 69.09 188.5 63.152 186.039 58.777 181.66 c 54.398 177.285
 51.938 171.348 51.938 165.156 c h
51.938 159 m f
98.625 159 m 145.312 159 l 145.312 165.156 l 145.312 178.047 134.859 188.5
 121.969 188.5 c 109.074 188.5 98.625 178.047 98.625 165.156 c h
98.625 159 m f
145.312 159 m 192 159 l 192 165.156 l 192 178.047 181.551 188.5 168.656
 188.5 c 155.766 188.5 145.312 178.047 145.312 165.156 c h
145.312 159 m f
192 159 m 238.688 159 l 238.688 165.156 l 238.688 178.047 228.234 188.5
 215.344 188.5 c 209.152 188.5 203.215 186.039 198.836 181.66 c 194.461 
177.285 192 171.348 192 165.156 c h
192 159 m f
238.688 159 m 285.375 159 l 285.375 165.156 l 285.375 178.047 274.926 188.5
 262.031 188.5 c 255.84 188.5 249.902 186.039 245.527 181.66 c 241.148 177.285
 238.688 171.348 238.688 165.156 c h
238.688 159 m f
285.375 159 m 332.062 159 l 332.062 165.156 l 332.062 178.047 321.609 188.5
 308.719 188.5 c 302.527 188.5 296.59 186.039 292.211 181.66 c 287.836 177.285
 285.375 171.348 285.375 165.156 c h
285.375 159 m f
332.062 159 m 378.75 159 l 378.75 165.156 l 378.75 178.047 368.301 188.5
 355.406 188.5 c 349.215 188.5 343.277 186.039 338.902 181.66 c 334.523 
177.285 332.062 171.348 332.062 165.156 c h
332.062 159 m f
0 0.67451 0.756863 rg
5.25 354 373.5 24.75 re f
0.364706 0.25098 0.215686 rg
60 231 85.5 123 re f
0.298039 0.207843 0.180392 rg
60 231 m 60 243 l 115.5 243 l 125.441 243 133.5 251.059 133.5 261 c 133.5
 354 l 145.5 354 l 145.5 231 l h
60 231 m f
0.364706 0.25098 0.215686 rg
174.188 297.426 162.812 23.074 re f
1 0.792157 0.564706 rg
186.594 231 138 66.426 re f
0.866667 0.662745 0.462745 rg
186.602 231 m 186.602 243 l 294.602 243 l 304.543 243 312.602 251.059 312.602
 261 c 312.602 297.426 l 324.602 297.426 l 324.602 231 l h
186.602 231 m f
Q Q
showpage
%%Trailer
end
%%EOF
