%!PS-Adobe-3.0 EPSF-3.0
%%Creator: cairo 1.16.0 (https://cairographics.org)
%%CreationDate: Fri Jul 19 07:40:30 2019
%%Pages: 1
%%DocumentData: Clean7Bit
%%LanguageLevel: 2
%%BoundingBox: 5 5 379 379
%%EndComments
%%BeginProlog
50 dict begin
/q { gsave } bind def
/Q { grestore } bind def
/cm { 6 array astore concat } bind def
/w { setlinewidth } bind def
/J { setlinecap } bind def
/j { setlinejoin } bind def
/M { setmiterlimit } bind def
/d { setdash } bind def
/m { moveto } bind def
/l { lineto } bind def
/c { curveto } bind def
/h { closepath } bind def
/re { exch dup neg 3 1 roll 5 3 roll moveto 0 rlineto
      0 exch rlineto 0 rlineto closepath } bind def
/S { stroke } bind def
/f { fill } bind def
/f* { eofill } bind def
/n { newpath } bind def
/W { clip } bind def
/W* { eoclip } bind def
/BT { } bind def
/ET { } bind def
/BDC { mark 3 1 roll /BDC pdfmark } bind def
/EMC { mark /EMC pdfmark } bind def
/cairo_store_point { /cairo_point_y exch def /cairo_point_x exch def } def
/Tj { show currentpoint cairo_store_point } bind def
/TJ {
  {
    dup
    type /stringtype eq
    { show } { -0.001 mul 0 cairo_font_matrix dtransform rmoveto } ifelse
  } forall
  currentpoint cairo_store_point
} bind def
/cairo_selectfont { cairo_font_matrix aload pop pop pop 0 0 6 array astore
    cairo_font exch selectfont cairo_point_x cairo_point_y moveto } bind def
/Tf { pop /cairo_font exch def /cairo_font_matrix where
      { pop cairo_selectfont } if } bind def
/Td { matrix translate cairo_font_matrix matrix concatmatrix dup
      /cairo_font_matrix exch def dup 4 get exch 5 get cairo_store_point
      /cairo_font where { pop cairo_selectfont } if } bind def
/Tm { 2 copy 8 2 roll 6 array astore /cairo_font_matrix exch def
      cairo_store_point /cairo_font where { pop cairo_selectfont } if } bind def
/g { setgray } bind def
/rg { setrgbcolor } bind def
/d1 { setcachedevice } bind def
/cairo_data_source {
  CairoDataIndex CairoData length lt
    { CairoData CairoDataIndex get /CairoDataIndex CairoDataIndex 1 add def }
    { () } ifelse
} def
/cairo_flush_ascii85_file { cairo_ascii85_file status { cairo_ascii85_file flushfile } if } def
/cairo_image { image cairo_flush_ascii85_file } def
/cairo_imagemask { imagemask cairo_flush_ascii85_file } def
%%EndProlog
%%BeginSetup
%%EndSetup
%%Page: 1 1
%%BeginPageSetup
%%PageBoundingBox: 5 5 379 379
%%EndPageSetup
q 5 5 374 374 rectclip
1 0 0 -1 0 384 cm q
0 0.67451 0.756863 rg
12.664 371.918 m 12.223 371.777 l 12.082 371.336 l -4.297 320.152 9.289
 264.109 47.289 226.109 c 67.312 206.102 l 177.898 316.688 l 157.879 336.711
 l 119.883 374.707 63.844 388.293 12.664 371.918 c h
12.664 371.918 m f
0 0.592157 0.654902 rg
165.16 303.938 m 145.137 323.957 l 109.633 359.461 58.16 373.828 9.402 
361.844 c 10.184 365.023 11.078 368.188 12.082 371.336 c 12.223 371.777 
l 12.664 371.918 l 63.848 388.297 119.891 374.711 157.891 336.711 c 177.91
 316.688 l h
165.16 303.938 m f
0.364706 0.25098 0.215686 rg
286.156 5.25 m 248.859 42.547 l 251.75 96.883 l 287.121 132.25 l 341.457
 135.141 l 378.75 97.844 l h
331.477 109.109 m 298.223 107.34 l 276.66 85.777 l 274.891 52.523 l 286.156
 41.258 l 342.742 97.844 l h
331.477 109.109 m f
0.298039 0.207843 0.180392 rg
370.875 89.969 m 333.578 127.266 l 279.246 124.375 l 287.121 132.25 l 341.453
 135.141 l 378.75 97.844 l h
370.875 89.969 m f
290.348 99.469 m 276.66 85.777 l 274.887 52.523 l 286.156 41.258 l 334.867
 89.969 l 278.281 33.383 l 267.012 44.648 l 268.785 77.902 l h
290.348 99.469 m f
0.984314 0.54902 0 rg
251.746 96.852 m 287.105 132.215 l 140.301 279.016 l 104.941 243.656 l 
h
251.746 96.852 m f
1 0.792157 0.564706 rg
114.785 304.578 m 82.637 301.363 l 79.422 269.215 l 104.93 243.703 l 140.297
 279.07 l h
114.785 304.578 m f
0.937255 0.423529 0 rg
127.633 266.438 m 274.438 119.633 l 287.062 132.258 l 140.258 279.059 l
 h
127.633 266.438 m f
0.866667 0.662745 0.462745 rg
127.668 266.445 m 102.16 291.953 l 81.488 289.883 l 82.637 301.363 l 114.785
 304.578 l 140.297 279.07 l h
127.668 266.445 m f
Q Q
showpage
%%Trailer
end
%%EOF
