%!PS-Adobe-3.0 EPSF-3.0
%%Creator: cairo 1.16.0 (https://cairographics.org)
%%CreationDate: Fri Jul 19 07:40:30 2019
%%Pages: 1
%%DocumentData: Clean7Bit
%%LanguageLevel: 2
%%BoundingBox: 5 5 379 379
%%EndComments
%%BeginProlog
50 dict begin
/q { gsave } bind def
/Q { grestore } bind def
/cm { 6 array astore concat } bind def
/w { setlinewidth } bind def
/J { setlinecap } bind def
/j { setlinejoin } bind def
/M { setmiterlimit } bind def
/d { setdash } bind def
/m { moveto } bind def
/l { lineto } bind def
/c { curveto } bind def
/h { closepath } bind def
/re { exch dup neg 3 1 roll 5 3 roll moveto 0 rlineto
      0 exch rlineto 0 rlineto closepath } bind def
/S { stroke } bind def
/f { fill } bind def
/f* { eofill } bind def
/n { newpath } bind def
/W { clip } bind def
/W* { eoclip } bind def
/BT { } bind def
/ET { } bind def
/BDC { mark 3 1 roll /BDC pdfmark } bind def
/EMC { mark /EMC pdfmark } bind def
/cairo_store_point { /cairo_point_y exch def /cairo_point_x exch def } def
/Tj { show currentpoint cairo_store_point } bind def
/TJ {
  {
    dup
    type /stringtype eq
    { show } { -0.001 mul 0 cairo_font_matrix dtransform rmoveto } ifelse
  } forall
  currentpoint cairo_store_point
} bind def
/cairo_selectfont { cairo_font_matrix aload pop pop pop 0 0 6 array astore
    cairo_font exch selectfont cairo_point_x cairo_point_y moveto } bind def
/Tf { pop /cairo_font exch def /cairo_font_matrix where
      { pop cairo_selectfont } if } bind def
/Td { matrix translate cairo_font_matrix matrix concatmatrix dup
      /cairo_font_matrix exch def dup 4 get exch 5 get cairo_store_point
      /cairo_font where { pop cairo_selectfont } if } bind def
/Tm { 2 copy 8 2 roll 6 array astore /cairo_font_matrix exch def
      cairo_store_point /cairo_font where { pop cairo_selectfont } if } bind def
/g { setgray } bind def
/rg { setrgbcolor } bind def
/d1 { setcachedevice } bind def
/cairo_data_source {
  CairoDataIndex CairoData length lt
    { CairoData CairoDataIndex get /CairoDataIndex CairoDataIndex 1 add def }
    { () } ifelse
} def
/cairo_flush_ascii85_file { cairo_ascii85_file status { cairo_ascii85_file flushfile } if } def
/cairo_image { image cairo_flush_ascii85_file } def
/cairo_imagemask { imagemask cairo_flush_ascii85_file } def
%%EndProlog
%%BeginSetup
%%EndSetup
%%Page: 1 1
%%BeginPageSetup
%%PageBoundingBox: 5 5 379 379
%%EndPageSetup
q 5 5 374 374 rectclip
1 0 0 -1 0 384 cm q
0.364706 0.25098 0.215686 rg
5.25 346.5 373.5 32.25 re f
0.298039 0.207843 0.180392 rg
5.25 346.5 m 5.25 355.5 l 351.75 355.5 l 361.691 355.5 369.75 363.559 369.75
 373.5 c 369.75 378.75 l 378.75 378.75 l 378.75 346.5 l h
5.25 346.5 m f
1 0.792157 0.564706 rg
187.5 232.75 150 113.75 re f
0.984314 0.54902 0 rg
282.625 280.625 m 262.5 268.625 l 242.375 280.625 l 242.375 232.75 l 282.625
 232.75 l h
282.625 280.625 m f
0 0.67451 0.756863 rg
278.25 309.5 38.25 16 re f
0 0.592157 0.654902 rg
278.25 309.5 m 278.25 315.5 l 300.5 315.5 l 306.023 315.5 310.5 319.977
 310.5 325.5 c 316.5 325.5 l 316.5 309.5 l h
278.25 309.5 m f
1 0.792157 0.564706 rg
37.5 232.75 150 113.75 re f
0.984314 0.54902 0 rg
132.625 280.625 m 112.5 268.625 l 92.375 280.625 l 92.375 232.75 l 132.625
 232.75 l h
132.625 280.625 m f
0 0.67451 0.756863 rg
128.25 309.5 38.25 16 re f
1 0.792157 0.564706 rg
187.5 119 150 113.754 re f
0.984314 0.54902 0 rg
282.625 166.875 m 262.5 154.875 l 242.375 166.875 l 242.375 119 l 282.625
 119 l h
282.625 166.875 m f
0 0.67451 0.756863 rg
278.25 195.75 38.25 16 re f
1 0.792157 0.564706 rg
37.5 119 150 113.754 re f
0.984314 0.54902 0 rg
132.625 166.875 m 112.5 154.875 l 92.375 166.875 l 92.375 119 l 132.625
 119 l h
132.625 166.875 m f
0 0.67451 0.756863 rg
128.25 195.75 38.25 16 re f
1 0.792157 0.564706 rg
187.5 5.25 150 113.75 re f
0.984314 0.54902 0 rg
282.625 53.125 m 262.5 41.125 l 242.375 53.125 l 242.375 5.25 l 282.625
 5.25 l h
282.625 53.125 m f
0 0.67451 0.756863 rg
278.25 82 38.25 15.996 re f
1 0.792157 0.564706 rg
37.5 5.25 150 113.75 re f
0.866667 0.662745 0.462745 rg
37.5 5.25 m 37.5 17.25 l 157.5 17.25 l 167.441 17.25 175.5 25.309 175.5
 35.25 c 175.5 119 l 187.5 119 l 187.5 5.25 l h
37.5 5.25 m f
0.984314 0.54902 0 rg
132.625 53.125 m 112.5 41.125 l 92.375 53.125 l 92.375 5.25 l 132.625 5.25
 l h
132.625 53.125 m f
0 0.67451 0.756863 rg
128.25 82 38.25 15.996 re f
0.937255 0.423529 0 rg
92.375 5.25 40.254 12 re f
0.866667 0.662745 0.462745 rg
187.5 5.25 m 187.5 17.25 l 307.5 17.25 l 317.441 17.25 325.5 25.309 325.5
 35.25 c 325.5 119 l 337.5 119 l 337.5 5.25 l h
187.5 5.25 m f
0.937255 0.423529 0 rg
242.375 5.25 40.254 12 re f
0.866667 0.662745 0.462745 rg
37.5 119 m 37.5 131 l 157.5 131 l 167.441 131 175.5 139.059 175.5 149 c
 175.5 232.75 l 187.5 232.75 l 187.5 119 l h
37.5 119 m f
0.937255 0.423529 0 rg
92.375 119 40.254 12 re f
0.866667 0.662745 0.462745 rg
187.5 119 m 187.5 131 l 307.5 131 l 317.441 131 325.5 139.059 325.5 149
 c 325.5 232.75 l 337.5 232.75 l 337.5 119 l h
187.5 119 m f
0.937255 0.423529 0 rg
242.375 119 40.254 12 re f
0.866667 0.662745 0.462745 rg
37.5 232.75 m 37.5 244.75 l 157.5 244.75 l 167.441 244.75 175.5 252.809
 175.5 262.75 c 175.5 346.5 l 187.5 346.5 l 187.5 232.75 l h
37.5 232.75 m f
0.937255 0.423529 0 rg
92.375 232.75 40.254 12 re f
0.866667 0.662745 0.462745 rg
187.5 232.75 m 187.5 244.75 l 307.5 244.75 l 317.441 244.75 325.5 252.809
 325.5 262.75 c 325.5 346.5 l 337.5 346.5 l 337.5 232.75 l h
187.5 232.75 m f
0.937255 0.423529 0 rg
242.375 232.75 40.254 12 re f
0 0.592157 0.654902 rg
128.25 309.5 m 128.25 315.5 l 150.5 315.5 l 156.023 315.5 160.5 319.977
 160.5 325.5 c 166.5 325.5 l 166.5 309.5 l h
128.25 309.5 m f
278.25 195.75 m 278.25 201.75 l 300.5 201.75 l 306.023 201.75 310.5 206.227
 310.5 211.75 c 316.5 211.75 l 316.5 195.75 l h
278.25 195.75 m f
128.25 195.75 m 128.25 201.75 l 150.5 201.75 l 156.023 201.75 160.5 206.227
 160.5 211.75 c 166.5 211.75 l 166.5 195.75 l h
128.25 195.75 m f
278.25 82 m 278.25 88 l 300.5 88 l 306.023 88 310.5 92.477 310.5 97.996
 c 316.5 97.996 l 316.5 82 l h
278.25 82 m f
128.25 82 m 128.25 88 l 150.5 88 l 153.152 88 155.695 89.055 157.574 90.93
 c 159.449 92.805 160.5 95.348 160.5 98 c 166.5 98 l 166.5 82 l h
128.25 82 m f
Q Q
showpage
%%Trailer
end
%%EOF
