%!PS-Adobe-3.0 EPSF-3.0
%%Creator: cairo 1.16.0 (https://cairographics.org)
%%CreationDate: Fri Jul 19 07:40:30 2019
%%Pages: 1
%%DocumentData: Clean7Bit
%%LanguageLevel: 2
%%BoundingBox: 19 5 365 379
%%EndComments
%%BeginProlog
50 dict begin
/q { gsave } bind def
/Q { grestore } bind def
/cm { 6 array astore concat } bind def
/w { setlinewidth } bind def
/J { setlinecap } bind def
/j { setlinejoin } bind def
/M { setmiterlimit } bind def
/d { setdash } bind def
/m { moveto } bind def
/l { lineto } bind def
/c { curveto } bind def
/h { closepath } bind def
/re { exch dup neg 3 1 roll 5 3 roll moveto 0 rlineto
      0 exch rlineto 0 rlineto closepath } bind def
/S { stroke } bind def
/f { fill } bind def
/f* { eofill } bind def
/n { newpath } bind def
/W { clip } bind def
/W* { eoclip } bind def
/BT { } bind def
/ET { } bind def
/BDC { mark 3 1 roll /BDC pdfmark } bind def
/EMC { mark /EMC pdfmark } bind def
/cairo_store_point { /cairo_point_y exch def /cairo_point_x exch def } def
/Tj { show currentpoint cairo_store_point } bind def
/TJ {
  {
    dup
    type /stringtype eq
    { show } { -0.001 mul 0 cairo_font_matrix dtransform rmoveto } ifelse
  } forall
  currentpoint cairo_store_point
} bind def
/cairo_selectfont { cairo_font_matrix aload pop pop pop 0 0 6 array astore
    cairo_font exch selectfont cairo_point_x cairo_point_y moveto } bind def
/Tf { pop /cairo_font exch def /cairo_font_matrix where
      { pop cairo_selectfont } if } bind def
/Td { matrix translate cairo_font_matrix matrix concatmatrix dup
      /cairo_font_matrix exch def dup 4 get exch 5 get cairo_store_point
      /cairo_font where { pop cairo_selectfont } if } bind def
/Tm { 2 copy 8 2 roll 6 array astore /cairo_font_matrix exch def
      cairo_store_point /cairo_font where { pop cairo_selectfont } if } bind def
/g { setgray } bind def
/rg { setrgbcolor } bind def
/d1 { setcachedevice } bind def
/cairo_data_source {
  CairoDataIndex CairoData length lt
    { CairoData CairoDataIndex get /CairoDataIndex CairoDataIndex 1 add def }
    { () } ifelse
} def
/cairo_flush_ascii85_file { cairo_ascii85_file status { cairo_ascii85_file flushfile } if } def
/cairo_image { image cairo_flush_ascii85_file } def
/cairo_imagemask { imagemask cairo_flush_ascii85_file } def
%%EndProlog
%%BeginSetup
%%EndSetup
%%Page: 1 1
%%BeginPageSetup
%%PageBoundingBox: 19 5 365 379
%%EndPageSetup
q 19 5 346 374 rectclip
1 0 0 -1 0 384 cm q
1 0.792157 0.564706 rg
35.25 179.5 313.5 199.25 re f
0.866667 0.662745 0.462745 rg
35.25 179.5 m 35.25 191.5 l 318.75 191.5 l 328.691 191.5 336.75 199.559
 336.75 209.5 c 336.75 378.75 l 348.75 378.75 l 348.75 179.5 l h
35.25 179.5 m f
0.984314 0.54902 0 rg
155.25 47.25 73.5 88.844 re f
0.937255 0.423529 0 rg
155.25 47.25 m 155.25 56.25 l 198.75 56.25 l 208.691 56.25 216.75 64.309
 216.75 74.25 c 216.75 136.094 l 228.75 136.094 l 228.75 47.25 l h
155.25 47.25 m f
0.364706 0.25098 0.215686 rg
77.25 5.25 m 306.75 5.25 l 313.398 5.25 318.75 10.602 318.75 17.25 c 318.75
 35.25 l 318.75 41.898 313.398 47.25 306.75 47.25 c 77.25 47.25 l 70.602
 47.25 65.25 41.898 65.25 35.25 c 65.25 17.25 l 65.25 10.602 70.602 5.25
 77.25 5.25 c h
77.25 5.25 m f
0.298039 0.207843 0.180392 rg
306.75 5.25 m 77.25 5.25 l 70.621 5.25 65.25 10.621 65.25 17.25 c 294.75
 17.25 l 301.379 17.25 306.75 22.621 306.75 29.25 c 306.75 47.25 l 313.379
 47.25 318.75 41.879 318.75 35.25 c 318.75 17.25 l 318.75 10.621 313.379
 5.25 306.75 5.25 c h
306.75 5.25 m f
0.364706 0.25098 0.215686 rg
19.25 136.094 345.504 43.41 re f
0.298039 0.207843 0.180392 rg
19.25 136.094 m 19.25 145.094 l 337.742 145.094 l 347.684 145.094 355.742
 153.152 355.742 163.094 c 355.742 179.492 l 364.742 179.492 l 364.742 136.094
 l h
19.25 136.094 m f
0.984314 0.54902 0 rg
35.25 222.375 313.5 113.5 re f
0.364706 0.25098 0.215686 rg
216.375 245.25 m 213.477 245.25 211.125 247.602 211.125 250.5 c 211.125
 295.41 l 171.688 247.176 l 168.559 243.383 162.402 245.586 162.387 250.5
 c 162.387 310.125 l 162.387 317.125 172.887 317.125 172.887 310.125 c 172.887
 265.215 l 212.324 313.449 l 215.453 317.242 221.609 315.039 221.625 310.125
 c 221.625 250.5 l 221.625 247.602 219.273 245.25 216.375 245.25 c h
216.375 245.25 m f
141 245.25 m 92.25 245.25 l 85.25 245.25 85.25 255.75 92.25 255.75 c 111.375
 255.75 l 111.375 310.125 l 111.375 317.125 121.875 317.125 121.875 310.125
 c 121.875 255.75 l 141 255.75 l 148 255.75 148 245.25 141 245.25 c h
141 245.25 m f
291.75 245.25 m 243 245.25 l 236 245.25 236 255.75 243 255.75 c 262.125
 255.75 l 262.125 310.125 l 262.125 317.125 272.625 317.125 272.625 310.125
 c 272.625 255.75 l 291.75 255.75 l 298.75 255.75 298.75 245.25 291.75 245.25
 c h
291.75 245.25 m f
0 0.67451 0.756863 rg
80.625 110.625 43.125 25.469 re f
260.25 110.625 43.125 25.469 re f
0 0.592157 0.654902 rg
260.25 110.625 m 260.25 116.625 l 282.449 116.625 l 285.613 116.625 288.648
 117.883 290.887 120.121 c 293.125 122.355 294.383 125.391 294.383 128.555
 c 294.383 136.09 l 303.383 136.09 l 303.383 110.617 l h
260.25 110.625 m f
80.625 110.625 m 80.625 116.625 l 102.824 116.625 l 109.414 116.625 114.758
 121.965 114.758 128.555 c 114.758 136.09 l 123.758 136.09 l 123.758 110.617
 l h
80.625 110.625 m f
0.937255 0.423529 0 rg
336.742 222.375 12.008 113.5 re f
Q Q
showpage
%%Trailer
end
%%EOF
