%!PS-Adobe-3.0 EPSF-3.0
%%Creator: cairo 1.16.0 (https://cairographics.org)
%%CreationDate: Fri Jul 19 07:40:31 2019
%%Pages: 1
%%DocumentData: Clean7Bit
%%LanguageLevel: 2
%%BoundingBox: 77 5 307 379
%%EndComments
%%BeginProlog
50 dict begin
/q { gsave } bind def
/Q { grestore } bind def
/cm { 6 array astore concat } bind def
/w { setlinewidth } bind def
/J { setlinecap } bind def
/j { setlinejoin } bind def
/M { setmiterlimit } bind def
/d { setdash } bind def
/m { moveto } bind def
/l { lineto } bind def
/c { curveto } bind def
/h { closepath } bind def
/re { exch dup neg 3 1 roll 5 3 roll moveto 0 rlineto
      0 exch rlineto 0 rlineto closepath } bind def
/S { stroke } bind def
/f { fill } bind def
/f* { eofill } bind def
/n { newpath } bind def
/W { clip } bind def
/W* { eoclip } bind def
/BT { } bind def
/ET { } bind def
/BDC { mark 3 1 roll /BDC pdfmark } bind def
/EMC { mark /EMC pdfmark } bind def
/cairo_store_point { /cairo_point_y exch def /cairo_point_x exch def } def
/Tj { show currentpoint cairo_store_point } bind def
/TJ {
  {
    dup
    type /stringtype eq
    { show } { -0.001 mul 0 cairo_font_matrix dtransform rmoveto } ifelse
  } forall
  currentpoint cairo_store_point
} bind def
/cairo_selectfont { cairo_font_matrix aload pop pop pop 0 0 6 array astore
    cairo_font exch selectfont cairo_point_x cairo_point_y moveto } bind def
/Tf { pop /cairo_font exch def /cairo_font_matrix where
      { pop cairo_selectfont } if } bind def
/Td { matrix translate cairo_font_matrix matrix concatmatrix dup
      /cairo_font_matrix exch def dup 4 get exch 5 get cairo_store_point
      /cairo_font where { pop cairo_selectfont } if } bind def
/Tm { 2 copy 8 2 roll 6 array astore /cairo_font_matrix exch def
      cairo_store_point /cairo_font where { pop cairo_selectfont } if } bind def
/g { setgray } bind def
/rg { setrgbcolor } bind def
/d1 { setcachedevice } bind def
/cairo_data_source {
  CairoDataIndex CairoData length lt
    { CairoData CairoDataIndex get /CairoDataIndex CairoDataIndex 1 add def }
    { () } ifelse
} def
/cairo_flush_ascii85_file { cairo_ascii85_file status { cairo_ascii85_file flushfile } if } def
/cairo_image { image cairo_flush_ascii85_file } def
/cairo_imagemask { imagemask cairo_flush_ascii85_file } def
%%EndProlog
%%BeginSetup
%%EndSetup
%%Page: 1 1
%%BeginPageSetup
%%PageBoundingBox: 77 5 307 379
%%EndPageSetup
q 77 5 230 374 rectclip
1 0 0 -1 0 384 cm q
0.364706 0.25098 0.215686 rg
276.75 156.383 m 107.25 156.383 l 77.25 123.566 l 306.75 123.566 l h
276.75 156.383 m f
0.298039 0.207843 0.180392 rg
77.25 123.566 m 85.484 132.566 l 256.875 132.566 l 261.918 132.566 266.48
 135.543 268.516 140.156 c 270.547 144.77 269.664 150.148 266.262 153.867
 c 263.969 156.379 l 276.75 156.379 l 306.75 123.562 l h
77.25 123.566 m f
1 0.792157 0.564706 rg
131.699 123.566 m 128.293 116.051 l 119.969 97.684 123.941 76.078 138.258
 61.875 c 152.75 47.484 156.613 25.523 147.898 7.051 c 147.051 5.25 l 172.051
 20.477 l 186.766 29.441 197.227 43.98 201.059 60.781 c 204.816 77.25 l 
218.297 59.121 221.188 35.219 212.422 14.398 c 211.566 12.367 l 236.293 
32.102 l 246.785 40.477 254.336 51.984 257.836 64.949 c 261.625 78.969 260.457
 93.867 254.535 107.129 c 247.199 123.566 l h
131.699 123.566 m f
0.866667 0.662745 0.462745 rg
151.723 19.055 m 167.551 28.699 l 182.266 37.668 192.727 52.203 196.559
 69 c 200.316 85.469 l 202.988 81.867 205.27 77.992 207.129 73.91 c 206.395
 75.039 205.625 76.152 204.816 77.242 c 201.059 60.781 l 197.227 43.98 186.766
 29.441 172.051 20.477 c 147.066 5.25 l 147.914 7.051 l 149.703 10.867 150.984
 14.906 151.723 19.055 c h
151.723 19.055 m f
257.836 64.949 m 254.336 51.984 246.785 40.477 236.293 32.102 c 211.566
 12.375 l 212.422 14.406 l 214.258 18.797 215.598 23.379 216.418 28.066 
c 231.789 40.336 l 254.25 58.266 261.754 89.109 250.031 115.352 c 246.363
 123.566 l 247.199 123.566 l 254.543 107.129 l 260.465 93.867 261.625 78.969
 257.836 64.949 c h
257.836 64.949 m f
0.984314 0.54902 0 rg
117.75 156.383 m 266.25 156.383 l 266.25 172.125 l 266.25 178.754 260.879
 184.125 254.25 184.125 c 129.75 184.125 l 123.121 184.125 117.75 178.754
 117.75 172.125 c h
117.75 156.383 m f
0.937255 0.423529 0 rg
117.75 156.383 m 117.75 165.383 l 244.523 165.383 l 247.898 165.383 251.133
 166.723 253.516 169.109 c 255.902 171.492 257.242 174.727 257.242 178.102
 c 257.242 181.121 l 257.234 182.02 257.129 182.918 256.922 183.793 c 262.371
 182.547 266.242 177.703 266.25 172.113 c 266.25 156.383 l h
117.75 156.383 m f
0 0.67451 0.756863 rg
205.25 378.75 m 178.75 378.75 l 133.75 184.125 l 250.25 184.125 l h
205.25 378.75 m f
0 0.592157 0.654902 rg
244.562 208.715 m 250.262 184.117 l 133.75 184.117 l 135.832 193.117 l 
222.23 193.117 l 226.105 193.117 229.773 194.883 232.184 197.918 c 234.598
 200.953 235.496 204.922 234.621 208.699 c 139.438 208.699 l 141.863 219.199
 l 232.199 219.199 l 195.301 378.73 l 205.227 378.73 l 243.688 212.516 l
 244.566 208.715 l h
244.562 208.715 m f
Q Q
showpage
%%Trailer
end
%%EOF
