%!PS-Adobe-3.0 EPSF-3.0
%%Creator: cairo 1.16.0 (https://cairographics.org)
%%CreationDate: Fri Jul 19 07:40:31 2019
%%Pages: 1
%%DocumentData: Clean7Bit
%%LanguageLevel: 2
%%BoundingBox: 5 47 379 337
%%EndComments
%%BeginProlog
50 dict begin
/q { gsave } bind def
/Q { grestore } bind def
/cm { 6 array astore concat } bind def
/w { setlinewidth } bind def
/J { setlinecap } bind def
/j { setlinejoin } bind def
/M { setmiterlimit } bind def
/d { setdash } bind def
/m { moveto } bind def
/l { lineto } bind def
/c { curveto } bind def
/h { closepath } bind def
/re { exch dup neg 3 1 roll 5 3 roll moveto 0 rlineto
      0 exch rlineto 0 rlineto closepath } bind def
/S { stroke } bind def
/f { fill } bind def
/f* { eofill } bind def
/n { newpath } bind def
/W { clip } bind def
/W* { eoclip } bind def
/BT { } bind def
/ET { } bind def
/BDC { mark 3 1 roll /BDC pdfmark } bind def
/EMC { mark /EMC pdfmark } bind def
/cairo_store_point { /cairo_point_y exch def /cairo_point_x exch def } def
/Tj { show currentpoint cairo_store_point } bind def
/TJ {
  {
    dup
    type /stringtype eq
    { show } { -0.001 mul 0 cairo_font_matrix dtransform rmoveto } ifelse
  } forall
  currentpoint cairo_store_point
} bind def
/cairo_selectfont { cairo_font_matrix aload pop pop pop 0 0 6 array astore
    cairo_font exch selectfont cairo_point_x cairo_point_y moveto } bind def
/Tf { pop /cairo_font exch def /cairo_font_matrix where
      { pop cairo_selectfont } if } bind def
/Td { matrix translate cairo_font_matrix matrix concatmatrix dup
      /cairo_font_matrix exch def dup 4 get exch 5 get cairo_store_point
      /cairo_font where { pop cairo_selectfont } if } bind def
/Tm { 2 copy 8 2 roll 6 array astore /cairo_font_matrix exch def
      cairo_store_point /cairo_font where { pop cairo_selectfont } if } bind def
/g { setgray } bind def
/rg { setrgbcolor } bind def
/d1 { setcachedevice } bind def
/cairo_data_source {
  CairoDataIndex CairoData length lt
    { CairoData CairoDataIndex get /CairoDataIndex CairoDataIndex 1 add def }
    { () } ifelse
} def
/cairo_flush_ascii85_file { cairo_ascii85_file status { cairo_ascii85_file flushfile } if } def
/cairo_image { image cairo_flush_ascii85_file } def
/cairo_imagemask { imagemask cairo_flush_ascii85_file } def
%%EndProlog
%%BeginSetup
%%EndSetup
%%Page: 1 1
%%BeginPageSetup
%%PageBoundingBox: 5 47 379 337
%%EndPageSetup
q 5 47 374 290 rectclip
1 0 0 -1 0 384 cm q
0 0.67451 0.756863 rg
134.203 204.859 244.5 131.574 re f
0 0.592157 0.654902 rg
354.746 292.574 m 354.746 248.715 l 340.105 248.715 328.234 236.844 328.234
 222.203 c 184.672 222.203 l 184.672 229.234 181.879 235.977 176.906 240.949
 c 171.934 245.922 165.191 248.715 158.16 248.715 c 158.16 292.574 l 172.801
 292.574 184.672 304.445 184.672 319.086 c 328.234 319.086 l 328.234 312.055
 331.027 305.312 336 300.34 c 340.973 295.367 347.715 292.574 354.746 292.574
 c h
354.746 292.574 m f
1 0.792157 0.564706 rg
304.895 270.645 m 304.895 297.398 283.207 319.086 256.453 319.086 c 229.699
 319.086 208.012 297.398 208.012 270.645 c 208.012 243.891 229.699 222.203
 256.453 222.203 c 283.207 222.203 304.895 243.891 304.895 270.645 c h
304.895 270.645 m f
0.866667 0.662745 0.462745 rg
256.453 222.203 m 254.934 222.203 253.438 222.293 251.953 222.434 c 276.848
 224.75 295.887 245.641 295.887 270.648 c 295.887 295.652 276.848 316.543
 251.953 318.859 c 253.438 319 254.934 319.09 256.453 319.09 c 283.207 319.09
 304.895 297.402 304.895 270.648 c 304.895 243.891 283.207 222.203 256.453
 222.203 c h
256.453 222.203 m f
0.984314 0.54902 0 rg
129.734 155.605 m 5.297 155.605 l 25.309 101.586 l 109.727 101.586 l h
129.734 155.605 m f
254.172 155.605 m 129.734 155.605 l 149.746 101.586 l 234.16 101.586 l 
h
254.172 155.605 m f
0 0.67451 0.756863 rg
262.176 265.395 m 250.73 265.395 l 247.051 265.395 247.051 259.875 250.73
 259.875 c 270.184 259.875 l 277.184 259.875 277.184 249.375 270.184 249.375
 c 261.703 249.375 l 261.703 241.719 l 261.703 234.719 251.203 234.719 251.203
 241.719 c 251.203 249.375 l 250.73 249.375 l 243.406 249.375 237.473 255.312
 237.473 262.637 c 237.473 269.957 243.406 275.895 250.73 275.895 c 262.172
 275.895 l 265.855 275.895 265.855 281.418 262.172 281.418 c 242.723 281.418
 l 235.723 281.418 235.723 291.918 242.723 291.918 c 251.203 291.918 l 251.203
 299.574 l 251.203 306.574 261.703 306.574 261.703 299.574 c 261.703 291.918
 l 262.172 291.918 l 269.496 291.918 275.434 285.98 275.434 278.656 c 275.434
 271.332 269.496 265.395 262.172 265.395 c h
262.176 265.395 m f
0.984314 0.54902 0 rg
191.859 101.586 m 67.422 101.586 l 87.434 47.566 l 171.848 47.566 l h
191.859 101.586 m f
0.937255 0.423529 0 rg
164.203 71.312 m 175.414 101.586 l 191.863 101.586 l 171.852 47.566 l 87.434
 47.566 l 82.984 59.566 l 147.32 59.566 l 154.852 59.562 161.586 64.25 164.203
 71.312 c h
164.203 71.312 m f
226.5 125.336 m 237.715 155.605 l 254.16 155.605 l 234.148 101.586 l 149.746
 101.586 l 145.301 113.586 l 209.633 113.586 l 217.16 113.59 223.887 118.277
 226.5 125.336 c h
226.5 125.336 m f
102.074 125.336 m 113.289 155.605 l 129.734 155.605 l 109.727 101.586 l
 25.309 101.586 l 20.863 113.586 l 85.199 113.586 l 92.727 113.586 99.461
 118.273 102.074 125.336 c h
102.074 125.336 m f
0.364706 0.25098 0.215686 rg
360.453 112 m 360.453 79.414 334.039 52.996 301.453 52.996 c 290.203 52.996
 l 309 77.844 l 316.438 87.68 320.461 99.672 320.461 112 c 302.211 112 l
 338.211 156.02 l 342.711 156.02 l 378.711 112 l h
360.453 112 m f
23.547 263.156 m 23.547 295.742 49.961 322.156 82.547 322.156 c 93.797 
322.156 l 75 297.301 l 67.562 287.465 63.539 275.473 63.539 263.145 c 81.789
 263.145 l 45.789 219.121 l 41.289 219.121 l 5.289 263.145 l h
23.547 263.156 m f
Q Q
showpage
%%Trailer
end
%%EOF
