%!PS-Adobe-3.0 EPSF-3.0
%%Creator: cairo 1.16.0 (https://cairographics.org)
%%CreationDate: Fri Jul 19 07:40:31 2019
%%Pages: 1
%%DocumentData: Clean7Bit
%%LanguageLevel: 2
%%BoundingBox: 43 5 341 379
%%EndComments
%%BeginProlog
50 dict begin
/q { gsave } bind def
/Q { grestore } bind def
/cm { 6 array astore concat } bind def
/w { setlinewidth } bind def
/J { setlinecap } bind def
/j { setlinejoin } bind def
/M { setmiterlimit } bind def
/d { setdash } bind def
/m { moveto } bind def
/l { lineto } bind def
/c { curveto } bind def
/h { closepath } bind def
/re { exch dup neg 3 1 roll 5 3 roll moveto 0 rlineto
      0 exch rlineto 0 rlineto closepath } bind def
/S { stroke } bind def
/f { fill } bind def
/f* { eofill } bind def
/n { newpath } bind def
/W { clip } bind def
/W* { eoclip } bind def
/BT { } bind def
/ET { } bind def
/BDC { mark 3 1 roll /BDC pdfmark } bind def
/EMC { mark /EMC pdfmark } bind def
/cairo_store_point { /cairo_point_y exch def /cairo_point_x exch def } def
/Tj { show currentpoint cairo_store_point } bind def
/TJ {
  {
    dup
    type /stringtype eq
    { show } { -0.001 mul 0 cairo_font_matrix dtransform rmoveto } ifelse
  } forall
  currentpoint cairo_store_point
} bind def
/cairo_selectfont { cairo_font_matrix aload pop pop pop 0 0 6 array astore
    cairo_font exch selectfont cairo_point_x cairo_point_y moveto } bind def
/Tf { pop /cairo_font exch def /cairo_font_matrix where
      { pop cairo_selectfont } if } bind def
/Td { matrix translate cairo_font_matrix matrix concatmatrix dup
      /cairo_font_matrix exch def dup 4 get exch 5 get cairo_store_point
      /cairo_font where { pop cairo_selectfont } if } bind def
/Tm { 2 copy 8 2 roll 6 array astore /cairo_font_matrix exch def
      cairo_store_point /cairo_font where { pop cairo_selectfont } if } bind def
/g { setgray } bind def
/rg { setrgbcolor } bind def
/d1 { setcachedevice } bind def
/cairo_data_source {
  CairoDataIndex CairoData length lt
    { CairoData CairoDataIndex get /CairoDataIndex CairoDataIndex 1 add def }
    { () } ifelse
} def
/cairo_flush_ascii85_file { cairo_ascii85_file status { cairo_ascii85_file flushfile } if } def
/cairo_image { image cairo_flush_ascii85_file } def
/cairo_imagemask { imagemask cairo_flush_ascii85_file } def
%%EndProlog
%%BeginSetup
%%EndSetup
%%Page: 1 1
%%BeginPageSetup
%%PageBoundingBox: 43 5 341 379
%%EndPageSetup
q 43 5 298 374 rectclip
1 0 0 -1 0 384 cm q
0.364706 0.25098 0.215686 rg
55 31.5 m 328.996 31.5 l 335.645 31.5 340.996 36.852 340.996 43.5 c 340.996
 281.5 l 340.996 288.148 335.645 293.5 328.996 293.5 c 55 293.5 l 48.352
 293.5 43 288.148 43 281.5 c 43 43.5 l 43 36.852 48.352 31.5 55 31.5 c h
55 31.5 m f
0.298039 0.207843 0.180392 rg
329 31.5 m 55 31.5 l 48.371 31.5 43 36.871 43 43.5 c 316.996 43.5 l 323.625
 43.5 328.996 48.871 328.996 55.5 c 328.996 293.5 l 335.625 293.5 340.996
 288.125 340.996 281.5 c 340.996 43.5 l 340.996 36.875 335.629 31.5 329 
31.5 c h
329 31.5 m f
0 0.67451 0.756863 rg
273.75 31.5 m 110.25 31.5 l 140.25 5.25 l 243.75 5.25 l h
273.75 31.5 m f
0.984314 0.54902 0 rg
341 264.75 m 240.82 264.75 l 225.551 232.5 l 224.68 230.668 222.832 229.5
 220.805 229.5 c 163.199 229.5 l 161.172 229.5 159.324 230.668 158.453 232.5
 c 143.18 264.75 l 43 264.75 l 43 275.25 l 146.5 275.25 l 148.527 275.25
 150.375 274.082 151.246 272.25 c 166.52 240 l 217.48 240 l 232.754 272.246
 l 233.625 274.078 235.473 275.246 237.5 275.246 c 341 275.246 l h
341 264.75 m f
1 0.792157 0.564706 rg
281 189 m 103 189 l 43 131.5 l 43 74 l 341 74 l 341 131.5 l h
281 189 m f
0.866667 0.662745 0.462745 rg
43 74 m 43 89 l 310.996 89 l 320.938 89 328.996 97.059 328.996 107 c 328.996
 143 l 340.996 131.504 l 340.996 74 l h
43 74 m f
0.984314 0.54902 0 rg
264.375 220.875 m 312.75 220.875 l 316.074 220.875 318.75 223.551 318.75
 226.875 c 318.75 241.875 l 318.75 245.199 316.074 247.875 312.75 247.875
 c 264.375 247.875 l 261.051 247.875 258.375 245.199 258.375 241.875 c 258.375
 226.875 l 258.375 223.551 261.051 220.875 264.375 220.875 c h
264.375 220.875 m f
0.937255 0.423529 0 rg
312.75 220.875 m 264.375 220.875 l 261.062 220.875 258.375 223.562 258.375
 226.875 c 258.375 229.875 l 303.75 229.875 l 307.062 229.875 309.75 232.562
 309.75 235.875 c 309.75 247.875 l 312.75 247.875 l 316.062 247.875 318.75
 245.188 318.75 241.875 c 318.75 226.875 l 318.75 223.562 316.062 220.875
 312.75 220.875 c h
312.75 220.875 m f
0.984314 0.54902 0 rg
119.625 247.875 m 71.25 247.875 l 67.926 247.875 65.25 245.199 65.25 241.875
 c 65.25 226.875 l 65.25 223.551 67.926 220.875 71.25 220.875 c 119.625 
220.875 l 122.949 220.875 125.625 223.551 125.625 226.875 c 125.625 241.875
 l 125.625 245.199 122.949 247.875 119.625 247.875 c h
119.625 247.875 m f
0 0.67451 0.756863 rg
266.93 293.5 m 240.375 293.5 l 253.234 320.664 l 130.766 320.664 l 143.625
 293.5 l 117.07 293.5 l 76.715 378.75 l 103.266 378.75 l 119.402 344.664
 l 264.598 344.664 l 280.734 378.75 l 307.285 378.75 l h
266.93 293.5 m f
0.937255 0.423529 0 rg
119.625 220.875 m 71.25 220.875 l 67.938 220.875 65.25 223.562 65.25 226.875
 c 65.25 229.875 l 110.625 229.875 l 113.938 229.875 116.625 232.562 116.625
 235.875 c 116.625 247.875 l 119.625 247.875 l 122.938 247.875 125.625 245.188
 125.625 241.875 c 125.625 226.875 l 125.625 223.562 122.938 220.875 119.625
 220.875 c h
119.625 220.875 m f
329 264.75 12 10.5 re f
0 0.592157 0.654902 rg
273.199 306.75 m 266.93 293.5 l 240.375 293.5 l 246.648 306.75 l h
273.199 306.75 m f
137.352 306.75 m 143.625 293.5 l 117.07 293.5 l 110.801 306.75 l h
137.352 306.75 m f
Q Q
showpage
%%Trailer
end
%%EOF
