%!PS-Adobe-3.0 EPSF-3.0
%%Creator: cairo 1.16.0 (https://cairographics.org)
%%CreationDate: Fri Jul 19 07:40:33 2019
%%Pages: 1
%%DocumentData: Clean7Bit
%%LanguageLevel: 2
%%BoundingBox: 5 5 379 379
%%EndComments
%%BeginProlog
50 dict begin
/q { gsave } bind def
/Q { grestore } bind def
/cm { 6 array astore concat } bind def
/w { setlinewidth } bind def
/J { setlinecap } bind def
/j { setlinejoin } bind def
/M { setmiterlimit } bind def
/d { setdash } bind def
/m { moveto } bind def
/l { lineto } bind def
/c { curveto } bind def
/h { closepath } bind def
/re { exch dup neg 3 1 roll 5 3 roll moveto 0 rlineto
      0 exch rlineto 0 rlineto closepath } bind def
/S { stroke } bind def
/f { fill } bind def
/f* { eofill } bind def
/n { newpath } bind def
/W { clip } bind def
/W* { eoclip } bind def
/BT { } bind def
/ET { } bind def
/BDC { mark 3 1 roll /BDC pdfmark } bind def
/EMC { mark /EMC pdfmark } bind def
/cairo_store_point { /cairo_point_y exch def /cairo_point_x exch def } def
/Tj { show currentpoint cairo_store_point } bind def
/TJ {
  {
    dup
    type /stringtype eq
    { show } { -0.001 mul 0 cairo_font_matrix dtransform rmoveto } ifelse
  } forall
  currentpoint cairo_store_point
} bind def
/cairo_selectfont { cairo_font_matrix aload pop pop pop 0 0 6 array astore
    cairo_font exch selectfont cairo_point_x cairo_point_y moveto } bind def
/Tf { pop /cairo_font exch def /cairo_font_matrix where
      { pop cairo_selectfont } if } bind def
/Td { matrix translate cairo_font_matrix matrix concatmatrix dup
      /cairo_font_matrix exch def dup 4 get exch 5 get cairo_store_point
      /cairo_font where { pop cairo_selectfont } if } bind def
/Tm { 2 copy 8 2 roll 6 array astore /cairo_font_matrix exch def
      cairo_store_point /cairo_font where { pop cairo_selectfont } if } bind def
/g { setgray } bind def
/rg { setrgbcolor } bind def
/d1 { setcachedevice } bind def
/cairo_data_source {
  CairoDataIndex CairoData length lt
    { CairoData CairoDataIndex get /CairoDataIndex CairoDataIndex 1 add def }
    { () } ifelse
} def
/cairo_flush_ascii85_file { cairo_ascii85_file status { cairo_ascii85_file flushfile } if } def
/cairo_image { image cairo_flush_ascii85_file } def
/cairo_imagemask { imagemask cairo_flush_ascii85_file } def
%%EndProlog
%%BeginSetup
%%EndSetup
%%Page: 1 1
%%BeginPageSetup
%%PageBoundingBox: 5 5 379 379
%%EndPageSetup
q 5 5 374 374 rectclip
1 0 0 -1 0 384 cm q
1 0.792157 0.564706 rg
192 35.25 m 105.578 35.348 35.504 105.305 35.258 191.727 c 35.258 378.75
 l 348.742 378.75 l 348.742 191.656 l 348.457 105.262 278.395 35.352 192
 35.25 c h
192 35.25 m f
0.866667 0.662745 0.462745 rg
192 35.25 m 189.484 35.25 186.988 35.32 184.5 35.438 c 267.875 39.531 333.457
 108.176 333.738 191.652 c 333.738 378.75 l 348.738 378.75 l 348.738 191.656
 l 348.453 105.262 278.391 35.352 192 35.25 c h
192 35.25 m f
0 0.67451 0.756863 rg
378.75 192 m 378.75 378.75 l 348.75 378.75 l 348.75 192 l 348.75 191.371
 348.75 190.77 348.719 190.141 c 348.609 178.816 347.262 167.539 344.699
 156.512 c 343.891 153.09 342.988 149.699 341.969 146.371 c 338.992 136.633
 335.074 127.207 330.27 118.23 c 328.621 115.109 326.852 112.078 324.988
 109.141 c 319.609 100.508 313.402 92.418 306.449 84.988 c 304.051 82.441
 301.559 79.949 299.012 77.551 c 291.574 70.598 283.488 64.379 274.859 58.98
 c 271.922 57.148 268.891 55.379 265.77 53.73 c 256.793 48.926 247.367 45.008
 237.629 42.031 c 234.301 41.012 230.91 40.109 227.461 39.301 c 217.547 
36.98 207.426 35.664 197.25 35.371 c 195.512 35.281 193.77 35.25 192 35.25
 c 190.23 35.25 188.488 35.281 186.75 35.371 c 176.562 35.664 166.434 36.98
 156.512 39.301 c 153.09 40.109 149.73 41.012 146.398 42.031 c 136.645 44.988
 127.211 48.906 118.23 53.73 c 115.109 55.379 112.078 57.148 109.141 58.98
 c 100.512 64.379 92.426 70.598 84.988 77.551 c 82.441 79.949 79.949 82.441
 77.551 84.988 c 70.598 92.426 64.379 100.512 58.98 109.141 c 57.148 112.078
 55.379 115.109 53.73 118.23 c 48.906 127.211 44.988 136.645 42.031 146.398
 c 41.012 149.73 40.078 153.121 39.301 156.539 c 36.738 167.559 35.387 178.828
 35.281 190.141 c 35.25 190.77 35.25 191.371 35.25 192 c 35.25 378.75 l 
5.25 378.75 l 5.25 192 l 5.25 191.371 5.25 190.77 5.281 190.141 c 5.395 
176.195 7.078 162.309 10.289 148.738 c 11.102 145.32 12 141.93 13.02 138.602
 c 16.656 126.316 21.57 114.453 27.691 103.199 c 29.34 100.109 31.109 97.078
 32.941 94.109 c 39.648 83.199 47.473 73.016 56.281 63.719 c 58.68 61.172
 61.172 58.68 63.719 56.281 c 73.016 47.473 83.199 39.648 94.109 32.941 
c 97.078 31.109 100.109 29.34 103.199 27.66 c 114.461 21.562 126.324 16.656
 138.602 13.02 c 141.93 12 145.32 11.102 148.738 10.289 c 161.203 7.324 
173.941 5.664 186.75 5.34 c 188.488 5.281 190.262 5.25 192 5.25 c 193.738
 5.25 195.512 5.281 197.25 5.34 c 210.047 5.668 222.777 7.324 235.23 10.289
 c 238.648 11.102 242.039 12 245.398 13.02 c 257.684 16.648 269.551 21.566
 280.801 27.691 c 280.828 27.691 l 283.922 29.371 286.922 31.109 289.891
 32.941 c 300.801 39.648 310.984 47.473 320.281 56.281 c 322.828 58.68 325.32
 61.172 327.719 63.719 c 336.527 73.016 344.352 83.199 351.059 94.109 c 
352.891 97.078 354.629 100.078 356.309 103.172 c 362.434 114.43 367.352 
126.305 370.98 138.602 c 372 141.93 372.898 145.32 373.711 148.738 c 376.922
 162.309 378.605 176.195 378.719 190.141 c 378.75 190.77 378.75 191.371 
378.75 192 c h
378.75 192 m f
0.364706 0.25098 0.215686 rg
192 115 m 233.332 115 266.84 148.504 266.84 189.836 c 266.84 293.5 l 117.16
 293.5 l 117.16 189.836 l 117.16 148.504 150.668 115 192 115 c h
192 115 m f
0.298039 0.207843 0.180392 rg
192 115 m 189.977 115 187.98 115.102 186 115.262 c 224.875 118.383 254.832
 150.836 254.84 189.836 c 254.84 293.5 l 266.84 293.5 l 266.84 189.836 l
 266.84 148.504 233.332 115 192 115 c h
192 115 m f
0.984314 0.54902 0 rg
266.84 293.5 m 348.742 378.75 l 35.25 378.75 l 117.16 293.5 l h
266.84 293.5 m f
0.937255 0.423529 0 rg
266.84 293.5 m 254.906 293.5 l 336.809 378.75 l 348.742 378.75 l h
266.84 293.5 m f
0 0.592157 0.654902 rg
348.75 340.141 30 10.5 re f
348.75 302.641 30 10.5 re f
348.75 265.141 30 10.5 re f
348.75 227.641 30 10.5 re f
378.75 192 m 378.75 200.641 l 348.75 200.641 l 348.75 192 l 348.75 191.371
 348.75 190.77 348.719 190.141 c 378.719 190.141 l 378.75 190.77 378.75 
191.371 378.75 192 c h
378.75 192 m f
5.25 340.141 30 10.5 re f
5.25 302.641 30 10.5 re f
5.25 265.141 30 10.5 re f
5.25 227.641 30 10.5 re f
35.281 190.141 m 35.25 190.77 35.25 191.371 35.25 192 c 35.25 200.641 l
 5.25 200.641 l 5.25 192 l 5.25 191.371 5.25 190.77 5.281 190.141 c h
35.281 190.141 m f
197.25 5.34 m 197.25 35.371 l 195.512 35.281 193.77 35.25 192 35.25 c 190.23
 35.25 188.488 35.281 186.75 35.371 c 186.75 5.34 l 188.488 5.281 190.262
 5.25 192 5.25 c 193.738 5.25 195.512 5.281 197.25 5.34 c h
197.25 5.34 m f
197.25 5.34 m 197.25 35.371 l 195.512 35.281 193.77 35.25 192 35.25 c 190.23
 35.25 188.488 35.281 186.75 35.371 c 186.75 5.34 l 188.488 5.281 190.262
 5.25 192 5.25 c 193.738 5.25 195.512 5.281 197.25 5.34 c h
197.25 5.34 m f
156.512 39.301 m 153.09 40.109 149.73 41.012 146.398 42.031 c 138.602 13.02
 l 141.93 12 145.32 11.102 148.738 10.289 c h
156.512 39.301 m f
118.23 53.73 m 115.109 55.379 112.078 57.148 109.141 58.98 c 94.109 32.941
 l 97.078 31.109 100.109 29.34 103.199 27.66 c h
118.23 53.73 m f
84.988 77.551 m 82.441 79.949 79.949 82.441 77.551 84.988 c 56.281 63.719
 l 58.68 61.172 61.172 58.68 63.719 56.281 c h
84.988 77.551 m f
58.98 109.141 m 57.148 112.078 55.379 115.109 53.73 118.23 c 27.691 103.199
 l 29.34 100.109 31.109 97.078 32.941 94.109 c h
58.98 109.141 m f
42.031 146.398 m 41.012 149.73 40.078 153.121 39.301 156.539 c 10.289 148.738
 l 11.102 145.32 12 141.93 13.02 138.602 c h
42.031 146.398 m f
245.398 13.02 m 237.629 42.031 l 234.301 41.012 230.91 40.109 227.461 39.301
 c 235.23 10.289 l 238.648 11.102 242.039 12 245.398 13.02 c h
245.398 13.02 m f
289.891 32.941 m 274.859 58.98 l 271.922 57.148 268.891 55.379 265.77 53.73
 c 280.801 27.691 l 280.828 27.691 l 283.922 29.371 286.922 31.109 289.891
 32.941 c h
289.891 32.941 m f
327.719 63.719 m 306.449 84.988 l 304.051 82.441 301.559 79.949 299.012
 77.551 c 320.281 56.281 l 322.828 58.68 325.32 61.172 327.719 63.719 c 
h
327.719 63.719 m f
356.309 103.172 m 330.27 118.23 l 328.621 115.109 326.852 112.078 324.988
 109.141 c 351.059 94.109 l 352.891 97.078 354.629 100.078 356.309 103.172
 c h
356.309 103.172 m f
373.711 148.738 m 344.699 156.512 l 343.891 153.09 342.988 149.699 341.969
 146.371 c 370.98 138.602 l 372 141.93 372.898 145.32 373.711 148.738 c 
h
373.711 148.738 m f
Q Q
showpage
%%Trailer
end
%%EOF
