%!PS-Adobe-3.0 EPSF-3.0
%%Creator: cairo 1.16.0 (https://cairographics.org)
%%CreationDate: Fri Jul 19 07:40:34 2019
%%Pages: 1
%%DocumentData: Clean7Bit
%%LanguageLevel: 2
%%BoundingBox: 5 4 379 379
%%EndComments
%%BeginProlog
50 dict begin
/q { gsave } bind def
/Q { grestore } bind def
/cm { 6 array astore concat } bind def
/w { setlinewidth } bind def
/J { setlinecap } bind def
/j { setlinejoin } bind def
/M { setmiterlimit } bind def
/d { setdash } bind def
/m { moveto } bind def
/l { lineto } bind def
/c { curveto } bind def
/h { closepath } bind def
/re { exch dup neg 3 1 roll 5 3 roll moveto 0 rlineto
      0 exch rlineto 0 rlineto closepath } bind def
/S { stroke } bind def
/f { fill } bind def
/f* { eofill } bind def
/n { newpath } bind def
/W { clip } bind def
/W* { eoclip } bind def
/BT { } bind def
/ET { } bind def
/BDC { mark 3 1 roll /BDC pdfmark } bind def
/EMC { mark /EMC pdfmark } bind def
/cairo_store_point { /cairo_point_y exch def /cairo_point_x exch def } def
/Tj { show currentpoint cairo_store_point } bind def
/TJ {
  {
    dup
    type /stringtype eq
    { show } { -0.001 mul 0 cairo_font_matrix dtransform rmoveto } ifelse
  } forall
  currentpoint cairo_store_point
} bind def
/cairo_selectfont { cairo_font_matrix aload pop pop pop 0 0 6 array astore
    cairo_font exch selectfont cairo_point_x cairo_point_y moveto } bind def
/Tf { pop /cairo_font exch def /cairo_font_matrix where
      { pop cairo_selectfont } if } bind def
/Td { matrix translate cairo_font_matrix matrix concatmatrix dup
      /cairo_font_matrix exch def dup 4 get exch 5 get cairo_store_point
      /cairo_font where { pop cairo_selectfont } if } bind def
/Tm { 2 copy 8 2 roll 6 array astore /cairo_font_matrix exch def
      cairo_store_point /cairo_font where { pop cairo_selectfont } if } bind def
/g { setgray } bind def
/rg { setrgbcolor } bind def
/d1 { setcachedevice } bind def
/cairo_data_source {
  CairoDataIndex CairoData length lt
    { CairoData CairoDataIndex get /CairoDataIndex CairoDataIndex 1 add def }
    { () } ifelse
} def
/cairo_flush_ascii85_file { cairo_ascii85_file status { cairo_ascii85_file flushfile } if } def
/cairo_image { image cairo_flush_ascii85_file } def
/cairo_imagemask { imagemask cairo_flush_ascii85_file } def
%%EndProlog
%%BeginSetup
%%EndSetup
%%Page: 1 1
%%BeginPageSetup
%%PageBoundingBox: 5 4 379 379
%%EndPageSetup
q 5 4 374 375 rectclip
1 0 0 -1 0 384 cm q
0.364706 0.25098 0.215686 rg
330.75 104.414 m 330.75 5.25 l 252 5.25 l 192 102.395 l 132 5.25 l 53.25
 5.25 l 53.25 104.414 l 5.25 162.395 l 5.25 379.535 l 378.75 379.535 l 378.75
 162.395 l h
330.75 104.414 m f
1 0.792157 0.564706 rg
42.125 275 113.004 71.004 re f
47.688 155.25 101.875 57 re f
0 0.67451 0.756863 rg
47.688 155.25 m 47.688 169.5 l 77.688 183.75 l 119.562 183.75 l 149.562
 169.5 l 149.562 155.25 l h
47.688 155.25 m f
1 0.792157 0.564706 rg
228.871 274.996 113.004 71.004 re f
0.866667 0.662745 0.462745 rg
228.875 275 m 228.875 284 l 314.879 284 l 324.816 284 332.879 292.059 332.879
 302 c 332.879 346.004 l 341.879 346.004 l 341.879 275 l h
228.875 275 m f
42.125 275 m 42.125 284 l 128.125 284 l 138.066 284 146.125 292.059 146.125
 302 c 146.125 346.004 l 155.125 346.004 l 155.125 275 l h
42.125 275 m f
0.984314 0.54902 0 rg
248.5 302.25 m 245.598 302.25 243.25 299.898 243.25 297 c 243.25 275 l 
243.25 268 253.75 268 253.75 275 c 253.75 297 l 253.75 299.898 251.398 302.25
 248.5 302.25 c h
248.5 302.25 m f
0.937255 0.423529 0 rg
243.25 275 10.5 9 re f
1 0.792157 0.564706 rg
234.438 155.25 101.875 57 re f
146.398 28.562 m 237.602 28.562 l 192 102.395 l h
146.398 28.562 m f
0.298039 0.207843 0.180392 rg
186.75 93.895 m 186.75 379.535 l 197.25 379.535 l 197.25 93.895 l 192 102.395
 l h
186.75 93.895 m f
0 0.67451 0.756863 rg
217.875 252 135 23 re f
0.866667 0.662745 0.462745 rg
234.438 155.25 m 234.438 164.25 l 327.312 164.25 l 327.312 212.25 l 336.312
 212.25 l 336.312 155.25 l h
234.438 155.25 m f
0 0.67451 0.756863 rg
336.312 155.25 m 336.312 169.5 l 306.312 183.75 l 264.438 183.75 l 234.438
 169.5 l 234.438 155.25 l h
336.312 155.25 m f
0 0.592157 0.654902 rg
234.438 155.25 m 234.438 164.25 l 318.301 164.25 l 323.27 164.25 327.301
 168.281 327.301 173.25 c 327.301 173.773 l 336.301 169.5 l 336.301 155.25
 l h
234.438 155.25 m f
0.866667 0.662745 0.462745 rg
47.688 155.25 m 47.688 164.25 l 140.562 164.25 l 140.562 212.25 l 149.562
 212.25 l 149.562 155.25 l h
47.688 155.25 m f
0 0.592157 0.654902 rg
47.699 155.25 m 47.699 164.25 l 131.562 164.25 l 136.531 164.25 140.562
 168.281 140.562 173.25 c 140.562 173.773 l 149.562 169.5 l 149.562 155.25
 l h
47.699 155.25 m f
0.298039 0.207843 0.180392 rg
330.75 104.414 m 330.75 5.25 l 252 5.25 l 240.008 24.672 l 312.75 24.672
 l 312.75 111.836 l 366.75 181.812 l 366.75 379.535 l 378.75 379.535 l 378.75
 162.395 l h
330.75 104.414 m f
0.984314 0.54902 0 rg
135.5 302.25 m 132.602 302.25 130.25 299.898 130.25 297 c 130.25 275 l 
130.25 268 140.75 268 140.75 275 c 140.75 297 l 140.75 299.898 138.402 302.25
 135.5 302.25 c h
135.5 302.25 m f
0.937255 0.423529 0 rg
130.25 284.137 m 134.215 284.602 137.91 286.375 140.75 289.18 c 140.75 
275 l 130.25 275 l h
130.25 284.137 m f
0 0.67451 0.756863 rg
31.125 252 135 23 re f
Q Q
showpage
%%Trailer
end
%%EOF
