%!PS-Adobe-3.0 EPSF-3.0
%%Creator: cairo 1.16.0 (https://cairographics.org)
%%CreationDate: Fri Jul 19 07:40:34 2019
%%Pages: 1
%%DocumentData: Clean7Bit
%%LanguageLevel: 2
%%BoundingBox: 0 38 384 341
%%EndComments
%%BeginProlog
50 dict begin
/q { gsave } bind def
/Q { grestore } bind def
/cm { 6 array astore concat } bind def
/w { setlinewidth } bind def
/J { setlinecap } bind def
/j { setlinejoin } bind def
/M { setmiterlimit } bind def
/d { setdash } bind def
/m { moveto } bind def
/l { lineto } bind def
/c { curveto } bind def
/h { closepath } bind def
/re { exch dup neg 3 1 roll 5 3 roll moveto 0 rlineto
      0 exch rlineto 0 rlineto closepath } bind def
/S { stroke } bind def
/f { fill } bind def
/f* { eofill } bind def
/n { newpath } bind def
/W { clip } bind def
/W* { eoclip } bind def
/BT { } bind def
/ET { } bind def
/BDC { mark 3 1 roll /BDC pdfmark } bind def
/EMC { mark /EMC pdfmark } bind def
/cairo_store_point { /cairo_point_y exch def /cairo_point_x exch def } def
/Tj { show currentpoint cairo_store_point } bind def
/TJ {
  {
    dup
    type /stringtype eq
    { show } { -0.001 mul 0 cairo_font_matrix dtransform rmoveto } ifelse
  } forall
  currentpoint cairo_store_point
} bind def
/cairo_selectfont { cairo_font_matrix aload pop pop pop 0 0 6 array astore
    cairo_font exch selectfont cairo_point_x cairo_point_y moveto } bind def
/Tf { pop /cairo_font exch def /cairo_font_matrix where
      { pop cairo_selectfont } if } bind def
/Td { matrix translate cairo_font_matrix matrix concatmatrix dup
      /cairo_font_matrix exch def dup 4 get exch 5 get cairo_store_point
      /cairo_font where { pop cairo_selectfont } if } bind def
/Tm { 2 copy 8 2 roll 6 array astore /cairo_font_matrix exch def
      cairo_store_point /cairo_font where { pop cairo_selectfont } if } bind def
/g { setgray } bind def
/rg { setrgbcolor } bind def
/d1 { setcachedevice } bind def
/cairo_data_source {
  CairoDataIndex CairoData length lt
    { CairoData CairoDataIndex get /CairoDataIndex CairoDataIndex 1 add def }
    { () } ifelse
} def
/cairo_flush_ascii85_file { cairo_ascii85_file status { cairo_ascii85_file flushfile } if } def
/cairo_image { image cairo_flush_ascii85_file } def
/cairo_imagemask { imagemask cairo_flush_ascii85_file } def
%%EndProlog
%%BeginSetup
%%EndSetup
%%Page: 1 1
%%BeginPageSetup
%%PageBoundingBox: 0 38 384 341
%%EndPageSetup
q 0 38 384 303 rectclip
1 0 0 -1 0 384 cm q
0.364706 0.25098 0.215686 rg
58.5 154.844 m 88.5 292.469 l 104.191 292.469 l 109.574 279.816 121.996
 271.598 135.75 271.598 c 149.5 271.598 161.922 279.816 167.305 292.469 
c 216.691 292.469 l 222.074 279.816 234.496 271.598 248.25 271.598 c 262
 271.598 274.422 279.816 279.805 292.469 c 295.5 292.469 l 325.5 154.844
 l h
58.5 154.844 m f
0.298039 0.207843 0.180392 rg
58.5 154.844 m 60.461 163.844 l 292.5 163.844 l 296.883 163.844 301.027
 165.828 303.777 169.242 c 306.527 172.656 307.582 177.129 306.648 181.41
 c 282.449 292.469 l 295.5 292.469 l 325.5 154.844 l h
58.5 154.844 m f
0.984314 0.54902 0 rg
31 123.344 321.996 31.5 re f
0.937255 0.423529 0 rg
31 123.344 m 31 132.344 l 318.496 132.344 l 330.926 132.344 340.996 142.418
 340.996 154.844 c 352.996 154.844 l 352.996 123.344 l h
31 123.344 m f
0 g
282.531 305.879 m 282.531 324.809 267.184 340.156 248.25 340.156 c 229.316
 340.156 213.969 324.809 213.969 305.879 c 213.969 286.945 229.316 271.598
 248.25 271.598 c 267.184 271.598 282.531 286.945 282.531 305.879 c h
282.531 305.879 m f
0.984314 0.54902 0 rg
167.309 319.281 m 216.691 319.281 l 213.059 310.711 213.059 301.035 216.691
 292.469 c 167.309 292.469 l 170.941 301.035 170.941 310.711 167.309 319.281
 c h
167.309 319.281 m f
101.469 305.879 m 101.465 301.27 102.391 296.711 104.191 292.469 c 57 292.469
 l 57 319.285 l 104.191 319.285 l 102.391 315.043 101.465 310.484 101.469
 305.879 c h
101.469 305.879 m f
279.809 292.469 m 283.441 301.039 283.441 310.715 279.809 319.285 c 327
 319.285 l 327 292.469 l h
279.809 292.469 m f
0.937255 0.423529 0 rg
216.691 292.469 m 167.309 292.469 l 168.125 294.406 168.758 296.414 169.207
 298.469 c 207.688 298.469 l 204.895 305.035 204.23 312.312 205.789 319.277
 c 216.695 319.277 l 213.062 310.711 213.062 301.035 216.695 292.469 c h
216.691 292.469 m f
104.191 292.469 m 57 292.469 l 57 298.469 l 95.188 298.469 l 92.395 305.035
 91.73 312.312 93.289 319.277 c 104.195 319.277 l 100.562 310.711 100.562
 301.035 104.195 292.469 c h
104.191 292.469 m f
279.809 292.469 m 280.625 294.406 281.258 296.414 281.707 298.469 c 318
 298.469 l 318 319.277 l 327 319.277 l 327 292.469 l h
279.809 292.469 m f
1 0.792157 0.564706 rg
135.75 271.598 m 149.504 271.594 161.926 279.812 167.309 292.469 c 216.691
 292.469 l 220.738 282.934 228.879 275.742 238.844 272.906 c 248.805 270.07
 259.516 271.895 267.977 277.867 c 288.254 184.844 l 95.746 184.844 l 116.023
 277.867 l 121.789 273.785 128.684 271.594 135.75 271.598 c h
135.75 271.598 m f
0.866667 0.662745 0.462745 rg
279.281 226.012 m 280.43 220.738 l 288.254 184.844 l 95.746 184.844 l 98.363
 196.844 l 254.621 196.844 l 259.16 196.844 263.457 198.902 266.305 202.438
 c 269.152 205.973 270.242 210.605 269.277 215.039 c 269.176 215.504 l 102.43
 215.504 l 104.719 226.004 l 266.891 226.004 l 261.348 251.43 l 110.258 
251.43 l 112.547 261.93 l 259.059 261.93 l 256.715 272.676 l 260.754 273.707
 264.57 275.469 267.977 277.871 c 271.453 261.93 l 272.484 257.191 l h
279.281 226.012 m f
0.364706 0.25098 0.215686 rg
58.5 123.344 m 58.5 100.469 l 95.746 89.219 l 117.75 56.969 l 147.375 51.344
 l 185.625 75.719 l 216 87.344 l 226.875 123.344 l h
58.5 123.344 m f
185.625 75.719 m 232.875 61.094 l 249 43.844 l 285.75 43.844 l 298.125 
61.469 l 325.5 75.719 l 325.5 123.344 l 226.875 123.344 l 216 87.344 l h
185.625 75.719 m f
0.298039 0.207843 0.180392 rg
225.785 78.238 m 204.188 69.977 l 185.625 75.719 l 216 87.344 l 226.875
 123.344 l 239.41 123.344 l h
225.785 78.238 m f
0 0.67451 0.756863 rg
170.031 305.879 m 170.031 324.809 154.684 340.156 135.75 340.156 c 116.816
 340.156 101.469 324.809 101.469 305.879 c 101.469 286.945 116.816 271.598
 135.75 271.598 c 154.684 271.598 170.031 286.945 170.031 305.879 c h
170.031 305.879 m f
282.531 305.879 m 282.531 324.809 267.184 340.156 248.25 340.156 c 229.316
 340.156 213.969 324.809 213.969 305.879 c 213.969 286.945 229.316 271.598
 248.25 271.598 c 267.184 271.598 282.531 286.945 282.531 305.879 c h
282.531 305.879 m f
0 0.592157 0.654902 rg
248.25 271.598 m 246.746 271.605 245.242 271.719 243.75 271.926 c 260.793
 274.164 273.539 288.688 273.539 305.879 c 273.539 323.066 260.793 337.59
 243.75 339.828 c 253.152 341.086 262.66 338.391 270 332.383 c 277.344 326.371
 281.863 317.586 282.488 308.121 c 283.113 298.652 279.785 289.352 273.297
 282.43 c 266.805 275.508 257.738 271.586 248.25 271.598 c h
248.25 271.598 m f
135.75 271.598 m 134.246 271.605 132.742 271.719 131.25 271.926 c 148.293
 274.164 161.039 288.688 161.039 305.879 c 161.039 323.066 148.293 337.59
 131.25 339.828 c 140.652 341.086 150.16 338.391 157.5 332.383 c 164.844
 326.371 169.363 317.586 169.988 308.121 c 170.613 298.652 167.285 289.352
 160.797 282.43 c 154.305 275.508 145.238 271.586 135.75 271.598 c h
135.75 271.598 m f
0.364706 0.25098 0.215686 rg
261.531 305.879 m 261.531 313.211 255.586 319.156 248.25 319.156 c 240.914
 319.156 234.969 313.211 234.969 305.879 c 234.969 298.543 240.914 292.598
 248.25 292.598 c 255.586 292.598 261.531 298.543 261.531 305.879 c h
261.531 305.879 m f
0.298039 0.207843 0.180392 rg
248.25 292.598 m 247.238 292.605 246.234 292.73 245.25 292.969 c 251.262
 294.352 255.523 299.703 255.523 305.875 c 255.523 312.047 251.262 317.398
 245.25 318.781 c 248.938 319.648 252.82 318.898 255.918 316.719 c 259.016
 314.539 261.035 311.137 261.465 307.375 c 261.895 303.613 260.699 299.844
 258.172 297.02 c 255.648 294.195 252.039 292.586 248.25 292.598 c h
248.25 292.598 m f
0.364706 0.25098 0.215686 rg
149.031 305.879 m 149.031 313.211 143.086 319.156 135.75 319.156 c 128.414
 319.156 122.469 313.211 122.469 305.879 c 122.469 298.543 128.414 292.598
 135.75 292.598 c 143.086 292.598 149.031 298.543 149.031 305.879 c h
149.031 305.879 m f
378.75 345.406 m 5.25 345.406 l -1.75 345.406 -1.75 334.906 5.25 334.906
 c 378.75 334.906 l 385.75 334.906 385.75 345.406 378.75 345.406 c h
378.75 345.406 m f
0.298039 0.207843 0.180392 rg
135.75 292.598 m 134.738 292.605 133.734 292.73 132.75 292.969 c 138.762
 294.352 143.023 299.703 143.023 305.875 c 143.023 312.047 138.762 317.398
 132.75 318.781 c 136.438 319.648 140.32 318.898 143.418 316.719 c 146.516
 314.539 148.535 311.137 148.965 307.375 c 149.395 303.613 148.199 299.844
 145.672 297.02 c 143.148 294.195 139.539 292.586 135.75 292.598 c h
135.75 292.598 m f
Q Q
showpage
%%Trailer
end
%%EOF
