%!PS-Adobe-3.0 EPSF-3.0
%%Creator: cairo 1.16.0 (https://cairographics.org)
%%CreationDate: Fri Jul 19 07:40:34 2019
%%Pages: 1
%%DocumentData: Clean7Bit
%%LanguageLevel: 2
%%BoundingBox: 5 60 379 324
%%EndComments
%%BeginProlog
50 dict begin
/q { gsave } bind def
/Q { grestore } bind def
/cm { 6 array astore concat } bind def
/w { setlinewidth } bind def
/J { setlinecap } bind def
/j { setlinejoin } bind def
/M { setmiterlimit } bind def
/d { setdash } bind def
/m { moveto } bind def
/l { lineto } bind def
/c { curveto } bind def
/h { closepath } bind def
/re { exch dup neg 3 1 roll 5 3 roll moveto 0 rlineto
      0 exch rlineto 0 rlineto closepath } bind def
/S { stroke } bind def
/f { fill } bind def
/f* { eofill } bind def
/n { newpath } bind def
/W { clip } bind def
/W* { eoclip } bind def
/BT { } bind def
/ET { } bind def
/BDC { mark 3 1 roll /BDC pdfmark } bind def
/EMC { mark /EMC pdfmark } bind def
/cairo_store_point { /cairo_point_y exch def /cairo_point_x exch def } def
/Tj { show currentpoint cairo_store_point } bind def
/TJ {
  {
    dup
    type /stringtype eq
    { show } { -0.001 mul 0 cairo_font_matrix dtransform rmoveto } ifelse
  } forall
  currentpoint cairo_store_point
} bind def
/cairo_selectfont { cairo_font_matrix aload pop pop pop 0 0 6 array astore
    cairo_font exch selectfont cairo_point_x cairo_point_y moveto } bind def
/Tf { pop /cairo_font exch def /cairo_font_matrix where
      { pop cairo_selectfont } if } bind def
/Td { matrix translate cairo_font_matrix matrix concatmatrix dup
      /cairo_font_matrix exch def dup 4 get exch 5 get cairo_store_point
      /cairo_font where { pop cairo_selectfont } if } bind def
/Tm { 2 copy 8 2 roll 6 array astore /cairo_font_matrix exch def
      cairo_store_point /cairo_font where { pop cairo_selectfont } if } bind def
/g { setgray } bind def
/rg { setrgbcolor } bind def
/d1 { setcachedevice } bind def
/cairo_data_source {
  CairoDataIndex CairoData length lt
    { CairoData CairoDataIndex get /CairoDataIndex CairoDataIndex 1 add def }
    { () } ifelse
} def
/cairo_flush_ascii85_file { cairo_ascii85_file status { cairo_ascii85_file flushfile } if } def
/cairo_image { image cairo_flush_ascii85_file } def
/cairo_imagemask { imagemask cairo_flush_ascii85_file } def
%%EndProlog
%%BeginSetup
%%EndSetup
%%Page: 1 1
%%BeginPageSetup
%%PageBoundingBox: 5 60 379 324
%%EndPageSetup
q 5 60 374 264 rectclip
1 0 0 -1 0 384 cm q
1 0.792157 0.564706 rg
260 152 m 366.75 152 l 373.398 152 378.75 157.352 378.75 164 c 378.75 220.004
 l 378.75 226.648 373.398 232.004 366.75 232.004 c 260 232.004 l 253.352
 232.004 248 226.648 248 220.004 c 248 164 l 248 157.352 253.352 152 260
 152 c h
260 152 m f
0.866667 0.662745 0.462745 rg
366.75 152 m 260 152 l 253.375 152 248 157.375 248 164 c 354.75 164 l 361.379
 164 366.75 169.375 366.75 176 c 366.75 232 l 373.379 232 378.75 226.625
 378.75 220 c 378.75 164 l 378.75 157.375 373.379 152 366.75 152 c h
366.75 152 m f
0.984314 0.54902 0 rg
303.625 192 m 303.625 200.629 296.629 207.625 288 207.625 c 279.371 207.625
 272.375 200.629 272.375 192 c 272.375 183.371 279.371 176.375 288 176.375
 c 296.629 176.375 303.625 183.371 303.625 192 c h
303.625 192 m f
0.937255 0.423529 0 rg
288 176.375 m 286.992 176.379 285.988 176.48 285 176.676 c 292.352 178.082
 297.672 184.512 297.672 192 c 297.672 199.484 292.352 205.914 285 207.32
 c 289.324 208.172 293.809 207.156 297.344 204.523 c 300.879 201.891 303.141
 197.887 303.566 193.5 c 303.988 189.113 302.543 184.75 299.578 181.488 
c 296.613 178.227 292.406 176.367 288 176.371 c h
288 176.375 m f
0.364706 0.25098 0.215686 rg
345.988 78.512 m 345.988 152.012 l 260.012 152.012 l 253.383 152.012 248.012
 157.383 248.012 164.012 c 248.012 219.988 l 248.012 226.617 253.383 231.988
 260.012 231.988 c 345.988 231.988 l 345.988 305.488 l 345.996 310.266 344.102
 314.848 340.727 318.227 c 337.348 321.602 332.766 323.496 327.988 323.488
 c 23.25 323.488 l 13.309 323.488 5.25 315.43 5.25 305.488 c 5.25 78.512
 l 5.25 68.57 13.309 60.512 23.25 60.512 c 327.988 60.512 l 332.766 60.504
 337.348 62.398 340.727 65.773 c 344.102 69.152 345.996 73.734 345.988 78.512
 c h
345.988 78.512 m f
0.298039 0.207843 0.180392 rg
330.988 246.988 m 330.988 320.488 l 330.984 321.418 330.906 322.34 330.758
 323.258 c 339.523 321.91 345.996 314.363 345.988 305.488 c 345.988 231.988
 l 330.988 231.988 l h
330.988 246.988 m f
327.988 60.512 m 23.25 60.512 l 14.383 60.512 6.84 66.98 5.484 75.742 c
 6.398 75.594 7.324 75.516 8.25 75.512 c 312.988 75.512 l 317.766 75.504
 322.348 77.398 325.727 80.773 c 329.102 84.152 330.996 88.734 330.988 93.512
 c 330.988 152.012 l 345.988 152.012 l 345.988 78.512 l 345.996 73.734 344.102
 69.152 340.727 65.773 c 337.348 62.398 332.766 60.504 327.988 60.512 c 
h
327.988 60.512 m f
21 102.359 m 21.012 105.27 18.66 107.633 15.75 107.641 c 5.25 107.641 l
 5.25 97.141 l 15.75 97.141 l 18.645 97.129 20.996 99.469 21 102.359 c h
21 102.359 m f
314.191 97.141 m 292.859 97.141 l 285.859 97.141 285.859 107.641 292.859
 107.641 c 314.191 107.641 l 321.191 107.641 321.191 97.141 314.191 97.141
 c h
271.559 97.141 m 250.23 97.141 l 243.23 97.141 243.23 107.641 250.23 107.641
 c 271.559 107.641 l 278.559 107.641 278.559 97.141 271.559 97.141 c h
228.93 97.141 m 207.602 97.141 l 200.602 97.141 200.602 107.641 207.602
 107.641 c 228.93 107.641 l 235.93 107.641 235.93 97.141 228.93 97.141 c
 h
186.27 97.141 m 164.969 97.141 l 157.969 97.141 157.969 107.641 164.969
 107.641 c 186.27 107.641 l 193.27 107.641 193.27 97.141 186.27 97.141 c
 h
143.641 97.141 m 122.34 97.141 l 115.34 97.141 115.34 107.641 122.34 107.641
 c 143.641 107.641 l 150.641 107.641 150.641 97.141 143.641 97.141 c h
101.012 97.141 m 79.711 97.141 l 72.711 97.141 72.711 107.641 79.711 107.641
 c 101.012 107.641 l 108.012 107.641 108.012 97.141 101.012 97.141 c h
58.379 97.141 m 37.078 97.141 l 30.078 97.141 30.078 107.641 37.078 107.641
 c 58.379 107.641 l 65.379 107.641 65.379 97.141 58.379 97.141 c h
58.379 97.141 m f
21 281.641 m 20.996 284.531 18.645 286.871 15.75 286.859 c 5.25 286.859
 l 5.25 276.359 l 15.75 276.359 l 18.66 276.367 21.012 278.73 21 281.641
 c h
21 281.641 m f
314.191 276.359 m 292.859 276.359 l 285.859 276.359 285.859 286.859 292.859
 286.859 c 314.191 286.859 l 321.191 286.859 321.191 276.359 314.191 276.359
 c h
271.559 276.359 m 250.23 276.359 l 243.23 276.359 243.23 286.859 250.23
 286.859 c 271.559 286.859 l 278.559 286.859 278.559 276.359 271.559 276.359
 c h
228.93 276.359 m 207.602 276.359 l 200.602 276.359 200.602 286.859 207.602
 286.859 c 228.93 286.859 l 235.93 286.859 235.93 276.359 228.93 276.359
 c h
186.27 276.359 m 164.969 276.359 l 157.969 276.359 157.969 286.859 164.969
 286.859 c 186.27 286.859 l 193.27 286.859 193.27 276.359 186.27 276.359
 c h
143.641 276.359 m 122.34 276.359 l 115.34 276.359 115.34 286.859 122.34
 286.859 c 143.641 286.859 l 150.641 286.859 150.641 276.359 143.641 276.359
 c h
101.012 276.359 m 79.711 276.359 l 72.711 276.359 72.711 286.859 79.711
 286.859 c 101.012 286.859 l 108.012 286.859 108.012 276.359 101.012 276.359
 c h
58.379 276.359 m 37.078 276.359 l 30.078 276.359 30.078 286.859 37.078 
286.859 c 58.379 286.859 l 65.379 286.859 65.379 276.359 58.379 276.359 
c h
58.379 276.359 m f
Q Q
showpage
%%Trailer
end
%%EOF
