%!PS-Adobe-3.0 EPSF-3.0
%%Creator: cairo 1.16.0 (https://cairographics.org)
%%CreationDate: Fri Jul 19 07:40:34 2019
%%Pages: 1
%%DocumentData: Clean7Bit
%%LanguageLevel: 2
%%BoundingBox: 5 42 379 342
%%EndComments
%%BeginProlog
50 dict begin
/q { gsave } bind def
/Q { grestore } bind def
/cm { 6 array astore concat } bind def
/w { setlinewidth } bind def
/J { setlinecap } bind def
/j { setlinejoin } bind def
/M { setmiterlimit } bind def
/d { setdash } bind def
/m { moveto } bind def
/l { lineto } bind def
/c { curveto } bind def
/h { closepath } bind def
/re { exch dup neg 3 1 roll 5 3 roll moveto 0 rlineto
      0 exch rlineto 0 rlineto closepath } bind def
/S { stroke } bind def
/f { fill } bind def
/f* { eofill } bind def
/n { newpath } bind def
/W { clip } bind def
/W* { eoclip } bind def
/BT { } bind def
/ET { } bind def
/BDC { mark 3 1 roll /BDC pdfmark } bind def
/EMC { mark /EMC pdfmark } bind def
/cairo_store_point { /cairo_point_y exch def /cairo_point_x exch def } def
/Tj { show currentpoint cairo_store_point } bind def
/TJ {
  {
    dup
    type /stringtype eq
    { show } { -0.001 mul 0 cairo_font_matrix dtransform rmoveto } ifelse
  } forall
  currentpoint cairo_store_point
} bind def
/cairo_selectfont { cairo_font_matrix aload pop pop pop 0 0 6 array astore
    cairo_font exch selectfont cairo_point_x cairo_point_y moveto } bind def
/Tf { pop /cairo_font exch def /cairo_font_matrix where
      { pop cairo_selectfont } if } bind def
/Td { matrix translate cairo_font_matrix matrix concatmatrix dup
      /cairo_font_matrix exch def dup 4 get exch 5 get cairo_store_point
      /cairo_font where { pop cairo_selectfont } if } bind def
/Tm { 2 copy 8 2 roll 6 array astore /cairo_font_matrix exch def
      cairo_store_point /cairo_font where { pop cairo_selectfont } if } bind def
/g { setgray } bind def
/rg { setrgbcolor } bind def
/d1 { setcachedevice } bind def
/cairo_data_source {
  CairoDataIndex CairoData length lt
    { CairoData CairoDataIndex get /CairoDataIndex CairoDataIndex 1 add def }
    { () } ifelse
} def
/cairo_flush_ascii85_file { cairo_ascii85_file status { cairo_ascii85_file flushfile } if } def
/cairo_image { image cairo_flush_ascii85_file } def
/cairo_imagemask { imagemask cairo_flush_ascii85_file } def
%%EndProlog
%%BeginSetup
%%EndSetup
%%Page: 1 1
%%BeginPageSetup
%%PageBoundingBox: 5 42 379 342
%%EndPageSetup
q 5 42 374 300 rectclip
1 0 0 -1 0 384 cm q
1 0.792157 0.564706 rg
264.562 179.77 m 168.301 223.637 l 71.789 192.734 l 41.648 183.086 21.191
 155.066 21.188 123.418 c 294.562 123.418 l h
264.562 179.77 m f
0.866667 0.662745 0.462745 rg
21.188 123.418 m 21.199 126.426 21.398 129.434 21.785 132.418 c 246.602
 132.418 l 252.922 132.414 258.785 135.727 262.039 141.145 c 265.297 146.566
 265.473 153.297 262.5 158.879 c 247.145 187.715 l 264.586 179.77 l 294.586
 123.418 l h
21.188 123.418 m f
0 0.67451 0.756863 rg
11.25 104.414 m 304.5 104.414 l 307.824 104.414 310.5 107.09 310.5 110.414
 c 310.5 117.414 l 310.5 120.738 307.824 123.414 304.5 123.414 c 11.25 123.414
 l 7.926 123.414 5.25 120.738 5.25 117.414 c 5.25 110.414 l 5.25 107.09 
7.926 104.414 11.25 104.414 c h
11.25 104.414 m f
0.364706 0.25098 0.215686 rg
53.625 104.414 m 53.625 86.555 l 82.711 77.77 l 99.895 52.586 l 123.027
 48.191 l 152.898 67.223 l 176.617 76.301 l 185.109 104.414 l h
53.625 104.414 m f
53.625 104.414 m 53.625 86.555 l 82.711 77.77 l 99.895 52.586 l 123.027
 48.191 l 152.898 67.223 l 176.617 76.301 l 185.109 104.414 l h
53.625 104.414 m f
152.898 67.223 m 189.797 55.805 l 202.387 42.332 l 231.086 42.332 l 240.746
 56.098 l 262.125 67.223 l 262.125 104.414 l 185.109 104.414 l 176.617 76.301
 l h
152.898 67.223 m f
0.298039 0.207843 0.180392 rg
186.402 67.199 m 171.457 61.48 l 152.898 67.227 l 176.617 76.301 l 185.109
 104.414 l 197.645 104.414 l h
186.402 67.199 m f
0 g
361.816 135.453 m 56.461 274.594 l 53.555 275.895 51.289 278.301 50.156
 281.273 c 49.023 284.25 49.121 287.551 50.422 290.457 c 51.727 293.359 
54.129 295.629 57.102 296.758 c 60.078 297.891 63.383 297.797 66.285 296.492
 c 162.789 252.496 l 162.875 252.691 162.934 252.891 163.035 253.078 c 195.348
 312.48 l 196.922 315.375 199.957 317.18 203.254 317.18 c 244.5 317.18 l
 248.719 317.18 252.375 314.246 253.285 310.125 c 278.398 199.801 l 371.742
 157.246 l 377.676 154.457 380.262 147.414 377.543 141.449 c 374.824 135.48
 367.812 132.812 361.816 135.461 c h
237.277 299.164 m 208.598 299.164 l 179.148 245.035 l 257.801 209.18 l 
h
237.277 299.164 m f
0.364706 0.25098 0.215686 rg
361.816 135.453 m 56.461 274.594 l 53.555 275.895 51.289 278.301 50.156
 281.273 c 49.023 284.25 49.121 287.551 50.422 290.457 c 51.727 293.359 
54.129 295.629 57.102 296.758 c 60.078 297.891 63.383 297.797 66.285 296.492
 c 162.789 252.496 l 162.875 252.691 162.934 252.891 163.035 253.078 c 195.348
 312.48 l 196.922 315.375 199.957 317.18 203.254 317.18 c 244.5 317.18 l
 248.719 317.18 252.375 314.246 253.285 310.125 c 278.398 199.801 l 371.742
 157.246 l 377.676 154.457 380.262 147.414 377.543 141.449 c 374.824 135.48
 367.812 132.812 361.816 135.461 c h
237.277 299.164 m 208.598 299.164 l 179.148 245.035 l 257.801 209.18 l 
h
237.277 299.164 m f
361.816 135.453 m 56.461 274.594 l 53.555 275.895 51.289 278.301 50.156
 281.273 c 49.023 284.25 49.121 287.551 50.422 290.457 c 51.727 293.359 
54.129 295.629 57.102 296.758 c 60.078 297.891 63.383 297.797 66.285 296.492
 c 162.789 252.496 l 162.875 252.691 162.934 252.891 163.035 253.078 c 195.348
 312.48 l 196.922 315.375 199.957 317.18 203.254 317.18 c 244.5 317.18 l
 248.719 317.18 252.375 314.246 253.285 310.125 c 278.398 199.801 l 371.742
 157.246 l 377.676 154.457 380.262 147.414 377.543 141.449 c 374.824 135.48
 367.812 132.812 361.816 135.461 c h
237.277 299.164 m 208.598 299.164 l 179.148 245.035 l 257.801 209.18 l 
h
237.277 299.164 m f
0.984314 0.54902 0 rg
116.23 273.719 m 94.285 283.727 l 94.316 284.324 94.379 284.926 94.379 
285.523 c 94.398 301.25 83.336 314.812 67.926 317.953 c 52.52 321.094 37.031
 312.941 30.898 298.461 c 24.766 283.98 29.684 267.184 42.66 258.301 c 55.641
 249.418 73.078 250.91 84.355 261.867 c 106.234 251.898 l 89.047 229.098
 57.445 222.906 32.926 237.535 c 8.406 252.16 -1.16 282.91 10.738 308.867
 c 22.637 334.824 52.176 347.648 79.262 338.621 c 106.348 329.59 122.285
 301.609 116.23 273.703 c h
116.23 273.719 m f
0.937255 0.423529 0 rg
94.285 283.727 m 94.316 284.324 94.379 284.926 94.379 285.523 c 94.379 
289.793 93.547 294.023 91.93 297.977 c 117.461 286.336 l 117.461 286.062
 117.504 285.801 117.504 285.527 c 117.5 281.555 117.07 277.594 116.23 273.707
 c h
94.285 283.727 m f
Q Q
showpage
%%Trailer
end
%%EOF
