%!PS-Adobe-3.0 EPSF-3.0
%%Creator: cairo 1.16.0 (https://cairographics.org)
%%CreationDate: Fri Jul 19 07:40:35 2019
%%Pages: 1
%%DocumentData: Clean7Bit
%%LanguageLevel: 2
%%BoundingBox: 25 5 359 379
%%EndComments
%%BeginProlog
50 dict begin
/q { gsave } bind def
/Q { grestore } bind def
/cm { 6 array astore concat } bind def
/w { setlinewidth } bind def
/J { setlinecap } bind def
/j { setlinejoin } bind def
/M { setmiterlimit } bind def
/d { setdash } bind def
/m { moveto } bind def
/l { lineto } bind def
/c { curveto } bind def
/h { closepath } bind def
/re { exch dup neg 3 1 roll 5 3 roll moveto 0 rlineto
      0 exch rlineto 0 rlineto closepath } bind def
/S { stroke } bind def
/f { fill } bind def
/f* { eofill } bind def
/n { newpath } bind def
/W { clip } bind def
/W* { eoclip } bind def
/BT { } bind def
/ET { } bind def
/BDC { mark 3 1 roll /BDC pdfmark } bind def
/EMC { mark /EMC pdfmark } bind def
/cairo_store_point { /cairo_point_y exch def /cairo_point_x exch def } def
/Tj { show currentpoint cairo_store_point } bind def
/TJ {
  {
    dup
    type /stringtype eq
    { show } { -0.001 mul 0 cairo_font_matrix dtransform rmoveto } ifelse
  } forall
  currentpoint cairo_store_point
} bind def
/cairo_selectfont { cairo_font_matrix aload pop pop pop 0 0 6 array astore
    cairo_font exch selectfont cairo_point_x cairo_point_y moveto } bind def
/Tf { pop /cairo_font exch def /cairo_font_matrix where
      { pop cairo_selectfont } if } bind def
/Td { matrix translate cairo_font_matrix matrix concatmatrix dup
      /cairo_font_matrix exch def dup 4 get exch 5 get cairo_store_point
      /cairo_font where { pop cairo_selectfont } if } bind def
/Tm { 2 copy 8 2 roll 6 array astore /cairo_font_matrix exch def
      cairo_store_point /cairo_font where { pop cairo_selectfont } if } bind def
/g { setgray } bind def
/rg { setrgbcolor } bind def
/d1 { setcachedevice } bind def
/cairo_data_source {
  CairoDataIndex CairoData length lt
    { CairoData CairoDataIndex get /CairoDataIndex CairoDataIndex 1 add def }
    { () } ifelse
} def
/cairo_flush_ascii85_file { cairo_ascii85_file status { cairo_ascii85_file flushfile } if } def
/cairo_image { image cairo_flush_ascii85_file } def
/cairo_imagemask { imagemask cairo_flush_ascii85_file } def
%%EndProlog
%%BeginSetup
%%EndSetup
%%Page: 1 1
%%BeginPageSetup
%%PageBoundingBox: 25 5 359 379
%%EndPageSetup
q 25 5 334 374 rectclip
1 0 0 -1 0 384 cm q
0.984314 0.54902 0 rg
358.191 42.781 m 357.363 65.926 l 335.625 73.918 l 334.805 97.055 l 313.082
 105.02 l 312.266 128.152 l 290.539 136.121 l 289.727 159.25 l 268.004 167.219
 l 267.191 190.34 l 245.477 198.297 l 244.66 221.422 l 222.941 229.391 l
 222.129 252.516 l 200.402 260.488 l 199.594 283.609 l 177.871 291.574 l
 106.105 219.809 l 320.664 5.25 l h
358.191 42.781 m f
0.937255 0.423529 0 rg
346.379 30.965 m 345.551 54.109 l 323.812 62.102 l 322.992 85.238 l 301.27
 93.207 l 300.453 116.336 l 278.727 124.309 l 277.914 147.434 l 256.188 
155.406 l 255.379 178.527 l 233.664 186.484 l 232.852 209.609 l 211.129 
217.578 l 210.316 240.703 l 188.594 248.672 l 187.777 271.797 l 166.059 
279.762 l 177.871 291.574 l 199.594 283.609 l 200.402 260.488 l 222.129 
252.516 l 222.941 229.391 l 244.66 221.422 l 245.477 198.297 l 267.191 190.34
 l 268.004 167.219 l 289.727 159.25 l 290.539 136.121 l 312.266 128.152 
l 313.082 105.02 l 334.805 97.055 l 335.625 73.918 l 357.363 65.926 l 358.191
 42.781 l h
346.379 30.965 m f
1 0.792157 0.564706 rg
70.008 291 m 54.031 306.977 l 97.59 350.527 l 113.566 334.547 l 117.805
 330.309 120.188 324.562 120.188 318.57 c 120.188 312.578 117.805 306.828
 113.566 302.594 c 101.965 291 l 97.727 286.762 91.98 284.383 85.984 284.383
 c 79.992 284.383 74.246 286.762 70.008 291 c h
70.008 291 m f
0.866667 0.662745 0.462745 rg
113.566 302.594 m 101.965 291 l 103.91 292.945 l 108.148 297.184 110.531
 302.934 110.531 308.926 c 110.531 314.918 108.148 320.664 103.91 324.902
 c 87.934 340.883 l 54.031 306.98 l 97.59 350.527 l 113.566 334.547 l 117.805
 330.309 120.188 324.562 120.188 318.57 c 120.188 312.578 117.805 306.828
 113.566 302.594 c h
113.566 302.594 m f
0 0.67451 0.756863 rg
80.945 212.91 m 29.59 264.266 l 27.164 266.684 25.801 269.969 25.801 273.395
 c 25.801 276.82 27.164 280.105 29.59 282.523 c 54.031 306.965 l 70.008 
291 l 52.414 273.406 l 90.078 235.734 l 168.824 314.48 l 131.164 352.145
 l 113.566 334.547 l 97.59 350.527 l 122.031 374.969 l 124.449 377.391 127.734
 378.754 131.16 378.754 c 134.586 378.754 137.871 377.391 140.293 374.969
 c 191.648 323.609 l 194.074 321.191 195.438 317.906 195.438 314.48 c 195.438
 311.055 194.074 307.77 191.648 305.348 c 99.207 212.91 l 96.785 210.484
 93.504 209.121 90.078 209.121 c 86.652 209.121 83.367 210.484 80.945 212.91
 c h
80.945 212.91 m f
0 0.592157 0.654902 rg
90.074 235.734 m 87.777 233.438 84.664 232.148 81.418 232.148 c 78.168 
232.148 75.055 233.438 72.758 235.734 c 52.414 256.078 l 50.121 258.375 
48.828 261.492 48.828 264.738 c 48.828 267.984 50.121 271.102 52.414 273.395
 c 90.078 235.734 l h
90.074 235.734 m f
45.336 298.285 m 61.312 282.309 l 69.973 290.969 l 53.996 306.941 l h
45.336 298.285 m f
191.648 305.352 m 99.207 212.906 l 183 296.699 l 185.426 299.121 186.789
 302.406 186.789 305.832 c 186.789 309.258 185.426 312.543 183 314.961 c
 131.633 366.301 l 129.215 368.727 125.93 370.086 122.504 370.086 c 119.078
 370.086 115.793 368.727 113.371 366.301 c 97.59 350.516 l 122.031 374.957
 l 124.449 377.383 127.734 378.746 131.16 378.746 c 134.586 378.746 137.871
 377.383 140.293 374.957 c 191.648 323.609 l 194.074 321.191 195.434 317.906
 195.434 314.48 c 195.434 311.055 194.074 307.773 191.648 305.352 c h
191.648 305.352 m f
Q Q
showpage
%%Trailer
end
%%EOF
