<?xml version="1.0" encoding="iso-8859-1"?>
<!-- Generator: Adobe Illustrator 19.0.0, SVG Export Plug-In . SVG Version: 6.00 Build 0)  -->
<svg version="1.1" id="Capa_1" xmlns="http://www.w3.org/2000/svg" xmlns:xlink="http://www.w3.org/1999/xlink" x="0px" y="0px"
	 viewBox="0 0 412 412" style="enable-background:new 0 0 412 412;" xml:space="preserve">
<g>
	<path style="fill:#53B9AB;" d="M290.8,59.6H88c-24.8,0-45.2,20.4-45.2,45.2v202.4c0,24.8,20.4,45.2,45.2,45.2h202.4
		c24.8,0,45.2-20.4,45.2-45.2V104.8C336,80,315.6,59.6,290.8,59.6z"/>
	<circle style="fill:#EAEBC2;" cx="189.2" cy="206" r="112.8"/>
	<g>
		<path style="fill:#402810;" d="M189.2,122.4c4.4,0,8-3.6,8-8V92.8c0-4.4-3.6-8-8-8s-8,3.6-8,8v21.6
			C181.2,119.2,184.8,122.4,189.2,122.4z"/>
		<path style="fill:#402810;" d="M302.4,198h-21.6c-4.4,0-8,3.6-8,8s3.6,8,8,8h21.6c4.4,0,8-3.6,8-8S306.8,198,302.4,198z"/>
		<path style="fill:#402810;" d="M181.2,297.2v21.6c0,4.4,3.6,8,8,8s8-3.6,8-8v-21.6c0-4.4-3.6-8-8-8
			C184.8,289.6,181.2,292.8,181.2,297.2z"/>
		<path style="fill:#402810;" d="M106,206c0-4.4-3.6-8-8-8H76.4c-4.4,0-8,3.6-8,8s3.6,8,8,8H98C102.4,214,106,210.4,106,206z"/>
		<path style="fill:#402810;" d="M204.4,220.8c4-4,6-9.2,6-14.8c0-6-2.4-11.2-6-14.8l0,0l0,0c-2-2-4.4-3.6-6.8-4.8v-48
			c0-4.4-3.6-8-8-8s-8,3.6-8,8v48c-2.8,1.2-4.8,2.8-6.8,4.8s-3.6,4.4-4.8,6.8h-36c-4.4,0-8,3.6-8,8c0,4.4,3.6,8,8,8h35.6
			c0.8,2.4,2.4,4.4,4,6.4l0.4,0.4c4,4,9.2,6,14.8,6C195.2,227.2,200.4,224.8,204.4,220.8L204.4,220.8z M193.2,209.6
			c-0.8,0.8-2.4,1.6-3.6,1.6c-1.6,0-2.8-0.4-3.6-1.6l-0.4-0.4c-0.8-0.8-1.2-2-1.2-3.6l0,0l0,0c0-1.6,0.4-2.8,1.6-3.6
			c0.8-0.8,2.4-1.6,3.6-1.6l0,0l0,0c1.6,0,2.8,0.4,3.6,1.6l0,0c0.8,0.8,1.6,2.4,1.6,3.6C194.4,207.6,194,208.8,193.2,209.6z"/>
		<path style="fill:#402810;" d="M96.8,22.8v36.8h92.8H282V22.8C282,10.4,272,0,259.2,0h-140C106.8,0,96.8,10.4,96.8,22.8z"/>
		<path style="fill:#402810;" d="M96.8,352.4v36.8c0,12.4,10,22.8,22.8,22.8h140c12.4,0,22.8-10,22.8-22.8v-36.8h-93.2H96.8z"/>
		<path style="fill:#402810;" d="M358,178.8h-22V206v27.2h22c6.4,0,11.2-5.2,11.2-11.2v-31.6C369.2,184,364,178.8,358,178.8z"/>
	</g>
</g>
<g>
</g>
<g>
</g>
<g>
</g>
<g>
</g>
<g>
</g>
<g>
</g>
<g>
</g>
<g>
</g>
<g>
</g>
<g>
</g>
<g>
</g>
<g>
</g>
<g>
</g>
<g>
</g>
<g>
</g>
</svg>
