%!PS-Adobe-3.0 EPSF-3.0
%%Creator: cairo 1.16.0 (https://cairographics.org)
%%CreationDate: Thu Nov  7 08:25:45 2019
%%Pages: 1
%%DocumentData: Clean7Bit
%%LanguageLevel: 2
%%BoundingBox: 0 34 384 350
%%EndComments
%%BeginProlog
50 dict begin
/q { gsave } bind def
/Q { grestore } bind def
/cm { 6 array astore concat } bind def
/w { setlinewidth } bind def
/J { setlinecap } bind def
/j { setlinejoin } bind def
/M { setmiterlimit } bind def
/d { setdash } bind def
/m { moveto } bind def
/l { lineto } bind def
/c { curveto } bind def
/h { closepath } bind def
/re { exch dup neg 3 1 roll 5 3 roll moveto 0 rlineto
      0 exch rlineto 0 rlineto closepath } bind def
/S { stroke } bind def
/f { fill } bind def
/f* { eofill } bind def
/n { newpath } bind def
/W { clip } bind def
/W* { eoclip } bind def
/BT { } bind def
/ET { } bind def
/BDC { mark 3 1 roll /BDC pdfmark } bind def
/EMC { mark /EMC pdfmark } bind def
/cairo_store_point { /cairo_point_y exch def /cairo_point_x exch def } def
/Tj { show currentpoint cairo_store_point } bind def
/TJ {
  {
    dup
    type /stringtype eq
    { show } { -0.001 mul 0 cairo_font_matrix dtransform rmoveto } ifelse
  } forall
  currentpoint cairo_store_point
} bind def
/cairo_selectfont { cairo_font_matrix aload pop pop pop 0 0 6 array astore
    cairo_font exch selectfont cairo_point_x cairo_point_y moveto } bind def
/Tf { pop /cairo_font exch def /cairo_font_matrix where
      { pop cairo_selectfont } if } bind def
/Td { matrix translate cairo_font_matrix matrix concatmatrix dup
      /cairo_font_matrix exch def dup 4 get exch 5 get cairo_store_point
      /cairo_font where { pop cairo_selectfont } if } bind def
/Tm { 2 copy 8 2 roll 6 array astore /cairo_font_matrix exch def
      cairo_store_point /cairo_font where { pop cairo_selectfont } if } bind def
/g { setgray } bind def
/rg { setrgbcolor } bind def
/d1 { setcachedevice } bind def
/cairo_data_source {
  CairoDataIndex CairoData length lt
    { CairoData CairoDataIndex get /CairoDataIndex CairoDataIndex 1 add def }
    { () } ifelse
} def
/cairo_flush_ascii85_file { cairo_ascii85_file status { cairo_ascii85_file flushfile } if } def
/cairo_image { image cairo_flush_ascii85_file } def
/cairo_imagemask { imagemask cairo_flush_ascii85_file } def
%%EndProlog
%%BeginSetup
%%EndSetup
%%Page: 1 1
%%BeginPageSetup
%%PageBoundingBox: 0 34 384 350
%%EndPageSetup
q 0 34 384 316 rectclip
1 0 0 -1 0 384 cm q
0.952941 0.917647 0.901961 rg
377.176 284.918 m 6.824 284.918 l 3.055 284.918 0 281.859 0 278.09 c 0 
41.07 l 0 37.301 3.055 34.242 6.824 34.242 c 377.172 34.242 l 380.941 34.242
 384 37.301 384 41.07 c 384 278.09 l 384 281.863 380.945 284.918 377.176
 284.918 c h
377.176 284.918 m f
0.882353 0.827451 0.807843 rg
384 41.07 m 384 278.09 l 384 281.859 380.945 284.914 377.172 284.914 c 
359.43 284.914 l 363.203 284.914 366.258 281.859 366.258 278.09 c 366.258
 41.07 l 366.258 37.297 363.203 34.242 359.43 34.242 c 377.172 34.242 l 
380.945 34.242 384 37.297 384 41.07 c h
384 41.07 m f
0.541176 0.788235 0.996078 rg
349.168 90.449 m 341.941 90.449 336.086 84.59 336.086 77.363 c 336.086 
67.062 l 336.086 65.812 335.07 64.801 333.82 64.801 c 50.18 64.801 l 48.93
 64.801 47.914 65.812 47.914 67.062 c 47.914 77.363 l 47.914 84.59 42.059
 90.449 34.832 90.449 c 33.582 90.449 32.566 91.461 32.566 92.711 c 32.566
 226.449 l 32.566 227.699 33.582 228.711 34.832 228.711 c 42.059 228.711
 47.914 234.57 47.914 241.797 c 47.914 252.098 l 47.914 253.348 48.93 254.359
 50.18 254.359 c 333.82 254.359 l 335.07 254.359 336.086 253.348 336.086
 252.098 c 336.086 241.797 l 336.086 234.57 341.941 228.711 349.168 228.711
 c 350.418 228.711 351.434 227.699 351.434 226.449 c 351.434 92.711 l 351.434
 91.461 350.418 90.449 349.168 90.449 c h
349.168 90.449 m f
0.376471 0.717647 1 rg
351.43 92.707 m 351.43 226.449 l 351.43 227.699 350.422 228.711 349.172
 228.711 c 341.941 228.711 336.086 234.57 336.086 241.801 c 336.086 252.098
 l 336.086 253.348 335.07 254.359 333.82 254.359 c 315.566 254.359 l 316.809
 254.359 317.82 253.355 317.828 252.105 c 317.875 241.082 316.332 229.551
 327.703 222.863 c 328.945 222.129 329.969 222.051 330.836 221.852 c 331.805
 221.621 333.023 221.32 333.18 219.523 c 333.18 99.637 l 333.023 97.836 
331.805 97.547 330.836 97.312 c 329.969 97.105 328.945 97.027 327.703 96.293
 c 316.332 89.605 317.875 78.074 317.828 67.051 c 317.82 65.809 316.809 
64.797 315.566 64.797 c 333.82 64.797 l 335.07 64.797 336.086 65.816 336.086
 67.066 c 336.086 77.363 l 336.086 84.594 341.941 90.449 349.172 90.449 
c 350.418 90.449 351.43 91.457 351.43 92.707 c h
351.43 92.707 m f
0.14902 0.65098 0.996078 rg
295.324 130.902 m 88.676 130.902 l 85.668 130.902 83.23 128.465 83.23 125.457
 c 83.23 104.719 l 83.23 101.711 85.668 99.273 88.676 99.273 c 295.324 99.273
 l 298.332 99.273 300.77 101.711 300.77 104.719 c 300.77 125.457 l 300.77
 128.465 298.332 130.902 295.324 130.902 c h
295.324 130.902 m f
300.77 159.672 m 83.23 159.672 l 80.121 159.672 77.605 157.152 77.605 154.047
 c 77.605 150.938 80.121 148.422 83.23 148.422 c 300.77 148.422 l 303.879
 148.422 306.395 150.938 306.395 154.047 c 306.395 157.152 303.879 159.672
 300.77 159.672 c h
300.77 159.672 m f
300.77 183.586 m 83.23 183.586 l 80.121 183.586 77.605 181.066 77.605 177.961
 c 77.605 174.852 80.121 172.336 83.23 172.336 c 300.77 172.336 l 303.879
 172.336 306.395 174.852 306.395 177.961 c 306.395 181.066 303.879 183.586
 300.77 183.586 c h
300.77 183.586 m f
261.43 207.5 m 122.57 207.5 l 119.465 207.5 116.945 204.98 116.945 201.875
 c 116.945 198.766 119.465 196.25 122.57 196.25 c 261.43 196.25 l 264.535
 196.25 267.055 198.766 267.055 201.875 c 267.055 204.98 264.535 207.5 261.43
 207.5 c h
261.43 207.5 m f
0.984314 0.168627 0.227451 rg
192 301.926 m 165.395 301.926 l 165.395 345.898 l 165.395 348.602 168.102
 350.465 170.629 349.5 c 190.621 341.855 l 191.512 341.516 192.492 341.516
 193.379 341.855 c 213.371 349.5 l 215.898 350.465 218.605 348.602 218.605
 345.898 c 218.605 301.926 l h
192 301.926 m f
0.894118 0.121569 0.176471 rg
218.605 301.926 m 218.605 345.898 l 218.605 348.598 215.898 350.465 213.367
 349.5 c 205.082 346.328 l 205.344 345.82 205.492 345.242 205.492 344.609
 c 205.492 301.926 l h
218.605 301.926 m f
0.996078 0.756863 0.396078 rg
238.004 270.289 m 238.004 295.695 217.41 316.293 192 316.293 c 166.59 316.293
 145.996 295.695 145.996 270.289 c 145.996 244.879 166.59 224.281 192 224.281
 c 217.41 224.281 238.004 244.879 238.004 270.289 c h
238.004 270.289 m f
0.996078 0.6 0.00392157 rg
196.102 245.902 m 201.004 255.836 l 201.324 256.488 201.945 256.941 202.664
 257.047 c 213.629 258.637 l 217.379 259.184 218.875 263.793 216.16 266.438
 c 208.23 274.168 l 207.707 274.676 207.473 275.406 207.594 276.125 c 209.465
 287.043 l 210.105 290.777 206.188 293.625 202.832 291.863 c 193.027 286.707
 l 192.383 286.367 191.617 286.367 190.973 286.707 c 181.168 291.863 l 177.812
 293.625 173.895 290.777 174.535 287.043 c 176.406 276.125 l 176.527 275.406
 176.293 274.676 175.77 274.168 c 167.84 266.438 l 165.125 263.793 166.621
 259.184 170.371 258.637 c 181.336 257.047 l 182.055 256.941 182.676 256.488
 182.996 255.836 c 187.902 245.902 l 189.578 242.504 194.422 242.504 196.102
 245.902 c h
196.102 245.902 m f
0.984314 0.533333 0.00392157 rg
208.23 274.172 m 207.707 274.68 207.477 275.406 207.598 276.121 c 209.465
 287.043 l 210.105 290.777 206.188 293.625 202.832 291.859 c 193.027 286.703
 l 192.387 286.363 191.613 286.363 190.973 286.703 c 181.168 291.859 l 177.812
 293.625 173.895 290.777 174.535 287.043 c 174.961 284.555 l 175.184 284.484
 175.406 284.383 175.629 284.27 c 177.074 283.508 178.516 282.75 179.957
 281.992 c 182.129 280.848 184.305 279.68 186.609 278.82 c 188.492 278.117
 190.508 277.84 192.508 277.766 c 194.672 277.684 197.863 279.18 199.199
 276.695 c 199.613 275.93 199.484 274.859 199.629 274.031 c 200.309 270.168
 202.52 266.73 205.359 264.016 c 207.141 262.32 208.859 260.559 210.621 
258.844 c 210.809 258.656 210.977 258.473 211.117 258.273 c 213.629 258.641
 l 217.379 259.184 218.875 263.797 216.16 266.441 c h
208.23 274.172 m f
Q Q
showpage
%%Trailer
end
%%EOF
