%!PS-Adobe-3.0 EPSF-3.0
%%Creator: cairo 1.16.0 (https://cairographics.org)
%%CreationDate: Thu Nov  7 08:25:45 2019
%%Pages: 1
%%DocumentData: Clean7Bit
%%LanguageLevel: 2
%%BoundingBox: 0 72 384 312
%%EndComments
%%BeginProlog
50 dict begin
/q { gsave } bind def
/Q { grestore } bind def
/cm { 6 array astore concat } bind def
/w { setlinewidth } bind def
/J { setlinecap } bind def
/j { setlinejoin } bind def
/M { setmiterlimit } bind def
/d { setdash } bind def
/m { moveto } bind def
/l { lineto } bind def
/c { curveto } bind def
/h { closepath } bind def
/re { exch dup neg 3 1 roll 5 3 roll moveto 0 rlineto
      0 exch rlineto 0 rlineto closepath } bind def
/S { stroke } bind def
/f { fill } bind def
/f* { eofill } bind def
/n { newpath } bind def
/W { clip } bind def
/W* { eoclip } bind def
/BT { } bind def
/ET { } bind def
/BDC { mark 3 1 roll /BDC pdfmark } bind def
/EMC { mark /EMC pdfmark } bind def
/cairo_store_point { /cairo_point_y exch def /cairo_point_x exch def } def
/Tj { show currentpoint cairo_store_point } bind def
/TJ {
  {
    dup
    type /stringtype eq
    { show } { -0.001 mul 0 cairo_font_matrix dtransform rmoveto } ifelse
  } forall
  currentpoint cairo_store_point
} bind def
/cairo_selectfont { cairo_font_matrix aload pop pop pop 0 0 6 array astore
    cairo_font exch selectfont cairo_point_x cairo_point_y moveto } bind def
/Tf { pop /cairo_font exch def /cairo_font_matrix where
      { pop cairo_selectfont } if } bind def
/Td { matrix translate cairo_font_matrix matrix concatmatrix dup
      /cairo_font_matrix exch def dup 4 get exch 5 get cairo_store_point
      /cairo_font where { pop cairo_selectfont } if } bind def
/Tm { 2 copy 8 2 roll 6 array astore /cairo_font_matrix exch def
      cairo_store_point /cairo_font where { pop cairo_selectfont } if } bind def
/g { setgray } bind def
/rg { setrgbcolor } bind def
/d1 { setcachedevice } bind def
/cairo_data_source {
  CairoDataIndex CairoData length lt
    { CairoData CairoDataIndex get /CairoDataIndex CairoDataIndex 1 add def }
    { () } ifelse
} def
/cairo_flush_ascii85_file { cairo_ascii85_file status { cairo_ascii85_file flushfile } if } def
/cairo_image { image cairo_flush_ascii85_file } def
/cairo_imagemask { imagemask cairo_flush_ascii85_file } def
%%EndProlog
%%BeginSetup
%%EndSetup
%%Page: 1 1
%%BeginPageSetup
%%PageBoundingBox: 0 72 384 312
%%EndPageSetup
q 0 72 384 240 rectclip
1 0 0 -1 0 384 cm q
0.568627 0.870588 0.713726 rg
347.266 311.551 m 5.086 311.551 l 2.277 311.551 0 309.273 0 306.465 c 0
 120.973 l 0 118.164 2.277 115.887 5.086 115.887 c 347.266 115.887 l 350.074
 115.887 352.352 118.164 352.352 120.973 c 352.352 306.465 l 352.352 309.273
 350.074 311.551 347.266 311.551 c h
347.266 311.551 m f
0.431373 0.835294 0.631373 rg
352.352 120.977 m 352.352 306.469 l 352.352 309.273 350.07 311.551 347.266
 311.551 c 333.91 311.551 l 336.723 311.551 338.992 309.273 338.992 306.469
 c 338.992 120.977 l 338.992 118.164 336.723 115.883 333.91 115.883 c 347.266
 115.883 l 350.07 115.883 352.352 118.164 352.352 120.977 c h
352.352 120.977 m f
0 0.760784 0.478431 rg
321.703 162.711 m 316.562 162.711 312.391 158.539 312.391 153.398 c 312.391
 146.066 l 312.391 145.176 311.672 144.457 310.781 144.457 c 41.57 144.457
 l 40.684 144.457 39.961 145.18 39.961 146.066 c 39.961 153.398 l 39.961
 158.539 35.793 162.711 30.648 162.711 c 29.762 162.711 29.039 163.43 29.039
 164.32 c 29.039 263.117 l 29.039 264.008 29.762 264.727 30.648 264.727 
c 35.793 264.727 39.961 268.898 39.961 274.039 c 39.961 281.371 l 39.961
 282.258 40.684 282.98 41.57 282.98 c 310.781 282.98 l 311.672 282.98 312.391
 282.258 312.391 281.371 c 312.391 274.039 l 312.391 268.898 316.562 264.727
 321.703 264.727 c 322.594 264.727 323.312 264.008 323.312 263.117 c 323.312
 164.32 l 323.312 163.43 322.594 162.711 321.703 162.711 c h
321.703 162.711 m f
0.0313726 0.721569 0.396078 rg
323.316 164.32 m 323.316 263.117 l 323.316 264.008 322.59 264.727 321.703
 264.727 c 316.559 264.727 312.391 268.895 312.391 274.039 c 312.391 281.367
 l 312.391 282.262 311.668 282.977 310.781 282.977 c 294.672 282.977 l 295.559
 282.977 296.281 282.262 296.281 281.367 c 296.281 274.039 l 296.281 268.895
 300.449 264.727 305.59 264.727 c 306.48 264.727 307.199 264.012 307.199
 263.117 c 307.199 164.32 l 307.199 163.434 306.48 162.711 305.59 162.711
 c 300.449 162.711 296.281 158.543 296.281 153.395 c 296.281 146.07 l 296.281
 145.176 295.559 144.457 294.672 144.457 c 310.781 144.457 l 311.668 144.457
 312.391 145.176 312.391 146.07 c 312.391 153.395 l 312.391 158.543 316.559
 162.711 321.703 162.711 c 322.59 162.711 323.316 163.434 323.316 164.32
 c h
323.316 164.32 m f
0.568627 0.870588 0.713726 rg
224.445 213.719 m 224.445 240.375 202.836 261.988 176.176 261.988 c 149.516
 261.988 127.906 240.375 127.906 213.719 c 127.906 187.059 149.516 165.449
 176.176 165.449 c 202.836 165.449 224.445 187.059 224.445 213.719 c h
224.445 213.719 m f
0 0.760784 0.478431 rg
182.184 209.922 m 181.285 209.605 180.363 209.27 179.445 208.922 c 179.445
 194.273 l 181.758 194.824 183.137 195.992 183.258 196.098 c 184.512 197.234
 186.445 197.148 187.594 195.906 c 188.75 194.652 188.672 192.703 187.418
 191.547 c 187.242 191.383 184.285 188.719 179.445 187.996 c 179.445 185
 l 179.445 183.297 178.062 181.914 176.359 181.914 c 174.656 181.914 173.277
 183.297 173.277 185 c 173.277 188.23 l 172.812 188.332 172.344 188.449 
171.867 188.594 c 167.445 189.926 164.141 193.711 163.242 198.473 c 162.426
 202.812 163.816 206.996 166.871 209.391 c 168.492 210.664 170.512 211.828
 173.277 213.059 c 173.277 231.629 l 170.879 231.453 169.219 230.867 166.5
 229.09 c 165.074 228.16 163.164 228.559 162.234 229.984 c 161.301 231.41
 161.699 233.32 163.125 234.254 c 167.082 236.84 169.785 237.609 173.277
 237.805 c 173.277 241.16 l 173.277 242.863 174.656 244.246 176.359 244.246
 c 178.062 244.246 179.445 242.863 179.445 241.16 c 179.445 237.562 l 186.383
 236.203 190.438 230.48 191.34 225.137 c 192.492 218.27 188.898 212.297 
182.184 209.922 c h
170.676 204.539 m 169.441 203.57 168.914 201.684 169.305 199.613 c 169.656
 197.758 170.883 195.527 173.277 194.629 c 173.277 206.199 l 172.297 205.668
 171.414 205.117 170.676 204.539 c h
185.258 224.113 m 184.777 226.953 182.801 229.965 179.445 231.16 c 179.445
 215.492 l 179.672 215.574 179.895 215.652 180.129 215.738 c 185.852 217.762
 185.5 222.66 185.258 224.113 c h
185.258 224.113 m f
0.996078 0.65098 0.0745098 rg
372.836 311.551 m 288.996 311.551 l 282.832 311.551 277.832 306.555 277.832
 300.391 c 277.832 285.816 l 277.832 279.652 282.828 274.656 288.996 274.656
 c 372.836 274.656 l 379 274.656 384 279.652 384 285.816 c 384 300.391 l
 384 306.555 379 311.551 372.836 311.551 c h
372.836 311.551 m f
0.996078 0.756863 0.396078 rg
372.836 274.727 m 288.996 274.727 l 282.832 274.727 277.832 269.727 277.832
 263.562 c 277.832 248.992 l 277.832 242.824 282.828 237.828 288.996 237.828
 c 372.836 237.828 l 379 237.828 384 242.824 384 248.992 c 384 263.562 l
 384 269.727 379 274.727 372.836 274.727 c h
372.836 274.727 m f
0.996078 0.6 0.00392157 rg
384 285.816 m 384 300.391 l 384 306.555 379 311.555 372.836 311.555 c 357.836
 311.555 l 364 311.555 369 306.555 369 300.391 c 369 285.816 l 369 280.051
 364.633 275.324 359.031 274.723 c 357.836 274.723 l 358.105 274.723 358.375
 274.715 358.637 274.691 c 358.375 274.668 358.105 274.66 357.836 274.66
 c 372.836 274.66 l 373.105 274.66 373.375 274.668 373.637 274.691 c 379.422
 275.098 384 279.922 384 285.816 c h
384 285.816 m f
0.992157 0.705882 0.254902 rg
384 248.988 m 384 263.566 l 384 269.461 379.422 274.281 373.637 274.691
 c 373.375 274.715 373.105 274.723 372.836 274.723 c 357.836 274.723 l 358.105
 274.723 358.375 274.715 358.637 274.691 c 358.375 274.668 358.105 274.66
 357.836 274.66 c 359.031 274.66 l 364.633 274.059 369 269.328 369 263.566
 c 369 248.988 l 369 242.824 364 237.828 357.836 237.828 c 372.836 237.828
 l 379 237.828 384 242.828 384 248.988 c h
384 248.988 m f
0.996078 0.65098 0.0745098 rg
372.836 238.68 m 288.996 238.68 l 282.832 238.68 277.832 233.684 277.832
 227.52 c 277.832 212.945 l 277.832 206.781 282.828 201.785 288.996 201.785
 c 372.836 201.785 l 379 201.785 384 206.781 384 212.945 c 384 227.52 l 
384 233.684 379 238.68 372.836 238.68 c h
372.836 238.68 m f
0.996078 0.6 0.00392157 rg
384 212.945 m 384 227.52 l 384 233.684 379 238.684 372.836 238.684 c 357.836
 238.684 l 364 238.684 369 233.684 369 227.52 c 369 212.945 l 369 207.18
 364.633 202.453 359.031 201.852 c 357.836 201.852 l 358.105 201.852 358.375
 201.844 358.637 201.82 c 358.375 201.797 358.105 201.789 357.836 201.789
 c 372.836 201.789 l 373.105 201.789 373.375 201.797 373.637 201.82 c 379.422
 202.227 384 207.051 384 212.945 c h
384 212.945 m f
0.952941 0.917647 0.901961 rg
383.742 123.504 m 383.742 151.703 360.883 174.562 332.684 174.562 c 304.484
 174.562 281.625 151.703 281.625 123.504 c 281.625 95.305 304.484 72.445
 332.684 72.445 c 360.883 72.445 383.742 95.305 383.742 123.504 c h
383.742 123.504 m f
0.992157 0.278431 0.333333 rg
360.691 112.867 m 339.285 91.465 l 335.543 87.73 329.484 87.73 325.746 
91.469 c 304.812 112.402 l 301.082 116.133 300.871 122.434 304.344 126.406
 c 304.348 126.406 l 307.82 130.379 313.715 130.574 317.449 126.844 c 319.684
 124.605 l 321.117 123.176 323.562 124.188 323.562 126.211 c 323.562 148.773
 l 323.562 154.059 327.852 158.348 333.137 158.348 c 338.426 158.348 342.711
 154.059 342.711 148.773 c 342.711 127.449 l 342.711 125.422 345.156 124.41
 346.59 125.84 c 347.156 126.406 l 350.895 130.145 356.953 130.145 360.691
 126.406 c 364.43 122.668 364.43 116.605 360.691 112.867 c h
360.691 112.867 m f
0.984314 0.168627 0.227451 rg
363.492 119.641 m 363.492 122.086 362.559 124.539 360.695 126.406 c 356.953
 130.145 350.891 130.145 347.152 126.406 c 346.586 125.84 l 345.156 124.41
 342.707 125.422 342.707 127.449 c 342.707 148.77 l 342.707 151.414 341.637
 153.809 339.902 155.543 c 338.172 157.273 335.777 158.344 333.133 158.344
 c 331.309 158.344 329.605 157.836 328.148 156.949 c 330.758 155.328 332.496
 152.434 332.496 149.129 c 332.496 135.75 l 332.496 129.688 331.805 123.273
 337.391 119.379 c 338.52 118.602 339.941 118.434 341.238 117.996 c 342.961
 117.414 344.039 116.062 344.484 114.492 c 344.914 112.977 344.75 111.254
 344.027 109.812 c 342.461 106.719 339.629 104.41 337.219 101.992 c 334.543
 99.324 331.875 96.648 329.199 93.973 c 328.129 92.902 326.855 92.145 325.5
 91.715 c 325.746 91.465 l 329.484 87.727 335.543 87.727 339.281 91.465 
c 360.688 112.863 l 362.559 114.738 363.492 117.184 363.492 119.641 c h
363.492 119.641 m f
Q Q
showpage
%%Trailer
end
%%EOF
