%!PS-Adobe-3.0 EPSF-3.0
%%Creator: cairo 1.16.0 (https://cairographics.org)
%%CreationDate: Thu Nov  7 08:25:45 2019
%%Pages: 1
%%DocumentData: Clean7Bit
%%LanguageLevel: 2
%%BoundingBox: 43 0 341 384
%%EndComments
%%BeginProlog
50 dict begin
/q { gsave } bind def
/Q { grestore } bind def
/cm { 6 array astore concat } bind def
/w { setlinewidth } bind def
/J { setlinecap } bind def
/j { setlinejoin } bind def
/M { setmiterlimit } bind def
/d { setdash } bind def
/m { moveto } bind def
/l { lineto } bind def
/c { curveto } bind def
/h { closepath } bind def
/re { exch dup neg 3 1 roll 5 3 roll moveto 0 rlineto
      0 exch rlineto 0 rlineto closepath } bind def
/S { stroke } bind def
/f { fill } bind def
/f* { eofill } bind def
/n { newpath } bind def
/W { clip } bind def
/W* { eoclip } bind def
/BT { } bind def
/ET { } bind def
/BDC { mark 3 1 roll /BDC pdfmark } bind def
/EMC { mark /EMC pdfmark } bind def
/cairo_store_point { /cairo_point_y exch def /cairo_point_x exch def } def
/Tj { show currentpoint cairo_store_point } bind def
/TJ {
  {
    dup
    type /stringtype eq
    { show } { -0.001 mul 0 cairo_font_matrix dtransform rmoveto } ifelse
  } forall
  currentpoint cairo_store_point
} bind def
/cairo_selectfont { cairo_font_matrix aload pop pop pop 0 0 6 array astore
    cairo_font exch selectfont cairo_point_x cairo_point_y moveto } bind def
/Tf { pop /cairo_font exch def /cairo_font_matrix where
      { pop cairo_selectfont } if } bind def
/Td { matrix translate cairo_font_matrix matrix concatmatrix dup
      /cairo_font_matrix exch def dup 4 get exch 5 get cairo_store_point
      /cairo_font where { pop cairo_selectfont } if } bind def
/Tm { 2 copy 8 2 roll 6 array astore /cairo_font_matrix exch def
      cairo_store_point /cairo_font where { pop cairo_selectfont } if } bind def
/g { setgray } bind def
/rg { setrgbcolor } bind def
/d1 { setcachedevice } bind def
/cairo_data_source {
  CairoDataIndex CairoData length lt
    { CairoData CairoDataIndex get /CairoDataIndex CairoDataIndex 1 add def }
    { () } ifelse
} def
/cairo_flush_ascii85_file { cairo_ascii85_file status { cairo_ascii85_file flushfile } if } def
/cairo_image { image cairo_flush_ascii85_file } def
/cairo_imagemask { imagemask cairo_flush_ascii85_file } def
%%EndProlog
%%BeginSetup
%%EndSetup
%%Page: 1 1
%%BeginPageSetup
%%PageBoundingBox: 43 0 341 384
%%EndPageSetup
q 43 0 298 384 rectclip
1 0 0 -1 0 384 cm q
0.843137 0.498039 0.290196 rg
322.777 384 m 61.219 384 l 51.656 384 43.906 376.246 43.906 366.684 c 43.906
 58.652 l 43.906 49.09 51.656 41.336 61.219 41.336 c 322.777 41.336 l 332.34
 41.336 340.094 49.09 340.094 58.652 c 340.094 366.684 l 340.094 376.246
 332.34 384 322.777 384 c h
322.777 384 m f
0.784314 0.427451 0.211765 rg
340.094 58.652 m 340.094 366.688 l 340.094 376.25 332.344 384 322.777 384
 c 305.355 384 l 314.926 384 322.676 376.25 322.676 366.688 c 322.676 58.652
 l 322.676 49.094 314.926 41.336 305.355 41.336 c 322.777 41.336 l 332.344
 41.336 340.094 49.09 340.094 58.652 c h
340.094 58.652 m f
0.952941 0.917647 0.901961 rg
309.258 304.328 m 309.258 41.336 l 74.738 41.336 l 74.738 340.344 l 74.738
 347.219 80.312 352.789 87.184 352.789 c 257.875 352.789 l h
309.258 304.328 m f
0.803922 0.74902 0.729412 rg
309.258 304.328 m 270.316 304.328 l 263.445 304.328 257.875 309.898 257.875
 316.77 c 257.875 352.789 l h
309.258 304.328 m f
0.964706 0.662745 0.423529 rg
109.238 176.289 m 109.238 193.312 123.039 207.117 140.066 207.117 c 163.82
 207.117 l 180.848 207.117 194.648 193.312 194.648 176.289 c 194.648 133.012
 l 109.238 133.012 l h
109.238 176.289 m f
0.917647 0.607843 0.345098 rg
194.648 133.012 m 194.648 176.289 l 194.648 193.316 180.852 207.121 163.816
 207.121 c 150.371 207.121 l 167.395 207.121 181.203 193.316 181.203 176.289
 c 181.203 133.012 l h
194.648 133.012 m f
0.352941 g
113.773 96.664 m 118.051 98.906 l 121.461 100.695 125.531 100.695 128.938
 98.906 c 132.273 97.16 l 135.684 95.371 139.754 95.371 143.16 97.16 c 146.496
 98.906 l 149.906 100.695 153.973 100.695 157.383 98.906 c 160.719 97.156
 l 164.129 95.371 168.195 95.371 171.605 97.156 c 174.945 98.906 l 178.352
 100.695 182.422 100.695 185.832 98.906 c 190.113 96.664 l 192.16 95.59 
194.613 97.074 194.613 99.383 c 194.613 160.012 l 194.613 160.93 193.496
 161.375 192.863 160.711 c 189.719 157.426 183.305 149.727 181.93 140.309
 c 181.711 138.797 180.289 137.828 178.793 138.156 c 176.844 138.586 174.59
 139.082 174.348 139.121 c 168.141 140.18 161.645 140.812 155.125 140.883
 c 151.941 140.852 l 148.758 140.883 l 142.238 140.812 135.746 140.18 129.539
 139.121 c 129.297 139.082 127.039 138.586 125.09 138.156 c 123.602 137.828
 122.172 138.844 121.949 140.352 c 120.562 149.75 114.16 157.438 111.02 
160.715 c 110.387 161.375 109.273 160.926 109.273 160.012 c 109.273 99.387
 l 109.273 97.074 111.727 95.59 113.773 96.664 c h
113.773 96.664 m f
0.266667 g
194.613 99.383 m 194.613 160.012 l 194.613 160.934 193.5 161.379 192.863
 160.715 c 189.719 157.43 183.305 149.727 181.93 140.312 c 181.848 139.727
 181.578 139.223 181.203 138.848 c 181.203 100.223 l 182.797 100.113 184.371
 99.676 185.828 98.906 c 190.113 96.668 l 192.156 95.594 194.613 97.078 
194.613 99.383 c h
194.613 99.383 m f
0.352941 g
135.457 180.441 m 132.352 180.441 129.832 177.922 129.832 174.816 c 129.832
 168.668 l 129.832 165.562 132.352 163.043 135.457 163.043 c 138.562 163.043
 141.082 165.562 141.082 168.668 c 141.082 174.816 l 141.082 177.922 138.562
 180.441 135.457 180.441 c h
135.457 180.441 m f
168.426 180.441 m 165.32 180.441 162.801 177.922 162.801 174.816 c 162.801
 168.668 l 162.801 165.562 165.32 163.043 168.426 163.043 c 171.535 163.043
 174.051 165.562 174.051 168.668 c 174.051 174.816 l 174.051 177.922 171.535
 180.441 168.426 180.441 c h
168.426 180.441 m f
0.611765 g
225.809 26.855 m 223.789 26.855 221.988 25.488 221.539 23.516 c 218.453
 10.047 206.402 0 192 0 c 177.598 0 165.547 10.047 162.461 23.516 c 162.008
 25.488 160.211 26.855 158.188 26.855 c 134.043 26.855 l 131.613 26.855 
129.641 28.828 129.641 31.258 c 129.641 55.957 l 129.641 58.387 131.613 
60.359 134.043 60.359 c 249.957 60.359 l 252.387 60.359 254.355 58.387 254.355
 55.957 c 254.355 31.258 l 254.355 28.824 252.387 26.855 249.957 26.855 
c h
225.809 26.855 m f
0.513726 g
254.359 31.254 m 254.359 55.957 l 254.359 58.391 252.387 60.355 249.953
 60.355 c 134.043 60.355 l 131.613 60.355 129.637 58.391 129.637 55.957 
c 129.637 47.582 l 236.32 47.582 l 238.75 47.582 240.727 45.617 240.727 
43.184 c 240.727 26.859 l 249.953 26.859 l 252.387 26.855 254.359 28.824
 254.359 31.254 c h
254.359 31.254 m f
0.541176 0.788235 0.996078 rg
226.188 117.652 m 273.734 117.652 l 275.695 117.652 277.285 119.242 277.285
 121.195 c 277.285 143.527 l 277.285 145.484 275.695 147.07 273.734 147.07
 c 226.188 147.07 l 224.227 147.07 222.637 145.484 222.637 143.527 c 222.637
 121.195 l 222.637 119.242 224.227 117.652 226.188 117.652 c h
226.188 117.652 m f
0.803922 0.74902 0.729412 rg
277.285 175.398 m 222.637 175.398 l 219.531 175.398 217.012 172.879 217.012
 169.773 c 217.012 166.668 219.531 164.148 222.637 164.148 c 277.285 164.148
 l 280.395 164.148 282.91 166.668 282.91 169.773 c 282.91 172.879 280.395
 175.398 277.285 175.398 c h
277.285 175.398 m f
277.285 197.688 m 222.637 197.688 l 219.531 197.688 217.012 195.172 217.012
 192.062 c 217.012 188.957 219.531 186.438 222.637 186.438 c 277.285 186.438
 l 280.395 186.438 282.91 188.957 282.91 192.062 c 282.91 195.172 280.395
 197.688 277.285 197.688 c h
277.285 197.688 m f
277.285 239.016 m 106.711 239.016 l 103.605 239.016 101.086 236.496 101.086
 233.391 c 101.086 230.285 103.605 227.766 106.711 227.766 c 277.285 227.766
 l 280.395 227.766 282.91 230.285 282.91 233.391 c 282.91 236.496 280.395
 239.016 277.285 239.016 c h
277.285 239.016 m f
277.285 261.398 m 106.711 261.398 l 103.605 261.398 101.086 258.879 101.086
 255.773 c 101.086 252.664 103.605 250.148 106.711 250.148 c 277.285 250.148
 l 280.395 250.148 282.91 252.664 282.91 255.773 c 282.91 258.879 280.395
 261.398 277.285 261.398 c h
277.285 261.398 m f
277.285 283.781 m 106.711 283.781 l 103.605 283.781 101.086 281.262 101.086
 278.156 c 101.086 275.051 103.605 272.531 106.711 272.531 c 277.285 272.531
 l 280.395 272.531 282.91 275.051 282.91 278.156 c 282.91 281.262 280.395
 283.781 277.285 283.781 c h
277.285 283.781 m f
217.789 306.164 m 106.711 306.164 l 103.605 306.164 101.086 303.645 101.086
 300.539 c 101.086 297.43 103.605 294.914 106.711 294.914 c 217.789 294.914
 l 220.898 294.914 223.414 297.43 223.414 300.539 c 223.414 303.645 220.898
 306.164 217.789 306.164 c h
217.789 306.164 m f
Q Q
showpage
%%Trailer
end
%%EOF
