%!PS-Adobe-3.0 EPSF-3.0
%%Creator: cairo 1.16.0 (https://cairographics.org)
%%CreationDate: Thu Nov  7 08:25:46 2019
%%Pages: 1
%%DocumentData: Clean7Bit
%%LanguageLevel: 2
%%BoundingBox: 0 0 384 384
%%EndComments
%%BeginProlog
50 dict begin
/q { gsave } bind def
/Q { grestore } bind def
/cm { 6 array astore concat } bind def
/w { setlinewidth } bind def
/J { setlinecap } bind def
/j { setlinejoin } bind def
/M { setmiterlimit } bind def
/d { setdash } bind def
/m { moveto } bind def
/l { lineto } bind def
/c { curveto } bind def
/h { closepath } bind def
/re { exch dup neg 3 1 roll 5 3 roll moveto 0 rlineto
      0 exch rlineto 0 rlineto closepath } bind def
/S { stroke } bind def
/f { fill } bind def
/f* { eofill } bind def
/n { newpath } bind def
/W { clip } bind def
/W* { eoclip } bind def
/BT { } bind def
/ET { } bind def
/BDC { mark 3 1 roll /BDC pdfmark } bind def
/EMC { mark /EMC pdfmark } bind def
/cairo_store_point { /cairo_point_y exch def /cairo_point_x exch def } def
/Tj { show currentpoint cairo_store_point } bind def
/TJ {
  {
    dup
    type /stringtype eq
    { show } { -0.001 mul 0 cairo_font_matrix dtransform rmoveto } ifelse
  } forall
  currentpoint cairo_store_point
} bind def
/cairo_selectfont { cairo_font_matrix aload pop pop pop 0 0 6 array astore
    cairo_font exch selectfont cairo_point_x cairo_point_y moveto } bind def
/Tf { pop /cairo_font exch def /cairo_font_matrix where
      { pop cairo_selectfont } if } bind def
/Td { matrix translate cairo_font_matrix matrix concatmatrix dup
      /cairo_font_matrix exch def dup 4 get exch 5 get cairo_store_point
      /cairo_font where { pop cairo_selectfont } if } bind def
/Tm { 2 copy 8 2 roll 6 array astore /cairo_font_matrix exch def
      cairo_store_point /cairo_font where { pop cairo_selectfont } if } bind def
/g { setgray } bind def
/rg { setrgbcolor } bind def
/d1 { setcachedevice } bind def
/cairo_data_source {
  CairoDataIndex CairoData length lt
    { CairoData CairoDataIndex get /CairoDataIndex CairoDataIndex 1 add def }
    { () } ifelse
} def
/cairo_flush_ascii85_file { cairo_ascii85_file status { cairo_ascii85_file flushfile } if } def
/cairo_image { image cairo_flush_ascii85_file } def
/cairo_imagemask { imagemask cairo_flush_ascii85_file } def
%%EndProlog
%%BeginSetup
%%EndSetup
%%Page: 1 1
%%BeginPageSetup
%%PageBoundingBox: 0 0 384 384
%%EndPageSetup
q 0 0 384 384 rectclip
1 0 0 -1 0 384 cm q
0.611765 g
193.918 225.645 m 225.66 193.902 l 272.273 240.516 l 240.531 272.258 l 
h
193.918 225.645 m f
0.513726 g
246.902 215.09 m 242.586 221.145 237.711 226.918 232.281 232.352 c 226.902
 237.727 221.172 242.57 215.184 246.863 c 193.961 225.645 l 225.715 193.902
 l h
246.902 215.09 m f
0.67451 0.368627 0.180392 rg
373.828 373.762 m 360.262 387.324 338.273 387.324 324.707 373.762 c 229.68
 278.73 l 228.207 277.258 228.207 274.867 229.68 273.395 c 273.461 229.613
 l 274.934 228.141 277.324 228.141 278.801 229.613 c 373.828 324.645 l 387.391
 338.207 387.391 360.199 373.828 373.762 c h
373.828 373.762 m f
0.619608 0.333333 0.156863 rg
373.828 373.758 m 369.117 378.469 363.391 381.543 357.352 382.988 c 370.312
 369.383 370.113 347.836 356.754 334.473 c 262.68 240.398 l 273.461 229.617
 l 274.938 228.141 277.324 228.141 278.801 229.617 c 373.828 324.645 l 387.387
 338.203 387.387 360.199 373.828 373.758 c h
373.828 373.758 m f
0.352941 g
256.938 128.535 m 256.938 199.484 199.422 257.004 128.469 257.004 c 57.516
 257.004 0 199.484 0 128.535 c 0 57.582 57.516 0.066 128.469 0.066 c 199.422
 0.066 256.938 57.582 256.938 128.535 c h
256.938 128.535 m f
0.541176 0.788235 0.996078 rg
226.914 128.535 m 226.914 182.906 182.84 226.98 128.469 226.98 c 74.098
 226.98 30.023 182.906 30.023 128.535 c 30.023 74.164 74.098 30.086 128.469
 30.086 c 182.84 30.086 226.914 74.164 226.914 128.535 c h
226.914 128.535 m f
0.996078 0.65098 0.0745098 rg
139.27 70.645 m 152.188 96.816 l 153.035 98.531 154.672 99.723 156.57 99.996
 c 185.449 104.195 l 195.332 105.629 199.277 117.773 192.125 124.742 c 171.227
 145.117 l 169.855 146.453 169.23 148.379 169.555 150.266 c 174.488 179.031
 l 176.176 188.871 165.848 196.379 157.008 191.73 c 131.176 178.148 l 129.48
 177.258 127.453 177.258 125.762 178.148 c 99.926 191.73 l 91.09 196.375
 80.758 188.871 82.445 179.031 c 87.379 150.266 l 87.703 148.379 87.078 
146.453 85.707 145.113 c 64.809 124.742 l 57.656 117.773 61.602 105.629 
71.484 104.195 c 100.367 99.996 l 102.262 99.723 103.898 98.531 104.746 
96.812 c 117.664 70.641 l 122.082 61.688 134.852 61.688 139.27 70.645 c 
h
139.27 70.645 m f
0.984314 0.533333 0.00392157 rg
171.23 145.117 m 169.848 146.457 169.238 148.367 169.566 150.258 c 174.484
 179.039 l 176.168 188.875 165.844 196.375 157.004 191.719 c 131.172 178.145
 l 129.484 177.25 127.453 177.25 125.766 178.145 c 99.93 191.719 l 91.09
 196.375 80.766 188.875 82.453 179.039 c 83.57 172.473 l 84.16 172.289 84.746
 172.027 85.336 171.723 c 89.137 169.723 92.934 167.723 96.734 165.723 c
 102.461 162.711 108.188 159.633 114.262 157.363 c 119.223 155.512 124.539
 154.785 129.809 154.586 c 135.5 154.375 143.914 158.312 147.438 151.766
 c 148.523 149.75 148.184 146.934 148.57 144.746 c 150.355 134.574 156.188
 125.52 163.668 118.367 c 168.359 113.895 172.887 109.254 177.531 104.73
 c 178.02 104.242 178.465 103.754 178.832 103.227 c 185.457 104.203 l 195.336
 105.625 199.277 117.781 192.121 124.75 c h
171.23 145.117 m f
0.952941 0.917647 0.901961 rg
308.93 71.465 m 308.93 110.902 276.961 142.867 237.527 142.867 c 198.094
 142.867 166.129 110.902 166.129 71.465 c 166.129 32.031 198.094 0.066 237.527
 0.066 c 276.961 0.066 308.93 32.031 308.93 71.465 c h
308.93 71.465 m f
0.568627 0.870588 0.713726 rg
276.695 56.594 m 246.758 26.664 l 241.531 21.438 233.055 21.438 227.828
 26.664 c 198.555 55.941 l 193.336 61.156 193.043 69.969 197.902 75.523 
c 202.762 81.078 211.008 81.352 216.227 76.133 c 219.352 73.004 l 221.355
 71.004 224.777 72.422 224.777 75.254 c 224.777 106.801 l 224.777 114.195
 230.77 120.188 238.164 120.188 c 245.559 120.188 251.551 114.195 251.551
 106.801 c 251.551 76.98 l 251.551 74.148 254.973 72.73 256.977 74.734 c
 257.766 75.523 l 262.992 80.75 271.469 80.75 276.695 75.523 c 281.922 70.297
 281.922 61.82 276.695 56.594 c h
276.695 56.594 m f
0.431373 0.835294 0.631373 rg
280.613 66.062 m 280.613 69.484 279.309 72.914 276.699 75.523 c 271.473
 80.754 262.992 80.754 257.766 75.523 c 256.969 74.73 l 254.973 72.73 251.551
 74.145 251.551 76.984 c 251.551 106.797 l 251.551 110.492 250.051 113.844
 247.625 116.27 c 245.207 118.688 241.859 120.184 238.16 120.184 c 235.605
 120.184 233.223 119.473 231.191 118.23 c 234.84 115.969 237.27 111.918 
237.27 107.301 c 237.27 88.59 l 237.27 80.113 236.301 71.145 244.113 65.695
 c 245.691 64.609 247.68 64.371 249.496 63.758 c 251.906 62.949 253.41 61.059
 254.031 58.859 c 254.633 56.742 254.406 54.332 253.395 52.316 c 251.203
 47.992 247.242 44.762 243.875 41.383 c 240.133 37.652 236.402 33.91 232.66
 30.168 c 231.16 28.672 229.383 27.613 227.484 27.012 c 227.832 26.664 l
 233.062 21.434 241.531 21.434 246.758 26.664 c 276.691 56.586 l 279.309
 59.207 280.613 62.629 280.613 66.062 c h
280.613 66.062 m f
Q Q
showpage
%%Trailer
end
%%EOF
