%!PS-Adobe-3.0 EPSF-3.0
%%Creator: cairo 1.16.0 (https://cairographics.org)
%%CreationDate: Thu Nov  7 08:25:46 2019
%%Pages: 1
%%DocumentData: Clean7Bit
%%LanguageLevel: 2
%%BoundingBox: 0 20 384 364
%%EndComments
%%BeginProlog
50 dict begin
/q { gsave } bind def
/Q { grestore } bind def
/cm { 6 array astore concat } bind def
/w { setlinewidth } bind def
/J { setlinecap } bind def
/j { setlinejoin } bind def
/M { setmiterlimit } bind def
/d { setdash } bind def
/m { moveto } bind def
/l { lineto } bind def
/c { curveto } bind def
/h { closepath } bind def
/re { exch dup neg 3 1 roll 5 3 roll moveto 0 rlineto
      0 exch rlineto 0 rlineto closepath } bind def
/S { stroke } bind def
/f { fill } bind def
/f* { eofill } bind def
/n { newpath } bind def
/W { clip } bind def
/W* { eoclip } bind def
/BT { } bind def
/ET { } bind def
/BDC { mark 3 1 roll /BDC pdfmark } bind def
/EMC { mark /EMC pdfmark } bind def
/cairo_store_point { /cairo_point_y exch def /cairo_point_x exch def } def
/Tj { show currentpoint cairo_store_point } bind def
/TJ {
  {
    dup
    type /stringtype eq
    { show } { -0.001 mul 0 cairo_font_matrix dtransform rmoveto } ifelse
  } forall
  currentpoint cairo_store_point
} bind def
/cairo_selectfont { cairo_font_matrix aload pop pop pop 0 0 6 array astore
    cairo_font exch selectfont cairo_point_x cairo_point_y moveto } bind def
/Tf { pop /cairo_font exch def /cairo_font_matrix where
      { pop cairo_selectfont } if } bind def
/Td { matrix translate cairo_font_matrix matrix concatmatrix dup
      /cairo_font_matrix exch def dup 4 get exch 5 get cairo_store_point
      /cairo_font where { pop cairo_selectfont } if } bind def
/Tm { 2 copy 8 2 roll 6 array astore /cairo_font_matrix exch def
      cairo_store_point /cairo_font where { pop cairo_selectfont } if } bind def
/g { setgray } bind def
/rg { setrgbcolor } bind def
/d1 { setcachedevice } bind def
/cairo_data_source {
  CairoDataIndex CairoData length lt
    { CairoData CairoDataIndex get /CairoDataIndex CairoDataIndex 1 add def }
    { () } ifelse
} def
/cairo_flush_ascii85_file { cairo_ascii85_file status { cairo_ascii85_file flushfile } if } def
/cairo_image { image cairo_flush_ascii85_file } def
/cairo_imagemask { imagemask cairo_flush_ascii85_file } def
%%EndProlog
%%BeginSetup
%%EndSetup
%%Page: 1 1
%%BeginPageSetup
%%PageBoundingBox: 0 20 384 364
%%EndPageSetup
q 0 20 384 344 rectclip
1 0 0 -1 0 384 cm q
0.952941 0.917647 0.901961 rg
375.531 363.898 m 8.469 363.898 l 3.793 363.898 0 360.105 0 355.43 c 0 
52.172 l 384 52.172 l 384 355.43 l 384 360.105 380.207 363.898 375.531 363.898
 c h
375.531 363.898 m f
0.996078 0.6 0.00392157 rg
384 67.121 m 0 67.121 l 0 28.57 l 0 23.895 3.793 20.102 8.469 20.102 c 
375.531 20.102 l 380.207 20.102 384 23.895 384 28.57 c h
384 67.121 m f
0.882353 0.827451 0.807843 rg
384 67.121 m 384 355.434 l 384 360.105 380.207 363.898 375.535 363.898 
c 355.527 363.898 l 360.199 363.898 363.992 360.105 363.992 355.434 c 363.992
 67.121 l h
384 67.121 m f
0.984314 0.533333 0.00392157 rg
384 28.566 m 384 67.125 l 363.992 67.125 l 363.992 28.566 l 363.992 23.895
 360.199 20.102 355.527 20.102 c 375.535 20.102 l 380.207 20.102 384 23.895
 384 28.566 c h
384 28.566 m f
0.541176 0.788235 0.996078 rg
247.098 183.754 m 247.098 233.41 206.844 273.664 157.188 273.664 c 107.531
 273.664 67.277 233.41 67.277 183.754 c 67.277 159.906 76.75 137.039 93.613
 120.176 c 110.473 103.312 133.344 93.84 157.188 93.84 c 206.844 93.84 247.098
 134.098 247.098 183.754 c h
247.098 183.754 m f
0.984314 0.168627 0.227451 rg
270.688 234.5 m 244.062 234.5 l 244.062 278.5 l 244.062 281.203 246.777
 283.07 249.301 282.102 c 269.309 274.453 l 270.195 274.113 271.18 274.113
 272.066 274.453 c 292.074 282.102 l 294.602 283.07 297.312 281.203 297.312
 278.5 c 297.312 234.5 l h
270.688 234.5 m f
0.894118 0.121569 0.176471 rg
297.312 234.5 m 297.312 278.5 l 297.312 281.203 294.602 283.07 292.07 282.105
 c 283.781 278.934 l 284.043 278.422 284.188 277.844 284.188 277.211 c 284.188
 234.5 l h
297.312 234.5 m f
0.996078 0.756863 0.396078 rg
316.723 202.844 m 316.723 228.266 296.113 248.879 270.688 248.879 c 245.262
 248.879 224.652 228.266 224.652 202.844 c 224.652 177.418 245.262 156.809
 270.688 156.809 c 296.113 156.809 316.723 177.418 316.723 202.844 c h
316.723 202.844 m f
0.996078 0.6 0.00392157 rg
274.789 178.441 m 279.695 188.383 l 280.02 189.035 280.641 189.484 281.359
 189.59 c 292.328 191.184 l 296.082 191.73 297.582 196.34 294.863 198.988
 c 286.926 206.727 l 286.406 207.234 286.168 207.965 286.293 208.68 c 288.164
 219.605 l 288.809 223.344 284.883 226.195 281.527 224.43 c 271.715 219.273
 l 271.074 218.934 270.305 218.934 269.66 219.273 c 259.848 224.43 l 256.492
 226.195 252.57 223.344 253.211 219.605 c 255.082 208.68 l 255.207 207.965
 254.969 207.234 254.449 206.727 c 246.512 198.988 l 243.797 196.34 245.293
 191.73 249.047 191.184 c 260.016 189.59 l 260.734 189.484 261.355 189.035
 261.68 188.383 c 266.586 178.441 l 268.262 175.039 273.113 175.039 274.789
 178.441 c h
274.789 178.441 m f
0.984314 0.533333 0.00392157 rg
286.93 206.727 m 286.402 207.234 286.172 207.961 286.297 208.68 c 288.164
 219.609 l 288.805 223.344 284.883 226.191 281.527 224.426 c 271.715 219.27
 l 271.074 218.93 270.305 218.93 269.66 219.27 c 259.852 224.426 l 256.492
 226.191 252.57 223.344 253.211 219.609 c 253.637 217.117 l 253.863 217.047
 254.086 216.945 254.309 216.832 c 255.754 216.07 257.195 215.312 258.637
 214.551 c 260.812 213.406 262.988 212.238 265.293 211.379 c 267.18 210.676
 269.199 210.398 271.199 210.324 c 273.359 210.242 276.555 211.738 277.895
 209.25 c 278.305 208.484 278.18 207.418 278.324 206.586 c 279.004 202.723
 281.219 199.285 284.059 196.566 c 285.84 194.867 287.559 193.105 289.324
 191.387 c 289.508 191.203 289.68 191.016 289.816 190.816 c 292.336 191.188
 l 296.086 191.727 297.582 196.344 294.867 198.992 c h
286.93 206.727 m f
0.67451 0.368627 0.180392 rg
110.355 160.281 m 110.355 224.723 l 110.355 234.801 118.523 242.969 128.602
 242.969 c 185.773 242.969 l 195.852 242.969 204.02 234.801 204.02 224.723
 c 204.02 160.281 l h
110.355 160.281 m f
0.619608 0.333333 0.156863 rg
204.02 160.277 m 204.02 224.723 l 204.02 234.801 195.848 242.969 185.777
 242.969 c 173.754 242.969 l 183.832 242.969 192 234.801 192 224.723 c 192
 160.277 l h
204.02 160.277 m f
0.964706 0.662745 0.423529 rg
198.91 192.785 m 198.91 193.082 l 198.91 209.715 185.426 223.199 168.793
 223.199 c 145.582 223.199 l 128.949 223.199 115.465 209.715 115.465 193.082
 c 115.465 156.75 l 198.91 156.75 l h
198.91 192.785 m f
0.917647 0.607843 0.345098 rg
198.906 156.75 m 198.906 193.082 l 198.906 209.715 185.422 223.199 168.789
 223.199 c 157.293 223.199 l 173.926 223.199 187.41 209.715 187.41 193.082
 c 187.41 156.75 l h
198.906 156.75 m f
0.67451 0.368627 0.180392 rg
168.16 124.535 m 146.277 124.535 l 126.469 124.535 110.414 140.59 110.414
 160.398 c 110.414 179.758 l 130.188 180.949 145.996 172.23 155.039 165.457
 c 156.336 164.488 158.098 164.488 159.395 165.457 c 168.438 172.23 184.246
 180.949 204.02 179.758 c 204.02 160.398 l 204.02 140.594 187.965 124.535
 168.16 124.535 c h
168.16 124.535 m f
0.619608 0.333333 0.156863 rg
204.02 160.395 m 204.02 179.758 l 199.828 180.012 195.809 179.82 192 179.293
 c 192 160.395 l 192 140.59 175.945 124.535 156.141 124.535 c 168.16 124.535
 l 187.965 124.535 204.02 140.59 204.02 160.395 c h
204.02 160.395 m f
0.352941 g
147.32 197.105 m 147.32 191.605 l 147.32 188.5 144.801 185.984 141.695 
185.984 c 138.59 185.984 136.07 188.5 136.07 191.605 c 136.07 197.105 l 
136.07 200.215 138.59 202.73 141.695 202.73 c 144.801 202.73 147.32 200.215
 147.32 197.105 c h
147.32 197.105 m f
171.191 202.73 m 174.297 202.73 176.816 200.215 176.816 197.105 c 176.816
 191.605 l 176.816 188.5 174.297 185.984 171.191 185.984 c 168.086 185.984
 165.566 188.5 165.566 191.605 c 165.566 197.105 l 165.566 200.215 168.086
 202.73 171.191 202.73 c h
171.191 202.73 m f
0.803922 0.74902 0.729412 rg
334.133 310.859 m 334.133 307.754 331.613 305.234 328.508 305.234 c 55.492
 305.234 l 52.387 305.234 49.867 307.754 49.867 310.859 c 49.867 313.965
 52.387 316.484 55.492 316.484 c 328.508 316.484 l 331.613 316.484 334.133
 313.965 334.133 310.859 c h
334.133 310.859 m f
55.492 327.203 m 52.387 327.203 49.867 329.723 49.867 332.828 c 49.867 
335.934 52.387 338.453 55.492 338.453 c 144.027 338.453 l 147.137 338.453
 149.652 335.934 149.652 332.828 c 149.652 329.723 147.137 327.203 144.027
 327.203 c h
55.492 327.203 m f
Q Q
showpage
%%Trailer
end
%%EOF
