%!PS-Adobe-3.0 EPSF-3.0
%%Creator: cairo 1.16.0 (https://cairographics.org)
%%CreationDate: Thu Nov  7 08:25:46 2019
%%Pages: 1
%%DocumentData: Clean7Bit
%%LanguageLevel: 2
%%BoundingBox: 0 30 384 354
%%EndComments
%%BeginProlog
50 dict begin
/q { gsave } bind def
/Q { grestore } bind def
/cm { 6 array astore concat } bind def
/w { setlinewidth } bind def
/J { setlinecap } bind def
/j { setlinejoin } bind def
/M { setmiterlimit } bind def
/d { setdash } bind def
/m { moveto } bind def
/l { lineto } bind def
/c { curveto } bind def
/h { closepath } bind def
/re { exch dup neg 3 1 roll 5 3 roll moveto 0 rlineto
      0 exch rlineto 0 rlineto closepath } bind def
/S { stroke } bind def
/f { fill } bind def
/f* { eofill } bind def
/n { newpath } bind def
/W { clip } bind def
/W* { eoclip } bind def
/BT { } bind def
/ET { } bind def
/BDC { mark 3 1 roll /BDC pdfmark } bind def
/EMC { mark /EMC pdfmark } bind def
/cairo_store_point { /cairo_point_y exch def /cairo_point_x exch def } def
/Tj { show currentpoint cairo_store_point } bind def
/TJ {
  {
    dup
    type /stringtype eq
    { show } { -0.001 mul 0 cairo_font_matrix dtransform rmoveto } ifelse
  } forall
  currentpoint cairo_store_point
} bind def
/cairo_selectfont { cairo_font_matrix aload pop pop pop 0 0 6 array astore
    cairo_font exch selectfont cairo_point_x cairo_point_y moveto } bind def
/Tf { pop /cairo_font exch def /cairo_font_matrix where
      { pop cairo_selectfont } if } bind def
/Td { matrix translate cairo_font_matrix matrix concatmatrix dup
      /cairo_font_matrix exch def dup 4 get exch 5 get cairo_store_point
      /cairo_font where { pop cairo_selectfont } if } bind def
/Tm { 2 copy 8 2 roll 6 array astore /cairo_font_matrix exch def
      cairo_store_point /cairo_font where { pop cairo_selectfont } if } bind def
/g { setgray } bind def
/rg { setrgbcolor } bind def
/d1 { setcachedevice } bind def
/cairo_data_source {
  CairoDataIndex CairoData length lt
    { CairoData CairoDataIndex get /CairoDataIndex CairoDataIndex 1 add def }
    { () } ifelse
} def
/cairo_flush_ascii85_file { cairo_ascii85_file status { cairo_ascii85_file flushfile } if } def
/cairo_image { image cairo_flush_ascii85_file } def
/cairo_imagemask { imagemask cairo_flush_ascii85_file } def
%%EndProlog
%%BeginSetup
%%EndSetup
%%Page: 1 1
%%BeginPageSetup
%%PageBoundingBox: 0 30 384 354
%%EndPageSetup
q 0 30 384 324 rectclip
1 0 0 -1 0 384 cm q
0.952941 0.917647 0.901961 rg
368.996 353.961 m 14.91 353.961 l 6.676 353.961 0 347.285 0 339.051 c 0
 76.062 l 0 67.828 6.676 61.152 14.91 61.152 c 368.996 61.152 l 377.23 61.152
 383.906 67.828 383.906 76.062 c 383.906 339.051 l 383.906 347.285 377.23
 353.961 368.996 353.961 c h
368.996 353.961 m f
0.882353 0.827451 0.807843 rg
384 76.027 m 384 339.016 l 384 347.258 377.324 353.93 369.094 353.93 c 
349.73 353.93 l 357.965 353.93 364.637 347.258 364.637 339.016 c 364.637
 76.027 l 364.637 67.793 357.965 61.121 349.73 61.121 c 369.094 61.121 l
 377.324 61.121 384 67.793 384 76.027 c h
384 76.027 m f
0.611765 g
252.121 117.008 m 131.977 117.008 l 124.902 117.008 119.168 111.273 119.168
 104.199 c 119.168 97.121 124.902 91.387 131.977 91.387 c 252.121 91.387
 l 259.195 91.387 264.934 97.121 264.934 104.199 c 264.934 111.273 259.195
 117.008 252.121 117.008 c h
252.121 117.008 m f
0.352941 g
221.535 117.008 m 162.566 117.008 l 162.566 40.477 l 162.566 34.711 167.238
 30.039 173 30.039 c 211.098 30.039 l 216.863 30.039 221.535 34.711 221.535
 40.477 c h
221.535 117.008 m f
0.266667 g
221.535 40.473 m 221.535 117.008 l 205.074 117.008 l 205.074 40.473 l 205.074
 34.715 200.398 30.039 194.633 30.039 c 211.102 30.039 l 216.867 30.039 
221.535 34.715 221.535 40.473 c h
221.535 40.473 m f
0.67451 0.368627 0.180392 rg
45.898 208.691 m 45.898 286.816 l 45.898 299.031 55.801 308.934 68.016 
308.934 c 137.324 308.934 l 149.539 308.934 159.441 299.031 159.441 286.816
 c 159.441 208.691 l h
45.898 208.691 m f
0.619608 0.333333 0.156863 rg
159.445 208.688 m 159.445 286.816 l 159.445 299.035 149.535 308.934 137.328
 308.934 c 122.754 308.934 l 134.973 308.934 144.871 299.035 144.871 286.816
 c 144.871 208.688 l h
159.445 208.688 m f
0.964706 0.662745 0.423529 rg
153.246 248.098 m 153.246 248.457 l 153.246 268.621 136.902 284.969 116.738
 284.969 c 88.602 284.969 l 68.438 284.969 52.094 268.621 52.094 248.457
 c 52.094 204.414 l 153.246 204.414 l h
153.246 248.098 m f
0.917647 0.607843 0.345098 rg
153.246 204.418 m 153.246 248.461 l 153.246 268.625 136.898 284.969 116.734
 284.969 c 102.801 284.969 l 122.965 284.969 139.309 268.625 139.309 248.461
 c 139.309 204.418 l h
153.246 204.418 m f
0.67451 0.368627 0.180392 rg
115.969 165.363 m 89.445 165.363 l 65.434 165.363 45.969 184.828 45.969
 208.836 c 45.969 232.305 l 69.938 233.75 89.102 223.184 100.07 214.969 
c 101.637 213.797 103.777 213.797 105.344 214.969 c 116.312 223.184 135.477
 233.75 159.445 232.305 c 159.445 208.836 l 159.445 184.824 139.98 165.363
 115.969 165.363 c h
115.969 165.363 m f
0.619608 0.333333 0.156863 rg
159.445 208.832 m 159.445 232.305 l 154.363 232.617 149.488 232.379 144.871
 231.742 c 144.871 208.832 l 144.871 184.824 125.41 165.363 101.398 165.363
 c 115.973 165.363 l 139.98 165.363 159.445 184.824 159.445 208.832 c h
159.445 208.832 m f
0.996078 0.756863 0.396078 rg
200.133 179.688 m 333.57 179.688 l 336.074 179.688 338.102 181.715 338.102
 184.219 c 338.102 212.777 l 338.102 215.281 336.074 217.309 333.57 217.309
 c 200.133 217.309 l 197.633 217.309 195.602 215.281 195.602 212.777 c 195.602
 184.219 l 195.602 181.715 197.633 179.688 200.133 179.688 c h
200.133 179.688 m f
0.992157 0.705882 0.254902 rg
338.102 184.219 m 338.102 212.777 l 338.102 215.277 336.07 217.309 333.574
 217.309 c 318.07 217.309 l 320.574 217.309 322.602 215.277 322.602 212.777
 c 322.602 184.219 l 322.602 181.715 320.574 179.688 318.07 179.688 c 333.574
 179.688 l 336.07 179.688 338.102 181.715 338.102 184.219 c h
338.102 184.219 m f
0.352941 g
83.891 258.965 m 86.996 258.965 89.516 256.445 89.516 253.34 c 89.516 246.672
 l 89.516 243.566 86.996 241.047 83.891 241.047 c 80.781 241.047 78.266 
243.566 78.266 246.672 c 78.266 253.34 l 78.266 256.445 80.781 258.965 83.891
 258.965 c h
83.891 258.965 m f
119.645 258.965 m 122.754 258.965 125.27 256.445 125.27 253.34 c 125.27
 246.672 l 125.27 243.566 122.754 241.047 119.645 241.047 c 116.539 241.047
 114.02 243.566 114.02 246.672 c 114.02 253.34 l 114.02 256.445 116.539 
258.965 119.645 258.965 c h
119.645 258.965 m f
0.803922 0.74902 0.729412 rg
338.102 238.484 m 195.602 238.484 l 192.496 238.484 189.977 241.004 189.977
 244.109 c 189.977 247.215 192.496 249.734 195.602 249.734 c 338.102 249.734
 l 341.207 249.734 343.727 247.215 343.727 244.109 c 343.727 241.004 341.207
 238.484 338.102 238.484 c h
338.102 238.484 m f
338.102 263.734 m 195.602 263.734 l 192.496 263.734 189.977 266.254 189.977
 269.359 c 189.977 272.465 192.496 274.984 195.602 274.984 c 338.102 274.984
 l 341.207 274.984 343.727 272.465 343.727 269.359 c 343.727 266.254 341.207
 263.734 338.102 263.734 c h
338.102 263.734 m f
266.852 288.984 m 195.602 288.984 l 192.496 288.984 189.977 291.504 189.977
 294.609 c 189.977 297.715 192.496 300.234 195.602 300.234 c 266.852 300.234
 l 269.957 300.234 272.477 297.715 272.477 294.609 c 272.477 291.504 269.957
 288.984 266.852 288.984 c h
266.852 288.984 m f
Q Q
showpage
%%Trailer
end
%%EOF
