%!PS-Adobe-3.0 EPSF-3.0
%%Creator: cairo 1.16.0 (https://cairographics.org)
%%CreationDate: Thu Nov  7 08:25:46 2019
%%Pages: 1
%%DocumentData: Clean7Bit
%%LanguageLevel: 2
%%BoundingBox: 0 24 384 360
%%EndComments
%%BeginProlog
50 dict begin
/q { gsave } bind def
/Q { grestore } bind def
/cm { 6 array astore concat } bind def
/w { setlinewidth } bind def
/J { setlinecap } bind def
/j { setlinejoin } bind def
/M { setmiterlimit } bind def
/d { setdash } bind def
/m { moveto } bind def
/l { lineto } bind def
/c { curveto } bind def
/h { closepath } bind def
/re { exch dup neg 3 1 roll 5 3 roll moveto 0 rlineto
      0 exch rlineto 0 rlineto closepath } bind def
/S { stroke } bind def
/f { fill } bind def
/f* { eofill } bind def
/n { newpath } bind def
/W { clip } bind def
/W* { eoclip } bind def
/BT { } bind def
/ET { } bind def
/BDC { mark 3 1 roll /BDC pdfmark } bind def
/EMC { mark /EMC pdfmark } bind def
/cairo_store_point { /cairo_point_y exch def /cairo_point_x exch def } def
/Tj { show currentpoint cairo_store_point } bind def
/TJ {
  {
    dup
    type /stringtype eq
    { show } { -0.001 mul 0 cairo_font_matrix dtransform rmoveto } ifelse
  } forall
  currentpoint cairo_store_point
} bind def
/cairo_selectfont { cairo_font_matrix aload pop pop pop 0 0 6 array astore
    cairo_font exch selectfont cairo_point_x cairo_point_y moveto } bind def
/Tf { pop /cairo_font exch def /cairo_font_matrix where
      { pop cairo_selectfont } if } bind def
/Td { matrix translate cairo_font_matrix matrix concatmatrix dup
      /cairo_font_matrix exch def dup 4 get exch 5 get cairo_store_point
      /cairo_font where { pop cairo_selectfont } if } bind def
/Tm { 2 copy 8 2 roll 6 array astore /cairo_font_matrix exch def
      cairo_store_point /cairo_font where { pop cairo_selectfont } if } bind def
/g { setgray } bind def
/rg { setrgbcolor } bind def
/d1 { setcachedevice } bind def
/cairo_data_source {
  CairoDataIndex CairoData length lt
    { CairoData CairoDataIndex get /CairoDataIndex CairoDataIndex 1 add def }
    { () } ifelse
} def
/cairo_flush_ascii85_file { cairo_ascii85_file status { cairo_ascii85_file flushfile } if } def
/cairo_image { image cairo_flush_ascii85_file } def
/cairo_imagemask { imagemask cairo_flush_ascii85_file } def
%%EndProlog
%%BeginSetup
%%EndSetup
%%Page: 1 1
%%BeginPageSetup
%%PageBoundingBox: 0 24 384 360
%%EndPageSetup
q 0 24 384 336 rectclip
1 0 0 -1 0 384 cm q
0.843137 0.498039 0.290196 rg
92.82 53.398 27.301 48.781 re f
267.055 53.398 27.305 48.781 re f
357.305 359.273 m 26.695 359.273 l 16.426 359.273 8.098 350.945 8.098 340.676
 c 8.098 102.965 l 375.902 102.965 l 375.902 340.676 l 375.902 350.945 367.574
 359.273 357.305 359.273 c h
357.305 359.273 m f
0.784314 0.427451 0.211765 rg
375.902 102.965 m 375.902 340.676 l 375.902 350.949 367.578 359.281 357.301
 359.281 c 338.719 359.281 l 348.992 359.281 357.316 350.949 357.316 340.676
 c 357.316 102.965 l h
375.902 102.965 m f
0.67451 0.368627 0.180392 rg
366.227 234.617 m 17.773 234.617 l 7.957 234.617 0 226.66 0 216.848 c 0
 114.941 l 0 105.125 7.957 97.168 17.773 97.168 c 366.227 97.168 l 376.039
 97.168 383.996 105.125 383.996 114.941 c 383.996 216.848 l 383.996 226.66
 376.043 234.617 366.227 234.617 c h
366.227 234.617 m f
0.619608 0.333333 0.156863 rg
384 114.941 m 384 216.852 l 384 226.664 376.043 234.621 366.23 234.621 
c 17.77 234.621 l 7.957 234.621 0 226.664 0 216.852 c 0 205.977 l 2.445 
212.156 8.48 216.531 15.523 216.531 c 353.785 216.531 l 358.859 216.531 
362.969 212.422 362.969 207.348 c 362.969 104.102 l 362.969 101.633 362.434
 99.277 361.469 97.172 c 366.23 97.172 l 376.039 97.172 384 105.125 384 
114.941 c h
384 114.941 m f
0.996078 0.65098 0.0745098 rg
214.84 259.082 m 169.16 259.082 l 165.691 259.082 162.879 256.27 162.879
 252.805 c 162.879 216.434 l 162.879 212.965 165.691 210.152 169.16 210.152
 c 214.84 210.152 l 218.309 210.152 221.121 212.965 221.121 216.434 c 221.121
 252.805 l 221.121 256.273 218.309 259.082 214.84 259.082 c h
214.84 259.082 m f
0.996078 0.6 0.00392157 rg
221.121 216.434 m 221.121 252.801 l 221.121 256.27 218.312 259.082 214.844
 259.082 c 200.129 259.082 l 203.598 259.082 206.41 256.27 206.41 252.801
 c 206.41 216.434 l 206.41 212.965 203.598 210.152 200.129 210.152 c 214.844
 210.152 l 218.312 210.152 221.121 212.961 221.121 216.434 c h
221.121 216.434 m f
0.67451 0.368627 0.180392 rg
302.105 60.238 m 81.895 60.238 l 76.934 60.238 72.914 56.219 72.914 51.258
 c 72.914 33.703 l 72.914 28.742 76.934 24.719 81.895 24.719 c 302.105 24.719
 l 307.066 24.719 311.086 28.742 311.086 33.703 c 311.086 51.258 l 311.086
 56.219 307.066 60.238 302.105 60.238 c h
302.105 60.238 m f
0.619608 0.333333 0.156863 rg
311.09 33.699 m 311.09 51.254 l 311.09 56.219 307.062 60.234 302.109 60.234
 c 284.199 60.234 l 289.16 60.234 293.18 56.219 293.18 51.254 c 293.18 33.699
 l 293.18 28.746 289.16 24.719 284.199 24.719 c 302.109 24.719 l 307.062
 24.719 311.09 28.746 311.09 33.699 c h
311.09 33.699 m f
Q Q
showpage
%%Trailer
end
%%EOF
