%!PS-Adobe-3.0 EPSF-3.0
%%Creator: cairo 1.16.0 (https://cairographics.org)
%%CreationDate: Thu Nov  7 08:25:47 2019
%%Pages: 1
%%DocumentData: Clean7Bit
%%LanguageLevel: 2
%%BoundingBox: 52 0 332 384
%%EndComments
%%BeginProlog
50 dict begin
/q { gsave } bind def
/Q { grestore } bind def
/cm { 6 array astore concat } bind def
/w { setlinewidth } bind def
/J { setlinecap } bind def
/j { setlinejoin } bind def
/M { setmiterlimit } bind def
/d { setdash } bind def
/m { moveto } bind def
/l { lineto } bind def
/c { curveto } bind def
/h { closepath } bind def
/re { exch dup neg 3 1 roll 5 3 roll moveto 0 rlineto
      0 exch rlineto 0 rlineto closepath } bind def
/S { stroke } bind def
/f { fill } bind def
/f* { eofill } bind def
/n { newpath } bind def
/W { clip } bind def
/W* { eoclip } bind def
/BT { } bind def
/ET { } bind def
/BDC { mark 3 1 roll /BDC pdfmark } bind def
/EMC { mark /EMC pdfmark } bind def
/cairo_store_point { /cairo_point_y exch def /cairo_point_x exch def } def
/Tj { show currentpoint cairo_store_point } bind def
/TJ {
  {
    dup
    type /stringtype eq
    { show } { -0.001 mul 0 cairo_font_matrix dtransform rmoveto } ifelse
  } forall
  currentpoint cairo_store_point
} bind def
/cairo_selectfont { cairo_font_matrix aload pop pop pop 0 0 6 array astore
    cairo_font exch selectfont cairo_point_x cairo_point_y moveto } bind def
/Tf { pop /cairo_font exch def /cairo_font_matrix where
      { pop cairo_selectfont } if } bind def
/Td { matrix translate cairo_font_matrix matrix concatmatrix dup
      /cairo_font_matrix exch def dup 4 get exch 5 get cairo_store_point
      /cairo_font where { pop cairo_selectfont } if } bind def
/Tm { 2 copy 8 2 roll 6 array astore /cairo_font_matrix exch def
      cairo_store_point /cairo_font where { pop cairo_selectfont } if } bind def
/g { setgray } bind def
/rg { setrgbcolor } bind def
/d1 { setcachedevice } bind def
/cairo_data_source {
  CairoDataIndex CairoData length lt
    { CairoData CairoDataIndex get /CairoDataIndex CairoDataIndex 1 add def }
    { () } ifelse
} def
/cairo_flush_ascii85_file { cairo_ascii85_file status { cairo_ascii85_file flushfile } if } def
/cairo_image { image cairo_flush_ascii85_file } def
/cairo_imagemask { imagemask cairo_flush_ascii85_file } def
%%EndProlog
%%BeginSetup
%%EndSetup
%%Page: 1 1
%%BeginPageSetup
%%PageBoundingBox: 52 0 332 384
%%EndPageSetup
q 52 0 280 384 rectclip
1 0 0 -1 0 384 cm q
0.611765 g
278.828 321.27 m 52.105 321.27 l 52.105 367.664 l 52.105 376.684 59.418
 383.996 68.438 383.996 c 262.492 383.996 l 271.516 383.996 278.828 376.684
 278.828 367.664 c h
278.828 321.27 m f
0.513726 g
278.824 321.266 m 278.824 367.664 l 278.824 376.684 271.516 384 262.496
 384 c 241.543 384 l 250.566 384 257.879 376.684 257.879 367.664 c 257.879
 321.266 l h
278.824 321.266 m f
0.541176 0.788235 0.996078 rg
278.828 321.266 m 52.105 321.266 l 52.105 16.336 l 52.105 7.316 59.418 
0.004 68.438 0.004 c 262.492 0.004 l 271.516 0.004 278.828 7.316 278.828
 16.336 c h
278.828 321.266 m f
0.376471 0.717647 1 rg
278.824 16.336 m 278.824 321.266 l 257.879 321.266 l 257.879 16.336 l 257.879
 7.316 250.566 0 241.543 0 c 262.496 0 l 271.516 0 278.824 7.316 278.824
 16.336 c h
278.824 16.336 m f
0.352941 g
184.055 29.824 m 146.879 29.824 l 143.68 29.824 141.082 27.23 141.082 24.027
 c 141.082 20.828 143.676 18.234 146.879 18.234 c 184.055 18.234 l 187.254
 18.234 189.848 20.828 189.848 24.027 c 189.848 27.23 187.254 29.824 184.055
 29.824 c h
184.055 29.824 m f
183.684 363.562 m 147.246 363.562 l 141.211 363.562 136.316 358.668 136.316
 352.633 c 136.316 346.594 141.211 341.703 147.246 341.703 c 183.684 341.703
 l 189.723 341.703 194.617 346.594 194.617 352.633 c 194.617 358.668 189.723
 363.562 183.684 363.562 c h
183.684 363.562 m f
0.14902 0.65098 0.996078 rg
246.336 117.074 m 84.598 117.074 l 82.461 117.074 80.727 115.34 80.727 
113.203 c 80.727 73.043 l 80.727 70.906 82.461 69.172 84.598 69.172 c 246.336
 69.172 l 248.473 69.172 250.207 70.906 250.207 73.043 c 250.207 113.203
 l 250.207 115.34 248.473 117.074 246.336 117.074 c h
246.336 117.074 m f
203.953 153.059 m 80.727 153.059 l 77.527 153.059 74.93 150.465 74.93 147.266
 c 74.93 144.062 77.523 141.469 80.727 141.469 c 203.953 141.469 l 207.152
 141.469 209.746 144.062 209.746 147.266 c 209.746 150.465 207.152 153.059
 203.953 153.059 c h
203.953 153.059 m f
223.891 180.277 m 80.727 180.277 l 77.527 180.277 74.93 177.684 74.93 174.484
 c 74.93 171.285 77.523 168.688 80.727 168.688 c 223.891 168.688 l 227.094
 168.688 229.688 171.281 229.688 174.484 c 229.688 177.684 227.094 180.277
 223.891 180.277 c h
223.891 180.277 m f
223.891 207.496 m 80.727 207.496 l 77.527 207.496 74.93 204.902 74.93 201.703
 c 74.93 198.5 77.523 195.906 80.727 195.906 c 223.891 195.906 l 227.094
 195.906 229.688 198.5 229.688 201.703 c 229.688 204.902 227.094 207.496
 223.891 207.496 c h
223.891 207.496 m f
223.891 234.719 m 80.727 234.719 l 77.527 234.719 74.93 232.125 74.93 228.922
 c 74.93 225.723 77.523 223.129 80.727 223.129 c 223.891 223.129 l 227.094
 223.129 229.688 225.723 229.688 228.922 c 229.688 232.125 227.094 234.719
 223.891 234.719 c h
223.891 234.719 m f
241.25 261.938 m 80.727 261.938 l 77.527 261.938 74.93 259.344 74.93 256.141
 c 74.93 252.941 77.523 250.348 80.727 250.348 c 241.25 250.348 l 244.453
 250.348 247.047 252.941 247.047 256.141 c 247.047 259.344 244.453 261.938
 241.25 261.938 c h
241.25 261.938 m f
241.25 289.156 m 80.727 289.156 l 77.527 289.156 74.93 286.562 74.93 283.359
 c 74.93 280.16 77.523 277.566 80.727 277.566 c 241.25 277.566 l 244.453
 277.566 247.047 280.16 247.047 283.359 c 247.047 286.562 244.453 289.156
 241.25 289.156 c h
241.25 289.156 m f
0.984314 0.168627 0.227451 rg
278.824 146.094 m 248.133 146.094 l 248.133 224.469 l 248.133 227.586 251.258
 229.738 254.172 228.625 c 277.234 219.805 l 278.258 219.414 279.391 219.414
 280.414 219.805 c 303.477 228.625 l 306.391 229.738 309.516 227.586 309.516
 224.469 c 309.516 146.094 l h
278.824 146.094 m f
0.894118 0.121569 0.176471 rg
309.516 146.098 m 309.516 224.469 l 309.516 227.586 306.395 229.738 303.477
 228.625 c 293.918 224.969 l 294.219 224.379 294.391 223.715 294.391 222.984
 c 294.391 146.098 l h
309.516 146.098 m f
0.996078 0.756863 0.396078 rg
331.895 109.598 m 331.895 138.91 308.137 162.668 278.824 162.668 c 249.516
 162.668 225.754 138.91 225.754 109.598 c 225.754 80.289 249.516 56.527 
278.824 56.527 c 308.137 56.527 331.895 80.289 331.895 109.598 c h
331.895 109.598 m f
0.996078 0.6 0.00392157 rg
283.555 81.469 m 289.211 92.926 l 289.582 93.68 290.297 94.199 291.129 
94.32 c 303.773 96.16 l 308.102 96.785 309.828 102.102 306.699 105.156 c
 297.547 114.074 l 296.945 114.66 296.672 115.504 296.812 116.332 c 298.973
 128.926 l 299.711 133.234 295.191 136.52 291.32 134.484 c 280.008 128.539
 l 279.266 128.148 278.379 128.148 277.641 128.539 c 266.328 134.484 l 262.457
 136.52 257.934 133.234 258.676 128.926 c 260.836 116.332 l 260.977 115.504
 260.703 114.66 260.102 114.074 c 250.949 105.156 l 247.82 102.102 249.547
 96.785 253.875 96.16 c 266.52 94.32 l 267.348 94.199 268.066 93.68 268.438
 92.926 c 274.094 81.469 l 276.031 77.547 281.621 77.547 283.555 81.469 
c h
283.555 81.469 m f
0.984314 0.533333 0.00392157 rg
297.547 114.074 m 296.941 114.664 296.676 115.5 296.82 116.328 c 298.973
 128.93 l 299.711 133.234 295.191 136.52 291.32 134.48 c 280.008 128.535
 l 279.27 128.145 278.379 128.145 277.641 128.535 c 266.332 134.48 l 262.461
 136.52 257.938 133.234 258.676 128.93 c 259.168 126.055 l 259.426 125.973
 259.684 125.859 259.941 125.727 c 261.605 124.848 263.27 123.973 264.93
 123.098 c 267.438 121.777 269.945 120.43 272.605 119.438 c 274.777 118.629
 277.105 118.309 279.414 118.223 c 281.906 118.129 285.59 119.855 287.133
 116.988 c 287.605 116.105 287.457 114.871 287.625 113.914 c 288.41 109.461
 290.961 105.496 294.238 102.363 c 296.293 100.406 298.273 98.375 300.309
 96.395 c 300.52 96.18 300.719 95.969 300.875 95.734 c 303.777 96.164 l 
308.102 96.785 309.828 102.109 306.695 105.16 c h
297.547 114.074 m f
Q Q
showpage
%%Trailer
end
%%EOF
