%!PS-Adobe-3.0 EPSF-3.0
%%Creator: cairo 1.16.0 (https://cairographics.org)
%%CreationDate: Thu Nov  7 08:25:47 2019
%%Pages: 1
%%DocumentData: Clean7Bit
%%LanguageLevel: 2
%%BoundingBox: 0 7 384 377
%%EndComments
%%BeginProlog
50 dict begin
/q { gsave } bind def
/Q { grestore } bind def
/cm { 6 array astore concat } bind def
/w { setlinewidth } bind def
/J { setlinecap } bind def
/j { setlinejoin } bind def
/M { setmiterlimit } bind def
/d { setdash } bind def
/m { moveto } bind def
/l { lineto } bind def
/c { curveto } bind def
/h { closepath } bind def
/re { exch dup neg 3 1 roll 5 3 roll moveto 0 rlineto
      0 exch rlineto 0 rlineto closepath } bind def
/S { stroke } bind def
/f { fill } bind def
/f* { eofill } bind def
/n { newpath } bind def
/W { clip } bind def
/W* { eoclip } bind def
/BT { } bind def
/ET { } bind def
/BDC { mark 3 1 roll /BDC pdfmark } bind def
/EMC { mark /EMC pdfmark } bind def
/cairo_store_point { /cairo_point_y exch def /cairo_point_x exch def } def
/Tj { show currentpoint cairo_store_point } bind def
/TJ {
  {
    dup
    type /stringtype eq
    { show } { -0.001 mul 0 cairo_font_matrix dtransform rmoveto } ifelse
  } forall
  currentpoint cairo_store_point
} bind def
/cairo_selectfont { cairo_font_matrix aload pop pop pop 0 0 6 array astore
    cairo_font exch selectfont cairo_point_x cairo_point_y moveto } bind def
/Tf { pop /cairo_font exch def /cairo_font_matrix where
      { pop cairo_selectfont } if } bind def
/Td { matrix translate cairo_font_matrix matrix concatmatrix dup
      /cairo_font_matrix exch def dup 4 get exch 5 get cairo_store_point
      /cairo_font where { pop cairo_selectfont } if } bind def
/Tm { 2 copy 8 2 roll 6 array astore /cairo_font_matrix exch def
      cairo_store_point /cairo_font where { pop cairo_selectfont } if } bind def
/g { setgray } bind def
/rg { setrgbcolor } bind def
/d1 { setcachedevice } bind def
/cairo_data_source {
  CairoDataIndex CairoData length lt
    { CairoData CairoDataIndex get /CairoDataIndex CairoDataIndex 1 add def }
    { () } ifelse
} def
/cairo_flush_ascii85_file { cairo_ascii85_file status { cairo_ascii85_file flushfile } if } def
/cairo_image { image cairo_flush_ascii85_file } def
/cairo_imagemask { imagemask cairo_flush_ascii85_file } def
%%EndProlog
%%BeginSetup
%%EndSetup
%%Page: 1 1
%%BeginPageSetup
%%PageBoundingBox: 0 7 384 377
%%EndPageSetup
q 0 7 384 370 rectclip
1 0 0 -1 0 384 cm q
0.568627 0.870588 0.713726 rg
378.586 7.453 m 5.414 7.453 l 2.422 7.453 0 9.879 0 12.867 c 0 110.949 
l 0 113.938 2.422 116.359 5.414 116.359 c 163.129 116.359 l 164.75 116.359
 166.285 117.086 167.312 118.336 c 187.816 143.289 l 189.98 145.922 194.016
 145.922 196.18 143.289 c 216.684 118.336 l 217.711 117.086 219.246 116.359
 220.867 116.359 c 378.586 116.359 l 381.574 116.359 383.996 113.938 383.996
 110.949 c 383.996 12.867 l 383.996 9.879 381.574 7.453 378.586 7.453 c 
h
378.586 7.453 m f
0.431373 0.835294 0.631373 rg
384 12.867 m 384 110.945 l 384 113.938 381.57 116.355 378.586 116.355 c
 363.121 116.355 l 366.105 116.355 368.535 113.938 368.535 110.945 c 368.535
 12.867 l 368.535 9.883 366.105 7.453 363.121 7.453 c 378.586 7.453 l 381.57
 7.453 384 9.883 384 12.867 c h
384 12.867 m f
0.996078 0.6 0.00392157 rg
69.031 34.117 m 75.074 46.359 l 75.473 47.164 76.238 47.723 77.125 47.848
 c 90.637 49.812 l 95.258 50.484 97.105 56.164 93.758 59.426 c 83.98 68.957
 l 83.34 69.582 83.047 70.48 83.199 71.363 c 85.508 84.82 l 86.297 89.426
 81.465 92.938 77.328 90.762 c 65.246 84.41 l 64.453 83.992 63.504 83.992
 62.711 84.41 c 50.625 90.762 l 46.492 92.938 41.66 89.426 42.449 84.82 
c 44.758 71.363 l 44.91 70.48 44.617 69.582 43.973 68.957 c 34.199 59.426
 l 30.852 56.164 32.699 50.484 37.32 49.812 c 50.832 47.848 l 51.719 47.719
 52.484 47.164 52.883 46.359 c 58.926 34.117 l 60.992 29.93 66.965 29.93
 69.031 34.117 c h
69.031 34.117 m f
0.984314 0.533333 0.00392157 rg
83.984 68.957 m 83.336 69.586 83.051 70.477 83.203 71.363 c 85.504 84.824
 l 86.293 89.426 81.461 92.934 77.328 90.758 c 65.242 84.406 l 64.453 83.988
 63.5 83.988 62.711 84.406 c 50.629 90.758 l 46.492 92.934 41.66 89.426 
42.449 84.824 c 42.973 81.754 l 43.25 81.668 43.523 81.543 43.801 81.402
 c 45.578 80.465 47.355 79.531 49.133 78.594 c 51.809 77.188 54.492 75.746
 57.332 74.688 c 59.652 73.82 62.141 73.48 64.605 73.387 c 67.266 73.285
 71.203 75.129 72.852 72.066 c 73.359 71.125 73.199 69.805 73.379 68.785
 c 74.219 64.023 76.945 59.789 80.445 56.441 c 82.641 54.352 84.758 52.18
 86.93 50.062 c 87.156 49.836 87.367 49.609 87.539 49.359 c 90.637 49.816
 l 95.258 50.484 97.102 56.168 93.758 59.43 c h
83.984 68.957 m f
0.996078 0.6 0.00392157 rg
154.379 34.117 m 160.422 46.359 l 160.816 47.164 161.582 47.723 162.469
 47.848 c 175.98 49.812 l 180.605 50.484 182.449 56.164 179.105 59.426 c
 169.328 68.957 l 168.688 69.582 168.395 70.48 168.547 71.363 c 170.852 
84.82 l 171.645 89.426 166.809 92.938 162.676 90.762 c 150.59 84.41 l 149.797
 83.992 148.852 83.992 148.059 84.41 c 135.973 90.762 l 131.84 92.938 127.004
 89.426 127.797 84.82 c 130.102 71.363 l 130.254 70.48 129.961 69.582 129.32
 68.957 c 119.543 59.426 l 116.199 56.164 118.043 50.484 122.668 49.812 
c 136.18 47.848 l 137.066 47.719 137.832 47.164 138.227 46.359 c 144.27 
34.117 l 146.34 29.93 152.312 29.93 154.379 34.117 c h
154.379 34.117 m f
0.984314 0.533333 0.00392157 rg
169.328 68.957 m 168.684 69.586 168.398 70.477 168.551 71.363 c 170.852
 84.824 l 171.641 89.426 166.809 92.934 162.672 90.758 c 150.59 84.406 l
 149.801 83.988 148.848 83.988 148.059 84.406 c 135.977 90.758 l 131.84 
92.934 127.008 89.426 127.797 84.824 c 128.32 81.754 l 128.598 81.668 128.871
 81.543 129.148 81.402 c 130.926 80.465 132.703 79.531 134.48 78.594 c 137.156
 77.188 139.836 75.746 142.68 74.688 c 145 73.82 147.484 73.48 149.953 73.387
 c 152.613 73.285 156.551 75.129 158.199 72.066 c 158.707 71.125 158.547
 69.805 158.727 68.785 c 159.562 64.023 162.289 59.789 165.793 56.441 c 
167.988 54.352 170.105 52.18 172.277 50.062 c 172.504 49.836 172.715 49.609
 172.883 49.359 c 175.984 49.816 l 180.605 50.484 182.449 56.168 179.102
 59.43 c h
169.328 68.957 m f
0.996078 0.6 0.00392157 rg
239.727 34.117 m 245.766 46.359 l 246.164 47.164 246.93 47.723 247.816 
47.848 c 261.328 49.812 l 265.949 50.484 267.797 56.164 264.453 59.426 c
 254.676 68.957 l 254.035 69.582 253.742 70.48 253.891 71.363 c 256.199 
84.82 l 256.988 89.426 252.156 92.938 248.023 90.762 c 235.938 84.41 l 235.145
 83.992 234.199 83.992 233.406 84.41 c 221.32 90.762 l 217.184 92.938 212.352
 89.426 213.141 84.82 c 215.449 71.363 l 215.602 70.48 215.309 69.582 214.668
 68.957 c 204.891 59.426 l 201.547 56.164 203.391 50.484 208.016 49.812 
c 221.523 47.848 l 222.41 47.719 223.18 47.164 223.574 46.359 c 229.617 
34.117 l 231.684 29.93 237.66 29.93 239.727 34.117 c h
239.727 34.117 m f
0.984314 0.533333 0.00392157 rg
254.676 68.957 m 254.031 69.586 253.746 70.477 253.898 71.363 c 256.199
 84.824 l 256.988 89.426 252.156 92.934 248.02 90.758 c 235.938 84.406 l
 235.148 83.988 234.195 83.988 233.406 84.406 c 221.32 90.758 l 217.188 
92.934 212.355 89.426 213.145 84.824 c 213.668 81.754 l 213.945 81.668 214.219
 81.543 214.496 81.402 c 216.273 80.465 218.051 79.531 219.828 78.594 c 
222.504 77.188 225.184 75.746 228.027 74.688 c 230.348 73.82 232.832 73.48
 235.301 73.387 c 237.961 73.285 241.898 75.129 243.547 72.066 c 244.055
 71.125 243.895 69.805 244.074 68.785 c 244.91 64.023 247.637 59.789 251.137
 56.441 c 253.332 54.352 255.453 52.18 257.625 50.062 c 257.852 49.836 258.062
 49.609 258.23 49.359 c 261.332 49.816 l 265.953 50.484 267.797 56.168 264.449
 59.43 c h
254.676 68.957 m f
0.996078 0.6 0.00392157 rg
325.074 34.117 m 331.113 46.359 l 331.512 47.164 332.277 47.723 333.164
 47.848 c 346.676 49.812 l 351.297 50.484 353.145 56.164 349.801 59.426 
c 340.023 68.957 l 339.383 69.582 339.086 70.48 339.238 71.363 c 341.547
 84.82 l 342.336 89.426 337.504 92.938 333.371 90.762 c 321.285 84.41 l 
320.492 83.992 319.547 83.992 318.75 84.41 c 306.668 90.762 l 302.531 92.938
 297.699 89.426 298.488 84.82 c 300.797 71.363 l 300.949 70.48 300.656 69.582
 300.016 68.957 c 290.238 59.426 l 286.891 56.164 288.738 50.484 293.359
 49.812 c 306.871 47.848 l 307.758 47.719 308.523 47.164 308.922 46.359 
c 314.965 34.117 l 317.031 29.93 323.004 29.93 325.074 34.117 c h
325.074 34.117 m f
0.984314 0.533333 0.00392157 rg
340.023 68.957 m 339.379 69.586 339.094 70.477 339.242 71.363 c 341.543
 84.824 l 342.332 89.426 337.504 92.934 333.367 90.758 c 321.281 84.406 
l 320.492 83.988 319.543 83.988 318.754 84.406 c 306.668 90.758 l 302.531
 92.934 297.703 89.426 298.492 84.824 c 299.016 81.754 l 299.289 81.668 
299.566 81.543 299.84 81.402 c 301.621 80.465 303.395 79.531 305.172 78.594
 c 307.852 77.188 310.531 75.746 313.371 74.688 c 315.695 73.82 318.18 73.48
 320.645 73.387 c 323.309 73.285 327.242 75.129 328.895 72.066 c 329.398
 71.125 329.242 69.805 329.422 68.785 c 330.258 64.023 332.984 59.789 336.484
 56.441 c 338.68 54.352 340.797 52.18 342.969 50.062 c 343.199 49.836 343.406
 49.609 343.578 49.359 c 346.68 49.816 l 351.301 50.484 353.145 56.168 349.797
 59.43 c h
340.023 68.957 m f
0.964706 0.662745 0.423529 rg
272.441 283.387 m 271.398 283.387 l 271.398 238.766 l 112.594 238.766 l
 112.594 283.387 l 111.551 283.387 l 101.809 283.387 93.914 291.285 93.914
 301.023 c 93.914 310.766 101.809 318.66 111.551 318.66 c 112.594 318.66
 l 112.594 319.227 l 112.594 350.883 138.258 376.543 169.914 376.543 c 214.078
 376.543 l 245.734 376.543 271.398 350.883 271.398 319.227 c 271.398 318.66
 l 272.441 318.66 l 282.184 318.66 290.078 310.766 290.078 301.023 c 290.078
 291.285 282.184 283.387 272.441 283.387 c h
272.441 283.387 m f
0.352941 g
164.234 299.352 m 161.129 299.352 158.609 296.832 158.609 293.727 c 158.609
 284.156 l 158.609 281.051 161.129 278.531 164.234 278.531 c 167.34 278.531
 169.859 281.051 169.859 284.156 c 169.859 293.727 l 169.859 296.832 167.34
 299.352 164.234 299.352 c h
164.234 299.352 m f
219.766 299.352 m 216.66 299.352 214.141 296.832 214.141 293.727 c 214.141
 284.156 l 214.141 281.051 216.66 278.531 219.766 278.531 c 222.871 278.531
 225.391 281.051 225.391 284.156 c 225.391 293.727 l 225.391 296.832 222.871
 299.352 219.766 299.352 c h
219.766 299.352 m f
0.917647 0.607843 0.345098 rg
290.086 301.023 m 290.086 310.762 282.18 318.664 272.445 318.664 c 271.398
 318.664 l 271.398 319.227 l 271.398 350.883 245.734 376.547 214.078 376.547
 c 198.801 376.547 l 230.457 376.547 256.121 350.883 256.121 319.227 c 256.121
 238.77 l 271.398 238.77 l 271.398 283.387 l 272.445 283.387 l 277.312 283.387
 281.727 285.363 284.918 288.551 c 288.109 291.754 290.086 296.156 290.086
 301.023 c h
290.086 301.023 m f
0.352941 g
121.027 171.184 m 128.984 175.352 l 135.32 178.676 142.887 178.676 149.227
 175.352 c 155.426 172.105 l 161.766 168.781 169.332 168.781 175.668 172.105
 c 181.867 175.352 l 188.207 178.676 195.773 178.676 202.113 175.352 c 208.312
 172.102 l 214.652 168.781 222.215 168.781 228.555 172.102 c 234.762 175.355
 l 241.098 178.676 248.664 178.676 255.004 175.355 c 262.965 171.184 l 266.77
 169.188 271.332 171.949 271.332 176.242 c 271.332 288.965 l 271.332 290.672
 269.258 291.496 268.078 290.266 c 262.23 284.16 250.305 269.84 247.75 252.336
 c 247.34 249.52 244.695 247.719 241.918 248.332 c 238.297 249.129 234.098
 250.047 233.652 250.125 c 222.109 252.09 210.039 253.27 197.914 253.395
 c 191.996 253.34 l 186.078 253.395 l 173.953 253.27 161.883 252.09 150.34
 250.125 c 149.895 250.047 145.695 249.129 142.07 248.332 c 139.305 247.723
 136.645 249.609 136.23 252.414 c 133.652 269.887 121.746 284.176 115.91
 290.27 c 114.73 291.5 112.66 290.668 112.66 288.965 c 112.66 176.246 l 
112.66 171.949 117.223 169.191 121.027 171.184 c h
121.027 171.184 m f
0.266667 g
271.332 176.238 m 271.332 288.969 l 271.332 290.672 269.258 291.496 268.074
 290.262 c 265.094 287.148 260.523 281.895 256.43 275.172 c 256.43 176.238
 l 256.43 175.711 256.363 175.191 256.219 174.715 c 262.965 171.184 l 266.773
 169.188 271.332 171.945 271.332 176.238 c h
271.332 176.238 m f
Q Q
showpage
%%Trailer
end
%%EOF
