%!PS-Adobe-3.0 EPSF-3.0
%%Creator: cairo 1.16.0 (https://cairographics.org)
%%CreationDate: Thu Nov  7 08:25:48 2019
%%Pages: 1
%%DocumentData: Clean7Bit
%%LanguageLevel: 2
%%BoundingBox: 28 0 356 384
%%EndComments
%%BeginProlog
50 dict begin
/q { gsave } bind def
/Q { grestore } bind def
/cm { 6 array astore concat } bind def
/w { setlinewidth } bind def
/J { setlinecap } bind def
/j { setlinejoin } bind def
/M { setmiterlimit } bind def
/d { setdash } bind def
/m { moveto } bind def
/l { lineto } bind def
/c { curveto } bind def
/h { closepath } bind def
/re { exch dup neg 3 1 roll 5 3 roll moveto 0 rlineto
      0 exch rlineto 0 rlineto closepath } bind def
/S { stroke } bind def
/f { fill } bind def
/f* { eofill } bind def
/n { newpath } bind def
/W { clip } bind def
/W* { eoclip } bind def
/BT { } bind def
/ET { } bind def
/BDC { mark 3 1 roll /BDC pdfmark } bind def
/EMC { mark /EMC pdfmark } bind def
/cairo_store_point { /cairo_point_y exch def /cairo_point_x exch def } def
/Tj { show currentpoint cairo_store_point } bind def
/TJ {
  {
    dup
    type /stringtype eq
    { show } { -0.001 mul 0 cairo_font_matrix dtransform rmoveto } ifelse
  } forall
  currentpoint cairo_store_point
} bind def
/cairo_selectfont { cairo_font_matrix aload pop pop pop 0 0 6 array astore
    cairo_font exch selectfont cairo_point_x cairo_point_y moveto } bind def
/Tf { pop /cairo_font exch def /cairo_font_matrix where
      { pop cairo_selectfont } if } bind def
/Td { matrix translate cairo_font_matrix matrix concatmatrix dup
      /cairo_font_matrix exch def dup 4 get exch 5 get cairo_store_point
      /cairo_font where { pop cairo_selectfont } if } bind def
/Tm { 2 copy 8 2 roll 6 array astore /cairo_font_matrix exch def
      cairo_store_point /cairo_font where { pop cairo_selectfont } if } bind def
/g { setgray } bind def
/rg { setrgbcolor } bind def
/d1 { setcachedevice } bind def
/cairo_data_source {
  CairoDataIndex CairoData length lt
    { CairoData CairoDataIndex get /CairoDataIndex CairoDataIndex 1 add def }
    { () } ifelse
} def
/cairo_flush_ascii85_file { cairo_ascii85_file status { cairo_ascii85_file flushfile } if } def
/cairo_image { image cairo_flush_ascii85_file } def
/cairo_imagemask { imagemask cairo_flush_ascii85_file } def
%%EndProlog
%%BeginSetup
%%EndSetup
%%Page: 1 1
%%BeginPageSetup
%%PageBoundingBox: 28 0 356 384
%%EndPageSetup
q 28 0 328 384 rectclip
1 0 0 -1 0 384 cm q
0.843137 0.498039 0.290196 rg
81.141 383.41 m 91.191 385.98 101.418 379.918 103.988 369.867 c 123.754
 292.559 l 87.367 283.258 l 67.602 360.566 l 65.031 370.613 71.094 380.84
 81.141 383.41 c h
81.141 383.41 m f
245.543 383.41 m 235.496 385.98 225.27 379.918 222.699 369.867 c 202.934
 292.559 l 239.32 283.258 l 259.086 360.566 l 261.656 370.613 255.594 380.84
 245.543 383.41 c h
245.543 383.41 m f
0.784314 0.427451 0.211765 rg
123.754 292.559 m 103.988 369.871 l 101.414 379.914 91.191 385.977 81.141
 383.41 c 77.223 382.406 73.914 380.242 71.48 377.375 c 79.527 377.016 86.73
 371.465 88.832 363.262 c 107.938 288.52 l h
123.754 292.559 m f
245.543 383.41 m 239.742 384.895 233.879 383.496 229.465 380.117 c 238.809
 377.082 244.305 367.262 241.836 357.617 c 223.832 287.219 l 239.316 283.262
 l 259.082 360.566 l 261.656 370.617 255.594 380.84 245.543 383.41 c h
245.543 383.41 m f
0.952941 0.917647 0.901961 rg
297.977 181.352 m 297.977 255.707 237.699 315.984 163.344 315.984 c 88.988
 315.984 28.711 255.707 28.711 181.352 c 28.711 106.996 88.988 46.719 163.344
 46.719 c 237.699 46.719 297.977 106.996 297.977 181.352 c h
297.977 181.352 m f
0.882353 0.827451 0.807843 rg
297.98 181.348 m 297.98 255.711 237.703 315.988 163.34 315.988 c 144.902
 315.988 127.324 312.285 111.324 305.57 c 123.703 309.328 136.844 311.348
 150.457 311.348 c 224.809 311.348 285.086 251.07 285.086 176.711 c 285.086
 120.785 250.988 72.828 202.453 52.488 c 257.738 69.238 297.98 120.602 297.98
 181.348 c h
297.98 181.348 m f
0.984314 0.168627 0.227451 rg
262.301 181.352 m 262.301 236.004 217.996 280.305 163.344 280.305 c 108.691
 280.305 64.387 236.004 64.387 181.352 c 64.387 126.699 108.691 82.395 163.344
 82.395 c 217.996 82.395 262.301 126.699 262.301 181.352 c h
262.301 181.352 m f
0.952941 0.917647 0.901961 rg
227.551 181.352 m 227.551 216.812 198.805 245.559 163.344 245.559 c 127.883
 245.559 99.137 216.812 99.137 181.352 c 99.137 145.891 127.883 117.145 
163.344 117.145 c 180.371 117.145 196.703 123.91 208.742 135.949 c 220.785
 147.992 227.551 164.32 227.551 181.352 c h
227.551 181.352 m f
0.984314 0.168627 0.227451 rg
194.676 181.352 m 194.676 198.656 180.648 212.684 163.344 212.684 c 146.039
 212.684 132.008 198.656 132.008 181.352 c 132.008 164.047 146.039 150.016
 163.344 150.016 c 180.648 150.016 194.676 164.047 194.676 181.352 c h
194.676 181.352 m f
0.996078 0.756863 0.396078 rg
355.289 60.406 m 355.289 93.77 328.246 120.816 294.883 120.816 c 261.52
 120.816 234.477 93.77 234.477 60.406 c 234.477 27.047 261.52 0 294.883 
0 c 328.246 0 355.289 27.047 355.289 60.406 c h
355.289 60.406 m f
0.992157 0.278431 0.333333 rg
328.02 47.824 m 302.691 22.504 l 298.27 18.082 291.098 18.082 286.676 22.504
 c 261.91 47.27 l 257.496 51.684 257.246 59.141 261.359 63.84 c 265.469 
68.539 272.445 68.77 276.859 64.355 c 279.504 61.711 l 281.199 60.016 284.094
 61.215 284.094 63.609 c 284.094 90.301 l 284.094 96.555 289.164 101.629
 295.418 101.629 c 301.676 101.629 306.746 96.555 306.746 90.301 c 306.746
 65.07 l 306.746 62.676 309.641 61.477 311.332 63.172 c 312.004 63.84 l 
316.426 68.262 323.598 68.262 328.02 63.84 c 332.441 59.418 332.441 52.246
 328.02 47.824 c h
328.02 47.824 m f
0.984314 0.168627 0.227451 rg
331.336 55.832 m 331.336 58.73 330.23 61.633 328.023 63.84 c 323.598 68.266
 316.426 68.266 312.004 63.84 c 311.332 63.168 l 309.641 61.477 306.746 
62.672 306.746 65.074 c 306.746 90.297 l 306.746 93.426 305.48 96.258 303.426
 98.312 c 301.379 100.359 298.547 101.625 295.418 101.625 c 293.258 101.625
 291.242 101.023 289.52 99.973 c 292.609 98.059 294.66 94.629 294.66 90.723
 c 294.66 74.895 l 294.66 67.723 293.844 60.133 300.453 55.523 c 301.789
 54.605 303.473 54.406 305.008 53.887 c 307.047 53.203 308.32 51.602 308.844
 49.742 c 309.355 47.953 309.16 45.914 308.305 44.207 c 306.453 40.547 303.102
 37.812 300.25 34.957 c 297.086 31.801 293.93 28.633 290.762 25.469 c 289.496
 24.203 287.992 23.309 286.387 22.797 c 286.68 22.504 l 291.102 18.078 298.266
 18.078 302.691 22.504 c 328.016 47.82 l 330.23 50.035 331.336 52.93 331.336
 55.832 c h
331.336 55.832 m f
Q Q
showpage
%%Trailer
end
%%EOF
