%!PS-Adobe-3.0 EPSF-3.0
%%Creator: cairo 1.16.0 (https://cairographics.org)
%%CreationDate: Thu Nov  7 08:25:48 2019
%%Pages: 1
%%DocumentData: Clean7Bit
%%LanguageLevel: 2
%%BoundingBox: 0 15 384 369
%%EndComments
%%BeginProlog
50 dict begin
/q { gsave } bind def
/Q { grestore } bind def
/cm { 6 array astore concat } bind def
/w { setlinewidth } bind def
/J { setlinecap } bind def
/j { setlinejoin } bind def
/M { setmiterlimit } bind def
/d { setdash } bind def
/m { moveto } bind def
/l { lineto } bind def
/c { curveto } bind def
/h { closepath } bind def
/re { exch dup neg 3 1 roll 5 3 roll moveto 0 rlineto
      0 exch rlineto 0 rlineto closepath } bind def
/S { stroke } bind def
/f { fill } bind def
/f* { eofill } bind def
/n { newpath } bind def
/W { clip } bind def
/W* { eoclip } bind def
/BT { } bind def
/ET { } bind def
/BDC { mark 3 1 roll /BDC pdfmark } bind def
/EMC { mark /EMC pdfmark } bind def
/cairo_store_point { /cairo_point_y exch def /cairo_point_x exch def } def
/Tj { show currentpoint cairo_store_point } bind def
/TJ {
  {
    dup
    type /stringtype eq
    { show } { -0.001 mul 0 cairo_font_matrix dtransform rmoveto } ifelse
  } forall
  currentpoint cairo_store_point
} bind def
/cairo_selectfont { cairo_font_matrix aload pop pop pop 0 0 6 array astore
    cairo_font exch selectfont cairo_point_x cairo_point_y moveto } bind def
/Tf { pop /cairo_font exch def /cairo_font_matrix where
      { pop cairo_selectfont } if } bind def
/Td { matrix translate cairo_font_matrix matrix concatmatrix dup
      /cairo_font_matrix exch def dup 4 get exch 5 get cairo_store_point
      /cairo_font where { pop cairo_selectfont } if } bind def
/Tm { 2 copy 8 2 roll 6 array astore /cairo_font_matrix exch def
      cairo_store_point /cairo_font where { pop cairo_selectfont } if } bind def
/g { setgray } bind def
/rg { setrgbcolor } bind def
/d1 { setcachedevice } bind def
/cairo_data_source {
  CairoDataIndex CairoData length lt
    { CairoData CairoDataIndex get /CairoDataIndex CairoDataIndex 1 add def }
    { () } ifelse
} def
/cairo_flush_ascii85_file { cairo_ascii85_file status { cairo_ascii85_file flushfile } if } def
/cairo_image { image cairo_flush_ascii85_file } def
/cairo_imagemask { imagemask cairo_flush_ascii85_file } def
%%EndProlog
%%BeginSetup
%%EndSetup
%%Page: 1 1
%%BeginPageSetup
%%PageBoundingBox: 0 15 384 369
%%EndPageSetup
q 0 15 384 354 rectclip
1 0 0 -1 0 384 cm q
0.14902 0.65098 0.996078 rg
320.703 219.086 m 320.703 249.758 l 379.547 249.758 l 382.664 249.758 384.812
 246.637 383.699 243.723 c 374.887 220.672 l 374.496 219.648 374.496 218.52
 374.887 217.496 c 383.699 194.445 l 384.812 191.535 382.664 188.41 379.547
 188.41 c 320.703 188.41 l h
320.703 219.086 m f
0.0196078 0.576471 0.988235 rg
383.703 243.727 m 384.816 246.637 382.66 249.758 379.551 249.758 c 363.293
 249.758 l 366.414 249.758 368.559 246.637 367.449 243.727 c 358.637 220.676
 l 358.242 219.648 358.242 218.523 358.637 217.496 c 367.449 194.445 l 368.559
 191.531 366.414 188.414 363.293 188.414 c 379.551 188.414 l 382.66 188.414
 384.816 191.535 383.703 194.445 c 374.887 217.496 l 374.5 218.523 374.5
 219.648 374.887 220.676 c h
383.703 243.727 m f
0.14902 0.65098 0.996078 rg
63.555 219.086 m 63.555 249.758 l 4.453 249.758 l 1.336 249.758 -0.816 
246.637 0.297 243.723 c 9.113 220.672 l 9.504 219.648 9.504 218.52 9.113
 217.496 c 0.297 194.445 l -0.816 191.535 1.336 188.41 4.453 188.41 c 63.555
 188.41 l h
63.555 219.086 m f
0.952941 0.917647 0.901961 rg
55.145 72.316 m 55.145 353.719 l 55.145 361.742 61.648 368.242 69.668 368.242
 c 314.332 368.242 l 322.352 368.242 328.855 361.742 328.855 353.719 c 328.855
 30.281 l 328.855 22.258 322.352 15.758 314.332 15.758 c 115.113 15.758 
l h
55.145 72.316 m f
0.882353 0.827451 0.807843 rg
328.852 30.277 m 328.852 353.723 l 328.852 361.738 322.348 368.242 314.328
 368.242 c 296.352 368.242 l 304.379 368.242 310.883 361.738 310.883 353.723
 c 310.883 30.277 l 310.883 22.262 304.379 15.758 296.352 15.758 c 314.328
 15.758 l 322.348 15.758 328.852 22.262 328.852 30.277 c h
328.852 30.277 m f
0.803922 0.74902 0.729412 rg
55.145 72.316 m 100.594 72.316 l 108.613 72.316 115.113 65.816 115.113 
57.797 c 115.113 15.758 l h
55.145 72.316 m f
273.781 306.992 m 110.215 306.992 l 107.109 306.992 104.59 304.473 104.59
 301.367 c 104.59 298.262 107.109 295.742 110.215 295.742 c 273.781 295.742
 l 276.887 295.742 279.406 298.262 279.406 301.367 c 279.406 304.473 276.887
 306.992 273.781 306.992 c h
273.781 306.992 m f
273.781 332.281 m 110.215 332.281 l 107.109 332.281 104.59 329.762 104.59
 326.656 c 104.59 323.547 107.109 321.031 110.215 321.031 c 273.781 321.031
 l 276.887 321.031 279.406 323.547 279.406 326.656 c 279.406 329.762 276.887
 332.281 273.781 332.281 c h
273.781 332.281 m f
245.035 102.703 m 138.965 102.703 l 135.859 102.703 133.34 100.188 133.34
 97.078 c 133.34 93.973 135.859 91.453 138.965 91.453 c 245.035 91.453 l
 248.141 91.453 250.66 93.973 250.66 97.078 c 250.66 100.188 248.141 102.703
 245.035 102.703 c h
245.035 102.703 m f
273.781 127.992 m 110.215 127.992 l 107.109 127.992 104.59 125.473 104.59
 122.367 c 104.59 119.258 107.109 116.742 110.215 116.742 c 273.781 116.742
 l 276.887 116.742 279.406 119.258 279.406 122.367 c 279.406 125.473 276.887
 127.992 273.781 127.992 c h
273.781 127.992 m f
0.541176 0.788235 0.996078 rg
337.141 240.531 m 239.988 240.531 l 239.988 188.324 l 337.145 188.324 l
 339.273 188.324 341.004 190.055 341.004 192.188 c 341.004 236.668 l 341.004
 238.801 339.273 240.531 337.141 240.531 c h
337.141 240.531 m f
0.376471 0.717647 1 rg
341.008 192.191 m 341.008 236.672 l 341.008 238.801 339.277 240.531 337.145
 240.531 c 320.703 240.531 l 322.844 240.531 324.562 238.801 324.562 236.672
 c 324.562 192.191 l 324.562 190.051 322.844 188.328 320.703 188.328 c 337.145
 188.328 l 339.277 188.328 341.008 190.051 341.008 192.191 c h
341.008 192.191 m f
0.541176 0.788235 0.996078 rg
144.012 240.531 m 46.855 240.531 l 44.723 240.531 42.996 238.801 42.996
 236.672 c 42.996 192.188 l 42.996 190.055 44.723 188.328 46.855 188.328
 c 144.012 188.328 l h
144.012 240.531 m f
0.996078 0.756863 0.396078 rg
255.719 214.43 m 255.719 249.621 227.191 278.148 192 278.148 c 156.809 
278.148 128.281 249.621 128.281 214.43 c 128.281 179.238 156.809 150.711
 192 150.711 c 208.898 150.711 225.105 157.422 237.055 169.371 c 249.004
 181.32 255.719 197.531 255.719 214.43 c h
255.719 214.43 m f
0.996078 0.6 0.00392157 rg
197.68 180.656 m 204.469 194.414 l 204.914 195.316 205.773 195.941 206.77
 196.086 c 221.953 198.293 l 227.148 199.047 229.223 205.43 225.465 209.094
 c 214.477 219.805 l 213.758 220.508 213.426 221.52 213.598 222.512 c 216.191
 237.633 l 217.078 242.805 211.648 246.754 207.004 244.309 c 193.422 237.172
 l 192.531 236.703 191.465 236.703 190.574 237.172 c 176.996 244.309 l 172.348
 246.754 166.918 242.805 167.805 237.633 c 170.398 222.512 l 170.57 221.52
 170.242 220.508 169.52 219.805 c 158.531 209.094 l 154.773 205.43 156.848
 199.047 162.043 198.293 c 177.227 196.086 l 178.223 195.941 179.082 195.316
 179.527 194.414 c 186.32 180.656 l 188.645 175.949 195.355 175.949 197.68
 180.656 c h
197.68 180.656 m f
0.984314 0.533333 0.00392157 rg
214.48 219.805 m 213.754 220.508 213.434 221.516 213.602 222.508 c 216.188
 237.637 l 217.074 242.809 211.648 246.75 207 244.305 c 193.418 237.168 
l 192.535 236.695 191.465 236.695 190.578 237.168 c 176.996 244.305 l 172.352
 246.75 166.922 242.809 167.809 237.637 c 168.398 234.188 l 168.707 234.09
 169.016 233.953 169.328 233.789 c 171.324 232.738 173.32 231.688 175.32
 230.637 c 178.328 229.055 181.34 227.434 184.531 226.242 c 187.141 225.27
 189.934 224.887 192.703 224.785 c 195.699 224.672 200.121 226.742 201.973
 223.301 c 202.543 222.242 202.363 220.762 202.566 219.609 c 203.508 214.262
 206.57 209.504 210.504 205.742 c 212.973 203.391 215.352 200.953 217.789
 198.574 c 218.047 198.32 218.281 198.062 218.477 197.785 c 221.957 198.297
 l 227.152 199.047 229.223 205.434 225.461 209.102 c h
214.48 219.805 m f
Q Q
showpage
%%Trailer
end
%%EOF
