%!PS-Adobe-3.0 EPSF-3.0
%%Creator: cairo 1.16.0 (https://cairographics.org)
%%CreationDate: Thu Nov  7 08:25:48 2019
%%Pages: 1
%%DocumentData: Clean7Bit
%%LanguageLevel: 2
%%BoundingBox: 0 31 384 353
%%EndComments
%%BeginProlog
50 dict begin
/q { gsave } bind def
/Q { grestore } bind def
/cm { 6 array astore concat } bind def
/w { setlinewidth } bind def
/J { setlinecap } bind def
/j { setlinejoin } bind def
/M { setmiterlimit } bind def
/d { setdash } bind def
/m { moveto } bind def
/l { lineto } bind def
/c { curveto } bind def
/h { closepath } bind def
/re { exch dup neg 3 1 roll 5 3 roll moveto 0 rlineto
      0 exch rlineto 0 rlineto closepath } bind def
/S { stroke } bind def
/f { fill } bind def
/f* { eofill } bind def
/n { newpath } bind def
/W { clip } bind def
/W* { eoclip } bind def
/BT { } bind def
/ET { } bind def
/BDC { mark 3 1 roll /BDC pdfmark } bind def
/EMC { mark /EMC pdfmark } bind def
/cairo_store_point { /cairo_point_y exch def /cairo_point_x exch def } def
/Tj { show currentpoint cairo_store_point } bind def
/TJ {
  {
    dup
    type /stringtype eq
    { show } { -0.001 mul 0 cairo_font_matrix dtransform rmoveto } ifelse
  } forall
  currentpoint cairo_store_point
} bind def
/cairo_selectfont { cairo_font_matrix aload pop pop pop 0 0 6 array astore
    cairo_font exch selectfont cairo_point_x cairo_point_y moveto } bind def
/Tf { pop /cairo_font exch def /cairo_font_matrix where
      { pop cairo_selectfont } if } bind def
/Td { matrix translate cairo_font_matrix matrix concatmatrix dup
      /cairo_font_matrix exch def dup 4 get exch 5 get cairo_store_point
      /cairo_font where { pop cairo_selectfont } if } bind def
/Tm { 2 copy 8 2 roll 6 array astore /cairo_font_matrix exch def
      cairo_store_point /cairo_font where { pop cairo_selectfont } if } bind def
/g { setgray } bind def
/rg { setrgbcolor } bind def
/d1 { setcachedevice } bind def
/cairo_data_source {
  CairoDataIndex CairoData length lt
    { CairoData CairoDataIndex get /CairoDataIndex CairoDataIndex 1 add def }
    { () } ifelse
} def
/cairo_flush_ascii85_file { cairo_ascii85_file status { cairo_ascii85_file flushfile } if } def
/cairo_image { image cairo_flush_ascii85_file } def
/cairo_imagemask { imagemask cairo_flush_ascii85_file } def
%%EndProlog
%%BeginSetup
%%EndSetup
%%Page: 1 1
%%BeginPageSetup
%%PageBoundingBox: 0 31 384 353
%%EndPageSetup
q 0 31 384 322 rectclip
1 0 0 -1 0 384 cm q
0.352941 g
356.902 310.945 m 26.074 310.945 l 26.074 98.137 l 26.074 85.949 35.957
 76.07 48.141 76.07 c 334.836 76.07 l 347.023 76.07 356.902 85.949 356.902
 98.137 c h
356.902 310.945 m f
0.541176 0.788235 0.996078 rg
321.34 275.641 m 61.637 275.641 l 57.363 275.641 53.898 272.172 53.898 
267.898 c 53.898 112.574 l 53.898 108.301 57.363 104.836 61.637 104.836 
c 321.34 104.836 l 325.617 104.836 329.082 108.301 329.082 112.574 c 329.082
 267.898 l 329.082 272.176 325.617 275.641 321.34 275.641 c h
321.34 275.641 m f
0.376471 0.717647 1 rg
329.078 112.574 m 329.078 267.898 l 329.078 272.172 325.613 275.641 321.34
 275.641 c 305.895 275.641 l 310.164 275.641 313.633 272.172 313.633 267.898
 c 313.633 112.574 l 313.633 108.297 310.164 104.836 305.895 104.836 c 321.34
 104.836 l 325.613 104.836 329.078 108.297 329.078 112.574 c h
329.078 112.574 m f
0.14902 0.65098 0.996078 rg
288.938 158.668 m 94.043 158.668 l 90.969 158.668 88.477 156.176 88.477
 153.102 c 88.477 137.691 l 88.477 134.617 90.969 132.121 94.043 132.121
 c 288.938 132.121 l 292.012 132.121 294.504 134.617 294.504 137.691 c 294.504
 153.102 l 294.504 156.176 292.012 158.668 288.938 158.668 c h
288.938 158.668 m f
173.461 203.746 m 94.043 203.746 l 90.969 203.746 88.477 201.254 88.477
 198.18 c 88.477 182.77 l 88.477 179.695 90.969 177.203 94.043 177.203 c
 173.461 177.203 l 176.535 177.203 179.027 179.695 179.027 182.77 c 179.027
 198.18 l 179.027 201.254 176.535 203.746 173.461 203.746 c h
173.461 203.746 m f
288.938 203.746 m 209.52 203.746 l 206.445 203.746 203.953 201.254 203.953
 198.18 c 203.953 182.77 l 203.953 179.695 206.445 177.203 209.52 177.203
 c 288.938 177.203 l 292.012 177.203 294.504 179.695 294.504 182.77 c 294.504
 198.18 l 294.504 201.254 292.012 203.746 288.938 203.746 c h
288.938 203.746 m f
294.504 231.555 m 88.477 231.555 l 85.277 231.555 82.684 228.961 82.684
 225.758 c 82.684 222.559 85.277 219.965 88.477 219.965 c 294.504 219.965
 l 297.703 219.965 300.297 222.559 300.297 225.758 c 300.297 228.961 297.703
 231.555 294.504 231.555 c h
294.504 231.555 m f
179.523 254.145 m 88.477 254.145 l 85.277 254.145 82.684 251.551 82.684
 248.352 c 82.684 245.152 85.277 242.559 88.477 242.559 c 179.523 242.559
 l 182.723 242.559 185.316 245.152 185.316 248.352 c 185.316 251.551 182.723
 254.145 179.523 254.145 c h
179.523 254.145 m f
0.996078 0.756863 0.396078 rg
383.805 79.125 m 383.805 105.574 362.363 127.012 335.914 127.012 c 309.469
 127.012 288.027 105.574 288.027 79.125 c 288.027 52.68 309.469 31.238 335.914
 31.238 c 362.363 31.238 383.805 52.68 383.805 79.125 c h
383.805 79.125 m f
0.568627 0.870588 0.713726 rg
362.184 69.148 m 342.105 49.078 l 338.602 45.57 332.918 45.57 329.41 49.078
 c 309.777 68.711 l 306.277 72.211 306.082 78.121 309.34 81.848 c 312.598
 85.57 318.129 85.754 321.629 82.254 c 323.727 80.156 l 325.066 78.816 327.363
 79.766 327.363 81.664 c 327.363 102.824 l 327.363 107.781 331.383 111.801
 336.34 111.801 c 341.301 111.801 345.32 107.781 345.32 102.824 c 345.32
 82.824 l 345.32 80.926 347.613 79.973 348.957 81.316 c 349.488 81.848 l
 352.992 85.352 358.68 85.352 362.184 81.848 c 365.691 78.34 365.691 72.656
 362.184 69.148 c h
362.184 69.148 m f
0.431373 0.835294 0.631373 rg
364.812 75.5 m 364.812 77.793 363.938 80.098 362.188 81.848 c 358.68 85.355
 352.996 85.355 349.488 81.848 c 348.953 81.312 l 347.613 79.973 345.32 
80.922 345.32 82.828 c 345.32 102.82 l 345.32 105.301 344.316 107.547 342.688
 109.176 c 341.066 110.797 338.82 111.801 336.34 111.801 c 334.625 111.801
 333.027 111.324 331.664 110.492 c 334.113 108.973 335.742 106.258 335.742
 103.16 c 335.742 90.613 l 335.742 84.926 335.09 78.91 340.332 75.258 c 
341.391 74.527 342.723 74.371 343.941 73.961 c 345.559 73.414 346.566 72.148
 346.984 70.672 c 347.387 69.254 347.234 67.637 346.555 66.285 c 345.086
 63.383 342.43 61.215 340.172 58.953 c 337.664 56.449 335.16 53.938 332.652
 51.43 c 331.648 50.426 330.453 49.715 329.18 49.312 c 329.414 49.078 l 
332.918 45.574 338.598 45.574 342.105 49.078 c 362.184 69.148 l 363.938 
70.902 364.812 73.199 364.812 75.5 c h
364.812 75.5 m f
0.952941 0.917647 0.901961 rg
145.863 304.406 92.273 27.035 re f
0.611765 g
377.461 304.406 m 235.82 304.406 l 235.82 315.84 l 235.82 320.449 232.086
 324.184 227.477 324.184 c 156.523 324.184 l 151.914 324.184 148.18 320.449
 148.18 315.84 c 148.18 304.406 l 6.539 304.406 l 2.93 304.406 0 307.336
 0 310.945 c 0 332.281 l 0 343.594 9.168 352.762 20.48 352.762 c 363.52 
352.762 l 374.828 352.762 384 343.594 384 332.281 c 384 310.945 l 384 307.336
 381.07 304.406 377.461 304.406 c h
377.461 304.406 m f
0.513726 g
384 310.945 m 384 332.281 l 384 343.594 374.832 352.762 363.52 352.762 
c 351.844 352.762 l 360.535 352.762 367.582 345.715 367.582 337.023 c 367.582
 310.945 l 367.582 307.332 364.66 304.402 361.047 304.402 c 377.457 304.402
 l 381.07 304.402 384 307.332 384 310.945 c h
384 310.945 m f
Q Q
showpage
%%Trailer
end
%%EOF
