%!PS-Adobe-3.0 EPSF-3.0
%%Creator: cairo 1.16.0 (https://cairographics.org)
%%CreationDate: Thu Nov  7 08:25:49 2019
%%Pages: 1
%%DocumentData: Clean7Bit
%%LanguageLevel: 2
%%BoundingBox: 0 0 384 384
%%EndComments
%%BeginProlog
50 dict begin
/q { gsave } bind def
/Q { grestore } bind def
/cm { 6 array astore concat } bind def
/w { setlinewidth } bind def
/J { setlinecap } bind def
/j { setlinejoin } bind def
/M { setmiterlimit } bind def
/d { setdash } bind def
/m { moveto } bind def
/l { lineto } bind def
/c { curveto } bind def
/h { closepath } bind def
/re { exch dup neg 3 1 roll 5 3 roll moveto 0 rlineto
      0 exch rlineto 0 rlineto closepath } bind def
/S { stroke } bind def
/f { fill } bind def
/f* { eofill } bind def
/n { newpath } bind def
/W { clip } bind def
/W* { eoclip } bind def
/BT { } bind def
/ET { } bind def
/BDC { mark 3 1 roll /BDC pdfmark } bind def
/EMC { mark /EMC pdfmark } bind def
/cairo_store_point { /cairo_point_y exch def /cairo_point_x exch def } def
/Tj { show currentpoint cairo_store_point } bind def
/TJ {
  {
    dup
    type /stringtype eq
    { show } { -0.001 mul 0 cairo_font_matrix dtransform rmoveto } ifelse
  } forall
  currentpoint cairo_store_point
} bind def
/cairo_selectfont { cairo_font_matrix aload pop pop pop 0 0 6 array astore
    cairo_font exch selectfont cairo_point_x cairo_point_y moveto } bind def
/Tf { pop /cairo_font exch def /cairo_font_matrix where
      { pop cairo_selectfont } if } bind def
/Td { matrix translate cairo_font_matrix matrix concatmatrix dup
      /cairo_font_matrix exch def dup 4 get exch 5 get cairo_store_point
      /cairo_font where { pop cairo_selectfont } if } bind def
/Tm { 2 copy 8 2 roll 6 array astore /cairo_font_matrix exch def
      cairo_store_point /cairo_font where { pop cairo_selectfont } if } bind def
/g { setgray } bind def
/rg { setrgbcolor } bind def
/d1 { setcachedevice } bind def
/cairo_data_source {
  CairoDataIndex CairoData length lt
    { CairoData CairoDataIndex get /CairoDataIndex CairoDataIndex 1 add def }
    { () } ifelse
} def
/cairo_flush_ascii85_file { cairo_ascii85_file status { cairo_ascii85_file flushfile } if } def
/cairo_image { image cairo_flush_ascii85_file } def
/cairo_imagemask { imagemask cairo_flush_ascii85_file } def
%%EndProlog
%%BeginSetup
%%EndSetup
%%Page: 1 1
%%BeginPageSetup
%%PageBoundingBox: 0 0 384 384
%%EndPageSetup
q 0 0 384 384 rectclip
1 0 0 -1 0 384 cm q
0 0.760784 0.478431 rg
178.832 362.57 m 112.273 362.57 l 112.273 128.078 l 112.273 125.949 114
 124.223 116.133 124.223 c 174.977 124.223 l 177.105 124.223 178.832 125.949
 178.832 128.078 c h
178.832 362.57 m f
0.0313726 0.721569 0.396078 rg
178.832 128.082 m 178.832 357.555 l 159.98 357.555 l 159.98 128.082 l 159.98
 125.945 158.25 124.223 156.121 124.223 c 174.973 124.223 l 177.105 124.223
 178.832 125.945 178.832 128.082 c h
178.832 128.082 m f
0.541176 0.788235 0.996078 rg
85.941 362.57 m 19.379 362.57 l 19.379 278.754 l 19.379 276.621 21.109 
274.895 23.238 274.895 c 82.082 274.895 l 84.215 274.895 85.941 276.625 
85.941 278.754 c h
85.941 362.57 m f
0.376471 0.717647 1 rg
85.941 278.758 m 85.941 357.555 l 67.086 357.555 l 67.086 278.758 l 67.086
 276.617 65.355 274.898 63.227 274.898 c 82.082 274.898 l 84.211 274.898
 85.941 276.617 85.941 278.758 c h
85.941 278.758 m f
0.984314 0.168627 0.227451 rg
271.727 362.57 m 205.168 362.57 l 205.168 228.344 l 205.168 226.211 206.895
 224.484 209.023 224.484 c 267.867 224.484 l 270 224.484 271.727 226.211
 271.727 228.344 c h
271.727 362.57 m f
0.894118 0.121569 0.176471 rg
271.727 228.344 m 271.727 357.555 l 252.871 357.555 l 252.871 228.344 l
 252.871 226.207 251.145 224.484 249.012 224.484 c 267.867 224.484 l 269.996
 224.484 271.727 226.207 271.727 228.344 c h
271.727 228.344 m f
0.996078 0.756863 0.396078 rg
364.621 362.57 m 298.059 362.57 l 298.059 190.523 l 298.059 188.391 299.785
 186.664 301.918 186.664 c 360.762 186.664 l 362.891 186.664 364.621 188.391
 364.621 190.523 c h
364.621 362.57 m f
0.992157 0.705882 0.254902 rg
364.621 190.527 m 364.621 357.555 l 345.766 357.555 l 345.766 190.527 l
 345.766 188.387 344.035 186.668 341.906 186.668 c 360.762 186.668 l 362.891
 186.668 364.621 188.387 364.621 190.527 c h
364.621 190.527 m f
0.352941 g
380.141 383.73 m 3.859 383.73 l 1.727 383.73 0 382.004 0 379.871 c 0 361.414
 l 0 359.281 1.727 357.555 3.859 357.555 c 380.141 357.555 l 382.273 357.555
 384 359.285 384 361.414 c 384 379.871 l 384 382.004 382.273 383.73 380.141
 383.73 c h
380.141 383.73 m f
0.996078 0.6 0.00392157 rg
153.137 4.98 m 162.203 23.352 l 162.797 24.559 163.945 25.395 165.277 25.586
 c 185.547 28.531 l 192.484 29.539 195.254 38.062 190.234 42.957 c 175.566
 57.254 l 174.605 58.191 174.164 59.543 174.391 60.871 c 177.855 81.059 
l 179.039 87.965 171.789 93.234 165.586 89.973 c 147.453 80.441 l 146.262
 79.816 144.844 79.816 143.652 80.441 c 125.52 89.973 l 119.316 93.234 112.066
 87.965 113.25 81.059 c 116.715 60.871 l 116.941 59.543 116.5 58.191 115.539
 57.254 c 100.871 42.957 l 95.852 38.062 98.621 29.539 105.555 28.531 c 
125.828 25.586 l 127.16 25.395 128.309 24.559 128.902 23.352 c 137.969 4.98
 l 141.07 -1.305 150.035 -1.305 153.137 4.98 c h
153.137 4.98 m f
0.984314 0.533333 0.00392157 rg
175.566 57.254 m 174.598 58.195 174.168 59.535 174.398 60.863 c 177.852
 81.062 l 179.035 87.969 171.785 93.23 165.582 89.965 c 147.449 80.434 l
 146.266 79.809 144.84 79.809 143.656 80.434 c 125.523 89.965 l 119.316 
93.23 112.07 87.969 113.254 81.062 c 114.039 76.453 l 114.453 76.328 114.867
 76.141 115.281 75.926 c 117.945 74.523 120.613 73.121 123.281 71.715 c 
127.297 69.602 131.32 67.441 135.582 65.852 c 139.066 64.551 142.793 64.039
 146.496 63.902 c 150.492 63.75 156.395 66.516 158.867 61.918 c 159.629 
60.504 159.391 58.527 159.664 56.992 c 160.918 49.852 165.008 43.5 170.258
 38.477 c 173.555 35.34 176.73 32.082 179.988 28.906 c 180.332 28.566 180.645
 28.223 180.902 27.852 c 185.555 28.535 l 192.484 29.535 195.254 38.066 
190.23 42.957 c h
175.566 57.254 m f
Q Q
showpage
%%Trailer
end
%%EOF
