%!PS-Adobe-3.0 EPSF-3.0
%%Creator: cairo 1.16.0 (https://cairographics.org)
%%CreationDate: Thu Nov  7 08:25:49 2019
%%Pages: 1
%%DocumentData: Clean7Bit
%%LanguageLevel: 2
%%BoundingBox: 12 0 372 384
%%EndComments
%%BeginProlog
50 dict begin
/q { gsave } bind def
/Q { grestore } bind def
/cm { 6 array astore concat } bind def
/w { setlinewidth } bind def
/J { setlinecap } bind def
/j { setlinejoin } bind def
/M { setmiterlimit } bind def
/d { setdash } bind def
/m { moveto } bind def
/l { lineto } bind def
/c { curveto } bind def
/h { closepath } bind def
/re { exch dup neg 3 1 roll 5 3 roll moveto 0 rlineto
      0 exch rlineto 0 rlineto closepath } bind def
/S { stroke } bind def
/f { fill } bind def
/f* { eofill } bind def
/n { newpath } bind def
/W { clip } bind def
/W* { eoclip } bind def
/BT { } bind def
/ET { } bind def
/BDC { mark 3 1 roll /BDC pdfmark } bind def
/EMC { mark /EMC pdfmark } bind def
/cairo_store_point { /cairo_point_y exch def /cairo_point_x exch def } def
/Tj { show currentpoint cairo_store_point } bind def
/TJ {
  {
    dup
    type /stringtype eq
    { show } { -0.001 mul 0 cairo_font_matrix dtransform rmoveto } ifelse
  } forall
  currentpoint cairo_store_point
} bind def
/cairo_selectfont { cairo_font_matrix aload pop pop pop 0 0 6 array astore
    cairo_font exch selectfont cairo_point_x cairo_point_y moveto } bind def
/Tf { pop /cairo_font exch def /cairo_font_matrix where
      { pop cairo_selectfont } if } bind def
/Td { matrix translate cairo_font_matrix matrix concatmatrix dup
      /cairo_font_matrix exch def dup 4 get exch 5 get cairo_store_point
      /cairo_font where { pop cairo_selectfont } if } bind def
/Tm { 2 copy 8 2 roll 6 array astore /cairo_font_matrix exch def
      cairo_store_point /cairo_font where { pop cairo_selectfont } if } bind def
/g { setgray } bind def
/rg { setrgbcolor } bind def
/d1 { setcachedevice } bind def
/cairo_data_source {
  CairoDataIndex CairoData length lt
    { CairoData CairoDataIndex get /CairoDataIndex CairoDataIndex 1 add def }
    { () } ifelse
} def
/cairo_flush_ascii85_file { cairo_ascii85_file status { cairo_ascii85_file flushfile } if } def
/cairo_image { image cairo_flush_ascii85_file } def
/cairo_imagemask { imagemask cairo_flush_ascii85_file } def
%%EndProlog
%%BeginSetup
%%EndSetup
%%Page: 1 1
%%BeginPageSetup
%%PageBoundingBox: 12 0 372 384
%%EndPageSetup
q 12 0 360 384 rectclip
1 0 0 -1 0 384 cm q
0.952941 0.917647 0.901961 rg
12.738 61.703 m 12.738 368.184 l 12.738 376.918 19.82 384 28.559 384 c 
295.02 384 l 303.758 384 310.84 376.918 310.84 368.184 c 310.84 15.922 l
 310.84 7.188 303.758 0.105 295.02 0.105 c 78.051 0.105 l h
12.738 61.703 m f
0.882353 0.827451 0.807843 rg
310.832 15.922 m 310.832 368.184 l 310.832 376.918 303.754 384 295.02 384
 c 275.441 384 l 284.18 384 291.262 376.918 291.262 368.184 c 291.262 15.922
 l 291.262 7.188 284.18 0.105 275.441 0.105 c 295.02 0.105 l 303.754 0.105
 310.832 7.188 310.832 15.922 c h
310.832 15.922 m f
0.803922 0.74902 0.729412 rg
12.738 61.703 m 62.238 61.703 l 70.969 61.703 78.051 54.625 78.051 45.891
 c 78.051 0.105 l h
12.738 61.703 m f
218.809 89.57 m 104.766 89.57 l 101.562 89.57 98.969 86.973 98.969 83.773
 c 98.969 80.57 101.562 77.973 104.766 77.973 c 218.809 77.973 l 222.012
 77.973 224.605 80.57 224.605 83.773 c 224.605 86.973 222.012 89.57 218.809
 89.57 c h
218.809 89.57 m f
143.012 117.48 m 55.719 117.48 l 52.516 117.48 49.922 114.887 49.922 111.684
 c 49.922 108.484 52.516 105.887 55.719 105.887 c 143.012 105.887 l 146.215
 105.887 148.809 108.484 148.809 111.684 c 148.809 114.887 146.215 117.48
 143.012 117.48 c h
143.012 117.48 m f
243.828 117.48 m 180.566 117.48 l 177.363 117.48 174.77 114.887 174.77 
111.684 c 174.77 108.484 177.363 105.887 180.566 105.887 c 243.828 105.887
 l 247.031 105.887 249.629 108.484 249.629 111.684 c 249.629 114.887 247.031
 117.48 243.828 117.48 c h
243.828 117.48 m f
143.012 146.992 m 55.719 146.992 l 52.516 146.992 49.922 144.395 49.922
 141.191 c 49.922 137.992 52.516 135.395 55.719 135.395 c 143.012 135.395
 l 146.215 135.395 148.809 137.992 148.809 141.191 c 148.809 144.395 146.215
 146.992 143.012 146.992 c h
143.012 146.992 m f
267.855 146.992 m 180.566 146.992 l 177.363 146.992 174.77 144.395 174.77
 141.191 c 174.77 137.992 177.363 135.395 180.566 135.395 c 267.855 135.395
 l 271.059 135.395 273.652 137.992 273.652 141.191 c 273.652 144.395 271.059
 146.992 267.855 146.992 c h
267.855 146.992 m f
143.012 176.496 m 55.719 176.496 l 52.516 176.496 49.922 173.902 49.922
 170.699 c 49.922 167.5 52.516 164.902 55.719 164.902 c 143.012 164.902 
l 146.215 164.902 148.809 167.5 148.809 170.699 c 148.809 173.902 146.215
 176.496 143.012 176.496 c h
143.012 176.496 m f
267.855 176.496 m 180.566 176.496 l 177.363 176.496 174.77 173.902 174.77
 170.699 c 174.77 167.5 177.363 164.902 180.566 164.902 c 267.855 164.902
 l 271.059 164.902 273.652 167.5 273.652 170.699 c 273.652 173.902 271.059
 176.496 267.855 176.496 c h
267.855 176.496 m f
0.541176 0.788235 0.996078 rg
371.262 60.422 m 371.262 93.793 344.207 120.848 310.836 120.848 c 277.465
 120.848 250.414 93.793 250.414 60.422 c 250.414 27.051 277.465 0 310.836
 0 c 344.207 0 371.262 27.051 371.262 60.422 c h
371.262 60.422 m f
0.992157 0.278431 0.333333 rg
343.98 47.836 m 318.648 22.508 l 314.223 18.086 307.055 18.086 302.629 
22.512 c 277.855 47.285 l 273.441 51.699 273.191 59.156 277.305 63.855 c
 277.305 63.859 l 281.418 68.559 288.395 68.789 292.809 64.375 c 295.457
 61.727 l 297.148 60.031 300.047 61.23 300.047 63.629 c 300.047 90.328 l
 300.047 96.582 305.117 101.656 311.375 101.656 c 317.633 101.656 322.703
 96.582 322.703 90.328 c 322.703 65.09 l 322.703 62.695 325.602 61.496 327.293
 63.188 c 327.961 63.855 l 332.387 68.281 339.559 68.281 343.98 63.855 c
 348.406 59.434 348.406 52.262 343.98 47.836 c h
343.98 47.836 m f
0.984314 0.168627 0.227451 rg
347.301 55.848 m 347.301 58.746 346.195 61.648 343.984 63.855 c 339.562
 68.281 332.387 68.281 327.961 63.855 c 327.289 63.184 l 325.598 61.492 
322.703 62.691 322.703 65.094 c 322.703 90.324 l 322.703 93.449 321.438 
96.285 319.383 98.34 c 317.336 100.387 314.5 101.652 311.371 101.652 c 309.211
 101.652 307.195 101.051 305.473 100 c 308.562 98.082 310.617 94.656 310.617
 90.746 c 310.617 74.918 l 310.617 67.742 309.797 60.152 316.41 55.539 c
 317.746 54.621 319.43 54.422 320.965 53.902 c 323.004 53.215 324.277 51.617
 324.805 49.758 c 325.312 47.965 325.121 45.926 324.262 44.219 c 322.41 
40.559 319.059 37.824 316.207 34.969 c 313.039 31.809 309.883 28.641 306.715
 25.477 c 305.449 24.211 303.945 23.312 302.336 22.805 c 302.629 22.512 
l 307.055 18.086 314.223 18.086 318.648 22.512 c 343.977 47.832 l 346.195
 50.051 347.301 52.945 347.301 55.848 c h
347.301 55.848 m f
163.641 293.406 m 132.492 293.406 l 132.492 344.883 l 132.492 348.051 135.664
 350.234 138.621 349.102 c 162.027 340.152 l 163.066 339.754 164.215 339.754
 165.254 340.152 c 188.664 349.102 l 191.617 350.234 194.789 348.051 194.789
 344.883 c 194.789 293.406 l h
163.641 293.406 m f
0.894118 0.121569 0.176471 rg
194.789 293.406 m 194.789 344.887 l 194.789 348.047 191.621 350.234 188.66
 349.105 c 178.961 345.391 l 179.266 344.797 179.438 344.117 179.438 343.379
 c 179.438 293.406 l h
194.789 293.406 m f
0.996078 0.756863 0.396078 rg
217.5 256.367 m 217.5 286.113 193.387 310.227 163.641 310.227 c 133.895
 310.227 109.781 286.113 109.781 256.367 c 109.781 226.621 133.895 202.508
 163.641 202.508 c 193.387 202.508 217.5 226.621 217.5 256.367 c h
217.5 256.367 m f
0.996078 0.6 0.00392157 rg
168.441 227.82 m 174.18 239.449 l 174.559 240.211 175.285 240.742 176.129
 240.863 c 188.961 242.727 l 193.352 243.367 195.105 248.762 191.93 251.859
 c 182.645 260.91 l 182.035 261.504 181.754 262.359 181.898 263.199 c 184.094
 275.98 l 184.844 280.355 180.254 283.688 176.324 281.625 c 164.848 275.59
 l 164.094 275.191 163.191 275.191 162.441 275.59 c 150.961 281.625 l 147.035
 283.688 142.445 280.352 143.195 275.98 c 145.387 263.199 l 145.531 262.359
 145.254 261.504 144.645 260.91 c 135.355 251.859 l 132.18 248.762 133.934
 243.367 138.324 242.727 c 151.156 240.863 l 152 240.742 152.727 240.211
 153.105 239.449 c 158.844 227.82 l 160.805 223.84 166.477 223.84 168.441
 227.82 c h
168.441 227.82 m f
0.984314 0.533333 0.00392157 rg
182.645 260.91 m 182.027 261.508 181.758 262.355 181.902 263.195 c 184.09
 275.984 l 184.836 280.355 180.25 283.688 176.32 281.621 c 164.844 275.586
 l 164.094 275.188 163.191 275.188 162.441 275.586 c 150.961 281.621 l 147.031
 283.688 142.445 280.355 143.195 275.984 c 143.691 273.066 l 143.953 272.988
 144.215 272.867 144.477 272.734 c 149.543 270.066 l 152.086 268.73 154.633
 267.359 157.328 266.352 c 159.535 265.531 161.898 265.207 164.238 265.121
 c 166.77 265.023 170.504 266.773 172.074 263.863 c 172.555 262.969 172.402
 261.719 172.574 260.746 c 173.371 256.227 175.961 252.203 179.285 249.023
 c 181.371 247.039 183.383 244.977 185.445 242.965 c 185.66 242.746 185.859
 242.531 186.023 242.297 c 188.969 242.73 l 193.355 243.363 195.109 248.762
 191.93 251.859 c h
182.645 260.91 m f
Q Q
showpage
%%Trailer
end
%%EOF
