%!PS-Adobe-3.0 EPSF-3.0
%%Creator: cairo 1.16.0 (https://cairographics.org)
%%CreationDate: Thu Nov  7 08:25:50 2019
%%Pages: 1
%%DocumentData: Clean7Bit
%%LanguageLevel: 2
%%BoundingBox: 0 12 384 372
%%EndComments
%%BeginProlog
50 dict begin
/q { gsave } bind def
/Q { grestore } bind def
/cm { 6 array astore concat } bind def
/w { setlinewidth } bind def
/J { setlinecap } bind def
/j { setlinejoin } bind def
/M { setmiterlimit } bind def
/d { setdash } bind def
/m { moveto } bind def
/l { lineto } bind def
/c { curveto } bind def
/h { closepath } bind def
/re { exch dup neg 3 1 roll 5 3 roll moveto 0 rlineto
      0 exch rlineto 0 rlineto closepath } bind def
/S { stroke } bind def
/f { fill } bind def
/f* { eofill } bind def
/n { newpath } bind def
/W { clip } bind def
/W* { eoclip } bind def
/BT { } bind def
/ET { } bind def
/BDC { mark 3 1 roll /BDC pdfmark } bind def
/EMC { mark /EMC pdfmark } bind def
/cairo_store_point { /cairo_point_y exch def /cairo_point_x exch def } def
/Tj { show currentpoint cairo_store_point } bind def
/TJ {
  {
    dup
    type /stringtype eq
    { show } { -0.001 mul 0 cairo_font_matrix dtransform rmoveto } ifelse
  } forall
  currentpoint cairo_store_point
} bind def
/cairo_selectfont { cairo_font_matrix aload pop pop pop 0 0 6 array astore
    cairo_font exch selectfont cairo_point_x cairo_point_y moveto } bind def
/Tf { pop /cairo_font exch def /cairo_font_matrix where
      { pop cairo_selectfont } if } bind def
/Td { matrix translate cairo_font_matrix matrix concatmatrix dup
      /cairo_font_matrix exch def dup 4 get exch 5 get cairo_store_point
      /cairo_font where { pop cairo_selectfont } if } bind def
/Tm { 2 copy 8 2 roll 6 array astore /cairo_font_matrix exch def
      cairo_store_point /cairo_font where { pop cairo_selectfont } if } bind def
/g { setgray } bind def
/rg { setrgbcolor } bind def
/d1 { setcachedevice } bind def
/cairo_data_source {
  CairoDataIndex CairoData length lt
    { CairoData CairoDataIndex get /CairoDataIndex CairoDataIndex 1 add def }
    { () } ifelse
} def
/cairo_flush_ascii85_file { cairo_ascii85_file status { cairo_ascii85_file flushfile } if } def
/cairo_image { image cairo_flush_ascii85_file } def
/cairo_imagemask { imagemask cairo_flush_ascii85_file } def
%%EndProlog
%%BeginSetup
%%EndSetup
%%Page: 1 1
%%BeginPageSetup
%%PageBoundingBox: 0 12 384 372
%%EndPageSetup
q 0 12 384 360 rectclip
1 0 0 -1 0 384 cm q
0.996078 0.756863 0.396078 rg
131.246 94.816 m 101.359 64.938 l 96.141 59.719 87.68 59.719 82.461 64.938
 c 53.234 94.168 l 48.023 99.375 47.73 108.172 52.582 113.719 c 57.434 119.262
 65.664 119.535 70.875 114.328 c 73.996 111.203 l 75.996 109.207 79.414 
110.621 79.414 113.449 c 79.414 202.312 l 79.414 209.695 85.395 215.68 92.777
 215.68 c 100.16 215.68 106.141 209.695 106.141 202.312 c 106.141 115.172
 l 106.141 112.344 109.559 110.93 111.559 112.926 c 112.348 113.719 l 117.566
 118.938 126.027 118.938 131.246 113.719 c 136.465 108.496 136.465 100.035
 131.246 94.816 c h
131.246 94.816 m f
0.992157 0.705882 0.254902 rg
135.16 104.27 m 135.16 107.688 133.855 111.113 131.25 113.719 c 126.031
 118.938 117.566 118.938 112.344 113.719 c 111.555 112.926 l 109.559 110.93
 106.141 112.344 106.141 115.176 c 106.141 202.309 l 106.141 205.996 104.648
 209.34 102.223 211.766 c 99.809 214.18 96.465 215.672 92.773 215.672 c 
90.223 215.672 87.844 214.961 85.812 213.723 c 89.457 211.465 91.883 207.418
 91.883 202.809 c 91.883 126.766 l 91.883 118.301 90.914 109.344 98.715 
103.906 c 100.289 102.82 102.277 102.582 104.09 101.973 c 106.496 101.164
 107.996 99.277 108.617 97.082 c 109.219 94.969 108.992 92.562 107.98 90.551
 c 105.793 86.23 101.84 83.004 98.477 79.633 c 94.742 75.91 91.016 72.172
 87.277 68.438 c 85.785 66.941 84.008 65.887 82.113 65.285 c 82.461 64.938
 l 87.68 59.719 96.137 59.719 101.355 64.938 c 131.238 94.812 l 133.855 
97.426 135.16 100.844 135.16 104.27 c h
135.16 104.27 m f
0.996078 0.756863 0.396078 rg
330.957 94.816 m 301.07 64.938 l 295.852 59.719 287.391 59.719 282.172 
64.938 c 252.945 94.168 l 247.734 99.375 247.441 108.172 252.293 113.719
 c 252.297 113.719 l 257.148 119.262 265.379 119.535 270.586 114.328 c 273.711
 111.203 l 275.707 109.207 279.125 110.621 279.125 113.449 c 279.125 202.312
 l 279.125 209.695 285.109 215.68 292.488 215.68 c 299.871 215.68 305.855
 209.695 305.855 202.312 c 305.855 115.172 l 305.855 112.344 309.273 110.93
 311.27 112.926 c 312.059 113.719 l 317.277 118.938 325.738 118.938 330.961
 113.719 c 336.18 108.496 336.18 100.035 330.957 94.816 c h
330.957 94.816 m f
0.992157 0.705882 0.254902 rg
334.871 104.27 m 334.871 107.688 333.57 111.113 330.965 113.719 c 325.742
 118.938 317.277 118.938 312.059 113.719 c 311.266 112.926 l 309.27 110.93
 305.852 112.344 305.852 115.176 c 305.852 202.309 l 305.852 205.996 304.359
 209.34 301.934 211.766 c 299.52 214.18 296.176 215.672 292.488 215.672 
c 289.938 215.672 287.559 214.961 285.527 213.723 c 289.172 211.465 291.594
 207.418 291.594 202.809 c 291.594 126.766 l 291.594 118.301 290.629 109.344
 298.426 103.906 c 300.004 102.82 301.988 102.582 303.801 101.973 c 306.207
 101.164 307.711 99.277 308.328 97.082 c 308.93 94.969 308.703 92.562 307.691
 90.551 c 305.504 86.23 301.551 83.004 298.188 79.633 c 294.453 75.91 290.727
 72.172 286.992 68.438 c 285.496 66.941 283.719 65.887 281.824 65.285 c 
282.172 64.938 l 287.391 59.719 295.848 59.719 301.066 64.938 c 330.953 
94.812 l 333.57 97.426 334.871 100.844 334.871 104.27 c h
334.871 104.27 m f
0.996078 0.756863 0.396078 rg
234.328 48.727 m 201.977 16.383 l 196.324 10.734 187.168 10.734 181.516
 16.387 c 149.879 48.023 l 144.242 53.66 143.922 63.184 149.176 69.188 c
 154.426 75.188 163.336 75.484 168.977 69.848 c 172.355 66.465 l 174.52 
64.305 178.219 65.836 178.219 68.895 c 178.219 165.09 l 178.219 173.078 
184.695 179.555 192.684 179.555 c 200.676 179.555 207.152 173.078 207.152
 165.09 c 207.152 70.762 l 207.152 67.703 210.852 66.168 213.016 68.332 
c 213.871 69.188 l 219.52 74.84 228.68 74.84 234.328 69.188 c 239.977 63.539
 239.977 54.375 234.328 48.727 c h
234.328 48.727 m f
0.992157 0.705882 0.254902 rg
238.562 58.961 m 238.562 62.66 237.152 66.367 234.332 69.188 c 228.68 74.84
 219.52 74.84 213.867 69.188 c 213.008 68.332 l 210.852 66.172 207.152 67.699
 207.152 70.766 c 207.152 165.086 l 207.152 169.078 205.535 172.699 202.91
 175.32 c 200.297 177.938 196.676 179.555 192.684 179.555 c 189.922 179.555
 187.348 178.785 185.148 177.441 c 189.094 174.996 191.715 170.617 191.715
 165.629 c 191.715 83.312 l 191.715 74.148 190.672 64.453 199.113 58.566
 c 200.82 57.391 202.969 57.137 204.934 56.477 c 207.535 55.598 209.164 
53.555 209.832 51.18 c 210.484 48.891 210.238 46.285 209.145 44.109 c 206.777
 39.434 202.496 35.941 198.855 32.293 c 194.812 28.258 190.777 24.215 186.734
 20.172 c 185.117 18.555 183.195 17.41 181.145 16.758 c 181.52 16.383 l 
187.172 10.734 196.32 10.734 201.973 16.383 c 234.324 48.723 l 237.152 51.555
 238.562 55.25 238.562 58.961 c h
238.562 58.961 m f
0.568627 0.870588 0.713726 rg
378.457 371.852 m 5.543 371.852 l 2.48 371.852 0 369.371 0 366.309 c 0 
164.156 l 0 161.098 2.48 158.613 5.543 158.613 c 378.457 158.613 l 381.52
 158.613 384 161.098 384 164.156 c 384 366.309 l 384 369.371 381.52 371.852
 378.457 371.852 c h
378.457 371.852 m f
0.431373 0.835294 0.631373 rg
384 164.16 m 384 366.312 l 384 369.367 381.516 371.855 378.457 371.855 
c 363.898 371.855 l 366.965 371.855 369.441 369.367 369.441 366.312 c 369.441
 164.16 l 369.441 161.098 366.965 158.613 363.898 158.613 c 378.457 158.613
 l 381.516 158.613 384 161.098 384 164.16 c h
384 164.16 m f
0 0.760784 0.478431 rg
350.598 209.641 m 344.992 209.641 340.449 205.098 340.449 199.492 c 340.449
 191.504 l 340.449 190.535 339.664 189.75 338.695 189.75 c 45.305 189.75
 l 44.336 189.75 43.551 190.535 43.551 191.504 c 43.551 199.492 l 43.551
 205.098 39.008 209.641 33.402 209.641 c 32.434 209.641 31.648 210.43 31.648
 211.398 c 31.648 319.07 l 31.648 320.039 32.434 320.824 33.402 320.824 
c 39.008 320.824 43.551 325.367 43.551 330.973 c 43.551 338.961 l 43.551
 339.93 44.336 340.715 45.305 340.715 c 338.695 340.715 l 339.664 340.715
 340.449 339.93 340.449 338.961 c 340.449 330.973 l 340.449 325.367 344.992
 320.824 350.598 320.824 c 351.566 320.824 352.352 320.039 352.352 319.07
 c 352.352 211.398 l 352.355 210.43 351.566 209.641 350.598 209.641 c h
350.598 209.641 m f
0.0313726 0.721569 0.396078 rg
352.355 211.398 m 352.355 319.066 l 352.355 320.043 351.566 320.824 350.598
 320.824 c 344.992 320.824 340.449 325.363 340.449 330.973 c 340.449 338.957
 l 340.449 339.934 339.66 340.715 338.695 340.715 c 321.137 340.715 l 322.102
 340.715 322.895 339.934 322.895 338.957 c 322.895 330.973 l 322.895 325.363
 327.438 320.824 333.035 320.824 c 334.008 320.824 334.789 320.043 334.789
 319.066 c 334.789 211.398 l 334.789 210.434 334.008 209.641 333.035 209.641
 c 327.434 209.641 322.895 205.102 322.895 199.492 c 322.895 191.508 l 322.895
 190.531 322.105 189.754 321.137 189.754 c 338.695 189.754 l 339.66 189.754
 340.449 190.531 340.449 191.508 c 340.449 199.492 l 340.449 205.102 344.992
 209.641 350.598 209.641 c 351.566 209.645 352.355 210.434 352.355 211.398
 c h
352.355 211.398 m f
0.568627 0.870588 0.713726 rg
244.605 265.234 m 244.605 294.285 221.055 317.84 192 317.84 c 162.945 317.84
 139.395 294.285 139.395 265.234 c 139.395 236.18 162.945 212.629 192 212.629
 c 221.055 212.629 244.605 236.18 244.605 265.234 c h
244.605 265.234 m f
0 0.760784 0.478431 rg
198.227 259.555 m 197.215 259.195 196.18 258.82 195.148 258.434 c 195.148
 241.977 l 197.746 242.594 199.297 243.91 199.434 244.027 c 200.84 245.305
 203.016 245.207 204.305 243.809 c 205.602 242.402 205.512 240.211 204.105
 238.914 c 203.91 238.73 200.586 235.738 195.148 234.926 c 195.148 231.559
 l 195.148 229.645 193.598 228.094 191.684 228.094 c 189.77 228.094 188.219
 229.645 188.219 231.559 c 188.219 235.191 l 187.703 235.305 187.176 235.438
 186.637 235.598 c 181.672 237.094 177.957 241.348 176.949 246.691 c 176.031
 251.566 177.594 256.27 181.027 258.961 c 182.848 260.391 185.113 261.699
 188.219 263.082 c 188.219 283.941 l 185.527 283.742 183.664 283.086 180.609
 281.09 c 179.008 280.043 176.863 280.492 175.816 282.094 c 174.766 283.695
 175.215 285.84 176.816 286.887 c 181.262 289.797 184.297 290.66 188.219
 290.879 c 188.219 294.648 l 188.219 296.562 189.77 298.113 191.684 298.113
 c 193.598 298.113 195.148 296.562 195.148 294.648 c 195.148 290.605 l 202.945
 289.078 207.5 282.652 208.512 276.648 c 209.809 268.93 205.77 262.223 198.227
 259.555 c h
185.301 253.508 m 183.914 252.422 183.32 250.301 183.758 247.977 c 184.152
 245.891 185.531 243.383 188.219 242.375 c 188.219 255.371 l 187.121 254.777
 186.129 254.156 185.301 253.508 c h
201.68 275.5 m 201.141 278.688 198.918 282.07 195.148 283.41 c 195.148 
265.812 l 195.406 265.902 195.656 265.996 195.918 266.086 c 202.348 268.359
 201.953 273.863 201.68 275.5 c h
201.68 275.5 m f
Q Q
showpage
%%Trailer
end
%%EOF
