%!PS-Adobe-3.0 EPSF-3.0
%%Creator: cairo 1.16.0 (https://cairographics.org)
%%CreationDate: Thu Nov  7 08:25:51 2019
%%Pages: 1
%%DocumentData: Clean7Bit
%%LanguageLevel: 2
%%BoundingBox: 0 0 384 384
%%EndComments
%%BeginProlog
50 dict begin
/q { gsave } bind def
/Q { grestore } bind def
/cm { 6 array astore concat } bind def
/w { setlinewidth } bind def
/J { setlinecap } bind def
/j { setlinejoin } bind def
/M { setmiterlimit } bind def
/d { setdash } bind def
/m { moveto } bind def
/l { lineto } bind def
/c { curveto } bind def
/h { closepath } bind def
/re { exch dup neg 3 1 roll 5 3 roll moveto 0 rlineto
      0 exch rlineto 0 rlineto closepath } bind def
/S { stroke } bind def
/f { fill } bind def
/f* { eofill } bind def
/n { newpath } bind def
/W { clip } bind def
/W* { eoclip } bind def
/BT { } bind def
/ET { } bind def
/BDC { mark 3 1 roll /BDC pdfmark } bind def
/EMC { mark /EMC pdfmark } bind def
/cairo_store_point { /cairo_point_y exch def /cairo_point_x exch def } def
/Tj { show currentpoint cairo_store_point } bind def
/TJ {
  {
    dup
    type /stringtype eq
    { show } { -0.001 mul 0 cairo_font_matrix dtransform rmoveto } ifelse
  } forall
  currentpoint cairo_store_point
} bind def
/cairo_selectfont { cairo_font_matrix aload pop pop pop 0 0 6 array astore
    cairo_font exch selectfont cairo_point_x cairo_point_y moveto } bind def
/Tf { pop /cairo_font exch def /cairo_font_matrix where
      { pop cairo_selectfont } if } bind def
/Td { matrix translate cairo_font_matrix matrix concatmatrix dup
      /cairo_font_matrix exch def dup 4 get exch 5 get cairo_store_point
      /cairo_font where { pop cairo_selectfont } if } bind def
/Tm { 2 copy 8 2 roll 6 array astore /cairo_font_matrix exch def
      cairo_store_point /cairo_font where { pop cairo_selectfont } if } bind def
/g { setgray } bind def
/rg { setrgbcolor } bind def
/d1 { setcachedevice } bind def
/cairo_data_source {
  CairoDataIndex CairoData length lt
    { CairoData CairoDataIndex get /CairoDataIndex CairoDataIndex 1 add def }
    { () } ifelse
} def
/cairo_flush_ascii85_file { cairo_ascii85_file status { cairo_ascii85_file flushfile } if } def
/cairo_image { image cairo_flush_ascii85_file } def
/cairo_imagemask { imagemask cairo_flush_ascii85_file } def
%%EndProlog
%%BeginSetup
%%EndSetup
%%Page: 1 1
%%BeginPageSetup
%%PageBoundingBox: 0 0 384 384
%%EndPageSetup
q 0 0 384 384 rectclip
1 0 0 -1 0 384 cm q
0.996078 0.65098 0.0745098 rg
157.391 49.902 m 0.219 152.711 l 0.219 373.504 l 0.219 379.301 4.918 384
 10.715 384 c 304.062 384 l 309.859 384 314.559 379.301 314.559 373.504 
c 314.559 152.711 l h
157.391 49.902 m f
0.952941 0.917647 0.901961 rg
42.062 277.516 m 42.062 33.938 l 42.062 29.68 45.512 26.227 49.773 26.227
 c 265.008 26.227 l 269.266 26.227 272.719 29.68 272.719 33.938 c 272.719
 277.516 l h
42.062 277.516 m f
0.882353 0.827451 0.807843 rg
272.719 33.938 m 272.719 277.516 l 255.887 277.516 l 255.887 33.938 l 255.887
 29.684 252.438 26.223 248.176 26.223 c 265.008 26.223 l 269.262 26.223 
272.719 29.684 272.719 33.938 c h
272.719 33.938 m f
0.984314 0.168627 0.227451 rg
362.121 0.195 m 323.027 7.094 l 316.492 8.246 311.867 14.57 312.75 21.148
 c 313.707 28.281 320.289 33.09 327.371 31.84 c 334.113 30.652 l 303.336
 79.184 l 300.902 83.023 295.812 84.16 291.973 81.727 c 238.793 53.965 l
 232.16 49.758 223.375 51.723 219.168 58.355 c 186.316 108.996 l 182.258
 115.395 184.152 123.871 190.551 127.93 c 196.949 131.988 205.422 130.09
 209.48 123.691 c 230.82 91.145 l 233.254 87.305 238.344 86.164 242.184 
88.602 c 295.391 116.379 l 302.027 120.59 310.816 118.621 315.023 111.984
 c 357.328 45.277 l 358.844 53.867 l 360.047 60.703 366.566 65.262 373.398
 64.059 c 380.23 62.852 384.793 56.332 383.586 49.5 c 376.676 10.379 l 375.469
 3.547 368.953 -1.012 362.121 0.195 c h
362.121 0.195 m f
0.894118 0.121569 0.176471 rg
383.586 49.5 m 376.68 10.379 l 375.473 3.551 368.953 -1.016 362.121 0.191
 c 361.496 0.301 l 362.695 5.066 364.18 9.77 364.73 14.684 c 365.289 19.66
 368.387 28.594 362.789 31.828 c 359.359 33.805 355.418 31.637 351.863 33.871
 c 348.734 35.836 347.051 38.742 345.113 41.797 c 340.332 49.32 335.566 
56.84 330.801 64.359 c 323.934 75.191 317.469 86.289 310.191 96.855 c 305.07
 104.301 300.816 105.074 290.559 99.402 c 237.344 71.625 l 233.508 69.188
 228.418 70.324 225.98 74.16 c 204.648 108.562 l 200.586 114.961 192.113
 116.855 185.719 112.801 c 185.406 112.602 185.105 112.398 184.82 112.172
 c 182.973 117.977 185.168 124.512 190.551 127.93 c 192.836 129.379 195.371
 130.066 197.887 130.066 c 202.426 130.066 206.867 127.809 209.48 123.691
 c 230.816 91.141 l 233.254 87.305 238.344 86.168 242.18 88.602 c 295.395
 116.383 l 302.023 120.59 310.809 118.617 315.02 111.988 c 357.324 45.277
 l 358.84 53.871 l 360.047 60.703 366.562 65.266 373.398 64.059 c 379.496
 62.984 383.781 57.676 383.781 51.699 c 383.781 50.969 383.719 50.234 383.586
 49.5 c h
383.586 49.5 m f
0.996078 0.756863 0.396078 rg
139.082 265.867 m 0.219 152.711 l 0.219 373.504 l 0.219 379.301 4.918 384
 10.715 384 c 18.215 384 l h
139.082 265.867 m f
175.695 265.867 m 314.559 152.711 l 314.559 373.504 l 314.559 379.301 309.859
 384 304.062 384 c 296.566 384 l h
175.695 265.867 m f
0.992157 0.705882 0.254902 rg
314.562 152.711 m 314.562 373.508 l 314.562 379.301 309.859 383.996 304.066
 383.996 c 296.562 383.996 l 293.816 381.312 l 295.949 379.387 297.289 376.602
 297.289 373.508 c 297.289 166.789 l h
314.562 152.711 m f
0.996078 0.65098 0.0745098 rg
18.215 384 m 150.051 255.145 l 154.133 251.156 160.648 251.156 164.727 
255.145 c 296.562 384 l h
18.215 384 m f
Q Q
showpage
%%Trailer
end
%%EOF
