%!PS-Adobe-3.0 EPSF-3.0
%%Creator: cairo 1.16.0 (https://cairographics.org)
%%CreationDate: Thu Nov  7 08:25:52 2019
%%Pages: 1
%%DocumentData: Clean7Bit
%%LanguageLevel: 2
%%BoundingBox: 22 0 362 384
%%EndComments
%%BeginProlog
50 dict begin
/q { gsave } bind def
/Q { grestore } bind def
/cm { 6 array astore concat } bind def
/w { setlinewidth } bind def
/J { setlinecap } bind def
/j { setlinejoin } bind def
/M { setmiterlimit } bind def
/d { setdash } bind def
/m { moveto } bind def
/l { lineto } bind def
/c { curveto } bind def
/h { closepath } bind def
/re { exch dup neg 3 1 roll 5 3 roll moveto 0 rlineto
      0 exch rlineto 0 rlineto closepath } bind def
/S { stroke } bind def
/f { fill } bind def
/f* { eofill } bind def
/n { newpath } bind def
/W { clip } bind def
/W* { eoclip } bind def
/BT { } bind def
/ET { } bind def
/BDC { mark 3 1 roll /BDC pdfmark } bind def
/EMC { mark /EMC pdfmark } bind def
/cairo_store_point { /cairo_point_y exch def /cairo_point_x exch def } def
/Tj { show currentpoint cairo_store_point } bind def
/TJ {
  {
    dup
    type /stringtype eq
    { show } { -0.001 mul 0 cairo_font_matrix dtransform rmoveto } ifelse
  } forall
  currentpoint cairo_store_point
} bind def
/cairo_selectfont { cairo_font_matrix aload pop pop pop 0 0 6 array astore
    cairo_font exch selectfont cairo_point_x cairo_point_y moveto } bind def
/Tf { pop /cairo_font exch def /cairo_font_matrix where
      { pop cairo_selectfont } if } bind def
/Td { matrix translate cairo_font_matrix matrix concatmatrix dup
      /cairo_font_matrix exch def dup 4 get exch 5 get cairo_store_point
      /cairo_font where { pop cairo_selectfont } if } bind def
/Tm { 2 copy 8 2 roll 6 array astore /cairo_font_matrix exch def
      cairo_store_point /cairo_font where { pop cairo_selectfont } if } bind def
/g { setgray } bind def
/rg { setrgbcolor } bind def
/d1 { setcachedevice } bind def
/cairo_data_source {
  CairoDataIndex CairoData length lt
    { CairoData CairoDataIndex get /CairoDataIndex CairoDataIndex 1 add def }
    { () } ifelse
} def
/cairo_flush_ascii85_file { cairo_ascii85_file status { cairo_ascii85_file flushfile } if } def
/cairo_image { image cairo_flush_ascii85_file } def
/cairo_imagemask { imagemask cairo_flush_ascii85_file } def
%%EndProlog
%%BeginSetup
%%EndSetup
%%Page: 1 1
%%BeginPageSetup
%%PageBoundingBox: 22 0 362 384
%%EndPageSetup
q 22 0 340 384 rectclip
1 0 0 -1 0 384 cm q
0.952941 0.917647 0.901961 rg
22.723 56.652 m 22.723 369.453 l 22.723 377.488 29.238 384 37.27 384 c 
282.324 384 l 290.359 384 296.871 377.488 296.871 369.453 c 296.871 14.547
 l 296.871 6.512 290.359 0 282.324 0 c 82.789 0 l h
22.723 56.652 m f
0.882353 0.827451 0.807843 rg
296.867 14.543 m 296.867 369.453 l 296.867 377.484 290.355 384 282.324 
384 c 264.316 384 l 272.355 384 278.871 377.484 278.871 369.453 c 278.871
 14.543 l 278.871 6.516 272.355 0 264.316 0 c 282.324 0 l 290.355 0 296.867
 6.516 296.867 14.543 c h
296.867 14.543 m f
0.803922 0.74902 0.729412 rg
22.723 56.652 m 68.242 56.652 l 76.277 56.652 82.789 50.141 82.789 42.105
 c 82.789 0 l h
22.723 56.652 m f
0.964706 0.662745 0.423529 rg
109.574 176.297 m 109.574 196.711 126.121 213.258 146.535 213.258 c 175.016
 213.258 l 195.426 213.258 211.973 196.711 211.973 176.297 c 211.973 124.418
 l 109.574 124.418 l h
109.574 176.297 m f
0.917647 0.607843 0.345098 rg
211.973 124.414 m 211.973 176.301 l 211.973 196.711 195.43 213.262 175.012
 213.262 c 158.891 213.262 l 179.301 213.262 195.852 196.711 195.852 176.301
 c 195.852 124.414 l h
211.973 124.414 m f
0.352941 g
115.012 80.84 m 120.141 83.527 l 124.23 85.668 129.109 85.668 133.195 83.527
 c 137.195 81.434 l 141.281 79.289 146.16 79.289 150.246 81.434 c 154.246
 83.527 l 158.332 85.668 163.211 85.668 167.297 83.527 c 171.297 81.43 l
 175.383 79.289 180.262 79.289 184.348 81.43 c 188.352 83.527 l 192.438 
85.672 197.316 85.672 201.402 83.527 c 206.535 80.84 l 208.988 79.551 211.93
 81.332 211.93 84.102 c 211.93 156.785 l 211.93 157.887 210.594 158.418 
209.836 157.625 c 206.062 153.688 198.371 144.453 196.727 133.168 c 196.461
 131.352 194.758 130.191 192.965 130.586 c 190.633 131.102 187.922 131.691
 187.637 131.742 c 180.191 133.008 172.41 133.77 164.594 133.852 c 160.777
 133.816 l 156.961 133.852 l 149.145 133.77 141.359 133.008 133.918 131.742
 c 133.629 131.691 130.922 131.102 128.586 130.586 c 126.801 130.191 125.086
 131.41 124.816 133.219 c 123.156 144.484 115.477 153.699 111.715 157.629
 c 110.953 158.422 109.621 157.883 109.621 156.785 c 109.621 84.102 l 109.617
 81.332 112.559 79.551 115.012 80.84 c h
115.012 80.84 m f
0.266667 g
211.934 84.098 m 211.934 156.785 l 211.934 157.891 210.594 158.422 209.832
 157.629 c 206.062 153.691 198.375 144.453 196.727 133.168 c 196.625 132.465
 196.305 131.863 195.852 131.41 c 195.852 85.102 l 197.762 84.973 199.652
 84.449 201.398 83.523 c 206.535 80.84 l 208.988 79.555 211.934 81.336 211.934
 84.098 c h
211.934 84.098 m f
0.352941 g
141.012 161.539 m 137.902 161.539 135.387 164.055 135.387 167.164 c 135.387
 174.531 l 135.387 177.637 137.902 180.156 141.012 180.156 c 144.117 180.156
 146.637 177.637 146.637 174.531 c 146.637 167.164 l 146.637 164.055 144.117
 161.539 141.012 161.539 c h
141.012 161.539 m f
180.539 161.539 m 177.43 161.539 174.914 164.055 174.914 167.164 c 174.914
 174.531 l 174.914 177.637 177.43 180.156 180.539 180.156 c 183.645 180.156
 186.164 177.637 186.164 174.531 c 186.164 167.164 l 186.164 164.055 183.645
 161.539 180.539 161.539 c h
180.539 161.539 m f
0.568627 0.870588 0.713726 rg
361.277 295.438 m 361.277 326.875 335.789 352.359 304.355 352.359 c 272.918
 352.359 247.434 326.875 247.434 295.438 c 247.434 264 272.918 238.516 304.355
 238.516 c 335.789 238.516 361.277 264 361.277 295.438 c h
361.277 295.438 m f
0.431373 0.835294 0.631373 rg
361.277 295.438 m 361.277 326.871 335.789 352.359 304.359 352.359 c 285.949
 352.359 269.582 343.625 259.18 330.074 c 268.152 335.984 278.895 339.418
 290.434 339.418 c 321.867 339.418 347.355 313.934 347.355 282.492 c 347.355
 269.465 342.977 257.453 335.613 247.863 c 351.074 258.035 361.277 275.547
 361.277 295.438 c h
361.277 295.438 m f
0.803922 0.74902 0.729412 rg
237.715 250.016 m 90.629 250.016 l 87.52 250.016 85.004 247.496 85.004 
244.391 c 85.004 241.285 87.52 238.766 90.629 238.766 c 237.715 238.766 
l 240.82 238.766 243.34 241.285 243.34 244.391 c 243.34 247.496 240.824 
250.016 237.715 250.016 c h
237.715 250.016 m f
221.539 275.539 m 90.629 275.539 l 87.52 275.539 85.004 273.02 85.004 269.914
 c 85.004 266.809 87.52 264.289 90.629 264.289 c 221.539 264.289 l 224.645
 264.289 227.164 266.809 227.164 269.914 c 227.164 273.02 224.645 275.539
 221.539 275.539 c h
221.539 275.539 m f
221.473 301.062 m 90.629 301.062 l 87.52 301.062 85.004 298.547 85.004 
295.438 c 85.004 292.332 87.52 289.812 90.629 289.812 c 221.473 289.812 
l 224.578 289.812 227.098 292.332 227.098 295.438 c 227.098 298.547 224.578
 301.062 221.473 301.062 c h
221.473 301.062 m f
221.539 326.586 m 90.629 326.586 l 87.52 326.586 85.004 324.07 85.004 320.961
 c 85.004 317.855 87.52 315.336 90.629 315.336 c 221.539 315.336 l 224.645
 315.336 227.164 317.855 227.164 320.961 c 227.164 324.07 224.645 326.586
 221.539 326.586 c h
221.539 326.586 m f
237.715 352.113 m 90.629 352.113 l 87.52 352.113 85.004 349.594 85.004 
346.488 c 85.004 343.379 87.52 340.863 90.629 340.863 c 237.715 340.863 
l 240.82 340.863 243.34 343.379 243.34 346.488 c 243.34 349.594 240.824 
352.113 237.715 352.113 c h
237.715 352.113 m f
0.352941 g
341.34 270.195 m 338.734 269.707 336.223 271.102 335.184 273.418 c 328.113
 263.559 316.57 257.539 304.352 257.539 c 283.453 257.539 266.453 274.539
 266.453 295.438 c 266.453 316.336 283.453 333.34 304.352 333.34 c 307.461
 333.34 309.977 330.82 309.977 327.715 c 309.977 324.605 307.461 322.09 
304.352 322.09 c 289.66 322.09 277.703 310.133 277.703 295.438 c 277.703
 280.742 289.66 268.789 304.352 268.789 c 312.977 268.789 320.844 272.828
 325.855 279.703 c 325.793 279.684 l 322.824 278.766 319.676 280.434 318.758
 283.402 c 317.844 286.371 319.508 289.52 322.48 290.434 c 336.117 294.637
 l 336.66 294.801 337.215 294.887 337.773 294.887 c 338.789 294.887 339.793
 294.609 340.68 294.074 c 342.055 293.246 343.008 291.871 343.301 290.293
 c 345.836 276.758 l 346.406 273.703 344.395 270.766 341.34 270.195 c h
341.34 270.195 m f
322.098 304.664 m 309.98 297.773 l 309.98 279.582 l 309.98 276.477 307.461
 273.957 304.355 273.957 c 301.246 273.957 298.73 276.477 298.73 279.582
 c 298.73 301.047 l 298.73 303.066 299.816 304.938 301.574 305.934 c 316.535
 314.445 l 317.414 314.941 318.367 315.18 319.312 315.18 c 321.27 315.18
 323.168 314.156 324.207 312.336 c 325.742 309.633 324.797 306.199 322.098
 304.664 c h
322.098 304.664 m f
Q Q
showpage
%%Trailer
end
%%EOF
