%!PS-Adobe-3.0 EPSF-3.0
%%Creator: cairo 1.16.0 (https://cairographics.org)
%%CreationDate: Thu Nov  7 08:25:52 2019
%%Pages: 1
%%DocumentData: Clean7Bit
%%LanguageLevel: 2
%%BoundingBox: 84 0 300 384
%%EndComments
%%BeginProlog
50 dict begin
/q { gsave } bind def
/Q { grestore } bind def
/cm { 6 array astore concat } bind def
/w { setlinewidth } bind def
/J { setlinecap } bind def
/j { setlinejoin } bind def
/M { setmiterlimit } bind def
/d { setdash } bind def
/m { moveto } bind def
/l { lineto } bind def
/c { curveto } bind def
/h { closepath } bind def
/re { exch dup neg 3 1 roll 5 3 roll moveto 0 rlineto
      0 exch rlineto 0 rlineto closepath } bind def
/S { stroke } bind def
/f { fill } bind def
/f* { eofill } bind def
/n { newpath } bind def
/W { clip } bind def
/W* { eoclip } bind def
/BT { } bind def
/ET { } bind def
/BDC { mark 3 1 roll /BDC pdfmark } bind def
/EMC { mark /EMC pdfmark } bind def
/cairo_store_point { /cairo_point_y exch def /cairo_point_x exch def } def
/Tj { show currentpoint cairo_store_point } bind def
/TJ {
  {
    dup
    type /stringtype eq
    { show } { -0.001 mul 0 cairo_font_matrix dtransform rmoveto } ifelse
  } forall
  currentpoint cairo_store_point
} bind def
/cairo_selectfont { cairo_font_matrix aload pop pop pop 0 0 6 array astore
    cairo_font exch selectfont cairo_point_x cairo_point_y moveto } bind def
/Tf { pop /cairo_font exch def /cairo_font_matrix where
      { pop cairo_selectfont } if } bind def
/Td { matrix translate cairo_font_matrix matrix concatmatrix dup
      /cairo_font_matrix exch def dup 4 get exch 5 get cairo_store_point
      /cairo_font where { pop cairo_selectfont } if } bind def
/Tm { 2 copy 8 2 roll 6 array astore /cairo_font_matrix exch def
      cairo_store_point /cairo_font where { pop cairo_selectfont } if } bind def
/g { setgray } bind def
/rg { setrgbcolor } bind def
/d1 { setcachedevice } bind def
/cairo_data_source {
  CairoDataIndex CairoData length lt
    { CairoData CairoDataIndex get /CairoDataIndex CairoDataIndex 1 add def }
    { () } ifelse
} def
/cairo_flush_ascii85_file { cairo_ascii85_file status { cairo_ascii85_file flushfile } if } def
/cairo_image { image cairo_flush_ascii85_file } def
/cairo_imagemask { imagemask cairo_flush_ascii85_file } def
%%EndProlog
%%BeginSetup
%%EndSetup
%%Page: 1 1
%%BeginPageSetup
%%PageBoundingBox: 84 0 300 384
%%EndPageSetup
q 84 0 216 384 rectclip
1 0 0 -1 0 384 cm q
0.996078 0.756863 0.396078 rg
206.465 168.16 m 177.535 168.16 l 168.695 246.121 l 215.301 246.121 l h
206.465 168.16 m f
0.992157 0.705882 0.254902 rg
215.297 246.121 m 201.938 246.121 l 193.105 168.16 l 206.465 168.16 l h
215.297 246.121 m f
0.996078 0.756863 0.396078 rg
103.52 259.945 176.961 106.039 re f
0.992157 0.705882 0.254902 rg
265.344 269.211 15.137 87.441 re f
0.352941 g
289.098 269.211 m 94.902 269.211 l 93.117 269.211 91.672 267.766 91.672
 265.98 c 91.672 245.094 l 91.672 243.309 93.117 241.863 94.902 241.863 
c 289.098 241.863 l 290.883 241.863 292.328 243.309 292.328 245.094 c 292.328
 265.98 l 292.328 267.766 290.883 269.211 289.098 269.211 c h
289.098 269.211 m f
289.098 384 m 94.902 384 l 93.117 384 91.672 382.555 91.672 380.77 c 91.672
 359.883 l 91.672 358.098 93.117 356.652 94.902 356.652 c 289.098 356.652
 l 290.883 356.652 292.328 358.098 292.328 359.883 c 292.328 380.77 l 292.328
 382.555 290.883 384 289.098 384 c h
289.098 384 m f
0.984314 0.533333 0.00392157 rg
241.773 331.84 m 142.227 331.84 l 139.773 331.84 137.781 329.848 137.781
 327.395 c 137.781 298.469 l 137.781 296.016 139.773 294.023 142.227 294.023
 c 241.773 294.023 l 244.227 294.023 246.219 296.016 246.219 298.469 c 246.219
 327.395 l 246.219 329.848 244.227 331.84 241.773 331.84 c h
241.773 331.84 m f
0.996078 0.6 0.00392157 rg
209.316 10.766 m 230.023 52.723 l 231.383 55.477 234.008 57.383 237.047
 57.828 c 283.348 64.555 l 299.191 66.855 305.516 86.324 294.055 97.5 c 
260.547 130.156 l 258.352 132.301 257.348 135.387 257.867 138.414 c 265.773
 184.527 l 268.48 200.309 251.922 212.34 237.754 204.891 c 196.34 183.117
 l 193.621 181.688 190.375 181.688 187.656 183.117 c 146.242 204.891 l 132.074
 212.34 115.512 200.309 118.219 184.527 c 126.129 138.414 l 126.648 135.387
 125.645 132.301 123.445 130.156 c 89.941 97.5 l 78.477 86.324 84.805 66.855
 100.645 64.555 c 146.949 57.828 l 149.984 57.383 152.613 55.477 153.969
 52.723 c 174.676 10.766 l 181.762 -3.59 202.234 -3.59 209.316 10.766 c 
h
209.316 10.766 m f
0.984314 0.533333 0.00392157 rg
260.555 130.16 m 258.34 132.309 257.363 135.375 257.883 138.402 c 265.766
 184.535 l 268.469 200.316 251.922 212.332 237.75 204.871 c 196.332 183.109
 l 193.629 181.672 190.371 181.672 187.668 183.109 c 146.25 204.871 l 132.984
 211.852 117.621 201.766 117.938 187.504 c 121.945 188.258 126.293 187.742
 130.434 185.562 c 130.434 185.562 171.172 164.152 171.836 163.805 c 188.445
 155.074 212.34 171.418 226.734 178.527 c 230.723 180.496 234.922 182.516
 239.367 182.363 c 247.891 182.074 248.066 175.285 247.289 168.43 c 246.012
 157.195 244.461 145.719 242.52 134.547 c 241.449 126.637 238.023 117.402
 244.738 110.855 c 244.766 110.824 278.23 78.203 278.23 78.203 c 282.191
 74.34 284.039 69.492 284.086 64.688 c 299.391 67.453 305.348 86.504 294.047
 97.508 c h
260.555 130.16 m f
0.952941 0.917647 0.901961 rg
229.125 98.742 m 200.75 70.375 l 195.793 65.418 187.762 65.418 182.805 
70.375 c 155.055 98.125 l 150.109 103.07 149.832 111.422 154.438 116.688
 c 159.043 121.953 166.859 122.211 171.805 117.266 c 174.77 114.301 l 176.668
 112.402 179.91 113.746 179.91 116.43 c 179.91 146.336 l 179.91 153.344 
185.594 159.027 192.602 159.027 c 199.609 159.027 205.289 153.344 205.289
 146.336 c 205.289 118.066 l 205.289 115.383 208.535 114.039 210.434 115.938
 c 211.184 116.688 l 216.137 121.641 224.172 121.641 229.125 116.688 c 234.082
 111.734 234.082 103.699 229.125 98.742 c h
229.125 98.742 m f
0.882353 0.827451 0.807843 rg
232.84 107.719 m 232.84 110.961 231.605 114.215 229.129 116.688 c 224.172
 121.645 216.137 121.645 211.18 116.688 c 210.43 115.938 l 208.535 114.043
 205.289 115.383 205.289 118.074 c 205.289 146.336 l 205.289 149.836 203.871
 153.012 201.57 155.312 c 199.277 157.605 196.102 159.023 192.598 159.023
 c 190.176 159.023 187.918 158.348 185.992 157.172 c 189.449 155.027 191.75
 151.188 191.75 146.809 c 191.75 129.074 l 191.75 121.039 190.836 112.535
 198.238 107.371 c 199.734 106.344 201.621 106.117 203.344 105.539 c 205.625
 104.77 207.055 102.977 207.641 100.891 c 208.211 98.887 207.996 96.602 
207.035 94.691 c 204.961 90.59 201.207 87.527 198.012 84.328 c 194.465 80.789
 190.93 77.242 187.383 73.695 c 185.965 72.277 184.277 71.273 182.477 70.703
 c 182.805 70.375 l 187.762 65.418 195.789 65.418 200.746 70.375 c 229.121
 98.738 l 231.605 101.223 232.84 104.465 232.84 107.719 c h
232.84 107.719 m f
Q Q
showpage
%%Trailer
end
%%EOF
