%!PS-Adobe-3.0 EPSF-3.0
%%Creator: cairo 1.16.0 (https://cairographics.org)
%%CreationDate: Thu Nov  7 08:25:52 2019
%%Pages: 1
%%DocumentData: Clean7Bit
%%LanguageLevel: 2
%%BoundingBox: 0 0 384 384
%%EndComments
%%BeginProlog
50 dict begin
/q { gsave } bind def
/Q { grestore } bind def
/cm { 6 array astore concat } bind def
/w { setlinewidth } bind def
/J { setlinecap } bind def
/j { setlinejoin } bind def
/M { setmiterlimit } bind def
/d { setdash } bind def
/m { moveto } bind def
/l { lineto } bind def
/c { curveto } bind def
/h { closepath } bind def
/re { exch dup neg 3 1 roll 5 3 roll moveto 0 rlineto
      0 exch rlineto 0 rlineto closepath } bind def
/S { stroke } bind def
/f { fill } bind def
/f* { eofill } bind def
/n { newpath } bind def
/W { clip } bind def
/W* { eoclip } bind def
/BT { } bind def
/ET { } bind def
/BDC { mark 3 1 roll /BDC pdfmark } bind def
/EMC { mark /EMC pdfmark } bind def
/cairo_store_point { /cairo_point_y exch def /cairo_point_x exch def } def
/Tj { show currentpoint cairo_store_point } bind def
/TJ {
  {
    dup
    type /stringtype eq
    { show } { -0.001 mul 0 cairo_font_matrix dtransform rmoveto } ifelse
  } forall
  currentpoint cairo_store_point
} bind def
/cairo_selectfont { cairo_font_matrix aload pop pop pop 0 0 6 array astore
    cairo_font exch selectfont cairo_point_x cairo_point_y moveto } bind def
/Tf { pop /cairo_font exch def /cairo_font_matrix where
      { pop cairo_selectfont } if } bind def
/Td { matrix translate cairo_font_matrix matrix concatmatrix dup
      /cairo_font_matrix exch def dup 4 get exch 5 get cairo_store_point
      /cairo_font where { pop cairo_selectfont } if } bind def
/Tm { 2 copy 8 2 roll 6 array astore /cairo_font_matrix exch def
      cairo_store_point /cairo_font where { pop cairo_selectfont } if } bind def
/g { setgray } bind def
/rg { setrgbcolor } bind def
/d1 { setcachedevice } bind def
/cairo_data_source {
  CairoDataIndex CairoData length lt
    { CairoData CairoDataIndex get /CairoDataIndex CairoDataIndex 1 add def }
    { () } ifelse
} def
/cairo_flush_ascii85_file { cairo_ascii85_file status { cairo_ascii85_file flushfile } if } def
/cairo_image { image cairo_flush_ascii85_file } def
/cairo_imagemask { imagemask cairo_flush_ascii85_file } def
%%EndProlog
%%BeginSetup
%%EndSetup
%%Page: 1 1
%%BeginPageSetup
%%PageBoundingBox: 0 0 384 384
%%EndPageSetup
q 0 0 384 384 rectclip
1 0 0 -1 0 384 cm q
0.984314 0.168627 0.227451 rg
146.863 73.902 m 146.863 73.902 159.898 70.082 180.469 76.867 c 180.469
 76.867 202.137 84.156 216.172 80.371 c 218.992 79.613 220.965 77.086 220.965
 74.168 c 220.965 23.066 l 220.965 19.066 217.359 16.109 213.414 16.762 
c 199.473 19.055 180.469 12.664 180.469 12.664 c 159.898 5.879 146.863 9.695
 146.863 9.695 c h
146.863 73.902 m f
0.894118 0.121569 0.176471 rg
220.965 23.07 m 220.965 74.172 l 220.965 77.086 218.992 79.617 216.176 
80.371 c 211.672 81.582 206.383 81.66 201.273 81.203 c 203.156 79.996 204.359
 77.895 204.359 75.566 c 204.359 22.023 l 204.359 20.031 203.504 18.281 
202.156 17.07 c 205.98 17.367 209.863 17.348 213.418 16.762 c 217.359 16.113
 220.965 19.07 220.965 23.07 c h
220.965 23.07 m f
0.352941 g
149.098 148.938 m 127.383 148.938 l 127.383 10.855 l 127.383 4.859 132.242
 0 138.238 0 c 144.234 0 149.098 4.859 149.098 10.855 c h
149.098 148.938 m f
0.67451 0.368627 0.180392 rg
276.387 384 m 0.094 384 l 101.625 181.113 l 104.414 175.543 107.199 172.285
 109.988 166.715 c 111.988 162.719 113.988 158.723 115.988 154.727 c 117.574
 151.559 118.766 148.379 121.191 145.719 c 121.355 145.543 121.523 145.363
 121.691 145.195 c 130.875 135.75 146.336 135.93 155.289 145.719 c 158.266
 148.977 167.109 167.953 169.676 173.078 c 173.379 180.48 177.086 185.57
 180.789 192.973 c 180.801 192.996 180.812 193.02 180.824 193.043 c h
276.387 384 m f
0.619608 0.333333 0.156863 rg
276.387 384 m 256.172 384 l 160.609 193.043 l 160.594 193.023 160.586 193
 160.574 192.969 c 156.867 185.57 153.16 178.168 149.457 170.766 c 146.891
 165.637 144.324 162.828 141.762 157.695 c 139.797 153.773 138.047 148.977
 135.074 145.715 c 133.047 143.5 130.684 141.773 128.141 140.547 c 137.039
 136.242 148.199 137.969 155.289 145.715 c 158.27 148.977 160.02 153.773
 161.98 157.695 c 164.547 162.828 167.113 165.637 169.68 170.766 c 173.383
 178.168 177.082 185.574 180.785 192.969 c 180.801 193 180.809 193.023 180.824
 193.043 c h
276.387 384 m f
0.952941 0.917647 0.901961 rg
180.824 193.043 m 178.945 196.297 l 174.562 203.875 164.016 204.91 158.238
 198.32 c 147.168 185.688 l 141.969 179.766 132.707 179.887 127.68 185.957
 c 125.152 189.008 121.5 190.578 117.824 190.578 c 114.984 190.578 112.125
 189.641 109.754 187.715 c 101.625 181.113 l 104.465 175.438 107.305 169.766
 110.141 164.09 c 112.172 160.035 114.203 155.977 116.234 151.918 c 117.961
 148.465 118.98 145.668 121.691 142.879 c 130.875 133.434 146.336 133.613
 155.289 143.402 c 157.941 146.305 159.465 150.359 161.219 153.859 c 163.637
 158.695 176.48 184.363 180.484 192.363 c 180.598 192.59 180.711 192.816
 180.824 193.043 c h
180.824 193.043 m f
0.882353 0.827451 0.807843 rg
180.824 193.047 m 178.945 196.297 l 177.277 199.18 174.719 201.117 171.871
 202.043 c 171.613 202.129 171.352 202.207 171.09 202.27 c 170.828 202.34
 170.566 202.398 170.293 202.445 c 169.074 202.688 167.82 202.738 166.578
 202.617 c 166.152 202.57 165.723 202.508 165.305 202.426 c 165.305 202.426
 153.16 178.172 149.453 170.762 c 146.891 165.633 144.324 160.512 141.762
 155.383 c 139.797 151.461 138.047 146.664 135.07 143.402 c 133.246 141.402
 130.582 139.711 128.328 138.141 c 132.395 136.215 136.535 135.582 140.996
 136.094 c 143.621 136.398 146.105 137.129 148.48 138.289 c 151.316 139.68
 153.746 141.547 155.781 143.965 c 157.332 145.816 158.367 148.027 159.457
 150.168 c 162.156 155.449 180.715 192.816 180.824 193.047 c h
180.824 193.047 m f
0.843137 0.498039 0.290196 rg
383.906 384 m 181.961 384 l 252.027 243.988 l 252.148 243.891 l 254.188
 239.82 260.676 227.996 262.715 223.926 c 265.125 219.109 267.035 213.871
 270.691 209.867 c 273.922 206.328 278.512 203.629 283.293 203.727 c 285.621
 203.777 287.934 204.305 290.051 205.281 c 292.816 206.555 295.094 208.508
 296.52 211.133 c 301.98 221.219 307.023 231.496 312.215 241.77 c 312.754
 242.84 315.082 246.441 318.59 253.449 c 336.266 288.75 383.906 384 383.906
 384 c h
383.906 384 m f
0.784314 0.427451 0.211765 rg
383.906 383.996 m 366.527 383.996 l 366.359 383.664 366.188 383.332 366.027
 382.992 c 364.852 380.637 363.68 378.281 362.504 375.926 c 360.395 371.684
 308.219 267.309 304.609 260.133 c 301.359 253.66 298.098 247.191 294.832
 240.727 c 289.641 230.453 284.598 221.219 279.137 211.137 c 278 209.035
 276.316 207.367 274.27 206.133 c 276.98 204.516 280.141 203.66 283.293 
203.73 c 285.617 203.777 287.934 204.309 290.051 205.281 c 292.816 206.555
 295.094 208.512 296.516 211.137 c 301.977 221.219 307.02 231.496 312.211
 241.773 c 312.742 242.82 315.285 246.781 318.613 253.434 c 335.777 287.707
 382.422 381.02 383.406 382.992 c 383.566 383.332 383.738 383.664 383.906
 383.996 c h
383.906 383.996 m f
0.952941 0.917647 0.901961 rg
318.613 253.434 m 314.242 260.156 304.559 260.926 299.188 254.801 c 288.613
 242.73 l 283.648 237.074 274.797 237.191 269.992 242.992 c 267.574 245.902
 264.09 247.402 260.574 247.402 c 257.863 247.402 255.129 246.508 252.867
 244.668 c 252.031 243.988 l 256.172 235.707 l 258.211 231.637 260.242 227.566
 262.281 223.496 c 264.691 218.684 266.816 212.148 270.469 208.148 c 273.707
 204.609 278.512 202.586 283.293 202.688 c 285.617 202.734 287.934 203.266
 290.051 204.238 c 292.816 205.512 295.094 207.469 296.516 210.094 c 301.977
 220.176 307.023 230.457 312.211 240.73 c 314.352 244.961 316.492 249.195
 318.613 253.434 c h
318.613 253.434 m f
0.882353 0.827451 0.807843 rg
318.613 253.434 m 315.254 258.562 308.773 260.238 303.523 257.969 c 300.633
 252.215 297.738 246.477 294.832 240.73 c 289.641 230.457 284.598 220.176
 279.137 210.094 c 278 207.992 276.316 206.324 274.27 205.09 c 274.418 205.004
 274.562 204.918 274.719 204.828 c 275.844 204.152 277.348 203.578 278.629
 203.258 c 280.148 202.848 281.719 202.656 283.293 202.688 c 285.617 202.734
 287.934 203.266 290.051 204.238 c 292.816 205.512 295.094 207.469 296.516
 210.094 c 301.977 220.176 316.098 248.391 318.613 253.434 c h
318.613 253.434 m f
Q Q
showpage
%%Trailer
end
%%EOF
