%!PS-Adobe-3.0 EPSF-3.0
%%Creator: cairo 1.16.0 (https://cairographics.org)
%%CreationDate: Thu Nov  7 08:25:52 2019
%%Pages: 1
%%DocumentData: Clean7Bit
%%LanguageLevel: 2
%%BoundingBox: 0 0 384 384
%%EndComments
%%BeginProlog
50 dict begin
/q { gsave } bind def
/Q { grestore } bind def
/cm { 6 array astore concat } bind def
/w { setlinewidth } bind def
/J { setlinecap } bind def
/j { setlinejoin } bind def
/M { setmiterlimit } bind def
/d { setdash } bind def
/m { moveto } bind def
/l { lineto } bind def
/c { curveto } bind def
/h { closepath } bind def
/re { exch dup neg 3 1 roll 5 3 roll moveto 0 rlineto
      0 exch rlineto 0 rlineto closepath } bind def
/S { stroke } bind def
/f { fill } bind def
/f* { eofill } bind def
/n { newpath } bind def
/W { clip } bind def
/W* { eoclip } bind def
/BT { } bind def
/ET { } bind def
/BDC { mark 3 1 roll /BDC pdfmark } bind def
/EMC { mark /EMC pdfmark } bind def
/cairo_store_point { /cairo_point_y exch def /cairo_point_x exch def } def
/Tj { show currentpoint cairo_store_point } bind def
/TJ {
  {
    dup
    type /stringtype eq
    { show } { -0.001 mul 0 cairo_font_matrix dtransform rmoveto } ifelse
  } forall
  currentpoint cairo_store_point
} bind def
/cairo_selectfont { cairo_font_matrix aload pop pop pop 0 0 6 array astore
    cairo_font exch selectfont cairo_point_x cairo_point_y moveto } bind def
/Tf { pop /cairo_font exch def /cairo_font_matrix where
      { pop cairo_selectfont } if } bind def
/Td { matrix translate cairo_font_matrix matrix concatmatrix dup
      /cairo_font_matrix exch def dup 4 get exch 5 get cairo_store_point
      /cairo_font where { pop cairo_selectfont } if } bind def
/Tm { 2 copy 8 2 roll 6 array astore /cairo_font_matrix exch def
      cairo_store_point /cairo_font where { pop cairo_selectfont } if } bind def
/g { setgray } bind def
/rg { setrgbcolor } bind def
/d1 { setcachedevice } bind def
/cairo_data_source {
  CairoDataIndex CairoData length lt
    { CairoData CairoDataIndex get /CairoDataIndex CairoDataIndex 1 add def }
    { () } ifelse
} def
/cairo_flush_ascii85_file { cairo_ascii85_file status { cairo_ascii85_file flushfile } if } def
/cairo_image { image cairo_flush_ascii85_file } def
/cairo_imagemask { imagemask cairo_flush_ascii85_file } def
%%EndProlog
%%BeginSetup
%%EndSetup
%%Page: 1 1
%%BeginPageSetup
%%PageBoundingBox: 0 0 384 384
%%EndPageSetup
q 0 0 384 384 rectclip
1 0 0 -1 0 384 cm q
0.952941 0.917647 0.901961 rg
367.117 383.996 m 16.883 383.996 l 7.68 383.996 0.223 376.539 0.223 367.34
 c 0.223 46.836 l 383.773 46.836 l 383.773 367.34 l 383.773 376.539 376.316
 383.996 367.117 383.996 c h
367.117 383.996 m f
0.882353 0.827451 0.807843 rg
383.777 46.832 m 383.777 367.336 l 383.777 376.539 376.316 384 367.113 
384 c 350.191 384 l 359.395 384 367.262 375.168 367.262 365.965 c 367.488
 46.645 l h
383.777 46.832 m f
0.996078 0.6 0.00392157 rg
383.773 52.203 m 0.223 52.203 l 0.223 16.66 l 0.223 7.461 7.68 0.004 16.883
 0.004 c 367.117 0.004 l 376.316 0.004 383.773 7.461 383.773 16.66 c h
383.773 52.203 m f
0.984314 0.533333 0.00392157 rg
383.777 16.66 m 383.777 46.836 l 367.484 46.836 l 367.484 16.66 l 367.484
 7.461 360.023 0 350.82 0 c 367.113 0 l 376.316 0 383.777 7.461 383.777 
16.66 c h
383.777 16.66 m f
0.541176 0.788235 0.996078 rg
0.223 46.836 383.551 123.812 re f
0.376471 0.717647 1 rg
367.484 46.832 16.293 123.812 re f
0.996078 0.756863 0.396078 rg
275.328 164.855 m 275.328 210.875 238.02 248.184 192 248.184 c 145.98 248.184
 108.672 210.875 108.672 164.855 c 108.672 118.836 145.98 81.527 192 81.527
 c 238.02 81.527 275.328 118.836 275.328 164.855 c h
275.328 164.855 m f
0.67451 0.368627 0.180392 rg
150.082 142.938 m 150.082 202.438 l 150.082 211.457 157.391 218.77 166.41
 218.77 c 217.586 218.77 l 226.605 218.77 233.918 211.461 233.918 202.438
 c 233.918 142.938 l h
150.082 142.938 m f
0.619608 0.333333 0.156863 rg
233.918 142.934 m 233.918 202.438 l 233.918 211.461 226.602 218.77 217.59
 218.77 c 206.828 218.77 l 215.848 218.77 223.16 211.461 223.16 202.438 
c 223.16 142.934 l h
233.918 142.934 m f
0.964706 0.662745 0.423529 rg
229.344 172.031 m 229.344 172.297 l 229.344 187.184 217.273 199.254 202.387
 199.254 c 181.613 199.254 l 166.723 199.254 154.656 187.184 154.656 172.297
 c 154.656 139.773 l 229.344 139.773 l h
229.344 172.031 m f
0.352941 g
178.133 181.52 m 175.027 181.52 172.516 179.004 172.516 175.898 c 172.516
 170.977 l 172.516 167.875 175.027 165.359 178.133 165.359 c 181.234 165.359
 183.75 167.875 183.75 170.977 c 183.75 175.898 l 183.75 179.004 181.234
 181.52 178.133 181.52 c h
178.133 181.52 m f
204.535 181.52 m 201.43 181.52 198.914 179.004 198.914 175.898 c 198.914
 170.977 l 198.914 167.875 201.43 165.359 204.535 165.359 c 207.637 165.359
 210.152 167.875 210.152 170.977 c 210.152 175.898 l 210.152 179.004 207.637
 181.52 204.535 181.52 c h
204.535 181.52 m f
0.917647 0.607843 0.345098 rg
229.34 139.777 m 229.34 172.301 l 229.34 187.188 217.273 199.258 202.387
 199.258 c 192.094 199.258 l 206.984 199.258 219.051 187.188 219.051 172.301
 c 219.051 139.777 l h
229.34 139.777 m f
0.67451 0.368627 0.180392 rg
201.82 110.941 m 182.234 110.941 l 164.504 110.941 150.133 125.312 150.133
 143.043 c 150.133 160.371 l 167.832 161.438 181.98 153.637 190.078 147.57
 c 191.238 146.703 192.816 146.703 193.973 147.57 c 202.07 153.637 216.223
 161.438 233.918 160.371 c 233.918 143.043 l 233.918 125.312 219.547 110.941
 201.82 110.941 c h
201.82 110.941 m f
0.619608 0.333333 0.156863 rg
233.918 143.039 m 233.918 160.371 l 230.168 160.598 226.57 160.426 223.16
 159.953 c 223.16 143.039 l 223.16 125.312 208.789 110.941 191.062 110.941
 c 201.82 110.941 l 219.547 110.941 233.918 125.312 233.918 143.039 c h
233.918 143.039 m f
0.541176 0.788235 0.996078 rg
120.582 341.77 m 37.617 341.77 l 33.43 341.77 30.035 338.375 30.035 334.188
 c 30.035 277.422 l 30.035 273.234 33.43 269.84 37.617 269.84 c 120.582 
269.84 l h
120.582 341.77 m f
0.14902 0.65098 0.996078 rg
113.516 341.77 m 346.383 341.77 l 350.57 341.77 353.965 338.375 353.965
 334.188 c 353.965 277.422 l 353.965 273.234 350.57 269.84 346.383 269.84
 c 113.516 269.84 l h
113.516 341.77 m f
0.882353 0.827451 0.807843 rg
93.094 300.551 m 50.961 300.551 l 47.762 300.551 45.168 297.957 45.168 
294.758 c 45.168 291.559 47.762 288.965 50.961 288.965 c 93.094 288.965 
l 96.297 288.965 98.887 291.559 98.887 294.758 c 98.887 297.957 96.297 300.551
 93.094 300.551 c h
93.094 300.551 m f
93.094 322.641 m 50.961 322.641 l 47.762 322.641 45.168 320.047 45.168 
316.848 c 45.168 313.648 47.762 311.055 50.961 311.055 c 93.094 311.055 
l 96.297 311.055 98.887 313.648 98.887 316.848 c 98.887 320.047 96.297 322.641
 93.094 322.641 c h
93.094 322.641 m f
329.82 300.551 m 137.66 300.551 l 134.461 300.551 131.867 297.957 131.867
 294.758 c 131.867 291.559 134.461 288.965 137.66 288.965 c 329.82 288.965
 l 333.02 288.965 335.613 291.559 335.613 294.758 c 335.613 297.957 333.02
 300.551 329.82 300.551 c h
329.82 300.551 m f
304.645 322.641 m 137.66 322.641 l 134.461 322.641 131.867 320.047 131.867
 316.848 c 131.867 313.648 134.461 311.055 137.66 311.055 c 304.645 311.055
 l 307.844 311.055 310.438 313.648 310.438 316.848 c 310.438 320.047 307.844
 322.641 304.645 322.641 c h
304.645 322.641 m f
0.984314 0.168627 0.227451 rg
317.254 87.152 m 294.387 87.152 l 294.387 124.941 l 294.387 127.266 296.715
 128.867 298.887 128.039 c 316.07 121.469 l 316.832 121.176 317.676 121.176
 318.438 121.469 c 335.621 128.039 l 337.793 128.871 340.121 127.266 340.121
 124.941 c 340.121 87.152 l h
317.254 87.152 m f
0.894118 0.121569 0.176471 rg
340.121 87.152 m 340.121 124.945 l 340.121 127.266 337.797 128.871 335.621
 128.039 c 328.5 125.316 l 328.727 124.879 328.852 124.379 328.852 123.836
 c 328.852 87.152 l h
340.121 87.152 m f
0.996078 0.756863 0.396078 rg
356.797 59.957 m 356.797 81.797 339.094 99.5 317.254 99.5 c 295.414 99.5
 277.711 81.797 277.711 59.957 c 277.711 38.117 295.414 20.414 317.254 20.414
 c 339.094 20.414 356.797 38.117 356.797 59.957 c h
356.797 59.957 m f
0.996078 0.6 0.00392157 rg
320.777 39 m 324.992 47.535 l 325.27 48.098 325.805 48.484 326.422 48.574
 c 335.844 49.945 l 339.066 50.414 340.355 54.375 338.023 56.648 c 331.203
 63.293 l 330.758 63.73 330.551 64.359 330.66 64.973 c 332.266 74.355 l 
332.816 77.566 329.449 80.016 326.566 78.5 c 318.137 74.07 l 317.586 73.777
 316.926 73.777 316.371 74.07 c 307.945 78.5 l 305.062 80.016 301.691 77.566
 302.242 74.355 c 303.852 64.973 l 303.957 64.359 303.754 63.73 303.305 
63.293 c 296.488 56.648 l 294.156 54.375 295.441 50.414 298.668 49.945 c
 308.086 48.574 l 308.707 48.484 309.242 48.098 309.516 47.535 c 313.73 
39 l 315.172 36.078 319.336 36.078 320.777 39 c h
320.777 39 m f
0.984314 0.533333 0.00392157 rg
331.203 63.293 m 330.754 63.73 330.555 64.355 330.66 64.969 c 332.266 74.359
 l 332.816 77.57 329.445 80.016 326.562 78.496 c 318.137 74.066 l 317.586
 73.777 316.922 73.777 316.371 74.066 c 307.945 78.496 l 305.062 80.016 
301.691 77.57 302.242 74.359 c 302.609 72.219 l 302.801 72.156 302.992 72.07
 303.184 71.973 c 304.426 71.32 305.664 70.668 306.902 70.016 c 308.77 69.031
 310.641 68.027 312.621 67.289 c 314.238 66.684 315.973 66.449 317.691 66.383
 c 319.551 66.312 322.293 67.598 323.445 65.461 c 323.797 64.805 323.688
 63.887 323.812 63.172 c 324.395 59.855 326.297 56.902 328.738 54.566 c 
330.27 53.109 331.746 51.594 333.262 50.117 c 333.418 49.961 333.566 49.801
 333.684 49.629 c 335.844 49.945 l 339.066 50.41 340.355 54.375 338.02 56.648
 c h
331.203 63.293 m f
Q Q
showpage
%%Trailer
end
%%EOF
