%!PS-Adobe-3.0 EPSF-3.0
%%Creator: cairo 1.16.0 (https://cairographics.org)
%%CreationDate: Thu Nov  7 08:25:53 2019
%%Pages: 1
%%DocumentData: Clean7Bit
%%LanguageLevel: 2
%%BoundingBox: 0 0 384 384
%%EndComments
%%BeginProlog
50 dict begin
/q { gsave } bind def
/Q { grestore } bind def
/cm { 6 array astore concat } bind def
/w { setlinewidth } bind def
/J { setlinecap } bind def
/j { setlinejoin } bind def
/M { setmiterlimit } bind def
/d { setdash } bind def
/m { moveto } bind def
/l { lineto } bind def
/c { curveto } bind def
/h { closepath } bind def
/re { exch dup neg 3 1 roll 5 3 roll moveto 0 rlineto
      0 exch rlineto 0 rlineto closepath } bind def
/S { stroke } bind def
/f { fill } bind def
/f* { eofill } bind def
/n { newpath } bind def
/W { clip } bind def
/W* { eoclip } bind def
/BT { } bind def
/ET { } bind def
/BDC { mark 3 1 roll /BDC pdfmark } bind def
/EMC { mark /EMC pdfmark } bind def
/cairo_store_point { /cairo_point_y exch def /cairo_point_x exch def } def
/Tj { show currentpoint cairo_store_point } bind def
/TJ {
  {
    dup
    type /stringtype eq
    { show } { -0.001 mul 0 cairo_font_matrix dtransform rmoveto } ifelse
  } forall
  currentpoint cairo_store_point
} bind def
/cairo_selectfont { cairo_font_matrix aload pop pop pop 0 0 6 array astore
    cairo_font exch selectfont cairo_point_x cairo_point_y moveto } bind def
/Tf { pop /cairo_font exch def /cairo_font_matrix where
      { pop cairo_selectfont } if } bind def
/Td { matrix translate cairo_font_matrix matrix concatmatrix dup
      /cairo_font_matrix exch def dup 4 get exch 5 get cairo_store_point
      /cairo_font where { pop cairo_selectfont } if } bind def
/Tm { 2 copy 8 2 roll 6 array astore /cairo_font_matrix exch def
      cairo_store_point /cairo_font where { pop cairo_selectfont } if } bind def
/g { setgray } bind def
/rg { setrgbcolor } bind def
/d1 { setcachedevice } bind def
/cairo_data_source {
  CairoDataIndex CairoData length lt
    { CairoData CairoDataIndex get /CairoDataIndex CairoDataIndex 1 add def }
    { () } ifelse
} def
/cairo_flush_ascii85_file { cairo_ascii85_file status { cairo_ascii85_file flushfile } if } def
/cairo_image { image cairo_flush_ascii85_file } def
/cairo_imagemask { imagemask cairo_flush_ascii85_file } def
%%EndProlog
%%BeginSetup
%%EndSetup
%%Page: 1 1
%%BeginPageSetup
%%PageBoundingBox: 0 0 384 384
%%EndPageSetup
q 0 0 384 384 rectclip
1 0 0 -1 0 384 cm q
0.352941 g
356.902 346.117 m 26.074 346.117 l 26.074 139.852 l 26.074 127.668 35.957
 117.785 48.141 117.785 c 334.836 117.785 l 347.023 117.785 356.902 127.668
 356.902 139.852 c h
356.902 346.117 m f
0.541176 0.788235 0.996078 rg
321.34 317.355 m 61.637 317.355 l 57.363 317.355 53.898 313.891 53.898 
309.617 c 53.898 154.289 l 53.898 150.016 57.363 146.551 61.637 146.551 
c 321.34 146.551 l 325.617 146.551 329.082 150.016 329.082 154.289 c 329.082
 309.617 l 329.082 313.891 325.617 317.355 321.34 317.355 c h
321.34 317.355 m f
0.376471 0.717647 1 rg
329.078 154.293 m 329.078 309.617 l 329.078 313.887 325.613 317.355 321.34
 317.355 c 305.895 317.355 l 310.164 317.355 313.633 313.887 313.633 309.617
 c 313.633 154.293 l 313.633 150.012 310.164 146.551 305.895 146.551 c 321.34
 146.551 l 325.613 146.551 329.078 150.012 329.078 154.293 c h
329.078 154.293 m f
0.952941 0.917647 0.901961 rg
145.863 335.062 92.273 27.035 re f
0.611765 g
377.461 335.062 m 235.82 335.062 l 235.82 346.496 l 235.82 351.105 232.086
 354.84 227.477 354.84 c 156.523 354.84 l 151.914 354.84 148.18 351.105 
148.18 346.496 c 148.18 335.062 l 6.539 335.062 l 2.93 335.062 0 337.992
 0 341.602 c 0 362.938 l 0 374.25 9.168 383.418 20.48 383.418 c 363.52 383.418
 l 374.828 383.418 384 374.25 384 362.938 c 384 341.602 l 384 337.992 381.07
 335.062 377.461 335.062 c h
377.461 335.062 m f
0.513726 g
384 341.602 m 384 362.938 l 384 374.25 374.832 383.418 363.52 383.418 c
 351.844 383.418 l 360.535 383.418 367.582 376.371 367.582 367.68 c 367.582
 341.602 l 367.582 337.988 364.66 335.059 361.047 335.059 c 377.457 335.059
 l 381.07 335.059 384 337.988 384 341.602 c h
384 341.602 m f
0.952941 0.917647 0.901961 rg
308.738 317.336 m 75.262 317.336 l 75.262 89.543 l 75.262 85.059 78.898
 81.418 83.387 81.418 c 300.613 81.418 l 305.102 81.418 308.738 85.055 308.738
 89.543 c h
308.738 317.336 m f
0.882353 0.827451 0.807843 rg
308.738 89.543 m 308.738 317.332 l 294.543 317.332 l 294.543 85.527 l 294.543
 83.258 292.703 81.418 290.434 81.418 c 300.613 81.418 l 305.098 81.418 
308.738 85.055 308.738 89.543 c h
308.738 89.543 m f
0.996078 0.6 0.00392157 rg
308.738 131.566 m 75.262 131.566 l 75.262 89.543 l 75.262 85.059 78.898
 81.418 83.387 81.418 c 300.613 81.418 l 305.102 81.418 308.738 85.055 308.738
 89.543 c h
308.738 131.566 m f
0.984314 0.533333 0.00392157 rg
308.738 89.543 m 308.738 131.562 l 294.539 131.562 l 294.539 85.527 l 294.539
 83.258 292.703 81.418 290.43 81.418 c 300.613 81.418 l 305.098 81.418 308.738
 85.055 308.738 89.543 c h
308.738 89.543 m f
0.14902 0.65098 0.996078 rg
125.141 0.586 m 136.605 34.062 l 247.395 34.062 l 258.859 0.586 l h
125.141 0.586 m f
0.0196078 0.576471 0.988235 rg
252.656 0.582 m 241.184 34.066 l 226.922 34.066 l 238.395 0.582 l h
252.656 0.582 m f
0.541176 0.788235 0.996078 rg
108.965 0.586 m 170.234 180.629 l 147.148 180.629 l 91.719 17.211 l 91.188
 15.648 91.707 13.922 93.012 12.914 c h
108.965 0.586 m f
0.984314 0.168627 0.227451 rg
131.441 0.586 m 193.117 180.629 l 170.031 180.629 l 108.965 0.586 l h
131.441 0.586 m f
0.541176 0.788235 0.996078 rg
275.035 0.586 m 213.766 180.629 l 236.852 180.629 l 292.281 17.211 l 292.812
 15.648 292.293 13.922 290.988 12.914 c h
275.035 0.586 m f
0.984314 0.168627 0.227451 rg
252.559 0.586 m 190.883 180.629 l 213.969 180.629 l 275.035 0.586 l h
252.559 0.586 m f
0.996078 0.756863 0.396078 rg
260.008 224.531 m 260.008 231.52 252.594 237.25 250.547 243.555 c 248.426
 250.09 250.98 259.07 247.023 264.508 c 243.023 270.004 233.668 270.328 
228.172 274.324 c 222.734 278.285 219.555 287.105 213.02 289.227 c 206.715
 291.273 198.988 286.074 192 286.074 c 185.012 286.074 177.285 291.273 170.98
 289.227 c 164.445 287.105 161.266 278.285 155.824 274.324 c 150.332 270.328
 140.973 270.004 136.977 264.508 c 133.02 259.066 135.574 250.09 133.453
 243.555 c 131.406 237.25 123.992 231.516 123.992 224.531 c 123.992 217.543
 131.406 211.812 133.453 205.508 c 135.574 198.973 133.02 189.992 136.977
 184.551 c 140.973 179.059 150.332 178.734 155.824 174.734 c 161.266 170.777
 164.445 161.953 170.98 159.832 c 177.285 157.785 185.012 162.988 192 162.988
 c 198.988 162.988 206.715 157.785 213.02 159.832 c 219.555 161.953 222.734
 170.777 228.172 174.734 c 233.668 178.734 243.023 179.059 247.023 184.551
 c 250.98 189.992 248.426 198.973 250.547 205.508 c 252.594 211.812 260.008
 217.543 260.008 224.531 c h
260.008 224.531 m f
0.996078 0.6 0.00392157 rg
232.66 224.531 m 232.66 246.984 214.453 265.188 192 265.188 c 169.547 265.188
 151.34 246.984 151.34 224.531 c 151.34 202.074 169.547 183.871 192 183.871
 c 214.453 183.871 232.66 202.074 232.66 224.531 c h
232.66 224.531 m f
0.984314 0.533333 0.00392157 rg
232.656 224.531 m 232.656 246.984 214.453 265.191 192 265.191 c 177.125
 265.191 164.117 257.195 157.027 245.277 c 163.637 249.941 171.703 252.676
 180.414 252.676 c 202.867 252.676 221.07 234.48 221.07 212.02 c 221.07 
204.441 219 197.344 215.387 191.273 c 225.836 198.633 232.656 210.785 232.656
 224.531 c h
232.656 224.531 m f
0.952941 0.917647 0.901961 rg
195.301 206.844 m 199.246 214.84 l 199.508 215.363 200.008 215.727 200.586
 215.812 c 209.41 217.094 l 212.43 217.531 213.637 221.242 211.449 223.375
 c 205.066 229.598 l 204.645 230.008 204.453 230.594 204.555 231.172 c 206.062
 239.961 l 206.578 242.969 203.422 245.262 200.719 243.84 c 192.828 239.691
 l 192.309 239.418 191.691 239.418 191.172 239.691 c 183.281 243.84 l 180.578
 245.262 177.422 242.969 177.938 239.961 c 179.445 231.172 l 179.547 230.594
 179.355 230.004 178.934 229.598 c 172.551 223.375 l 170.363 221.242 171.57
 217.531 174.59 217.094 c 183.414 215.812 l 183.992 215.727 184.492 215.363
 184.754 214.84 c 188.699 206.844 l 190.051 204.105 193.949 204.105 195.301
 206.844 c h
195.301 206.844 m f
0.882353 0.827451 0.807843 rg
205.066 229.598 m 204.645 230.008 204.457 230.59 204.555 231.168 c 206.059
 239.961 l 206.574 242.969 203.422 245.258 200.719 243.836 c 192.824 239.688
 l 192.309 239.414 191.691 239.414 191.172 239.688 c 183.281 243.836 l 180.578
 245.258 177.426 242.969 177.941 239.961 c 178.281 237.957 l 178.461 237.898
 178.641 237.82 178.82 237.727 c 179.98 237.117 181.141 236.504 182.305 
235.895 c 184.051 234.973 185.805 234.031 187.66 233.34 c 189.176 232.773
 190.797 232.551 192.41 232.492 c 194.148 232.426 196.719 233.629 197.797
 231.629 c 198.125 231.012 198.023 230.152 198.141 229.484 c 198.688 226.375
 200.469 223.609 202.754 221.426 c 204.188 220.059 205.57 218.641 206.988
 217.258 c 207.141 217.109 207.273 216.961 207.387 216.797 c 209.41 217.098
 l 212.43 217.531 213.633 221.246 211.449 223.375 c h
205.066 229.598 m f
Q Q
showpage
%%Trailer
end
%%EOF
