%!PS-Adobe-3.0 EPSF-3.0
%%Creator: cairo 1.16.0 (https://cairographics.org)
%%CreationDate: Thu Nov  7 08:25:53 2019
%%Pages: 1
%%DocumentData: Clean7Bit
%%LanguageLevel: 2
%%BoundingBox: 0 28 384 356
%%EndComments
%%BeginProlog
50 dict begin
/q { gsave } bind def
/Q { grestore } bind def
/cm { 6 array astore concat } bind def
/w { setlinewidth } bind def
/J { setlinecap } bind def
/j { setlinejoin } bind def
/M { setmiterlimit } bind def
/d { setdash } bind def
/m { moveto } bind def
/l { lineto } bind def
/c { curveto } bind def
/h { closepath } bind def
/re { exch dup neg 3 1 roll 5 3 roll moveto 0 rlineto
      0 exch rlineto 0 rlineto closepath } bind def
/S { stroke } bind def
/f { fill } bind def
/f* { eofill } bind def
/n { newpath } bind def
/W { clip } bind def
/W* { eoclip } bind def
/BT { } bind def
/ET { } bind def
/BDC { mark 3 1 roll /BDC pdfmark } bind def
/EMC { mark /EMC pdfmark } bind def
/cairo_store_point { /cairo_point_y exch def /cairo_point_x exch def } def
/Tj { show currentpoint cairo_store_point } bind def
/TJ {
  {
    dup
    type /stringtype eq
    { show } { -0.001 mul 0 cairo_font_matrix dtransform rmoveto } ifelse
  } forall
  currentpoint cairo_store_point
} bind def
/cairo_selectfont { cairo_font_matrix aload pop pop pop 0 0 6 array astore
    cairo_font exch selectfont cairo_point_x cairo_point_y moveto } bind def
/Tf { pop /cairo_font exch def /cairo_font_matrix where
      { pop cairo_selectfont } if } bind def
/Td { matrix translate cairo_font_matrix matrix concatmatrix dup
      /cairo_font_matrix exch def dup 4 get exch 5 get cairo_store_point
      /cairo_font where { pop cairo_selectfont } if } bind def
/Tm { 2 copy 8 2 roll 6 array astore /cairo_font_matrix exch def
      cairo_store_point /cairo_font where { pop cairo_selectfont } if } bind def
/g { setgray } bind def
/rg { setrgbcolor } bind def
/d1 { setcachedevice } bind def
/cairo_data_source {
  CairoDataIndex CairoData length lt
    { CairoData CairoDataIndex get /CairoDataIndex CairoDataIndex 1 add def }
    { () } ifelse
} def
/cairo_flush_ascii85_file { cairo_ascii85_file status { cairo_ascii85_file flushfile } if } def
/cairo_image { image cairo_flush_ascii85_file } def
/cairo_imagemask { imagemask cairo_flush_ascii85_file } def
%%EndProlog
%%BeginSetup
%%EndSetup
%%Page: 1 1
%%BeginPageSetup
%%PageBoundingBox: 0 28 384 356
%%EndPageSetup
q 0 28 384 328 rectclip
1 0 0 -1 0 384 cm q
0.952941 0.917647 0.901961 rg
44.465 45.895 331.426 215.23 re f
0.352941 g
379.418 54.32 m 40.938 54.32 l 38.41 54.32 36.355 52.27 36.355 49.738 c
 36.355 32.961 l 36.355 30.434 38.406 28.383 40.938 28.383 c 379.418 28.383
 l 381.949 28.383 384 30.434 384 32.961 c 384 49.738 l 384 52.27 381.949
 54.32 379.418 54.32 c h
379.418 54.32 m f
379.418 279.316 m 40.938 279.316 l 38.41 279.316 36.355 277.266 36.355 
274.734 c 36.355 257.957 l 36.355 255.43 38.406 253.379 40.938 253.379 c
 379.418 253.379 l 381.949 253.379 384 255.43 384 257.957 c 384 274.734 
l 384 277.266 381.949 279.316 379.418 279.316 c h
379.418 279.316 m f
0.882353 0.827451 0.807843 rg
360.656 54.32 15.234 199.059 re f
0.984314 0.168627 0.227451 rg
318.461 90.164 m 283.574 96.32 l 277.742 97.352 273.613 102.996 274.402
 108.867 c 275.254 115.23 281.129 119.523 287.449 118.406 c 293.469 117.348
 l 266 160.656 l 263.828 164.082 259.285 165.102 255.859 162.926 c 208.398
 138.152 l 202.48 134.398 194.637 136.152 190.883 142.07 c 152.609 198.902
 l 148.984 204.613 150.68 212.176 156.391 215.797 c 162.098 219.418 169.66
 217.727 173.281 212.016 c 201.281 171.332 l 203.453 167.906 207.996 166.891
 211.422 169.062 c 258.906 193.855 l 264.828 197.609 272.672 195.855 276.426
 189.934 c 314.18 130.402 l 315.535 138.066 l 316.609 144.164 322.426 148.234
 328.523 147.16 c 334.621 146.082 338.695 140.266 337.617 134.168 c 331.449
 99.258 l 330.375 93.16 324.559 89.09 318.461 90.164 c h
318.461 90.164 m f
0.894118 0.121569 0.176471 rg
337.621 134.168 m 331.453 99.258 l 330.379 93.16 324.559 89.086 318.461
 90.164 c 317.902 90.262 l 318.973 94.512 320.297 98.711 320.789 103.094
 c 321.285 107.535 324.051 115.512 319.055 118.395 c 315.996 120.16 312.477
 118.227 309.305 120.219 c 306.516 121.973 305.012 124.566 303.281 127.293
 c 299.016 134.008 294.762 140.719 290.508 147.43 c 284.379 157.094 278.609
 167 272.117 176.43 c 267.547 183.074 263.75 183.766 254.598 178.703 c 207.105
 153.914 l 203.68 151.738 199.141 152.754 196.965 156.176 c 168.969 198.512
 l 165.344 204.223 157.785 205.914 152.078 202.297 c 151.801 202.117 151.531
 201.938 151.277 201.738 c 149.625 206.914 151.586 212.75 156.391 215.801
 c 158.43 217.09 160.691 217.707 162.938 217.707 c 166.988 217.707 170.949
 215.691 173.285 212.016 c 201.281 171.328 l 203.453 167.906 207.996 166.891
 211.422 169.066 c 258.91 193.855 l 264.828 197.613 272.672 195.852 276.426
 189.934 c 314.18 130.398 l 315.535 138.066 l 316.613 144.164 322.426 148.238
 328.527 147.16 c 333.969 146.199 337.793 141.465 337.793 136.129 c 337.793
 135.48 337.738 134.824 337.621 134.168 c h
337.621 134.168 m f
0.67451 0.368627 0.180392 rg
0 246.402 m 0 331.52 l 0 344.832 10.789 355.621 24.098 355.621 c 99.613
 355.621 l 112.922 355.621 123.711 344.832 123.711 331.52 c 123.711 246.402
 l h
0 246.402 m f
0.619608 0.333333 0.156863 rg
123.715 246.398 m 123.715 331.52 l 123.715 344.832 112.918 355.617 99.617
 355.617 c 83.738 355.617 l 97.051 355.617 107.836 344.832 107.836 331.52
 c 107.836 246.398 l h
123.715 246.398 m f
0.964706 0.662745 0.423529 rg
116.961 289.336 m 116.961 289.727 l 116.961 311.695 99.152 329.508 77.184
 329.508 c 46.531 329.508 l 24.559 329.508 6.75 311.695 6.75 289.727 c 6.75
 241.738 l 116.961 241.738 l h
116.961 289.336 m f
0.352941 g
41.395 300.754 m 38.242 300.754 35.684 298.195 35.684 295.043 c 35.684 
287.781 l 35.684 284.625 38.242 282.07 41.395 282.07 c 44.547 282.07 47.102
 284.625 47.102 287.781 c 47.102 295.043 l 47.102 298.195 44.547 300.754
 41.395 300.754 c h
41.395 300.754 m f
80.352 300.754 m 77.199 300.754 74.641 298.195 74.641 295.043 c 74.641 
287.781 l 74.641 284.625 77.199 282.07 80.352 282.07 c 83.508 282.07 86.062
 284.625 86.062 287.781 c 86.062 295.043 l 86.062 298.195 83.508 300.754
 80.352 300.754 c h
80.352 300.754 m f
0.917647 0.607843 0.345098 rg
116.961 241.742 m 116.961 289.73 l 116.961 311.699 99.152 329.508 77.18
 329.508 c 61.996 329.508 l 83.965 329.508 101.777 311.699 101.777 289.73
 c 101.777 241.742 l h
116.961 241.742 m f
0.67451 0.368627 0.180392 rg
76.348 199.191 m 47.445 199.191 l 21.285 199.191 0.078 220.398 0.078 246.559
 c 0.078 272.129 l 26.195 273.703 47.074 262.188 59.023 253.242 c 60.73 
251.961 63.062 251.961 64.77 253.242 c 76.719 262.188 97.602 273.703 123.715
 272.129 c 123.715 246.559 l 123.715 220.398 102.508 199.191 76.348 199.191
 c h
76.348 199.191 m f
0.619608 0.333333 0.156863 rg
123.715 246.555 m 123.715 272.129 l 118.176 272.465 112.867 272.207 107.836
 271.516 c 107.836 246.555 l 107.836 220.398 76.348 199.191 76.348 199.191
 c 102.508 199.191 123.715 220.398 123.715 246.555 c h
123.715 246.555 m f
Q Q
showpage
%%Trailer
end
%%EOF
