%!PS-Adobe-3.0 EPSF-3.0
%%Creator: cairo 1.16.0 (https://cairographics.org)
%%CreationDate: Thu Nov  7 08:25:53 2019
%%Pages: 1
%%DocumentData: Clean7Bit
%%LanguageLevel: 2
%%BoundingBox: 71 0 313 384
%%EndComments
%%BeginProlog
50 dict begin
/q { gsave } bind def
/Q { grestore } bind def
/cm { 6 array astore concat } bind def
/w { setlinewidth } bind def
/J { setlinecap } bind def
/j { setlinejoin } bind def
/M { setmiterlimit } bind def
/d { setdash } bind def
/m { moveto } bind def
/l { lineto } bind def
/c { curveto } bind def
/h { closepath } bind def
/re { exch dup neg 3 1 roll 5 3 roll moveto 0 rlineto
      0 exch rlineto 0 rlineto closepath } bind def
/S { stroke } bind def
/f { fill } bind def
/f* { eofill } bind def
/n { newpath } bind def
/W { clip } bind def
/W* { eoclip } bind def
/BT { } bind def
/ET { } bind def
/BDC { mark 3 1 roll /BDC pdfmark } bind def
/EMC { mark /EMC pdfmark } bind def
/cairo_store_point { /cairo_point_y exch def /cairo_point_x exch def } def
/Tj { show currentpoint cairo_store_point } bind def
/TJ {
  {
    dup
    type /stringtype eq
    { show } { -0.001 mul 0 cairo_font_matrix dtransform rmoveto } ifelse
  } forall
  currentpoint cairo_store_point
} bind def
/cairo_selectfont { cairo_font_matrix aload pop pop pop 0 0 6 array astore
    cairo_font exch selectfont cairo_point_x cairo_point_y moveto } bind def
/Tf { pop /cairo_font exch def /cairo_font_matrix where
      { pop cairo_selectfont } if } bind def
/Td { matrix translate cairo_font_matrix matrix concatmatrix dup
      /cairo_font_matrix exch def dup 4 get exch 5 get cairo_store_point
      /cairo_font where { pop cairo_selectfont } if } bind def
/Tm { 2 copy 8 2 roll 6 array astore /cairo_font_matrix exch def
      cairo_store_point /cairo_font where { pop cairo_selectfont } if } bind def
/g { setgray } bind def
/rg { setrgbcolor } bind def
/d1 { setcachedevice } bind def
/cairo_data_source {
  CairoDataIndex CairoData length lt
    { CairoData CairoDataIndex get /CairoDataIndex CairoDataIndex 1 add def }
    { () } ifelse
} def
/cairo_flush_ascii85_file { cairo_ascii85_file status { cairo_ascii85_file flushfile } if } def
/cairo_image { image cairo_flush_ascii85_file } def
/cairo_imagemask { imagemask cairo_flush_ascii85_file } def
%%EndProlog
%%BeginSetup
%%EndSetup
%%Page: 1 1
%%BeginPageSetup
%%PageBoundingBox: 71 0 313 384
%%EndPageSetup
q 71 0 242 384 rectclip
1 0 0 -1 0 384 cm q
0.67451 0.368627 0.180392 rg
74.148 73.508 m 74.148 205.387 l 74.148 226.004 90.863 242.723 111.484 
242.723 c 228.48 242.723 l 249.102 242.723 265.82 226.004 265.82 205.387
 c 265.82 73.508 l h
74.148 73.508 m f
0.619608 0.333333 0.156863 rg
265.824 73.457 m 265.824 205.418 l 265.824 226.047 249.098 242.773 228.457
 242.773 c 215.129 242.773 l 235.758 242.773 252.484 226.051 252.484 205.418
 c 252.484 73.457 l h
265.824 73.457 m f
0.541176 0.788235 0.996078 rg
258.473 384 m 81.371 384 l 81.371 300.562 l 81.371 264.93 110.262 236.043
 145.895 236.043 c 193.949 236.043 l 229.586 236.043 258.473 264.93 258.473
 300.562 c h
258.473 384 m f
0.376471 0.717647 1 rg
258.473 300.566 m 258.473 384 l 246.098 384 l 246.098 300.566 l 246.098
 264.926 217.215 236.043 181.574 236.043 c 193.945 236.043 l 229.59 236.043
 258.473 264.926 258.473 300.566 c h
258.473 300.566 m f
0.294118 0.694118 0.968627 rg
125.445 314.145 m 125.445 383.996 l 113.859 383.996 l 113.859 314.145 l
 113.859 310.945 116.453 308.352 119.652 308.352 c 122.848 308.352 125.445
 310.945 125.445 314.145 c h
125.445 314.145 m f
225.984 314.145 m 225.984 383.996 l 214.398 383.996 l 214.398 314.145 l
 214.398 310.945 216.992 308.352 220.191 308.352 c 223.398 308.352 225.984
 310.945 225.984 314.145 c h
225.984 314.145 m f
0.917647 0.607843 0.345098 rg
187.32 206.824 m 187.32 242.777 l 187.32 244.91 186.57 246.977 185.207 
248.617 c 176.105 259.543 l 173.352 264.297 166.496 264.297 163.742 259.543
 c 154.637 248.617 l 153.27 246.977 152.523 244.91 152.523 242.777 c 152.523
 206.824 l h
187.32 206.824 m f
0.866667 0.529412 0.278431 rg
152.523 206.824 34.797 15.074 re f
0.996078 0.756863 0.396078 rg
312.473 290.332 m 312.473 312.859 294.211 331.117 271.684 331.117 c 249.16
 331.117 230.898 312.859 230.898 290.332 c 230.898 267.805 249.16 249.543
 271.684 249.543 c 294.211 249.543 312.473 267.805 312.473 290.332 c h
312.473 290.332 m f
0.996078 0.6 0.00392157 rg
275.32 268.715 m 279.664 277.52 l 279.949 278.098 280.504 278.5 281.141
 278.59 c 290.859 280.004 l 294.184 280.484 295.512 284.57 293.105 286.918
 c 286.074 293.773 l 285.613 294.223 285.402 294.871 285.512 295.508 c 287.172
 305.184 l 287.738 308.496 284.262 311.023 281.289 309.461 c 272.598 304.891
 l 272.027 304.59 271.344 304.59 270.773 304.891 c 262.082 309.461 l 259.105
 311.023 255.629 308.496 256.199 305.184 c 257.859 295.508 l 257.969 294.871
 257.758 294.223 257.297 293.773 c 250.262 286.918 l 247.855 284.574 249.184
 280.488 252.512 280.004 c 262.227 278.59 l 262.867 278.496 263.418 278.098
 263.703 277.52 c 268.051 268.715 l 269.535 265.699 273.832 265.699 275.32
 268.715 c h
275.32 268.715 m f
0.984314 0.533333 0.00392157 rg
286.074 293.773 m 285.609 294.223 285.402 294.867 285.512 295.504 c 287.168
 305.188 l 287.734 308.496 284.262 311.02 281.285 309.453 c 272.594 304.887
 l 272.027 304.586 271.344 304.586 270.773 304.887 c 262.082 309.453 l 259.105
 311.02 255.633 308.496 256.199 305.188 c 256.578 302.977 l 256.773 302.918
 256.973 302.828 257.172 302.727 c 258.449 302.055 259.73 301.379 261.008
 300.707 c 262.934 299.691 264.863 298.656 266.906 297.895 c 268.574 297.27
 270.363 297.027 272.137 296.961 c 274.051 296.887 276.883 298.211 278.07
 296.008 c 278.434 295.332 278.32 294.383 278.449 293.648 c 279.051 290.223
 281.012 287.18 283.531 284.77 c 285.109 283.266 286.633 281.703 288.195
 280.184 c 288.359 280.02 288.508 279.852 288.633 279.676 c 290.863 280.004
 l 294.188 280.484 295.512 284.574 293.105 286.918 c h
286.074 293.773 m f
0.964706 0.662745 0.423529 rg
250.738 116.238 m 249.688 116.238 l 249.688 82.801 l 90.281 82.801 l 90.281
 116.238 l 89.23 116.238 l 79.453 116.238 71.527 124.164 71.527 133.941 
c 71.527 143.719 79.453 151.645 89.23 151.645 c 90.281 151.645 l 90.281 
152.211 l 90.281 183.988 116.039 209.746 147.816 209.746 c 192.152 209.746
 l 223.93 209.746 249.688 183.988 249.688 152.211 c 249.688 151.645 l 250.738
 151.645 l 260.516 151.645 268.441 143.719 268.441 133.941 c 268.441 124.164
 260.516 116.238 250.738 116.238 c h
250.738 116.238 m f
0.917647 0.607843 0.345098 rg
268.438 133.941 m 268.438 143.715 260.52 151.645 250.734 151.645 c 249.688
 151.645 l 249.688 152.207 l 249.688 183.992 223.93 209.75 192.152 209.75
 c 179.25 209.75 l 211.027 209.75 236.785 183.992 236.785 152.207 c 236.785
 82.797 l 249.688 82.797 l 249.688 116.234 l 250.734 116.234 l 255.625 116.234
 260.055 118.215 263.25 121.422 c 266.457 124.625 268.438 129.059 268.438
 133.941 c h
268.438 133.941 m f
0.352941 g
169.922 189.512 m 161.691 189.512 154.305 184.613 151.098 177.031 c 149.816
 174.008 151.23 170.516 154.262 169.234 c 157.285 167.953 160.781 169.367
 162.059 172.398 c 163.398 175.562 166.484 177.609 169.922 177.609 c 173.359
 177.609 176.445 175.562 177.785 172.398 c 179.066 169.371 182.559 167.953
 185.586 169.234 c 188.613 170.512 190.031 174.004 188.75 177.031 c 185.543
 184.613 178.152 189.512 169.922 189.512 c h
169.922 189.512 m f
140.109 151.051 m 136.82 151.051 134.156 148.387 134.156 145.098 c 134.156
 133.285 l 134.156 130 136.82 127.336 140.109 127.336 c 143.395 127.336 
146.059 130 146.059 133.285 c 146.059 145.098 l 146.059 148.387 143.395 
151.051 140.109 151.051 c h
140.109 151.051 m f
199.738 151.051 m 196.449 151.051 193.785 148.387 193.785 145.098 c 193.785
 133.285 l 193.785 130 196.449 127.336 199.738 127.336 c 203.023 127.336
 205.688 130 205.688 133.285 c 205.688 145.098 l 205.688 148.387 203.023
 151.051 199.738 151.051 c h
199.738 151.051 m f
0.67451 0.368627 0.180392 rg
268.438 75.438 m 268.438 131.824 l 263.066 132.148 257.844 131.887 252.766
 131.152 c 218.504 126.207 191.141 99.816 174.559 87.414 c 171.84 85.371
 168.125 85.371 165.406 87.414 c 146.375 101.66 113.121 134.195 71.531 131.684
 c 71.531 75.438 l 71.531 33.777 105.301 0 146.969 0 c 193 0 l 204.07 0 
214.582 2.379 224.051 6.664 c 225.16 7.172 226.254 7.695 227.34 8.25 c 230.051
 9.645 232.672 11.195 235.184 12.883 c 236.184 13.566 237.164 14.27 238.133
 14.984 c 238.133 14.992 238.133 14.992 238.141 14.984 c 239.105 15.719 
240.055 16.457 240.984 17.227 c 242.852 18.762 244.637 20.387 246.34 22.098
 c 248.477 24.23 250.477 26.488 252.352 28.871 c 252.719 29.34 253.09 29.816
 253.453 30.305 c 254.176 31.273 254.879 32.258 255.555 33.262 c 256.574
 34.773 257.535 36.312 258.445 37.891 c 259.047 38.949 259.633 40.012 260.188
 41.098 c 260.742 42.184 261.273 43.285 261.773 44.395 c 262.273 45.512 
262.754 46.637 263.207 47.777 c 266.582 56.348 268.438 65.676 268.438 75.438
 c h
268.438 75.438 m f
0.619608 0.333333 0.156863 rg
268.438 75.438 m 268.438 131.824 l 263.066 132.148 257.844 131.887 252.766
 131.152 c 252.766 83.637 l 252.766 41.977 218.996 0 177.336 0 c 193 0 l
 204.07 0 214.582 2.379 224.055 6.664 c 228.242 8.562 232.273 10.801 236.051
 13.426 c 237.922 14.727 239.727 16.121 241.469 17.594 c 244.598 20.25 247.523
 23.148 250.199 26.258 c 255.812 32.773 260.031 39.707 263.207 47.777 c 
266.582 56.348 268.438 65.676 268.438 75.438 c h
268.438 75.438 m f
Q Q
showpage
%%Trailer
end
%%EOF
