%!PS-Adobe-3.0 EPSF-3.0
%%Creator: cairo 1.16.0 (https://cairographics.org)
%%CreationDate: Thu Nov  7 08:25:54 2019
%%Pages: 1
%%DocumentData: Clean7Bit
%%LanguageLevel: 2
%%BoundingBox: 0 0 384 384
%%EndComments
%%BeginProlog
50 dict begin
/q { gsave } bind def
/Q { grestore } bind def
/cm { 6 array astore concat } bind def
/w { setlinewidth } bind def
/J { setlinecap } bind def
/j { setlinejoin } bind def
/M { setmiterlimit } bind def
/d { setdash } bind def
/m { moveto } bind def
/l { lineto } bind def
/c { curveto } bind def
/h { closepath } bind def
/re { exch dup neg 3 1 roll 5 3 roll moveto 0 rlineto
      0 exch rlineto 0 rlineto closepath } bind def
/S { stroke } bind def
/f { fill } bind def
/f* { eofill } bind def
/n { newpath } bind def
/W { clip } bind def
/W* { eoclip } bind def
/BT { } bind def
/ET { } bind def
/BDC { mark 3 1 roll /BDC pdfmark } bind def
/EMC { mark /EMC pdfmark } bind def
/cairo_store_point { /cairo_point_y exch def /cairo_point_x exch def } def
/Tj { show currentpoint cairo_store_point } bind def
/TJ {
  {
    dup
    type /stringtype eq
    { show } { -0.001 mul 0 cairo_font_matrix dtransform rmoveto } ifelse
  } forall
  currentpoint cairo_store_point
} bind def
/cairo_selectfont { cairo_font_matrix aload pop pop pop 0 0 6 array astore
    cairo_font exch selectfont cairo_point_x cairo_point_y moveto } bind def
/Tf { pop /cairo_font exch def /cairo_font_matrix where
      { pop cairo_selectfont } if } bind def
/Td { matrix translate cairo_font_matrix matrix concatmatrix dup
      /cairo_font_matrix exch def dup 4 get exch 5 get cairo_store_point
      /cairo_font where { pop cairo_selectfont } if } bind def
/Tm { 2 copy 8 2 roll 6 array astore /cairo_font_matrix exch def
      cairo_store_point /cairo_font where { pop cairo_selectfont } if } bind def
/g { setgray } bind def
/rg { setrgbcolor } bind def
/d1 { setcachedevice } bind def
/cairo_data_source {
  CairoDataIndex CairoData length lt
    { CairoData CairoDataIndex get /CairoDataIndex CairoDataIndex 1 add def }
    { () } ifelse
} def
/cairo_flush_ascii85_file { cairo_ascii85_file status { cairo_ascii85_file flushfile } if } def
/cairo_image { image cairo_flush_ascii85_file } def
/cairo_imagemask { imagemask cairo_flush_ascii85_file } def
%%EndProlog
%%BeginSetup
%%EndSetup
%%Page: 1 1
%%BeginPageSetup
%%PageBoundingBox: 0 0 384 384
%%EndPageSetup
q 0 0 384 384 rectclip
1 0 0 -1 0 384 cm q
0.996078 0.6 0.00392157 rg
384 211.715 m 384 172.285 l 384 165.848 378.777 160.625 372.34 160.625 
c 342.398 160.625 l 339.035 160.625 336.07 158.363 335.23 155.105 c 331.746
 141.523 326.379 128.691 319.426 116.914 c 317.691 113.977 318.121 110.25
 320.531 107.84 c 341.703 86.668 l 346.258 82.113 346.258 74.727 341.703
 70.172 c 313.824 42.297 l 309.273 37.742 301.887 37.742 297.332 42.297 
c 276.16 63.469 l 273.75 65.879 270.02 66.309 267.086 64.574 c 255.305 57.617
 242.477 52.254 228.895 48.766 c 225.637 47.93 223.375 44.965 223.375 41.602
 c 223.375 11.66 l 223.375 5.223 218.152 0 211.715 0 c 172.289 0 l 165.848
 0 160.625 5.223 160.625 11.66 c 160.625 41.602 l 160.625 44.965 158.363
 47.93 155.105 48.77 c 141.523 52.254 128.695 57.621 116.914 64.574 c 113.98
 66.309 110.25 65.879 107.84 63.469 c 86.668 42.297 l 82.113 37.742 74.73
 37.742 70.176 42.297 c 42.297 70.176 l 37.742 74.727 37.742 82.113 42.297
 86.668 c 63.469 107.84 l 65.879 110.25 66.309 113.98 64.574 116.914 c 57.621
 128.695 52.254 141.523 48.77 155.105 c 47.93 158.363 44.965 160.625 41.602
 160.625 c 11.66 160.625 l 5.223 160.625 0 165.848 0 172.285 c 0 211.715
 l 0 218.152 5.223 223.375 11.66 223.375 c 41.602 223.375 l 44.965 223.375
 47.93 225.637 48.77 228.895 c 52.254 242.477 57.621 255.309 64.574 267.086
 c 66.309 270.023 65.879 273.75 63.469 276.16 c 42.297 297.332 l 37.742 
301.887 37.742 309.273 42.297 313.828 c 70.176 341.703 l 74.727 346.258 
82.113 346.258 86.668 341.703 c 107.84 320.531 l 110.25 318.121 113.98 317.691
 116.914 319.426 c 128.695 326.383 141.523 331.746 155.105 335.234 c 158.363
 336.07 160.625 339.035 160.625 342.398 c 160.625 372.34 l 160.625 378.777
 165.848 384 172.289 384 c 211.715 384 l 218.152 384 223.375 378.777 223.375
 372.34 c 223.375 342.398 l 223.375 339.035 225.637 336.07 228.895 335.234
 c 242.477 331.746 255.309 326.383 267.086 319.426 c 270.023 317.691 273.75
 318.121 276.16 320.531 c 297.332 341.703 l 301.887 346.258 309.273 346.258
 313.828 341.703 c 341.703 313.828 l 346.258 309.273 346.258 301.887 341.703
 297.332 c 320.531 276.16 l 318.121 273.75 317.691 270.023 319.426 267.086
 c 326.383 255.305 331.746 242.477 335.234 228.895 c 336.07 225.637 339.035
 223.375 342.398 223.375 c 372.34 223.375 l 378.777 223.375 384 218.152 
384 211.715 c h
384 211.715 m f
0.984314 0.533333 0.00392157 rg
296.176 271.309 m 284.426 286.766 269.766 299.914 253.043 309.793 c 241.102
 316.84 228.09 322.285 214.316 325.816 c 211.012 326.66 208.723 329.672 
208.723 333.082 c 208.723 363.441 l 208.723 369.977 203.426 375.266 196.898
 375.266 c 161.008 375.266 l 162.301 380.285 166.863 384 172.285 384 c 211.715
 384 l 218.152 384 223.371 378.777 223.371 372.336 c 223.371 342.402 l 223.371
 339.035 225.641 336.066 228.895 335.23 c 242.477 331.742 255.309 326.383
 267.09 319.43 c 270.02 317.691 273.746 318.121 276.16 320.527 c 297.332
 341.707 l 301.887 346.262 309.273 346.262 313.82 341.707 c 341.707 313.82
 l 346.262 309.273 346.262 301.887 341.707 297.332 c 320.527 276.16 l 318.121
 273.75 317.688 270.02 319.43 267.09 c 326.383 255.309 331.742 242.477 335.23
 228.895 c 336.066 225.641 339.035 223.375 342.402 223.375 c 372.336 223.375
 l 378.777 223.375 384 218.152 384 211.715 c 384 172.285 l 384 165.852 378.777
 160.629 372.336 160.629 c 342.402 160.629 l 339.035 160.629 336.066 158.363
 335.23 155.105 c 331.742 141.523 326.383 128.691 319.43 116.914 c 317.691
 113.98 318.121 110.254 320.527 107.84 c 341.707 86.672 l 346.262 82.117
 346.262 74.727 341.707 70.18 c 329.672 58.145 l 333.305 62.785 332.98 69.496
 328.703 73.77 c 318.156 84.312 294.098 99.699 300.52 117.688 c 302.953 
124.5 307.496 130.145 310.699 136.582 c 314.207 143.621 317.227 150.91 319.574
 158.422 c 324.125 172.977 326.059 188.305 324.699 203.52 c 322.496 228.145
 310.996 251.812 296.176 271.309 c h
296.176 271.309 m f
0.996078 0.756863 0.396078 rg
296.891 192 m 296.891 249.93 249.93 296.891 192 296.891 c 134.07 296.891
 87.109 249.93 87.109 192 c 87.109 134.07 134.07 87.109 192 87.109 c 249.93
 87.109 296.891 134.07 296.891 192 c h
296.891 192 m f
0.964706 0.662745 0.423529 rg
144.863 219.395 m 144.863 238.184 160.098 253.418 178.891 253.418 c 205.109
 253.418 l 223.902 253.418 239.137 238.188 239.137 219.395 c 239.137 171.629
 l 144.863 171.629 l h
144.863 219.395 m f
0.917647 0.607843 0.345098 rg
239.137 171.629 m 239.137 219.395 l 239.137 238.188 223.906 253.426 205.105
 253.426 c 190.266 253.426 l 209.059 253.426 224.297 238.188 224.297 219.395
 c 224.297 171.629 l h
239.137 171.629 m f
0.352941 g
149.871 131.508 m 154.594 133.984 l 158.355 135.957 162.848 135.957 166.609
 133.984 c 170.289 132.055 l 174.055 130.082 178.547 130.082 182.309 132.055
 c 185.988 133.984 l 189.75 135.957 194.242 135.957 198.008 133.984 c 201.688
 132.055 l 205.449 130.082 209.941 130.082 213.703 132.055 c 217.387 133.984
 l 221.148 135.957 225.641 135.957 229.402 133.984 c 234.129 131.508 l 236.387
 130.324 239.098 131.965 239.098 134.516 c 239.098 201.43 l 239.098 202.441
 237.867 202.934 237.164 202.203 c 233.691 198.578 226.613 190.078 225.098
 179.688 c 224.855 178.016 223.285 176.945 221.637 177.309 c 219.484 177.781
 216.992 178.328 216.727 178.375 c 209.875 179.539 202.711 180.242 195.516
 180.316 c 192 180.281 l 188.484 180.316 l 181.289 180.242 174.125 179.539
 167.27 178.371 c 167.004 178.328 164.512 177.781 162.363 177.309 c 160.719
 176.945 159.141 178.066 158.895 179.73 c 157.363 190.105 150.297 198.59
 146.832 202.207 c 146.133 202.934 144.902 202.441 144.902 201.43 c 144.902
 134.516 l 144.902 131.965 147.613 130.324 149.871 131.508 c h
149.871 131.508 m f
0.266667 g
239.098 134.508 m 239.098 201.43 l 239.098 202.445 237.867 202.938 237.164
 202.207 c 233.695 198.578 226.617 190.078 225.102 179.688 c 225.008 179.039
 224.711 178.484 224.297 178.066 c 224.297 135.434 l 226.055 135.312 227.793
 134.832 229.402 133.98 c 234.129 131.512 l 236.387 130.328 239.098 131.965
 239.098 134.508 c h
239.098 134.508 m f
0.352941 g
173.805 205.359 m 170.695 205.359 168.18 207.875 168.18 210.984 c 168.18
 217.766 l 168.18 220.875 170.695 223.391 173.805 223.391 c 176.91 223.391
 179.43 220.875 179.43 217.766 c 179.43 210.984 l 179.43 207.875 176.91 
205.359 173.805 205.359 c h
173.805 205.359 m f
210.195 205.359 m 207.09 205.359 204.57 207.875 204.57 210.984 c 204.57
 217.766 l 204.57 220.875 207.09 223.391 210.195 223.391 c 213.305 223.391
 215.82 220.875 215.82 217.766 c 215.82 210.984 l 215.82 207.875 213.301
 205.359 210.195 205.359 c h
210.195 205.359 m f
0.952941 0.917647 0.901961 rg
384 325.367 m 384 357.75 357.75 384 325.367 384 c 292.988 384 266.734 357.75
 266.734 325.367 c 266.734 292.988 292.988 266.734 325.367 266.734 c 357.75
 266.734 384 292.988 384 325.367 c h
384 325.367 m f
0.568627 0.870588 0.713726 rg
357.531 313.152 m 332.949 288.578 l 328.656 284.285 321.695 284.285 317.402
 288.578 c 293.363 312.617 l 289.078 316.902 288.836 324.141 292.828 328.699
 c 296.82 333.258 303.59 333.484 307.871 329.199 c 310.441 326.633 l 312.086
 324.988 314.895 326.152 314.895 328.477 c 314.895 354.383 l 314.895 360.457
 319.816 365.375 325.887 365.375 c 331.961 365.375 336.883 360.457 336.883
 354.383 c 336.883 329.895 l 336.883 327.57 339.691 326.406 341.336 328.051
 c 341.984 328.699 l 346.277 332.992 353.238 332.992 357.531 328.699 c 361.824
 324.406 361.824 317.445 357.531 313.152 c h
357.531 313.152 m f
0.431373 0.835294 0.631373 rg
360.75 320.93 m 360.75 323.738 359.676 326.559 357.535 328.699 c 353.242
 332.992 346.277 332.992 341.984 328.699 c 341.332 328.047 l 339.691 326.406
 336.883 327.57 336.883 329.898 c 336.883 354.383 l 336.883 357.414 335.652
 360.168 333.66 362.16 c 331.672 364.145 328.922 365.375 325.887 365.375
 c 323.789 365.375 321.836 364.789 320.164 363.77 c 323.16 361.91 325.152
 358.586 325.152 354.793 c 325.152 339.43 l 325.152 332.469 324.359 325.102
 330.773 320.629 c 332.07 319.738 333.703 319.543 335.195 319.039 c 337.172
 318.375 338.41 316.824 338.918 315.016 c 339.414 313.277 339.227 311.301
 338.395 309.645 c 336.598 306.09 333.344 303.438 330.578 300.664 c 327.508
 297.602 324.441 294.527 321.367 291.457 c 320.141 290.227 318.68 289.359
 317.121 288.863 c 317.406 288.578 l 321.699 284.285 328.652 284.285 332.949
 288.578 c 357.527 313.152 l 359.676 315.301 360.75 318.109 360.75 320.93
 c h
360.75 320.93 m f
Q Q
showpage
%%Trailer
end
%%EOF
