%!PS-Adobe-3.0 EPSF-3.0
%%Creator: cairo 1.16.0 (https://cairographics.org)
%%CreationDate: Thu Nov  7 08:25:54 2019
%%Pages: 1
%%DocumentData: Clean7Bit
%%LanguageLevel: 2
%%BoundingBox: 0 0 384 384
%%EndComments
%%BeginProlog
50 dict begin
/q { gsave } bind def
/Q { grestore } bind def
/cm { 6 array astore concat } bind def
/w { setlinewidth } bind def
/J { setlinecap } bind def
/j { setlinejoin } bind def
/M { setmiterlimit } bind def
/d { setdash } bind def
/m { moveto } bind def
/l { lineto } bind def
/c { curveto } bind def
/h { closepath } bind def
/re { exch dup neg 3 1 roll 5 3 roll moveto 0 rlineto
      0 exch rlineto 0 rlineto closepath } bind def
/S { stroke } bind def
/f { fill } bind def
/f* { eofill } bind def
/n { newpath } bind def
/W { clip } bind def
/W* { eoclip } bind def
/BT { } bind def
/ET { } bind def
/BDC { mark 3 1 roll /BDC pdfmark } bind def
/EMC { mark /EMC pdfmark } bind def
/cairo_store_point { /cairo_point_y exch def /cairo_point_x exch def } def
/Tj { show currentpoint cairo_store_point } bind def
/TJ {
  {
    dup
    type /stringtype eq
    { show } { -0.001 mul 0 cairo_font_matrix dtransform rmoveto } ifelse
  } forall
  currentpoint cairo_store_point
} bind def
/cairo_selectfont { cairo_font_matrix aload pop pop pop 0 0 6 array astore
    cairo_font exch selectfont cairo_point_x cairo_point_y moveto } bind def
/Tf { pop /cairo_font exch def /cairo_font_matrix where
      { pop cairo_selectfont } if } bind def
/Td { matrix translate cairo_font_matrix matrix concatmatrix dup
      /cairo_font_matrix exch def dup 4 get exch 5 get cairo_store_point
      /cairo_font where { pop cairo_selectfont } if } bind def
/Tm { 2 copy 8 2 roll 6 array astore /cairo_font_matrix exch def
      cairo_store_point /cairo_font where { pop cairo_selectfont } if } bind def
/g { setgray } bind def
/rg { setrgbcolor } bind def
/d1 { setcachedevice } bind def
/cairo_data_source {
  CairoDataIndex CairoData length lt
    { CairoData CairoDataIndex get /CairoDataIndex CairoDataIndex 1 add def }
    { () } ifelse
} def
/cairo_flush_ascii85_file { cairo_ascii85_file status { cairo_ascii85_file flushfile } if } def
/cairo_image { image cairo_flush_ascii85_file } def
/cairo_imagemask { imagemask cairo_flush_ascii85_file } def
%%EndProlog
%%BeginSetup
%%EndSetup
%%Page: 1 1
%%BeginPageSetup
%%PageBoundingBox: 0 0 384 384
%%EndPageSetup
q 0 0 384 384 rectclip
1 0 0 -1 0 384 cm q
0.541176 0.788235 0.996078 rg
85.941 364.188 m 19.379 364.188 l 19.379 278.844 l 19.379 276.715 21.109
 274.984 23.238 274.984 c 82.082 274.984 l 84.215 274.984 85.941 276.715
 85.941 278.844 c h
85.941 364.188 m f
0.376471 0.717647 1 rg
85.941 278.848 m 85.941 357.645 l 67.086 357.645 l 67.086 278.848 l 67.086
 276.711 65.355 274.988 63.227 274.988 c 82.082 274.988 l 84.211 274.988
 85.941 276.711 85.941 278.848 c h
85.941 278.848 m f
0.984314 0.168627 0.227451 rg
271.727 364.188 m 205.168 364.188 l 205.168 165.008 l 205.168 162.879 206.895
 161.152 209.023 161.152 c 267.867 161.152 l 270 161.152 271.727 162.879
 271.727 165.008 c h
271.727 364.188 m f
0.894118 0.121569 0.176471 rg
271.727 165.012 m 271.727 357.645 l 252.871 357.645 l 252.871 165.012 l
 252.871 162.875 251.145 161.152 249.012 161.152 c 267.867 161.152 l 269.996
 161.152 271.727 162.875 271.727 165.012 c h
271.727 165.012 m f
0.996078 0.756863 0.396078 rg
364.621 364.188 m 298.059 364.188 l 298.059 93.75 l 298.059 91.617 299.789
 89.891 301.918 89.891 c 360.762 89.891 l 362.895 89.891 364.621 91.617 
364.621 93.75 c h
364.621 364.188 m f
0.992157 0.705882 0.254902 rg
364.621 93.754 m 364.621 357.645 l 345.766 357.645 l 345.766 93.754 l 345.766
 91.613 344.035 89.895 341.906 89.895 c 360.762 89.895 l 362.891 89.895 
364.621 91.613 364.621 93.754 c h
364.621 93.754 m f
0 0.760784 0.478431 rg
178.836 364.188 m 112.273 364.188 l 112.273 207.668 l 112.273 205.535 114
 203.809 116.133 203.809 c 174.977 203.809 l 177.105 203.809 178.832 205.539
 178.832 207.668 c 178.832 364.188 l h
178.836 364.188 m f
0.0313726 0.721569 0.396078 rg
178.832 207.672 m 178.832 357.645 l 159.98 357.645 l 159.98 207.672 l 159.98
 205.531 158.25 203.812 156.121 203.812 c 174.973 203.812 l 177.105 203.812
 178.832 205.531 178.832 207.672 c h
178.832 207.672 m f
0.541176 0.788235 0.996078 rg
284.695 0.387 m 242.457 7.84 l 235.395 9.086 230.398 15.922 231.352 23.027
 c 232.387 30.734 239.496 35.934 247.148 34.582 c 254.434 33.297 l 221.18
 85.73 l 218.547 89.879 213.051 91.109 208.902 88.48 c 151.445 58.484 l 
144.277 53.938 134.781 56.062 130.238 63.227 c 78.215 141.184 l 73.828 148.094
 75.879 157.254 82.793 161.637 c 89.703 166.023 98.859 163.973 103.242 157.059
 c 142.828 98.656 l 145.457 94.508 150.957 93.277 155.105 95.91 c 212.598
 125.926 l 219.762 130.469 229.262 128.344 233.805 121.176 c 279.516 49.102
 l 281.152 58.383 l 282.457 65.766 289.496 70.695 296.879 69.391 c 304.262
 68.09 309.191 61.047 307.887 53.664 c 300.422 11.391 l 299.117 4.012 292.078
 -0.918 284.695 0.387 c h
284.695 0.387 m f
0.376471 0.717647 1 rg
307.887 53.66 m 300.426 11.395 l 299.121 4.016 292.074 -0.918 284.695 0.387
 c 284.016 0.504 l 285.312 5.652 286.918 10.734 287.512 16.043 c 288.113
 21.418 291.461 31.074 285.414 34.566 c 281.711 36.703 277.449 34.359 273.609
 36.773 c 270.23 38.898 268.41 42.035 266.316 45.336 c 261.148 53.469 256
 61.594 250.852 69.719 c 243.43 81.418 236.445 93.41 228.586 104.832 c 223.051
 112.875 218.453 113.711 207.371 107.578 c 149.875 77.566 l 145.73 74.934
 140.23 76.16 137.598 80.305 c 98.02 140.711 l 93.633 147.625 84.48 149.672
 77.566 145.293 c 77.234 145.074 76.906 144.855 76.598 144.613 c 74.602 
150.883 76.973 157.945 82.793 161.641 c 85.258 163.203 88 163.945 90.715
 163.945 c 95.621 163.945 100.418 161.508 103.242 157.059 c 142.824 98.652
 l 145.457 94.508 150.953 93.277 155.102 95.91 c 212.598 125.926 l 219.762
 130.473 229.254 128.344 233.801 121.18 c 279.512 49.098 l 281.148 58.383
 l 282.453 65.766 289.492 70.695 296.879 69.391 c 303.465 68.23 308.098 
62.496 308.098 56.035 c 308.098 55.25 308.031 54.457 307.887 53.66 c h
307.887 53.66 m f
0.352941 g
380.141 383.824 m 3.859 383.824 l 1.727 383.824 0 382.094 0 379.965 c 0
 361.508 l 0 359.375 1.727 357.648 3.859 357.648 c 380.141 357.648 l 382.273
 357.648 384 359.375 384 361.508 c 384 379.965 l 384 382.094 382.273 383.824
 380.141 383.824 c h
380.141 383.824 m f
Q Q
showpage
%%Trailer
end
%%EOF
