%!PS-Adobe-3.0 EPSF-3.0
%%Creator: cairo 1.16.0 (https://cairographics.org)
%%CreationDate: Thu Nov  7 08:25:54 2019
%%Pages: 1
%%DocumentData: Clean7Bit
%%LanguageLevel: 2
%%BoundingBox: 3 0 381 384
%%EndComments
%%BeginProlog
50 dict begin
/q { gsave } bind def
/Q { grestore } bind def
/cm { 6 array astore concat } bind def
/w { setlinewidth } bind def
/J { setlinecap } bind def
/j { setlinejoin } bind def
/M { setmiterlimit } bind def
/d { setdash } bind def
/m { moveto } bind def
/l { lineto } bind def
/c { curveto } bind def
/h { closepath } bind def
/re { exch dup neg 3 1 roll 5 3 roll moveto 0 rlineto
      0 exch rlineto 0 rlineto closepath } bind def
/S { stroke } bind def
/f { fill } bind def
/f* { eofill } bind def
/n { newpath } bind def
/W { clip } bind def
/W* { eoclip } bind def
/BT { } bind def
/ET { } bind def
/BDC { mark 3 1 roll /BDC pdfmark } bind def
/EMC { mark /EMC pdfmark } bind def
/cairo_store_point { /cairo_point_y exch def /cairo_point_x exch def } def
/Tj { show currentpoint cairo_store_point } bind def
/TJ {
  {
    dup
    type /stringtype eq
    { show } { -0.001 mul 0 cairo_font_matrix dtransform rmoveto } ifelse
  } forall
  currentpoint cairo_store_point
} bind def
/cairo_selectfont { cairo_font_matrix aload pop pop pop 0 0 6 array astore
    cairo_font exch selectfont cairo_point_x cairo_point_y moveto } bind def
/Tf { pop /cairo_font exch def /cairo_font_matrix where
      { pop cairo_selectfont } if } bind def
/Td { matrix translate cairo_font_matrix matrix concatmatrix dup
      /cairo_font_matrix exch def dup 4 get exch 5 get cairo_store_point
      /cairo_font where { pop cairo_selectfont } if } bind def
/Tm { 2 copy 8 2 roll 6 array astore /cairo_font_matrix exch def
      cairo_store_point /cairo_font where { pop cairo_selectfont } if } bind def
/g { setgray } bind def
/rg { setrgbcolor } bind def
/d1 { setcachedevice } bind def
/cairo_data_source {
  CairoDataIndex CairoData length lt
    { CairoData CairoDataIndex get /CairoDataIndex CairoDataIndex 1 add def }
    { () } ifelse
} def
/cairo_flush_ascii85_file { cairo_ascii85_file status { cairo_ascii85_file flushfile } if } def
/cairo_image { image cairo_flush_ascii85_file } def
/cairo_imagemask { imagemask cairo_flush_ascii85_file } def
%%EndProlog
%%BeginSetup
%%EndSetup
%%Page: 1 1
%%BeginPageSetup
%%PageBoundingBox: 3 0 381 384
%%EndPageSetup
q 3 0 378 384 rectclip
1 0 0 -1 0 384 cm q
0.996078 0.392157 0.435294 rg
322.355 384 m 24.91 384 l 19.754 384 15.574 379.82 15.574 374.668 c 15.574
 118.496 l 331.688 118.496 l 331.688 374.668 l 331.688 379.82 327.508 384
 322.355 384 c h
322.355 384 m f
0.992157 0.278431 0.333333 rg
331.691 125.883 m 331.691 374.664 l 331.691 379.82 327.508 383.996 322.359
 383.996 c 304.977 383.996 l 310.137 383.996 314.312 379.82 314.312 374.664
 c 314.312 125.883 l h
331.691 125.883 m f
0.996078 0.65098 0.0745098 rg
164.258 41.605 m 154.348 31.453 l 146.457 23.949 137.977 16.941 128.746
 11.141 c 119.504 5.332 108.82 0.574 97.77 0.051 c 92.309 -0.211 86.816 
0.574 81.793 2.809 c 61.055 12.043 49.273 38.512 51.172 60.406 c 51.27 61.566
 52.453 76.414 52.77 76.414 c 164.258 76.414 l 164.258 76.414 164.258 41.621
 164.258 41.605 c h
164.258 41.605 m f
183.008 41.605 m 192.918 31.453 l 200.805 23.949 209.289 16.941 218.52 
11.141 c 227.762 5.332 238.445 0.574 249.496 0.051 c 254.957 -0.211 260.449
 0.574 265.473 2.812 c 286.211 12.043 297.992 38.512 296.094 60.406 c 295.992
 61.566 294.812 76.414 294.496 76.414 c 294.348 76.414 183.008 76.414 183.008
 76.414 c 183.008 76.414 183.008 41.621 183.008 41.605 c h
183.008 41.605 m f
0.996078 0.6 0.00392157 rg
296.09 60.406 m 295.996 61.566 294.816 76.414 294.496 76.414 c 280.488 
76.414 l 280.891 72.121 281.312 66.91 281.367 66.238 c 283.266 44.344 271.48
 17.875 250.742 8.641 c 245.719 6.41 240.227 5.625 234.766 5.879 c 231.477
 6.035 228.219 6.574 225.02 7.398 c 232.629 3.391 240.949 0.461 249.492 
0.047 c 254.957 -0.211 260.449 0.574 265.473 2.809 c 286.211 12.039 297.988
 38.512 296.09 60.406 c h
296.09 60.406 m f
0.984314 0.168627 0.227451 rg
334.434 125.887 m 12.832 125.887 l 7.676 125.887 3.496 121.707 3.496 116.551
 c 3.496 83.414 l 3.496 78.258 7.676 74.082 12.832 74.082 c 334.434 74.082
 l 339.59 74.082 343.77 78.258 343.77 83.414 c 343.77 116.551 l 343.77 121.707
 339.59 125.887 334.434 125.887 c h
334.434 125.887 m f
0.996078 0.756863 0.396078 rg
214.203 76.414 m 133.062 76.414 l 133.062 73.562 l 133.062 51.156 151.227
 32.992 173.633 32.992 c 196.039 32.992 214.203 51.156 214.203 73.562 c 
h
214.203 76.414 m f
0.992157 0.705882 0.254902 rg
214.199 73.559 m 214.199 76.414 l 199.445 76.414 l 199.445 74.281 l 199.445
 63.082 194.902 52.938 187.559 45.605 c 181.43 39.465 173.332 35.281 164.297
 34.078 c 167.289 33.367 170.418 32.996 173.629 32.996 c 184.828 32.996 
194.973 37.539 202.316 44.871 c 209.656 52.215 214.199 62.359 214.199 73.559
 c h
214.199 73.559 m f
0.882353 0.827451 0.807843 rg
124.676 74.078 97.914 51.809 re f
0.803922 0.74902 0.729412 rg
205.418 74.078 17.172 51.809 re f
0.952941 0.917647 0.901961 rg
136.801 125.887 73.664 258.113 re f
0.882353 0.827451 0.807843 rg
192.453 125.887 18.012 258.113 re f
0.541176 0.788235 0.996078 rg
331.863 254.52 m 299.254 254.52 l 299.254 336.891 l 299.254 340.203 302.574
 342.488 305.668 341.305 c 330.172 331.938 l 331.262 331.52 332.465 331.52
 333.551 331.938 c 358.055 341.305 l 361.152 342.488 364.473 340.203 364.473
 336.891 c 364.473 254.52 l h
331.863 254.52 m f
0.376471 0.717647 1 rg
364.473 254.52 m 364.473 336.895 l 364.473 340.203 361.152 342.492 358.051
 341.309 c 347.898 337.422 l 348.219 336.801 348.398 336.09 348.398 335.316
 c 348.398 254.52 l h
364.473 254.52 m f
0.996078 0.756863 0.396078 rg
380.504 225.051 m 380.504 251.918 358.727 273.695 331.863 273.695 c 304.996
 273.695 283.219 251.918 283.219 225.051 c 283.219 198.188 304.996 176.41
 331.863 176.41 c 358.727 176.41 380.504 198.188 380.504 225.051 c h
380.504 225.051 m f
0.996078 0.6 0.00392157 rg
336.195 199.27 m 341.379 209.773 l 341.719 210.461 342.379 210.941 343.137
 211.051 c 354.73 212.734 l 358.695 213.309 360.277 218.184 357.41 220.98
 c 349.023 229.156 l 348.473 229.691 348.219 230.465 348.352 231.223 c 350.332
 242.766 l 351.008 246.715 346.863 249.727 343.316 247.863 c 332.949 242.41
 l 332.27 242.055 331.457 242.055 330.777 242.41 c 320.41 247.863 l 316.863
 249.727 312.719 246.715 313.395 242.766 c 315.375 231.223 l 315.504 230.465
 315.254 229.691 314.703 229.156 c 306.316 220.98 l 303.449 218.184 305.031
 213.309 308.996 212.734 c 320.59 211.051 l 321.348 210.941 322.008 210.461
 322.348 209.773 c 327.531 199.27 l 329.301 195.676 334.422 195.676 336.195
 199.27 c h
336.195 199.27 m f
0.984314 0.533333 0.00392157 rg
349.023 229.156 m 348.469 229.695 348.223 230.461 348.352 231.219 c 350.328
 242.77 l 351.004 246.715 346.859 249.727 343.312 247.859 c 332.945 242.41
 l 332.27 242.051 331.453 242.051 330.777 242.41 c 320.41 247.859 l 316.863
 249.727 312.719 246.715 313.395 242.77 c 313.844 240.133 l 314.078 240.059
 314.316 239.953 314.555 239.832 c 319.129 237.426 l 321.426 236.215 323.723
 234.98 326.16 234.07 c 328.152 233.328 330.285 233.035 332.398 232.957 
c 334.684 232.871 338.059 234.449 339.477 231.824 c 339.91 231.016 339.773
 229.887 339.93 229.008 c 340.645 224.926 342.984 221.293 345.988 218.422
 c 347.871 216.625 349.688 214.766 351.551 212.949 c 351.746 212.754 351.926
 212.559 352.074 212.344 c 354.73 212.738 l 358.695 213.309 360.277 218.184
 357.406 220.984 c h
349.023 229.156 m f
Q Q
showpage
%%Trailer
end
%%EOF
