%!PS-Adobe-3.0 EPSF-3.0
%%Creator: cairo 1.16.0 (https://cairographics.org)
%%CreationDate: Thu Nov  7 08:25:55 2019
%%Pages: 1
%%DocumentData: Clean7Bit
%%LanguageLevel: 2
%%BoundingBox: 0 1 384 383
%%EndComments
%%BeginProlog
50 dict begin
/q { gsave } bind def
/Q { grestore } bind def
/cm { 6 array astore concat } bind def
/w { setlinewidth } bind def
/J { setlinecap } bind def
/j { setlinejoin } bind def
/M { setmiterlimit } bind def
/d { setdash } bind def
/m { moveto } bind def
/l { lineto } bind def
/c { curveto } bind def
/h { closepath } bind def
/re { exch dup neg 3 1 roll 5 3 roll moveto 0 rlineto
      0 exch rlineto 0 rlineto closepath } bind def
/S { stroke } bind def
/f { fill } bind def
/f* { eofill } bind def
/n { newpath } bind def
/W { clip } bind def
/W* { eoclip } bind def
/BT { } bind def
/ET { } bind def
/BDC { mark 3 1 roll /BDC pdfmark } bind def
/EMC { mark /EMC pdfmark } bind def
/cairo_store_point { /cairo_point_y exch def /cairo_point_x exch def } def
/Tj { show currentpoint cairo_store_point } bind def
/TJ {
  {
    dup
    type /stringtype eq
    { show } { -0.001 mul 0 cairo_font_matrix dtransform rmoveto } ifelse
  } forall
  currentpoint cairo_store_point
} bind def
/cairo_selectfont { cairo_font_matrix aload pop pop pop 0 0 6 array astore
    cairo_font exch selectfont cairo_point_x cairo_point_y moveto } bind def
/Tf { pop /cairo_font exch def /cairo_font_matrix where
      { pop cairo_selectfont } if } bind def
/Td { matrix translate cairo_font_matrix matrix concatmatrix dup
      /cairo_font_matrix exch def dup 4 get exch 5 get cairo_store_point
      /cairo_font where { pop cairo_selectfont } if } bind def
/Tm { 2 copy 8 2 roll 6 array astore /cairo_font_matrix exch def
      cairo_store_point /cairo_font where { pop cairo_selectfont } if } bind def
/g { setgray } bind def
/rg { setrgbcolor } bind def
/d1 { setcachedevice } bind def
/cairo_data_source {
  CairoDataIndex CairoData length lt
    { CairoData CairoDataIndex get /CairoDataIndex CairoDataIndex 1 add def }
    { () } ifelse
} def
/cairo_flush_ascii85_file { cairo_ascii85_file status { cairo_ascii85_file flushfile } if } def
/cairo_image { image cairo_flush_ascii85_file } def
/cairo_imagemask { imagemask cairo_flush_ascii85_file } def
%%EndProlog
%%BeginSetup
%%EndSetup
%%Page: 1 1
%%BeginPageSetup
%%PageBoundingBox: 0 1 384 383
%%EndPageSetup
q 0 1 384 382 rectclip
1 0 0 -1 0 384 cm q
0.996078 0.756863 0.396078 rg
339.152 298.922 m 44.848 298.922 l 44.848 244.598 l 44.848 241.055 47.723
 238.18 51.27 238.18 c 332.73 238.18 l 336.277 238.18 339.148 241.055 339.148
 244.598 c 339.148 298.922 l h
339.152 298.922 m f
0.992157 0.705882 0.254902 rg
339.156 244.598 m 339.156 298.918 l 324.875 298.918 l 324.875 244.598 l
 324.875 241.055 321.996 238.176 318.453 238.176 c 332.734 238.176 l 336.277
 238.176 339.156 241.055 339.156 244.598 c h
339.156 244.598 m f
0.996078 0.65098 0.0745098 rg
360.441 358.117 m 23.559 358.117 l 23.559 303.797 l 23.559 300.25 26.434
 297.379 29.977 297.379 c 354.02 297.379 l 357.566 297.379 360.441 300.25
 360.441 303.797 c h
360.441 358.117 m f
0.996078 0.6 0.00392157 rg
360.441 303.797 m 360.441 358.117 l 346.164 358.117 l 346.164 303.797 l
 346.164 300.254 343.293 297.375 339.742 297.375 c 354.02 297.375 l 357.57
 297.375 360.441 300.254 360.441 303.797 c h
360.441 303.797 m f
0.843137 0.498039 0.290196 rg
129.645 18.535 19.93 33.09 re f
234.426 18.535 19.93 33.09 re f
297.09 214.57 m 86.91 214.57 l 80.379 214.57 75.086 209.277 75.086 202.746
 c 75.086 51.625 l 308.914 51.625 l 308.914 202.746 l 308.914 209.277 303.621
 214.57 297.09 214.57 c h
297.09 214.57 m f
0.784314 0.427451 0.211765 rg
308.914 51.625 m 308.914 202.746 l 308.914 209.277 303.621 214.574 297.09
 214.574 c 283.227 214.574 l 289.758 214.574 295.051 209.277 295.051 202.746
 c 295.051 51.625 l h
308.914 51.625 m f
0.67451 0.368627 0.180392 rg
302.762 135.32 m 81.238 135.32 l 74.996 135.32 69.938 130.266 69.938 124.023
 c 69.938 59.238 l 69.938 52.996 74.996 47.938 81.238 47.938 c 302.762 47.938
 l 309.004 47.938 314.062 52.996 314.062 59.238 c 314.062 124.023 l 314.062
 130.266 309.004 135.32 302.762 135.32 c h
302.762 135.32 m f
0.619608 0.333333 0.156863 rg
314.062 59.238 m 314.062 124.027 l 314.062 130.266 309.004 135.324 302.766
 135.324 c 81.234 135.324 l 74.996 135.324 69.938 130.266 69.938 124.027
 c 69.938 117.113 l 71.492 121.043 75.328 123.824 79.809 123.824 c 294.855
 123.824 l 298.078 123.824 300.691 121.211 300.691 117.984 c 300.691 52.348
 l 300.691 50.777 300.352 49.281 299.738 47.941 c 302.766 47.941 l 309 47.941
 314.062 52.996 314.062 59.238 c h
314.062 59.238 m f
0.996078 0.65098 0.0745098 rg
206.52 150.875 m 177.48 150.875 l 175.273 150.875 173.488 149.09 173.488
 146.883 c 173.488 123.762 l 173.488 121.555 175.273 119.77 177.48 119.77
 c 206.52 119.77 l 208.727 119.77 210.512 121.555 210.512 123.762 c 210.512
 146.883 l 210.512 149.09 208.727 150.875 206.52 150.875 c h
206.52 150.875 m f
0.996078 0.6 0.00392157 rg
210.516 123.758 m 210.516 146.883 l 210.516 149.086 208.727 150.875 206.523
 150.875 c 197.168 150.875 l 199.375 150.875 201.16 149.086 201.16 146.883
 c 201.16 123.758 l 201.16 121.555 199.375 119.766 197.168 119.766 c 206.523
 119.766 l 208.727 119.766 210.516 121.555 210.516 123.758 c h
210.516 123.758 m f
0.67451 0.368627 0.180392 rg
262 24.461 m 122 24.461 l 118.848 24.461 116.293 21.906 116.293 18.75 c
 116.293 7.59 l 116.293 4.438 118.848 1.883 122 1.883 c 262 1.883 l 265.152
 1.883 267.707 4.438 267.707 7.59 c 267.707 18.75 l 267.707 21.906 265.152
 24.461 262 24.461 c h
262 24.461 m f
0.619608 0.333333 0.156863 rg
267.711 7.59 m 267.711 18.75 l 267.711 21.906 265.152 24.461 262 24.461
 c 250.613 24.461 l 253.77 24.461 256.324 21.906 256.324 18.75 c 256.324
 7.59 l 256.324 4.438 253.77 1.879 250.613 1.879 c 262 1.879 l 265.152 1.879
 267.711 4.438 267.711 7.59 c h
267.711 7.59 m f
0.952941 0.917647 0.901961 rg
356.668 211.922 m 356.668 240.176 333.766 263.078 305.516 263.078 c 277.262
 263.078 254.359 240.176 254.359 211.922 c 254.359 183.672 277.262 160.77
 305.516 160.77 c 333.766 160.77 356.668 183.672 356.668 211.922 c h
356.668 211.922 m f
0.992157 0.278431 0.333333 rg
333.574 201.266 m 312.125 179.824 l 308.383 176.082 302.309 176.082 298.566
 179.824 c 277.59 200.801 l 273.852 204.539 273.645 210.852 277.125 214.828
 c 280.605 218.809 286.512 219.004 290.25 215.266 c 292.492 213.027 l 293.926
 211.594 296.375 212.609 296.375 214.637 c 296.375 237.238 l 296.375 242.535
 300.672 246.832 305.969 246.832 c 311.266 246.832 315.559 242.535 315.559
 237.238 c 315.559 215.875 l 315.559 213.848 318.012 212.832 319.445 214.266
 c 320.012 214.832 l 323.758 218.578 329.828 218.578 333.574 214.832 c 337.32
 211.086 337.32 205.012 333.574 201.266 c h
333.574 201.266 m f
0.984314 0.168627 0.227451 rg
336.383 208.051 m 336.383 210.504 335.445 212.961 333.578 214.832 c 329.832
 218.578 323.758 218.578 320.012 214.832 c 319.441 214.262 l 318.012 212.828
 315.559 213.844 315.559 215.875 c 315.559 237.234 l 315.559 239.883 314.484
 242.285 312.746 244.023 c 311.016 245.754 308.617 246.828 305.969 246.828
 c 304.137 246.828 302.43 246.316 300.973 245.43 c 303.586 243.809 305.328
 240.906 305.328 237.598 c 305.328 224.191 l 305.328 218.117 304.633 211.691
 310.23 207.789 c 311.359 207.012 312.785 206.84 314.086 206.402 c 315.812
 205.82 316.891 204.469 317.336 202.891 c 317.77 201.375 317.605 199.648
 316.879 198.203 c 315.309 195.105 312.473 192.789 310.059 190.371 c 307.379
 187.699 304.707 185.016 302.023 182.336 c 300.953 181.266 299.676 180.504
 298.316 180.074 c 298.566 179.824 l 302.312 176.078 308.379 176.078 312.125
 179.824 c 333.57 201.266 l 335.445 203.141 336.383 205.594 336.383 208.051
 c h
336.383 208.051 m f
0.352941 g
380.141 382.121 m 3.859 382.121 l 1.727 382.121 0 380.391 0 378.262 c 0
 359.805 l 0 357.672 1.727 355.945 3.859 355.945 c 380.141 355.945 l 382.273
 355.945 384 357.672 384 359.805 c 384 378.262 l 384 380.391 382.273 382.121
 380.141 382.121 c h
380.141 382.121 m f
Q Q
showpage
%%Trailer
end
%%EOF
