%!PS-Adobe-3.0 EPSF-3.0
%%Creator: cairo 1.16.0 (https://cairographics.org)
%%CreationDate: Thu Nov  7 08:25:55 2019
%%Pages: 1
%%DocumentData: Clean7Bit
%%LanguageLevel: 2
%%BoundingBox: 1 0 383 384
%%EndComments
%%BeginProlog
50 dict begin
/q { gsave } bind def
/Q { grestore } bind def
/cm { 6 array astore concat } bind def
/w { setlinewidth } bind def
/J { setlinecap } bind def
/j { setlinejoin } bind def
/M { setmiterlimit } bind def
/d { setdash } bind def
/m { moveto } bind def
/l { lineto } bind def
/c { curveto } bind def
/h { closepath } bind def
/re { exch dup neg 3 1 roll 5 3 roll moveto 0 rlineto
      0 exch rlineto 0 rlineto closepath } bind def
/S { stroke } bind def
/f { fill } bind def
/f* { eofill } bind def
/n { newpath } bind def
/W { clip } bind def
/W* { eoclip } bind def
/BT { } bind def
/ET { } bind def
/BDC { mark 3 1 roll /BDC pdfmark } bind def
/EMC { mark /EMC pdfmark } bind def
/cairo_store_point { /cairo_point_y exch def /cairo_point_x exch def } def
/Tj { show currentpoint cairo_store_point } bind def
/TJ {
  {
    dup
    type /stringtype eq
    { show } { -0.001 mul 0 cairo_font_matrix dtransform rmoveto } ifelse
  } forall
  currentpoint cairo_store_point
} bind def
/cairo_selectfont { cairo_font_matrix aload pop pop pop 0 0 6 array astore
    cairo_font exch selectfont cairo_point_x cairo_point_y moveto } bind def
/Tf { pop /cairo_font exch def /cairo_font_matrix where
      { pop cairo_selectfont } if } bind def
/Td { matrix translate cairo_font_matrix matrix concatmatrix dup
      /cairo_font_matrix exch def dup 4 get exch 5 get cairo_store_point
      /cairo_font where { pop cairo_selectfont } if } bind def
/Tm { 2 copy 8 2 roll 6 array astore /cairo_font_matrix exch def
      cairo_store_point /cairo_font where { pop cairo_selectfont } if } bind def
/g { setgray } bind def
/rg { setrgbcolor } bind def
/d1 { setcachedevice } bind def
/cairo_data_source {
  CairoDataIndex CairoData length lt
    { CairoData CairoDataIndex get /CairoDataIndex CairoDataIndex 1 add def }
    { () } ifelse
} def
/cairo_flush_ascii85_file { cairo_ascii85_file status { cairo_ascii85_file flushfile } if } def
/cairo_image { image cairo_flush_ascii85_file } def
/cairo_imagemask { imagemask cairo_flush_ascii85_file } def
%%EndProlog
%%BeginSetup
%%EndSetup
%%Page: 1 1
%%BeginPageSetup
%%PageBoundingBox: 1 0 383 384
%%EndPageSetup
q 1 0 382 384 rectclip
1 0 0 -1 0 384 cm q
0.984314 0.168627 0.227451 rg
357.117 120.492 m 327.152 90.531 l 321.918 85.301 313.434 85.301 308.203
 90.535 c 278.895 119.84 l 273.672 125.062 273.379 133.883 278.242 139.441
 c 278.246 139.445 l 283.109 145.004 291.363 145.277 296.586 140.055 c 299.715
 136.922 l 301.719 134.918 305.145 136.336 305.145 139.172 c 305.145 228.273
 l 305.145 235.676 311.145 241.672 318.547 241.672 c 325.945 241.672 331.945
 235.672 331.945 228.273 c 331.945 140.898 l 331.945 138.066 335.371 136.648
 337.375 138.652 c 338.168 139.445 l 343.402 144.676 351.887 144.676 357.117
 139.445 c 362.352 134.211 362.352 125.723 357.117 120.492 c h
357.117 120.492 m f
0.894118 0.121569 0.176471 rg
361.043 129.969 m 361.043 133.395 359.734 136.832 357.121 139.441 c 351.887
 144.676 343.402 144.676 338.168 139.441 c 337.371 138.648 l 335.371 136.648
 331.945 138.062 331.945 140.902 c 331.945 228.27 l 331.945 231.969 330.449
 235.32 328.016 237.75 c 325.598 240.172 322.242 241.672 318.543 241.672
 c 315.984 241.672 313.602 240.957 311.562 239.715 c 315.219 237.449 317.648
 233.395 317.648 228.77 c 317.648 152.523 l 317.648 144.039 316.68 135.059
 324.5 129.605 c 326.078 128.52 328.07 128.281 329.891 127.668 c 332.301
 126.855 333.809 124.965 334.43 122.762 c 335.031 120.645 334.805 118.23
 333.789 116.211 c 331.598 111.883 327.633 108.648 324.262 105.27 c 320.516
 101.531 316.781 97.785 313.035 94.043 c 311.539 92.543 309.754 91.484 307.855
 90.879 c 308.203 90.535 l 313.438 85.301 321.914 85.301 327.148 90.535 
c 357.113 120.488 l 359.734 123.109 361.043 126.535 361.043 129.969 c h
361.043 129.969 m f
0.996078 0.756863 0.396078 rg
84.043 79.695 121.566 39.941 re f
0.568627 0.870588 0.713726 rg
278.121 307.32 m 278.121 203.328 l 278.121 152.488 236.906 111.273 186.066
 111.273 c 103.586 111.273 l 52.746 111.273 11.531 152.488 11.531 203.328
 c 11.531 307.32 l 11.531 319.641 9.582 331.887 5.758 343.602 c 2.953 352.191
 l -2.172 367.883 9.52 384 26.023 384 c 263.633 384 l 280.137 384 291.828
 367.883 286.703 352.191 c 283.898 343.602 l 280.07 331.887 278.121 319.641
 278.121 307.32 c h
278.121 307.32 m f
0.431373 0.835294 0.631373 rg
263.637 383.996 m 247.109 383.996 l 263.613 383.996 275.309 367.879 270.18
 352.195 c 267.379 343.598 l 263.551 331.887 261.602 319.641 261.602 307.32
 c 261.602 203.332 l 261.602 152.492 220.387 111.27 169.547 111.27 c 186.066
 111.27 l 236.91 111.27 278.121 152.492 278.121 203.332 c 278.121 307.32
 l 278.121 319.641 280.07 331.887 283.898 343.598 c 286.703 352.195 l 291.828
 367.879 280.133 383.996 263.637 383.996 c h
263.637 383.996 m f
0 0.760784 0.478431 rg
208.074 247.637 m 208.074 282.566 179.758 310.883 144.828 310.883 c 109.898
 310.883 81.582 282.566 81.582 247.637 c 81.582 212.707 109.898 184.391 
144.828 184.391 c 161.602 184.391 177.688 191.055 189.547 202.918 c 201.41
 214.777 208.074 230.863 208.074 247.637 c h
208.074 247.637 m f
0.568627 0.870588 0.713726 rg
152.512 243.258 m 151.262 242.816 149.988 242.355 148.715 241.871 c 148.715
 221.566 l 151.922 222.328 153.832 223.953 154 224.098 c 155.738 225.672
 158.422 225.551 160.012 223.828 c 161.613 222.094 161.504 219.387 159.77
 217.785 c 159.523 217.562 155.426 213.867 148.715 212.863 c 148.715 208.711
 l 148.715 206.348 146.801 204.434 144.438 204.434 c 142.078 204.434 140.164
 206.348 140.164 208.711 c 140.164 213.191 l 139.523 213.332 138.875 213.496
 138.211 213.695 c 132.082 215.543 127.5 220.789 126.258 227.387 c 125.121
 233.402 127.047 239.203 131.285 242.527 c 133.531 244.289 136.328 245.906
 140.164 247.609 c 140.164 273.352 l 136.84 273.109 134.539 272.297 130.773
 269.832 c 128.797 268.543 126.148 269.094 124.855 271.07 c 123.562 273.047
 124.117 275.695 126.094 276.988 c 131.578 280.578 135.32 281.645 140.164
 281.914 c 140.164 286.566 l 140.164 288.93 142.078 290.844 144.438 290.844
 c 146.801 290.844 148.715 288.93 148.715 286.566 c 148.715 281.578 l 158.336
 279.691 163.957 271.762 165.203 264.352 c 166.801 254.828 161.82 246.547
 152.512 243.258 c h
136.562 235.797 m 134.848 234.453 134.117 231.836 134.656 228.969 c 135.145
 226.398 136.844 223.305 140.164 222.059 c 140.164 238.098 l 138.809 237.363
 137.582 236.598 136.562 235.797 c h
156.77 262.934 m 156.109 266.867 153.363 271.039 148.715 272.695 c 148.715
 250.98 l 149.027 251.094 149.336 251.203 149.66 251.32 c 157.598 254.125
 157.109 260.918 156.77 262.934 c h
156.77 262.934 m f
227.906 22.887 m 226.016 9.859 219 0 204.582 0 c 197.125 0 190.512 3.566
 186.324 9.082 c 185.473 10.199 183.809 10.199 182.961 9.082 c 178.773 3.566
 172.156 0 164.699 0 c 157.242 0 150.625 3.566 146.438 9.082 c 145.59 10.199
 143.926 10.199 143.074 9.082 c 138.887 3.566 132.273 0 124.812 0 c 117.355
 0 110.738 3.566 106.551 9.082 c 105.703 10.199 104.039 10.199 103.188 9.082
 c 99.004 3.566 92.387 0 84.93 0 c 46.824 -0.004 60.703 69.258 84.043 83.109
 c 205.609 83.109 l 220.188 74.48 231.023 44.379 227.906 22.887 c h
227.906 22.887 m f
0.996078 0.65098 0.0745098 rg
369.645 383.996 m 266.176 383.996 l 259.207 383.996 253.555 378.348 253.555
 371.379 c 253.555 354.902 l 253.555 347.934 259.207 342.285 266.176 342.285
 c 369.645 342.285 l 376.617 342.285 382.266 347.934 382.266 354.902 c 382.266
 371.379 l 382.266 378.348 376.617 383.996 369.645 383.996 c h
369.645 383.996 m f
0.996078 0.756863 0.396078 rg
369.645 342.363 m 266.176 342.363 l 259.207 342.363 253.555 336.711 253.555
 329.742 c 253.555 313.27 l 253.555 306.301 259.207 300.648 266.176 300.648
 c 369.645 300.648 l 376.617 300.648 382.266 306.301 382.266 313.27 c 382.266
 329.742 l 382.266 336.715 376.617 342.363 369.645 342.363 c h
369.645 342.363 m f
0.996078 0.6 0.00392157 rg
382.266 354.902 m 382.266 371.379 l 382.266 378.348 376.613 384 369.645
 384 c 352.688 384 l 359.656 384 365.309 378.348 365.309 371.379 c 365.309
 354.902 l 365.309 348.387 360.371 343.039 354.039 342.359 c 352.688 342.359
 l 352.992 342.359 353.297 342.352 353.594 342.324 c 353.297 342.297 352.992
 342.289 352.688 342.289 c 369.645 342.289 l 369.949 342.289 370.254 342.301
 370.551 342.324 c 377.094 342.785 382.266 348.238 382.266 354.902 c h
382.266 354.902 m f
0.992157 0.705882 0.254902 rg
382.266 313.266 m 382.266 329.746 l 382.266 336.41 377.094 341.863 370.551
 342.324 c 370.254 342.352 369.949 342.359 369.645 342.359 c 352.688 342.359
 l 352.992 342.359 353.297 342.348 353.594 342.324 c 353.297 342.297 352.992
 342.289 352.688 342.289 c 354.039 342.289 l 360.371 341.609 365.309 336.262
 365.309 329.746 c 365.309 313.27 l 365.309 306.301 359.656 300.648 352.688
 300.648 c 369.645 300.648 l 376.613 300.648 382.266 306.301 382.266 313.266
 c h
382.266 313.266 m f
0.996078 0.65098 0.0745098 rg
369.645 301.613 m 266.176 301.613 l 259.207 301.613 253.555 295.965 253.555
 288.996 c 253.555 272.52 l 253.555 265.551 259.207 259.902 266.176 259.902
 c 369.645 259.902 l 376.617 259.902 382.266 265.551 382.266 272.52 c 382.266
 288.996 l 382.266 295.965 376.617 301.613 369.645 301.613 c h
369.645 301.613 m f
0.996078 0.6 0.00392157 rg
382.266 272.516 m 382.266 288.996 l 382.266 295.965 376.613 301.617 369.645
 301.617 c 352.688 301.617 l 359.656 301.617 365.309 295.965 365.309 288.996
 c 365.309 272.516 l 365.309 266 360.371 260.652 354.039 259.973 c 352.688
 259.973 l 352.992 259.973 353.297 259.965 353.594 259.941 c 353.297 259.914
 352.992 259.906 352.688 259.906 c 369.645 259.906 l 369.949 259.906 370.254
 259.914 370.551 259.941 c 377.094 260.402 382.266 265.855 382.266 272.516
 c h
382.266 272.516 m f
0.996078 0.756863 0.396078 rg
369.645 259.906 m 266.176 259.906 l 259.207 259.906 253.555 254.254 253.555
 247.285 c 253.555 230.812 l 253.555 223.84 259.207 218.191 266.176 218.191
 c 369.645 218.191 l 376.617 218.191 382.266 223.84 382.266 230.812 c 382.266
 247.285 l 382.266 254.254 376.617 259.906 369.645 259.906 c h
369.645 259.906 m f
0.992157 0.705882 0.254902 rg
382.266 230.809 m 382.266 247.289 l 382.266 253.953 377.094 259.406 370.551
 259.867 c 370.254 259.895 369.949 259.902 369.645 259.902 c 352.688 259.902
 l 352.992 259.902 353.297 259.891 353.594 259.867 c 353.297 259.84 352.992
 259.832 352.688 259.832 c 354.039 259.832 l 360.371 259.152 365.309 253.805
 365.309 247.289 c 365.309 230.812 l 365.309 223.844 359.656 218.191 352.688
 218.191 c 369.645 218.191 l 376.613 218.188 382.266 223.84 382.266 230.809
 c h
382.266 230.809 m f
Q Q
showpage
%%Trailer
end
%%EOF
