%!PS-Adobe-3.0 EPSF-3.0
%%Creator: cairo 1.16.0 (https://cairographics.org)
%%CreationDate: Thu Nov  7 08:25:55 2019
%%Pages: 1
%%DocumentData: Clean7Bit
%%LanguageLevel: 2
%%BoundingBox: 0 0 384 384
%%EndComments
%%BeginProlog
50 dict begin
/q { gsave } bind def
/Q { grestore } bind def
/cm { 6 array astore concat } bind def
/w { setlinewidth } bind def
/J { setlinecap } bind def
/j { setlinejoin } bind def
/M { setmiterlimit } bind def
/d { setdash } bind def
/m { moveto } bind def
/l { lineto } bind def
/c { curveto } bind def
/h { closepath } bind def
/re { exch dup neg 3 1 roll 5 3 roll moveto 0 rlineto
      0 exch rlineto 0 rlineto closepath } bind def
/S { stroke } bind def
/f { fill } bind def
/f* { eofill } bind def
/n { newpath } bind def
/W { clip } bind def
/W* { eoclip } bind def
/BT { } bind def
/ET { } bind def
/BDC { mark 3 1 roll /BDC pdfmark } bind def
/EMC { mark /EMC pdfmark } bind def
/cairo_store_point { /cairo_point_y exch def /cairo_point_x exch def } def
/Tj { show currentpoint cairo_store_point } bind def
/TJ {
  {
    dup
    type /stringtype eq
    { show } { -0.001 mul 0 cairo_font_matrix dtransform rmoveto } ifelse
  } forall
  currentpoint cairo_store_point
} bind def
/cairo_selectfont { cairo_font_matrix aload pop pop pop 0 0 6 array astore
    cairo_font exch selectfont cairo_point_x cairo_point_y moveto } bind def
/Tf { pop /cairo_font exch def /cairo_font_matrix where
      { pop cairo_selectfont } if } bind def
/Td { matrix translate cairo_font_matrix matrix concatmatrix dup
      /cairo_font_matrix exch def dup 4 get exch 5 get cairo_store_point
      /cairo_font where { pop cairo_selectfont } if } bind def
/Tm { 2 copy 8 2 roll 6 array astore /cairo_font_matrix exch def
      cairo_store_point /cairo_font where { pop cairo_selectfont } if } bind def
/g { setgray } bind def
/rg { setrgbcolor } bind def
/d1 { setcachedevice } bind def
/cairo_data_source {
  CairoDataIndex CairoData length lt
    { CairoData CairoDataIndex get /CairoDataIndex CairoDataIndex 1 add def }
    { () } ifelse
} def
/cairo_flush_ascii85_file { cairo_ascii85_file status { cairo_ascii85_file flushfile } if } def
/cairo_image { image cairo_flush_ascii85_file } def
/cairo_imagemask { imagemask cairo_flush_ascii85_file } def
%%EndProlog
%%BeginSetup
%%EndSetup
%%Page: 1 1
%%BeginPageSetup
%%PageBoundingBox: 0 0 384 384
%%EndPageSetup
q 0 0 384 384 rectclip
1 0 0 -1 0 384 cm q
0.952941 0.917647 0.901961 rg
0 61.711 m 0 368.047 l 0 376.781 7.078 383.859 15.809 383.859 c 282.152
 383.859 l 290.883 383.859 297.961 376.781 297.961 368.047 c 297.961 15.953
 l 297.961 7.219 290.883 0.141 282.152 0.141 c 65.281 0.141 l h
0 61.711 m f
0.882353 0.827451 0.807843 rg
297.957 15.949 m 297.957 368.051 l 297.957 376.777 290.879 383.859 282.152
 383.859 c 262.582 383.859 l 271.316 383.859 278.395 376.777 278.395 368.051
 c 278.395 15.949 l 278.395 7.219 271.316 0.141 262.582 0.141 c 282.152 
0.141 l 290.879 0.141 297.957 7.219 297.957 15.949 c h
297.957 15.949 m f
0.803922 0.74902 0.729412 rg
0 61.711 m 49.477 61.711 l 58.207 61.711 65.281 54.637 65.281 45.906 c 
65.281 0.141 l h
0 61.711 m f
0.67451 0.368627 0.180392 rg
89.613 107.023 m 89.613 188.715 l 89.613 201.488 99.969 211.844 112.742
 211.844 c 185.215 211.844 l 197.992 211.844 208.344 201.488 208.344 188.715
 c 208.344 107.023 l h
89.613 107.023 m f
0.619608 0.333333 0.156863 rg
208.348 107.02 m 208.348 188.715 l 208.348 201.492 197.984 211.844 185.219
 211.844 c 169.98 211.844 l 182.758 211.844 193.109 201.492 193.109 188.715
 c 193.109 107.02 l h
208.348 107.02 m f
0.964706 0.662745 0.423529 rg
202.156 148.016 m 202.156 148.395 l 202.156 169.598 184.973 186.781 163.77
 186.781 c 134.191 186.781 l 112.988 186.781 95.801 169.598 95.801 148.395
 c 95.801 102.086 l 202.156 102.086 l h
202.156 148.016 m f
0.917647 0.607843 0.345098 rg
202.152 102.09 m 202.152 148.398 l 202.152 169.598 184.969 186.785 163.77
 186.785 c 149.117 186.785 l 170.316 186.785 187.5 169.598 187.5 148.398
 c 187.5 102.09 l h
202.152 102.09 m f
0.67451 0.368627 0.180392 rg
162.887 61.711 m 135.148 61.711 l 110.043 61.711 89.688 82.066 89.688 107.172
 c 89.688 131.715 l 114.75 133.227 134.793 122.176 146.258 113.586 c 147.898
 112.359 150.137 112.359 151.777 113.586 c 163.246 122.176 183.285 133.227
 208.348 131.715 c 208.348 107.172 l 208.348 82.066 187.996 61.711 162.887
 61.711 c h
162.887 61.711 m f
0.619608 0.333333 0.156863 rg
208.348 107.172 m 208.348 131.715 l 203.035 132.039 197.938 131.793 193.109
 131.125 c 193.109 107.172 l 193.109 82.066 172.758 61.711 147.652 61.711
 c 162.891 61.711 l 187.996 61.711 208.348 82.066 208.348 107.172 c h
208.348 107.172 m f
0.352941 g
129.34 159.566 m 132.578 159.566 135.199 156.945 135.199 153.707 c 135.199
 146.734 l 135.199 143.5 132.578 140.875 129.34 140.875 c 126.105 140.875
 123.48 143.5 123.48 146.734 c 123.48 153.707 l 123.48 156.945 126.105 159.566
 129.34 159.566 c h
129.34 159.566 m f
166.73 159.566 m 169.969 159.566 172.59 156.945 172.59 153.707 c 172.59
 146.734 l 172.59 143.5 169.969 140.875 166.73 140.875 c 163.492 140.875
 160.871 143.5 160.871 146.734 c 160.871 153.707 l 160.871 156.945 163.496
 159.566 166.73 159.566 c h
166.73 159.566 m f
0.803922 0.74902 0.729412 rg
199.816 250.375 m 79.828 250.375 l 76.629 250.375 74.035 247.781 74.035
 244.578 c 74.035 241.379 76.629 238.785 79.828 238.785 c 199.816 238.785
 l 203.016 238.785 205.609 241.379 205.609 244.578 c 205.609 247.781 203.016
 250.375 199.816 250.375 c h
199.816 250.375 m f
180.227 275.891 m 79.828 275.891 l 76.629 275.891 74.035 273.297 74.035
 270.098 c 74.035 266.898 76.629 264.305 79.828 264.305 c 180.227 264.305
 l 183.426 264.305 186.02 266.898 186.02 270.098 c 186.02 273.297 183.426
 275.891 180.227 275.891 c h
180.227 275.891 m f
180.227 301.406 m 79.828 301.406 l 76.629 301.406 74.035 298.812 74.035
 295.613 c 74.035 292.414 76.629 289.82 79.828 289.82 c 180.227 289.82 l
 183.426 289.82 186.02 292.414 186.02 295.613 c 186.02 298.812 183.426 301.406
 180.227 301.406 c h
180.227 301.406 m f
218.133 326.926 m 79.828 326.926 l 76.629 326.926 74.035 324.332 74.035
 321.133 c 74.035 317.93 76.629 315.34 79.828 315.34 c 218.133 315.34 l 
221.332 315.34 223.926 317.93 223.926 321.133 c 223.926 324.332 221.332 
326.926 218.133 326.926 c h
218.133 326.926 m f
218.133 352.441 m 79.828 352.441 l 76.629 352.441 74.035 349.848 74.035
 346.648 c 74.035 343.449 76.629 340.855 79.828 340.855 c 218.133 340.855
 l 221.332 340.855 223.926 343.449 223.926 346.648 c 223.926 349.848 221.332
 352.441 218.133 352.441 c h
218.133 352.441 m f
0.984314 0.168627 0.227451 rg
364.203 177.68 m 328.477 183.984 l 322.504 185.039 318.277 190.82 319.082
 196.832 c 319.957 203.348 325.973 207.746 332.445 206.602 c 338.609 205.516
 l 310.48 249.867 l 308.254 253.379 303.605 254.418 300.094 252.191 c 251.492
 226.82 l 245.43 222.977 237.398 224.773 233.555 230.832 c 203.531 277.117
 l 199.82 282.965 201.555 290.711 207.402 294.418 c 213.246 298.129 220.992
 296.395 224.699 290.547 c 244.203 260.801 l 246.43 257.293 251.078 256.25
 254.59 258.477 c 303.219 283.867 l 309.281 287.711 317.312 285.914 321.156
 279.852 c 359.82 218.883 l 361.207 226.734 l 362.309 232.98 368.266 237.148
 374.508 236.047 c 380.754 234.945 384.922 228.988 383.82 222.742 c 377.508
 186.988 l 376.406 180.746 370.449 176.578 364.203 177.68 c h
364.203 177.68 m f
0.894118 0.121569 0.176471 rg
383.824 222.742 m 377.512 186.988 l 376.406 180.746 370.445 176.578 364.203
 177.68 c 363.633 177.777 l 364.727 182.133 366.086 186.43 366.586 190.922
 c 367.098 195.469 369.926 203.637 364.812 206.59 c 361.68 208.398 358.074
 206.414 354.828 208.457 c 351.969 210.254 350.43 212.91 348.656 215.699
 c 344.289 222.578 339.934 229.453 335.578 236.324 c 329.301 246.223 323.395
 256.363 316.746 266.023 c 312.062 272.828 308.172 273.535 298.801 268.348
 c 250.168 242.961 l 246.66 240.734 242.008 241.773 239.781 245.281 c 220.285
 276.719 l 216.57 282.566 208.832 284.297 202.984 280.594 c 202.703 280.41
 202.426 280.227 202.164 280.02 c 200.477 285.324 202.48 291.297 207.402
 294.422 c 209.488 295.746 211.809 296.375 214.105 296.375 c 218.254 296.375
 222.312 294.309 224.703 290.551 c 244.203 260.801 l 246.43 257.293 251.082
 256.254 254.586 258.48 c 303.219 283.867 l 309.277 287.715 317.312 285.91
 321.156 279.852 c 359.82 218.883 l 361.207 226.738 l 362.309 232.98 368.262
 237.152 374.512 236.047 c 380.082 235.066 384 230.215 384 224.75 c 384 
224.086 383.941 223.414 383.824 222.742 c h
383.824 222.742 m f
Q Q
showpage
%%Trailer
end
%%EOF
