%!PS-Adobe-3.0 EPSF-3.0
%%Creator: cairo 1.16.0 (https://cairographics.org)
%%CreationDate: Thu Nov  7 08:25:55 2019
%%Pages: 1
%%DocumentData: Clean7Bit
%%LanguageLevel: 2
%%BoundingBox: 0 0 384 384
%%EndComments
%%BeginProlog
50 dict begin
/q { gsave } bind def
/Q { grestore } bind def
/cm { 6 array astore concat } bind def
/w { setlinewidth } bind def
/J { setlinecap } bind def
/j { setlinejoin } bind def
/M { setmiterlimit } bind def
/d { setdash } bind def
/m { moveto } bind def
/l { lineto } bind def
/c { curveto } bind def
/h { closepath } bind def
/re { exch dup neg 3 1 roll 5 3 roll moveto 0 rlineto
      0 exch rlineto 0 rlineto closepath } bind def
/S { stroke } bind def
/f { fill } bind def
/f* { eofill } bind def
/n { newpath } bind def
/W { clip } bind def
/W* { eoclip } bind def
/BT { } bind def
/ET { } bind def
/BDC { mark 3 1 roll /BDC pdfmark } bind def
/EMC { mark /EMC pdfmark } bind def
/cairo_store_point { /cairo_point_y exch def /cairo_point_x exch def } def
/Tj { show currentpoint cairo_store_point } bind def
/TJ {
  {
    dup
    type /stringtype eq
    { show } { -0.001 mul 0 cairo_font_matrix dtransform rmoveto } ifelse
  } forall
  currentpoint cairo_store_point
} bind def
/cairo_selectfont { cairo_font_matrix aload pop pop pop 0 0 6 array astore
    cairo_font exch selectfont cairo_point_x cairo_point_y moveto } bind def
/Tf { pop /cairo_font exch def /cairo_font_matrix where
      { pop cairo_selectfont } if } bind def
/Td { matrix translate cairo_font_matrix matrix concatmatrix dup
      /cairo_font_matrix exch def dup 4 get exch 5 get cairo_store_point
      /cairo_font where { pop cairo_selectfont } if } bind def
/Tm { 2 copy 8 2 roll 6 array astore /cairo_font_matrix exch def
      cairo_store_point /cairo_font where { pop cairo_selectfont } if } bind def
/g { setgray } bind def
/rg { setrgbcolor } bind def
/d1 { setcachedevice } bind def
/cairo_data_source {
  CairoDataIndex CairoData length lt
    { CairoData CairoDataIndex get /CairoDataIndex CairoDataIndex 1 add def }
    { () } ifelse
} def
/cairo_flush_ascii85_file { cairo_ascii85_file status { cairo_ascii85_file flushfile } if } def
/cairo_image { image cairo_flush_ascii85_file } def
/cairo_imagemask { imagemask cairo_flush_ascii85_file } def
%%EndProlog
%%BeginSetup
%%EndSetup
%%Page: 1 1
%%BeginPageSetup
%%PageBoundingBox: 0 0 384 384
%%EndPageSetup
q 0 0 384 384 rectclip
1 0 0 -1 0 384 cm q
0.611765 g
193.918 225.645 m 225.66 193.902 l 271.145 239.387 l 239.402 271.129 l 
h
193.918 225.645 m f
0.513726 g
246.902 215.09 m 242.586 221.145 237.711 226.918 232.281 232.352 c 226.902
 237.727 221.172 242.57 215.184 246.863 c 193.961 225.645 l 225.715 193.902
 l h
246.902 215.09 m f
0.67451 0.368627 0.180392 rg
373.828 373.762 m 360.262 387.324 338.273 387.324 324.707 373.762 c 229.68
 278.73 l 228.207 277.258 228.207 274.867 229.68 273.395 c 273.461 229.613
 l 274.934 228.141 277.324 228.141 278.801 229.613 c 373.828 324.645 l 387.391
 338.207 387.391 360.199 373.828 373.762 c h
373.828 373.762 m f
0.619608 0.333333 0.156863 rg
373.828 373.758 m 369.117 378.469 363.391 381.543 357.352 382.988 c 370.312
 369.383 370.113 347.836 356.754 334.473 c 262.68 240.398 l 273.461 229.617
 l 274.938 228.141 277.324 228.141 278.801 229.617 c 373.828 324.645 l 387.387
 338.203 387.387 360.199 373.828 373.758 c h
373.828 373.758 m f
0.352941 g
256.938 128.535 m 256.938 199.484 199.422 257.004 128.469 257.004 c 57.516
 257.004 0 199.484 0 128.535 c 0 57.582 57.516 0.066 128.469 0.066 c 199.422
 0.066 256.938 57.582 256.938 128.535 c h
256.938 128.535 m f
0.541176 0.788235 0.996078 rg
226.914 128.535 m 226.914 182.906 182.84 226.98 128.469 226.98 c 74.098
 226.98 30.023 182.906 30.023 128.535 c 30.023 74.164 74.098 30.086 128.469
 30.086 c 182.84 30.086 226.914 74.164 226.914 128.535 c h
226.914 128.535 m f
0.984314 0.168627 0.227451 rg
128.469 173.266 m 78.969 173.266 l 78.969 267.16 l 78.969 272.191 84.008
 275.66 88.707 273.863 c 125.906 259.641 l 127.555 259.008 129.383 259.008
 131.031 259.641 c 168.23 273.863 l 172.93 275.66 177.969 272.191 177.969
 267.16 c 177.969 173.266 l h
128.469 173.266 m f
0.894118 0.121569 0.176471 rg
177.969 173.266 m 177.969 267.164 l 177.969 272.188 172.93 275.66 168.223
 273.867 c 152.809 267.969 l 153.297 267.02 153.57 265.945 153.57 264.766
 c 153.57 173.266 l h
177.969 173.266 m f
0.996078 0.756863 0.396078 rg
202.305 128.535 m 202.305 169.312 169.25 202.371 128.469 202.371 c 87.691
 202.371 54.633 169.312 54.633 128.535 c 54.633 87.754 87.691 54.695 128.469
 54.695 c 148.051 54.695 166.832 62.477 180.68 76.324 c 194.527 90.172 202.305
 108.953 202.305 128.535 c h
202.305 128.535 m f
0.996078 0.6 0.00392157 rg
135.051 89.398 m 142.918 105.34 l 143.434 106.387 144.434 107.113 145.586
 107.277 c 163.18 109.836 l 169.199 110.711 171.602 118.109 167.246 122.352
 c 154.516 134.762 l 153.68 135.578 153.301 136.75 153.496 137.898 c 156.5
 155.422 l 157.531 161.418 151.238 165.988 145.852 163.16 c 130.117 154.887
 l 129.086 154.344 127.852 154.344 126.816 154.887 c 111.082 163.16 l 105.699
 165.988 99.406 161.418 100.434 155.422 c 103.438 137.898 l 103.637 136.75
 103.254 135.578 102.418 134.762 c 89.688 122.352 l 85.332 118.109 87.734
 110.711 93.754 109.836 c 111.348 107.277 l 112.504 107.109 113.5 106.387
 114.016 105.34 c 121.887 89.398 l 124.578 83.941 132.359 83.941 135.051
 89.398 c h
135.051 89.398 m f
0.984314 0.533333 0.00392157 rg
154.52 134.766 m 153.676 135.582 153.305 136.746 153.504 137.898 c 156.5
 155.43 l 157.527 161.422 151.238 165.988 145.852 163.152 c 130.117 154.883
 l 129.086 154.34 127.848 154.34 126.82 154.883 c 111.086 163.152 l 105.699
 165.988 99.41 161.422 100.438 155.43 c 101.117 151.43 l 101.477 151.316
 101.836 151.156 102.195 150.969 c 104.512 149.754 106.824 148.535 109.141
 147.316 c 112.625 145.48 116.117 143.605 119.816 142.227 c 122.84 141.098
 126.074 140.652 129.285 140.535 c 132.754 140.402 137.879 142.805 140.027
 138.812 c 140.688 137.586 140.48 135.871 140.715 134.539 c 141.805 128.34
 145.355 122.828 149.914 118.469 c 152.77 115.746 155.527 112.918 158.355
 110.164 c 158.652 109.867 158.926 109.57 159.148 109.246 c 163.188 109.84
 l 169.203 110.707 171.605 118.113 167.246 122.359 c h
154.52 134.766 m f
Q Q
showpage
%%Trailer
end
%%EOF
