%!PS-Adobe-3.0 EPSF-3.0
%%Creator: cairo 1.16.0 (https://cairographics.org)
%%CreationDate: Thu Nov  7 08:25:56 2019
%%Pages: 1
%%DocumentData: Clean7Bit
%%LanguageLevel: 2
%%BoundingBox: 0 30 384 354
%%EndComments
%%BeginProlog
50 dict begin
/q { gsave } bind def
/Q { grestore } bind def
/cm { 6 array astore concat } bind def
/w { setlinewidth } bind def
/J { setlinecap } bind def
/j { setlinejoin } bind def
/M { setmiterlimit } bind def
/d { setdash } bind def
/m { moveto } bind def
/l { lineto } bind def
/c { curveto } bind def
/h { closepath } bind def
/re { exch dup neg 3 1 roll 5 3 roll moveto 0 rlineto
      0 exch rlineto 0 rlineto closepath } bind def
/S { stroke } bind def
/f { fill } bind def
/f* { eofill } bind def
/n { newpath } bind def
/W { clip } bind def
/W* { eoclip } bind def
/BT { } bind def
/ET { } bind def
/BDC { mark 3 1 roll /BDC pdfmark } bind def
/EMC { mark /EMC pdfmark } bind def
/cairo_store_point { /cairo_point_y exch def /cairo_point_x exch def } def
/Tj { show currentpoint cairo_store_point } bind def
/TJ {
  {
    dup
    type /stringtype eq
    { show } { -0.001 mul 0 cairo_font_matrix dtransform rmoveto } ifelse
  } forall
  currentpoint cairo_store_point
} bind def
/cairo_selectfont { cairo_font_matrix aload pop pop pop 0 0 6 array astore
    cairo_font exch selectfont cairo_point_x cairo_point_y moveto } bind def
/Tf { pop /cairo_font exch def /cairo_font_matrix where
      { pop cairo_selectfont } if } bind def
/Td { matrix translate cairo_font_matrix matrix concatmatrix dup
      /cairo_font_matrix exch def dup 4 get exch 5 get cairo_store_point
      /cairo_font where { pop cairo_selectfont } if } bind def
/Tm { 2 copy 8 2 roll 6 array astore /cairo_font_matrix exch def
      cairo_store_point /cairo_font where { pop cairo_selectfont } if } bind def
/g { setgray } bind def
/rg { setrgbcolor } bind def
/d1 { setcachedevice } bind def
/cairo_data_source {
  CairoDataIndex CairoData length lt
    { CairoData CairoDataIndex get /CairoDataIndex CairoDataIndex 1 add def }
    { () } ifelse
} def
/cairo_flush_ascii85_file { cairo_ascii85_file status { cairo_ascii85_file flushfile } if } def
/cairo_image { image cairo_flush_ascii85_file } def
/cairo_imagemask { imagemask cairo_flush_ascii85_file } def
%%EndProlog
%%BeginSetup
%%EndSetup
%%Page: 1 1
%%BeginPageSetup
%%PageBoundingBox: 0 30 384 354
%%EndPageSetup
q 0 30 384 324 rectclip
1 0 0 -1 0 384 cm q
0.952941 0.917647 0.901961 rg
369.086 353.984 m 14.914 353.984 l 6.676 353.984 0 347.305 0 339.07 c 0
 76.016 l 0 67.781 6.676 61.102 14.914 61.102 c 369.086 61.102 l 377.324
 61.102 384 67.781 384 76.016 c 384 339.07 l 384 347.305 377.324 353.984
 369.086 353.984 c h
369.086 353.984 m f
0.882353 0.827451 0.807843 rg
383.996 76.016 m 383.996 339.066 l 383.996 347.309 377.32 353.984 369.086
 353.984 c 349.719 353.984 l 357.953 353.984 364.629 347.309 364.629 339.066
 c 364.629 76.016 l 364.629 67.781 357.953 61.102 349.719 61.102 c 369.086
 61.102 l 377.32 61.102 383.996 67.781 383.996 76.016 c h
383.996 76.016 m f
0.611765 g
252.086 117.008 m 131.914 117.008 l 124.836 117.008 119.102 111.27 119.102
 104.191 c 119.102 97.113 124.836 91.379 131.914 91.379 c 252.086 91.379
 l 259.164 91.379 264.902 97.113 264.902 104.191 c 264.902 111.27 259.164
 117.008 252.086 117.008 c h
252.086 117.008 m f
0.352941 g
221.492 117.008 m 162.508 117.008 l 162.508 40.453 l 162.508 34.688 167.18
 30.016 172.945 30.016 c 211.055 30.016 l 216.82 30.016 221.492 34.688 221.492
 40.453 c h
221.492 117.008 m f
0.266667 g
221.492 40.449 m 221.492 117.008 l 205.027 117.008 l 205.027 40.449 l 205.027
 34.691 200.352 30.016 194.586 30.016 c 211.055 30.016 l 216.82 30.016 221.492
 34.691 221.492 40.449 c h
221.492 40.449 m f
0 0.760784 0.478431 rg
195.82 179.688 m 329.258 179.688 l 331.762 179.688 333.789 181.715 333.789
 184.219 c 333.789 212.777 l 333.789 215.281 331.762 217.309 329.258 217.309
 c 195.82 217.309 l 193.32 217.309 191.289 215.281 191.289 212.777 c 191.289
 184.219 l 191.289 181.715 193.32 179.688 195.82 179.688 c h
195.82 179.688 m f
0.0313726 0.721569 0.396078 rg
333.789 184.219 m 333.789 212.777 l 333.789 215.277 331.758 217.309 329.262
 217.309 c 312.762 217.309 l 315.258 217.309 317.289 215.277 317.289 212.777
 c 317.289 184.219 l 317.289 181.715 315.258 179.688 312.762 179.688 c 329.262
 179.688 l 331.758 179.688 333.789 181.715 333.789 184.219 c h
333.789 184.219 m f
0.803922 0.74902 0.729412 rg
333.789 249.734 m 191.289 249.734 l 188.184 249.734 185.664 247.215 185.664
 244.109 c 185.664 241.004 188.184 238.484 191.289 238.484 c 333.789 238.484
 l 336.895 238.484 339.414 241.004 339.414 244.109 c 339.414 247.215 336.895
 249.734 333.789 249.734 c h
333.789 249.734 m f
333.789 274.984 m 191.289 274.984 l 188.184 274.984 185.664 272.465 185.664
 269.359 c 185.664 266.254 188.184 263.734 191.289 263.734 c 333.789 263.734
 l 336.895 263.734 339.414 266.254 339.414 269.359 c 339.414 272.465 336.895
 274.984 333.789 274.984 c h
333.789 274.984 m f
262.539 300.234 m 191.289 300.234 l 188.184 300.234 185.664 297.715 185.664
 294.609 c 185.664 291.5 188.184 288.984 191.289 288.984 c 262.539 288.984
 l 265.645 288.984 268.164 291.5 268.164 294.609 c 268.164 297.715 265.645
 300.234 262.539 300.234 c h
262.539 300.234 m f
0.964706 0.662745 0.423529 rg
50.211 266.902 m 50.211 287.316 66.758 303.863 87.168 303.863 c 115.648
 303.863 l 136.059 303.863 152.609 287.316 152.609 266.902 c 152.609 215.023
 l 50.211 215.023 l h
50.211 266.902 m f
0.917647 0.607843 0.345098 rg
152.605 215.02 m 152.605 266.906 l 152.605 287.316 136.066 303.867 115.645
 303.867 c 99.527 303.867 l 119.938 303.867 136.488 287.316 136.488 266.906
 c 136.488 215.02 l h
152.605 215.02 m f
0.352941 g
55.648 171.441 m 60.777 174.133 l 64.863 176.273 69.742 176.273 73.832 
174.133 c 77.828 172.035 l 81.914 169.895 86.793 169.895 90.883 172.035 
c 94.879 174.133 l 98.965 176.273 103.844 176.273 107.934 174.133 c 111.93
 172.035 l 116.02 169.895 120.895 169.895 124.984 172.035 c 128.984 174.133
 l 133.07 176.273 137.949 176.273 142.039 174.133 c 147.172 171.441 l 149.625
 170.156 152.566 171.934 152.566 174.703 c 152.566 247.391 l 152.566 248.488
 151.227 249.023 150.469 248.23 c 146.695 244.293 139.008 235.059 137.363
 223.77 c 137.098 221.953 135.391 220.797 133.602 221.191 c 131.266 221.703
 128.559 222.297 128.27 222.348 c 120.828 223.613 113.043 224.375 105.227
 224.457 c 101.41 224.422 l 97.594 224.457 l 89.777 224.375 81.992 223.613
 74.551 222.348 c 74.262 222.297 71.555 221.703 69.219 221.188 c 67.434 
220.797 65.719 222.016 65.453 223.82 c 63.789 235.09 56.113 244.305 52.348
 248.234 c 51.59 249.023 50.258 248.488 50.258 247.391 c 50.258 174.707 
l 50.254 171.938 53.195 170.156 55.648 171.441 c h
55.648 171.441 m f
0.266667 g
152.566 174.703 m 152.566 247.391 l 152.566 248.496 151.23 249.027 150.465
 248.234 c 146.699 244.297 139.012 235.059 137.363 223.773 c 137.262 223.07
 136.941 222.469 136.488 222.016 c 136.488 175.707 l 138.398 175.578 140.285
 175.055 142.035 174.129 c 147.168 171.445 l 149.621 170.16 152.566 171.938
 152.566 174.703 c h
152.566 174.703 m f
0.352941 g
81.645 270.762 m 78.539 270.762 76.02 268.246 76.02 265.137 c 76.02 257.766
 l 76.02 254.66 78.539 252.141 81.645 252.141 c 84.75 252.141 87.27 254.66
 87.27 257.766 c 87.27 265.137 l 87.27 268.242 84.75 270.762 81.645 270.762
 c h
81.645 270.762 m f
121.172 270.762 m 118.066 270.762 115.547 268.246 115.547 265.137 c 115.547
 257.766 l 115.547 254.66 118.066 252.141 121.172 252.141 c 124.277 252.141
 126.797 254.66 126.797 257.766 c 126.797 265.137 l 126.797 268.242 124.281
 270.762 121.172 270.762 c h
121.172 270.762 m f
Q Q
showpage
%%Trailer
end
%%EOF
