%!PS-Adobe-3.0 EPSF-3.0
%%Creator: cairo 1.16.0 (https://cairographics.org)
%%CreationDate: Thu Nov  7 08:25:56 2019
%%Pages: 1
%%DocumentData: Clean7Bit
%%LanguageLevel: 2
%%BoundingBox: 39 0 345 384
%%EndComments
%%BeginProlog
50 dict begin
/q { gsave } bind def
/Q { grestore } bind def
/cm { 6 array astore concat } bind def
/w { setlinewidth } bind def
/J { setlinecap } bind def
/j { setlinejoin } bind def
/M { setmiterlimit } bind def
/d { setdash } bind def
/m { moveto } bind def
/l { lineto } bind def
/c { curveto } bind def
/h { closepath } bind def
/re { exch dup neg 3 1 roll 5 3 roll moveto 0 rlineto
      0 exch rlineto 0 rlineto closepath } bind def
/S { stroke } bind def
/f { fill } bind def
/f* { eofill } bind def
/n { newpath } bind def
/W { clip } bind def
/W* { eoclip } bind def
/BT { } bind def
/ET { } bind def
/BDC { mark 3 1 roll /BDC pdfmark } bind def
/EMC { mark /EMC pdfmark } bind def
/cairo_store_point { /cairo_point_y exch def /cairo_point_x exch def } def
/Tj { show currentpoint cairo_store_point } bind def
/TJ {
  {
    dup
    type /stringtype eq
    { show } { -0.001 mul 0 cairo_font_matrix dtransform rmoveto } ifelse
  } forall
  currentpoint cairo_store_point
} bind def
/cairo_selectfont { cairo_font_matrix aload pop pop pop 0 0 6 array astore
    cairo_font exch selectfont cairo_point_x cairo_point_y moveto } bind def
/Tf { pop /cairo_font exch def /cairo_font_matrix where
      { pop cairo_selectfont } if } bind def
/Td { matrix translate cairo_font_matrix matrix concatmatrix dup
      /cairo_font_matrix exch def dup 4 get exch 5 get cairo_store_point
      /cairo_font where { pop cairo_selectfont } if } bind def
/Tm { 2 copy 8 2 roll 6 array astore /cairo_font_matrix exch def
      cairo_store_point /cairo_font where { pop cairo_selectfont } if } bind def
/g { setgray } bind def
/rg { setrgbcolor } bind def
/d1 { setcachedevice } bind def
/cairo_data_source {
  CairoDataIndex CairoData length lt
    { CairoData CairoDataIndex get /CairoDataIndex CairoDataIndex 1 add def }
    { () } ifelse
} def
/cairo_flush_ascii85_file { cairo_ascii85_file status { cairo_ascii85_file flushfile } if } def
/cairo_image { image cairo_flush_ascii85_file } def
/cairo_imagemask { imagemask cairo_flush_ascii85_file } def
%%EndProlog
%%BeginSetup
%%EndSetup
%%Page: 1 1
%%BeginPageSetup
%%PageBoundingBox: 39 0 345 384
%%EndPageSetup
q 39 0 306 384 rectclip
1 0 0 -1 0 384 cm q
0.541176 0.788235 0.996078 rg
141.547 257.617 m 101.5 234.672 l 41.711 333.262 l 38.449 338.645 41.688
 345.613 47.906 346.586 c 80.352 351.66 l 82.5 351.996 84.453 353.113 85.832
 354.797 c 107.047 380.754 l 110.91 385.48 118.289 384.961 121.453 379.742
 c 181.598 280.566 l h
141.547 257.617 m f
242.453 257.617 m 282.5 234.672 l 342.289 333.262 l 345.551 338.641 342.312
 345.613 336.094 346.586 c 303.648 351.656 l 301.5 351.996 299.547 353.113
 298.168 354.797 c 276.953 380.754 l 273.09 385.48 265.711 384.961 262.547
 379.742 c 202.402 280.566 l h
242.453 257.617 m f
0.376471 0.717647 1 rg
181.594 280.566 m 121.453 379.742 l 118.285 384.961 110.91 385.477 107.043
 380.754 c 102.016 374.598 l 104.012 374.004 105.82 372.703 107.02 370.719
 c 166.832 272.105 l h
181.594 280.566 m f
336.098 346.586 m 327.832 347.879 l 328.066 346 327.711 344.012 326.613
 342.211 c 266.844 243.637 l 282.5 234.668 l 342.289 333.266 l 345.555 338.645
 342.312 345.613 336.098 346.586 c h
336.098 346.586 m f
0.996078 0.65098 0.0745098 rg
344.891 146.52 m 344.891 162.23 328.223 175.113 323.621 189.285 c 318.852
 203.977 324.598 224.168 315.699 236.395 c 306.711 248.746 285.672 249.477
 273.32 258.465 c 261.094 267.363 253.949 287.195 239.258 291.965 c 225.082
 296.566 207.707 284.875 192 284.875 c 176.289 284.875 158.918 296.566 144.742
 291.965 c 130.051 287.195 122.906 267.363 110.68 258.465 c 98.328 249.477
 77.289 248.746 68.301 236.395 c 59.402 224.164 65.148 203.977 60.379 189.285
 c 55.777 175.113 39.109 162.227 39.109 146.52 c 39.109 130.809 55.777 117.926
 60.379 103.75 c 65.148 89.059 59.402 68.871 68.301 56.645 c 77.289 44.293
 98.328 43.562 110.68 34.574 c 122.906 25.676 130.051 5.844 144.742 1.074
 c 158.918 -3.531 176.293 8.164 192 8.164 c 207.707 8.164 225.082 -3.531
 239.258 1.074 c 253.949 5.844 261.094 25.676 273.32 34.574 c 285.672 43.562
 306.711 44.293 315.699 56.645 c 324.598 68.871 318.852 89.059 323.621 103.75
 c 328.223 117.926 344.891 130.809 344.891 146.52 c h
344.891 146.52 m f
0.996078 0.756863 0.396078 rg
299.035 146.52 m 299.035 205.633 251.113 253.551 192 253.551 c 132.887 
253.551 84.965 205.633 84.965 146.52 c 84.965 87.406 132.887 39.484 192 
39.484 c 251.113 39.484 299.035 87.406 299.035 146.52 c h
299.035 146.52 m f
0.992157 0.705882 0.254902 rg
299.031 146.52 m 299.031 205.637 251.109 253.551 192 253.551 c 173.809 
253.551 156.672 249.012 141.672 241.008 c 152.422 244.629 163.926 246.59
 175.895 246.59 c 235.004 246.59 282.926 198.676 282.926 139.559 c 282.926
 98.633 259.957 63.074 226.207 45.066 c 268.547 59.34 299.031 99.371 299.031
 146.52 c h
299.031 146.52 m f
0.952941 0.917647 0.901961 rg
202.484 90.344 m 215.016 115.738 l 215.84 117.406 217.43 118.562 219.27
 118.828 c 247.293 122.898 l 256.883 124.293 260.711 136.078 253.773 142.84
 c 233.492 162.609 l 232.164 163.906 231.555 165.773 231.871 167.605 c 236.656
 195.52 l 238.297 205.07 228.273 212.352 219.695 207.844 c 194.625 194.664
 l 192.98 193.801 191.016 193.801 189.371 194.664 c 164.305 207.844 l 155.727
 212.352 145.703 205.07 147.34 195.52 c 152.129 167.605 l 152.441 165.773
 151.836 163.906 150.504 162.609 c 130.227 142.84 l 123.285 136.078 127.117
 124.293 136.703 122.898 c 164.73 118.828 l 166.57 118.562 168.16 117.406
 168.98 115.738 c 181.516 90.344 l 185.805 81.652 198.195 81.652 202.484
 90.344 c h
202.484 90.344 m f
0.882353 0.827451 0.807843 rg
233.496 162.609 m 232.156 163.91 231.562 165.766 231.879 167.598 c 236.652
 195.527 l 238.289 205.074 228.27 212.352 219.691 207.836 c 194.621 194.66
 l 192.984 193.793 191.012 193.793 189.375 194.66 c 164.309 207.836 l 155.727
 212.352 145.711 205.074 147.348 195.527 c 148.43 189.156 l 149.004 188.98
 149.574 188.723 150.145 188.426 c 153.832 186.488 157.52 184.547 161.207
 182.605 c 166.762 179.68 172.32 176.695 178.215 174.496 c 183.031 172.695
 188.184 171.992 193.301 171.801 c 198.824 171.594 206.988 175.414 210.406
 169.059 c 211.461 167.105 211.133 164.375 211.504 162.25 c 213.242 152.379
 218.898 143.594 226.156 136.652 c 230.711 132.312 235.105 127.809 239.609
 123.422 c 240.082 122.945 240.516 122.473 240.871 121.961 c 247.301 122.906
 l 256.887 124.289 260.711 136.082 253.77 142.848 c h
233.496 162.609 m f
Q Q
showpage
%%Trailer
end
%%EOF
