%!PS-Adobe-3.0 EPSF-3.0
%%Creator: cairo 1.16.0 (https://cairographics.org)
%%CreationDate: Thu Nov  7 08:25:56 2019
%%Pages: 1
%%DocumentData: Clean7Bit
%%LanguageLevel: 2
%%BoundingBox: 21 0 363 384
%%EndComments
%%BeginProlog
50 dict begin
/q { gsave } bind def
/Q { grestore } bind def
/cm { 6 array astore concat } bind def
/w { setlinewidth } bind def
/J { setlinecap } bind def
/j { setlinejoin } bind def
/M { setmiterlimit } bind def
/d { setdash } bind def
/m { moveto } bind def
/l { lineto } bind def
/c { curveto } bind def
/h { closepath } bind def
/re { exch dup neg 3 1 roll 5 3 roll moveto 0 rlineto
      0 exch rlineto 0 rlineto closepath } bind def
/S { stroke } bind def
/f { fill } bind def
/f* { eofill } bind def
/n { newpath } bind def
/W { clip } bind def
/W* { eoclip } bind def
/BT { } bind def
/ET { } bind def
/BDC { mark 3 1 roll /BDC pdfmark } bind def
/EMC { mark /EMC pdfmark } bind def
/cairo_store_point { /cairo_point_y exch def /cairo_point_x exch def } def
/Tj { show currentpoint cairo_store_point } bind def
/TJ {
  {
    dup
    type /stringtype eq
    { show } { -0.001 mul 0 cairo_font_matrix dtransform rmoveto } ifelse
  } forall
  currentpoint cairo_store_point
} bind def
/cairo_selectfont { cairo_font_matrix aload pop pop pop 0 0 6 array astore
    cairo_font exch selectfont cairo_point_x cairo_point_y moveto } bind def
/Tf { pop /cairo_font exch def /cairo_font_matrix where
      { pop cairo_selectfont } if } bind def
/Td { matrix translate cairo_font_matrix matrix concatmatrix dup
      /cairo_font_matrix exch def dup 4 get exch 5 get cairo_store_point
      /cairo_font where { pop cairo_selectfont } if } bind def
/Tm { 2 copy 8 2 roll 6 array astore /cairo_font_matrix exch def
      cairo_store_point /cairo_font where { pop cairo_selectfont } if } bind def
/g { setgray } bind def
/rg { setrgbcolor } bind def
/d1 { setcachedevice } bind def
/cairo_data_source {
  CairoDataIndex CairoData length lt
    { CairoData CairoDataIndex get /CairoDataIndex CairoDataIndex 1 add def }
    { () } ifelse
} def
/cairo_flush_ascii85_file { cairo_ascii85_file status { cairo_ascii85_file flushfile } if } def
/cairo_image { image cairo_flush_ascii85_file } def
/cairo_imagemask { imagemask cairo_flush_ascii85_file } def
%%EndProlog
%%BeginSetup
%%EndSetup
%%Page: 1 1
%%BeginPageSetup
%%PageBoundingBox: 21 0 363 384
%%EndPageSetup
q 21 0 342 384 rectclip
1 0 0 -1 0 384 cm q
0.952941 0.917647 0.901961 rg
29.211 19.109 325.578 208.285 re f
0.67451 0.368627 0.180392 rg
123.914 298.004 136.172 29.453 re f
0.619608 0.333333 0.156863 rg
260.086 327.457 m 235.016 327.457 l 226.492 298.004 l 260.086 298.004 l
 h
260.086 327.457 m f
0.843137 0.498039 0.290196 rg
102.684 383.449 m 112.082 385.852 121.656 380.18 124.059 370.777 c 158.07
 237.75 l 124.023 229.047 l 90.012 362.07 l 87.605 371.473 93.281 381.043
 102.684 383.449 c h
102.684 383.449 m f
281.316 383.449 m 271.918 385.852 262.344 380.18 259.941 370.777 c 225.93
 237.75 l 259.977 229.047 l 293.988 362.07 l 296.395 371.473 290.719 381.043
 281.316 383.449 c h
281.316 383.449 m f
0.784314 0.427451 0.211765 rg
158.07 237.75 m 124.059 370.773 l 121.656 380.176 112.086 385.848 102.684
 383.445 c 99.73 382.695 97.141 381.23 95.066 379.285 c 101.445 377.973 
106.836 373.16 108.559 366.426 c 142.477 233.766 l h
158.07 237.75 m f
281.316 383.445 m 277.797 384.348 274.258 384.113 271.078 382.98 c 277.203
 378.984 280.402 371.402 278.488 363.914 c 244.992 232.883 l 259.98 229.047
 l 293.988 362.07 l 296.391 371.473 290.719 381.043 281.316 383.445 c h
281.316 383.445 m f
0.352941 g
358.254 25.48 m 25.746 25.48 l 23.258 25.48 21.246 23.465 21.246 20.98 
c 21.246 4.5 l 21.246 2.016 23.258 0 25.746 0 c 358.254 0 l 360.742 0 362.754
 2.016 362.754 4.5 c 362.754 20.98 l 362.754 23.465 360.742 25.48 358.254
 25.48 c h
358.254 25.48 m f
358.254 246.508 m 25.746 246.508 l 23.258 246.508 21.246 244.492 21.246
 242.008 c 21.246 225.527 l 21.246 223.043 23.258 221.027 25.746 221.027
 c 358.254 221.027 l 360.742 221.027 362.754 223.043 362.754 225.527 c 362.754
 242.008 l 362.754 244.492 360.742 246.508 358.254 246.508 c h
358.254 246.508 m f
0.882353 0.827451 0.807843 rg
339.824 25.48 14.965 195.547 re f
0.541176 0.788235 0.996078 rg
223.625 117.184 m 217.723 126.488 l 215.406 130.148 210.559 131.23 206.902
 128.91 c 156.246 102.469 l 149.93 98.461 141.559 100.336 137.551 106.652
 c 91.691 175.371 l 87.824 181.465 89.633 189.539 95.727 193.406 c 101.82
 197.27 109.891 195.461 113.758 189.367 c 148.652 137.883 l 150.969 134.227
 155.816 133.141 159.473 135.461 c 210.156 161.922 l 216.473 165.93 224.844
 164.055 228.852 157.734 c 269.148 94.199 l 270.59 102.379 l 271.738 108.887
 277.945 113.23 284.453 112.082 c 290.965 110.934 295.309 104.727 294.16
 98.219 c 287.578 60.957 l 286.43 54.449 280.223 50.105 273.715 51.254 c
 236.48 57.824 l 230.254 58.926 225.848 64.949 226.691 71.215 c 227.602 
78.008 233.867 82.59 240.617 81.398 c 247.039 80.266 l h
223.625 117.184 m f
0.376471 0.717647 1 rg
294.16 98.219 m 287.582 60.957 l 286.434 54.449 280.223 50.102 273.715 
51.254 c 273.117 51.355 l 274.262 55.895 275.676 60.375 276.199 65.055 c
 276.73 69.793 279.68 78.305 274.348 81.383 c 271.086 83.27 267.328 81.203
 263.941 83.332 c 260.965 85.203 259.359 87.969 257.512 90.879 c 252.961
 98.047 248.422 105.211 243.883 112.371 c 237.34 122.688 231.18 133.258 
224.254 143.324 c 219.371 150.414 215.32 151.152 205.551 145.75 c 154.867
 119.289 l 151.211 116.969 146.363 118.051 144.043 121.707 c 109.152 174.957
 l 105.281 181.051 97.215 182.855 91.121 178.996 c 90.828 178.805 90.539
 178.609 90.266 178.398 c 88.504 183.922 90.598 190.148 95.727 193.406 c
 97.898 194.785 100.316 195.441 102.711 195.441 c 107.035 195.441 111.266
 193.289 113.754 189.367 c 148.645 137.879 l 150.969 134.227 155.816 133.145
 159.469 135.465 c 210.156 161.922 l 216.469 165.934 224.84 164.055 228.848
 157.738 c 269.145 94.195 l 270.59 102.383 l 271.738 108.887 277.941 113.234
 284.457 112.086 c 290.262 111.062 294.344 106.008 294.344 100.312 c 294.348
 99.617 294.289 98.918 294.16 98.219 c h
294.16 98.219 m f
Q Q
showpage
%%Trailer
end
%%EOF
