%!PS-Adobe-3.0 EPSF-3.0
%%Creator: cairo 1.16.0 (https://cairographics.org)
%%CreationDate: Thu Nov  7 08:25:57 2019
%%Pages: 1
%%DocumentData: Clean7Bit
%%LanguageLevel: 2
%%BoundingBox: 0 0 384 384
%%EndComments
%%BeginProlog
50 dict begin
/q { gsave } bind def
/Q { grestore } bind def
/cm { 6 array astore concat } bind def
/w { setlinewidth } bind def
/J { setlinecap } bind def
/j { setlinejoin } bind def
/M { setmiterlimit } bind def
/d { setdash } bind def
/m { moveto } bind def
/l { lineto } bind def
/c { curveto } bind def
/h { closepath } bind def
/re { exch dup neg 3 1 roll 5 3 roll moveto 0 rlineto
      0 exch rlineto 0 rlineto closepath } bind def
/S { stroke } bind def
/f { fill } bind def
/f* { eofill } bind def
/n { newpath } bind def
/W { clip } bind def
/W* { eoclip } bind def
/BT { } bind def
/ET { } bind def
/BDC { mark 3 1 roll /BDC pdfmark } bind def
/EMC { mark /EMC pdfmark } bind def
/cairo_store_point { /cairo_point_y exch def /cairo_point_x exch def } def
/Tj { show currentpoint cairo_store_point } bind def
/TJ {
  {
    dup
    type /stringtype eq
    { show } { -0.001 mul 0 cairo_font_matrix dtransform rmoveto } ifelse
  } forall
  currentpoint cairo_store_point
} bind def
/cairo_selectfont { cairo_font_matrix aload pop pop pop 0 0 6 array astore
    cairo_font exch selectfont cairo_point_x cairo_point_y moveto } bind def
/Tf { pop /cairo_font exch def /cairo_font_matrix where
      { pop cairo_selectfont } if } bind def
/Td { matrix translate cairo_font_matrix matrix concatmatrix dup
      /cairo_font_matrix exch def dup 4 get exch 5 get cairo_store_point
      /cairo_font where { pop cairo_selectfont } if } bind def
/Tm { 2 copy 8 2 roll 6 array astore /cairo_font_matrix exch def
      cairo_store_point /cairo_font where { pop cairo_selectfont } if } bind def
/g { setgray } bind def
/rg { setrgbcolor } bind def
/d1 { setcachedevice } bind def
/cairo_data_source {
  CairoDataIndex CairoData length lt
    { CairoData CairoDataIndex get /CairoDataIndex CairoDataIndex 1 add def }
    { () } ifelse
} def
/cairo_flush_ascii85_file { cairo_ascii85_file status { cairo_ascii85_file flushfile } if } def
/cairo_image { image cairo_flush_ascii85_file } def
/cairo_imagemask { imagemask cairo_flush_ascii85_file } def
%%EndProlog
%%BeginSetup
%%EndSetup
%%Page: 1 1
%%BeginPageSetup
%%PageBoundingBox: 0 0 384 384
%%EndPageSetup
q 0 0 384 384 rectclip
1 0 0 -1 0 384 cm q
0.984314 0.168627 0.227451 rg
11.852 333.156 m 332.664 333.156 l 339.207 333.156 344.516 327.852 344.516
 321.309 c 344.516 11.93 l 344.516 5.387 339.211 0.082 332.664 0.082 c 11.852
 0.082 l 5.309 0.082 0.004 5.387 0.004 11.93 c 0.004 321.309 l 0.004 327.852
 5.309 333.156 11.852 333.156 c h
11.852 333.156 m f
0.996078 0.756863 0.396078 rg
172.262 166.703 m 172.262 222.188 l 172.262 225.059 169.703 227.23 166.863
 226.812 c 165.742 226.645 164.59 226.559 163.422 226.559 c 150.078 226.559
 139.344 237.777 140.141 251.305 c 140.836 262.988 150.355 272.492 162.039
 273.172 c 163.703 273.266 165.324 273.188 166.895 272.957 c 169.727 272.531
 172.262 274.727 172.262 277.582 c 172.262 333.16 l 11.855 333.16 l 5.312
 333.16 0 327.852 0 321.312 c 0.008 166.535 l 60.219 166.535 l 63.055 166.535
 65.25 164.027 64.848 161.215 c 64.633 159.645 64.562 158.02 64.672 156.355
 c 65.445 144.766 74.887 135.363 86.488 134.656 c 100.035 133.832 111.289
 144.57 111.289 157.941 c 111.289 159.078 111.203 160.199 111.047 161.293
 c 110.645 164.066 112.887 166.535 115.695 166.535 c 172.262 166.535 l h
172.262 166.703 m f
0.568627 0.870588 0.713726 rg
182.477 60.062 m 180.816 59.969 179.195 60.047 177.621 60.281 c 174.797
 60.703 172.258 58.508 172.258 55.652 c 172.258 0.078 l 11.852 0.078 l 5.309
 0.078 0.004 5.383 0.004 11.926 c 0.004 166.531 l 60.215 166.531 l 63.055
 166.531 65.25 164.027 64.852 161.219 c 64.629 159.641 64.566 158.016 64.676
 156.359 c 65.441 144.762 74.887 135.367 86.488 134.656 c 100.035 133.828
 111.285 144.574 111.285 157.941 c 111.285 159.078 111.203 160.195 111.047
 161.289 c 110.645 164.07 112.887 166.531 115.695 166.531 c 172.258 166.531
 l 172.258 111.051 l 172.258 108.18 174.816 106.004 177.656 106.426 c 178.777
 106.594 179.926 106.68 181.094 106.68 c 194.445 106.68 205.176 95.461 204.379
 81.934 c 203.688 70.246 194.164 60.742 182.477 60.062 c h
182.477 60.062 m f
0.541176 0.788235 0.996078 rg
162.043 273.172 m 163.703 273.27 165.324 273.191 166.898 272.953 c 169.723
 272.531 172.258 274.727 172.258 277.586 c 172.258 333.156 l 332.668 333.156
 l 339.211 333.156 344.512 327.852 344.512 321.309 c 344.512 166.703 l 284.301
 166.703 l 281.465 166.703 279.27 169.207 279.668 172.02 c 279.891 173.594
 279.953 175.219 279.844 176.879 c 279.074 188.473 269.629 197.871 258.031
 198.582 c 244.484 199.41 233.234 188.664 233.234 175.293 c 233.234 174.156
 233.316 173.039 233.473 171.945 c 233.875 169.168 231.629 166.703 228.824
 166.703 c 172.258 166.703 l 172.258 222.188 l 172.258 225.059 169.703 227.23
 166.859 226.809 c 165.742 226.645 164.594 226.559 163.426 226.559 c 150.074
 226.559 139.34 237.777 140.141 251.301 c 140.832 262.988 150.355 272.492
 162.043 273.172 c h
162.043 273.172 m f
0.894118 0.121569 0.176471 rg
344.516 11.934 m 344.516 321.312 l 344.516 327.852 339.211 333.16 332.668
 333.16 c 309.469 333.16 l 316.012 333.16 321.316 327.852 321.316 321.312
 c 321.316 11.934 l 321.316 5.383 316.012 0.078 309.469 0.078 c 332.66 0.078
 l 339.211 0.078 344.516 5.383 344.516 11.934 c h
344.516 11.934 m f
0.376471 0.717647 1 rg
344.516 166.703 m 344.516 321.312 l 344.516 327.852 339.211 333.16 332.668
 333.16 c 309.469 333.16 l 316.012 333.16 321.316 327.852 321.316 321.312
 c 321.316 166.703 l h
344.516 166.703 m f
0.611765 g
384 314.402 m 384 298.492 l 384 295.895 381.895 293.785 379.293 293.785
 c 367.215 293.785 l 365.855 293.785 364.66 292.875 364.32 291.559 c 362.914
 286.078 360.75 280.902 357.945 276.148 c 357.246 274.965 357.418 273.461
 358.391 272.488 c 366.934 263.945 l 368.77 262.109 368.77 259.129 366.934
 257.289 c 355.684 246.043 l 353.848 244.203 350.867 244.203 349.031 246.043
 c 340.488 254.586 l 339.516 255.559 338.008 255.73 336.824 255.031 c 332.07
 252.223 326.895 250.059 321.414 248.652 c 320.102 248.316 319.188 247.117
 319.188 245.762 c 319.188 233.68 l 319.188 231.082 317.082 228.977 314.484
 228.977 c 298.574 228.977 l 295.977 228.977 293.867 231.082 293.867 233.68
 c 293.867 245.762 l 293.867 247.117 292.957 248.316 291.641 248.652 c 286.16
 250.059 280.984 252.223 276.23 255.031 c 275.047 255.73 273.543 255.559
 272.57 254.586 c 264.027 246.043 l 262.191 244.203 259.211 244.203 257.371
 246.043 c 246.125 257.289 l 244.285 259.129 244.285 262.109 246.125 263.945
 c 254.668 272.488 l 255.641 273.461 255.812 274.965 255.113 276.148 c 252.305
 280.902 250.141 286.078 248.734 291.559 c 248.398 292.875 247.199 293.785
 245.844 293.785 c 233.762 293.785 l 231.164 293.785 229.059 295.895 229.059
 298.492 c 229.059 314.402 l 229.059 317 231.164 319.105 233.762 319.105
 c 245.844 319.105 l 247.199 319.105 248.398 320.02 248.734 321.332 c 250.141
 326.812 252.305 331.992 255.113 336.742 c 255.812 337.93 255.641 339.434
 254.668 340.406 c 246.125 348.949 l 244.285 350.785 244.285 353.766 246.125
 355.602 c 257.371 366.852 l 259.211 368.688 262.191 368.688 264.027 366.852
 c 272.57 358.309 l 273.543 357.336 275.047 357.164 276.23 357.863 c 280.984
 360.668 286.16 362.832 291.641 364.242 c 292.957 364.578 293.867 365.773
 293.867 367.133 c 293.867 379.211 l 293.867 381.812 295.977 383.918 298.574
 383.918 c 314.484 383.918 l 317.082 383.918 319.188 381.812 319.188 379.211
 c 319.188 367.133 l 319.188 365.773 320.102 364.578 321.414 364.242 c 326.895
 362.832 332.07 360.668 336.824 357.863 c 338.012 357.164 339.516 357.336
 340.488 358.309 c 349.031 366.852 l 350.867 368.688 353.848 368.688 355.684
 366.852 c 366.934 355.602 l 368.77 353.766 368.77 350.785 366.934 348.949
 c 358.391 340.406 l 357.418 339.434 357.246 337.926 357.945 336.742 c 360.75
 331.992 362.914 326.812 364.32 321.332 c 364.66 320.02 365.855 319.105 
367.215 319.105 c 379.293 319.105 l 381.895 319.105 384 317 384 314.402 
c h
384 314.402 m f
0.513726 g
383.996 298.492 m 383.996 314.398 l 383.996 316.996 381.891 319.105 379.293
 319.105 c 367.215 319.105 l 365.855 319.105 364.656 320.016 364.32 321.332
 c 363.445 324.758 362.27 328.066 360.828 331.227 c 360.535 331.855 360.238
 332.484 359.926 333.102 c 359.773 333.414 359.613 333.723 359.453 334.027
 c 358.977 334.945 358.473 335.852 357.949 336.746 c 357.91 336.805 357.879
 336.867 357.848 336.93 c 357.781 337.051 357.73 337.18 357.688 337.309 
c 357.641 337.434 357.609 337.562 357.578 337.695 c 357.387 338.66 357.668
 339.684 358.391 340.402 c 366.934 348.949 l 368.773 350.789 368.773 353.762
 366.934 355.602 c 355.684 366.852 l 353.844 368.691 350.871 368.691 349.031
 366.852 c 340.484 358.305 l 339.66 357.484 338.453 357.234 337.383 357.605
 c 337.262 357.648 337.133 357.707 337.012 357.766 c 337.012 357.766 337.004
 357.758 337.004 357.766 c 336.941 357.797 336.883 357.836 336.828 357.867
 c 335.934 358.391 335.027 358.895 334.109 359.371 c 333.801 359.523 333.496
 359.684 333.184 359.844 c 332.562 360.156 331.938 360.457 331.305 360.746
 c 328.145 362.188 324.84 363.363 321.414 364.242 c 320.098 364.574 319.184
 365.773 319.184 367.133 c 319.184 379.211 l 319.184 380.508 318.66 381.68
 317.805 382.535 c 316.957 383.387 315.777 383.914 314.48 383.914 c 298.574
 383.922 l 298.551 383.922 l 295.965 383.906 293.863 381.801 293.863 379.211
 c 293.863 375.77 l 297.801 375.801 306.516 375.871 306.527 375.871 c 308.91
 375.891 309.801 374.664 309.879 372.461 c 309.98 369.508 309.969 361.676
 309.969 361.676 c 309.941 360.414 310.012 359.148 310.516 357.98 c 311.164
 356.48 312.777 355.32 314.176 354.555 c 315.648 353.742 317.328 353.41 
318.938 352.945 c 321.578 352.18 324.379 351.48 326.945 350.352 c 335.359
 346.633 343.031 342.156 348.176 334.637 c 348.73 333.828 349.254 332.977
 349.746 332.09 c 350.668 330.449 351.508 328.766 352.262 327.043 c 353.754
 323.602 354.891 320.008 355.566 316.32 c 357.094 308.086 356.281 298.363
 353.055 290.559 c 351.516 286.832 349.625 283.34 347.871 279.703 c 346.953
 277.801 346.371 275.762 346.676 273.637 c 347.035 271.191 348.789 269.316
 350.559 267.758 c 351.676 266.777 352.672 265.641 353.812 264.664 c 356.125
 262.68 358.547 260.82 360.711 258.664 c 362.438 256.945 363.547 254.305
 362.078 252.434 c 366.934 257.289 l 368.773 259.121 368.773 262.102 366.934
 263.941 c 358.391 272.488 l 357.668 273.211 357.387 274.23 357.578 275.195
 c 357.609 275.328 357.641 275.457 357.688 275.582 c 357.73 275.711 357.781
 275.84 357.848 275.961 c 357.879 276.023 357.91 276.086 357.949 276.145
 c 358.473 277.039 358.977 277.945 359.453 278.863 c 359.613 279.168 359.773
 279.477 359.926 279.789 c 360.238 280.406 360.535 281.035 360.828 281.664
 c 362.27 284.824 363.445 288.133 364.32 291.555 c 364.445 292.051 364.695
 292.484 365.027 292.844 c 365.301 293.137 365.641 293.371 366.008 293.531
 c 366.379 293.695 366.789 293.785 367.215 293.785 c 379.293 293.785 l 381.891
 293.789 383.996 295.895 383.996 298.492 c h
383.996 298.492 m f
0.952941 0.917647 0.901961 rg
338.59 306.445 m 338.59 324.152 324.234 338.508 306.527 338.508 c 288.82
 338.508 274.465 324.152 274.465 306.445 c 274.465 288.738 288.82 274.383
 306.527 274.383 c 324.234 274.383 338.59 288.738 338.59 306.445 c h
338.59 306.445 m f
Q Q
showpage
%%Trailer
end
%%EOF
