%!PS-Adobe-3.0 EPSF-3.0
%%Creator: cairo 1.16.0 (https://cairographics.org)
%%CreationDate: Thu Nov  7 08:25:57 2019
%%Pages: 1
%%DocumentData: Clean7Bit
%%LanguageLevel: 2
%%BoundingBox: 19 0 365 384
%%EndComments
%%BeginProlog
50 dict begin
/q { gsave } bind def
/Q { grestore } bind def
/cm { 6 array astore concat } bind def
/w { setlinewidth } bind def
/J { setlinecap } bind def
/j { setlinejoin } bind def
/M { setmiterlimit } bind def
/d { setdash } bind def
/m { moveto } bind def
/l { lineto } bind def
/c { curveto } bind def
/h { closepath } bind def
/re { exch dup neg 3 1 roll 5 3 roll moveto 0 rlineto
      0 exch rlineto 0 rlineto closepath } bind def
/S { stroke } bind def
/f { fill } bind def
/f* { eofill } bind def
/n { newpath } bind def
/W { clip } bind def
/W* { eoclip } bind def
/BT { } bind def
/ET { } bind def
/BDC { mark 3 1 roll /BDC pdfmark } bind def
/EMC { mark /EMC pdfmark } bind def
/cairo_store_point { /cairo_point_y exch def /cairo_point_x exch def } def
/Tj { show currentpoint cairo_store_point } bind def
/TJ {
  {
    dup
    type /stringtype eq
    { show } { -0.001 mul 0 cairo_font_matrix dtransform rmoveto } ifelse
  } forall
  currentpoint cairo_store_point
} bind def
/cairo_selectfont { cairo_font_matrix aload pop pop pop 0 0 6 array astore
    cairo_font exch selectfont cairo_point_x cairo_point_y moveto } bind def
/Tf { pop /cairo_font exch def /cairo_font_matrix where
      { pop cairo_selectfont } if } bind def
/Td { matrix translate cairo_font_matrix matrix concatmatrix dup
      /cairo_font_matrix exch def dup 4 get exch 5 get cairo_store_point
      /cairo_font where { pop cairo_selectfont } if } bind def
/Tm { 2 copy 8 2 roll 6 array astore /cairo_font_matrix exch def
      cairo_store_point /cairo_font where { pop cairo_selectfont } if } bind def
/g { setgray } bind def
/rg { setrgbcolor } bind def
/d1 { setcachedevice } bind def
/cairo_data_source {
  CairoDataIndex CairoData length lt
    { CairoData CairoDataIndex get /CairoDataIndex CairoDataIndex 1 add def }
    { () } ifelse
} def
/cairo_flush_ascii85_file { cairo_ascii85_file status { cairo_ascii85_file flushfile } if } def
/cairo_image { image cairo_flush_ascii85_file } def
/cairo_imagemask { imagemask cairo_flush_ascii85_file } def
%%EndProlog
%%BeginSetup
%%EndSetup
%%Page: 1 1
%%BeginPageSetup
%%PageBoundingBox: 19 0 365 384
%%EndPageSetup
q 19 0 346 384 rectclip
1 0 0 -1 0 384 cm q
0.611765 g
192.238 384 m 173.941 384 159.109 369.168 159.109 350.871 c 159.109 349.137
 l 225.371 349.137 l 225.371 350.871 l 225.371 369.168 210.539 384 192.238
 384 c h
192.238 384 m f
0.996078 0.756863 0.396078 rg
192 36.828 m 185.309 36.828 179.883 31.402 179.883 24.711 c 179.883 12.117
 l 179.883 5.426 185.309 0 192 0 c 198.691 0 204.117 5.426 204.117 12.117
 c 204.117 24.711 l 204.117 31.402 198.691 36.828 192 36.828 c h
192 36.828 m f
123.949 55.062 m 118.152 58.406 110.742 56.422 107.395 50.625 c 101.102
 39.723 l 97.754 33.926 99.738 26.516 105.535 23.168 c 111.332 19.824 118.742
 21.809 122.09 27.605 c 128.383 38.508 l 131.73 44.305 129.742 51.715 123.949
 55.062 c h
123.949 55.062 m f
74.133 104.879 m 70.785 110.672 63.375 112.66 57.578 109.312 c 46.672 103.02
 l 40.879 99.672 38.891 92.262 42.238 86.465 c 45.582 80.672 52.996 78.684
 58.789 82.031 c 69.695 88.324 l 75.492 91.672 77.477 99.082 74.133 104.879
 c h
74.133 104.879 m f
55.898 172.93 m 55.898 179.621 50.473 185.047 43.781 185.047 c 31.188 185.047
 l 24.496 185.047 19.07 179.621 19.07 172.93 c 19.07 166.238 24.496 160.812
 31.188 160.812 c 43.781 160.812 l 50.473 160.812 55.898 166.238 55.898 
172.93 c h
55.898 172.93 m f
364.93 172.93 m 364.93 179.621 359.504 185.047 352.812 185.047 c 340.223
 185.047 l 333.527 185.047 328.105 179.621 328.105 172.93 c 328.105 166.238
 333.527 160.812 340.223 160.812 c 352.812 160.812 l 359.504 160.812 364.93
 166.238 364.93 172.93 c h
364.93 172.93 m f
341.762 86.465 m 345.109 92.262 343.121 99.672 337.328 103.02 c 326.422
 109.312 l 320.625 112.66 313.215 110.676 309.867 104.879 c 306.523 99.082
 308.508 91.672 314.305 88.324 c 325.211 82.031 l 331.004 78.684 338.414
 80.668 341.762 86.465 c h
341.762 86.465 m f
278.465 23.168 m 284.262 26.516 286.246 33.926 282.902 39.723 c 276.605
 50.625 l 273.258 56.422 265.848 58.406 260.051 55.062 c 254.258 51.715 
252.27 44.305 255.617 38.508 c 261.914 27.605 l 265.258 21.809 272.668 19.824
 278.465 23.168 c h
278.465 23.168 m f
0.266667 g
223.066 324.016 m 221.219 324.016 l 221.664 324.016 222.102 323.984 222.527
 323.922 c 222.707 323.945 222.887 323.984 223.066 324.016 c h
223.066 324.016 m f
223.066 323.828 m 222.887 323.859 222.707 323.898 222.527 323.922 c 222.102
 323.859 221.664 323.828 221.219 323.828 c h
223.066 323.828 m f
0.996078 0.65098 0.0745098 rg
293.156 160.465 m 293.156 104.73 247.973 59.551 192.238 59.551 c 136.508
 59.551 91.324 104.73 91.324 160.465 c 91.324 172.656 93.766 184.773 98.215
 196.109 c 100.477 201.879 103.254 207.445 106.453 212.75 c 108.125 215.527
 109.914 218.234 111.812 220.867 c 122.914 236.266 133.832 252.184 144.332
 268.332 c 148.047 274.047 150.023 280.715 150.023 287.531 c 150.023 296.098
 l 234.457 296.098 l 234.457 286.977 l 234.457 280.363 236.301 273.875 239.824
 268.281 c 247.324 256.375 255.492 244.898 263.789 233.535 c 272.797 221.199
 282.492 208.172 287.559 193.566 c 291.242 182.941 293.156 171.711 293.156
 160.465 c h
293.156 160.465 m f
0.996078 0.6 0.00392157 rg
293.16 160.469 m 293.16 171.707 291.242 182.941 287.559 193.566 c 282.496
 208.172 272.797 221.195 263.793 233.535 c 255.496 244.902 247.324 256.375
 239.828 268.277 c 236.301 273.879 234.453 280.359 234.453 286.977 c 234.453
 296.098 l 218.586 296.098 l 218.586 286.977 l 218.586 280.359 220.434 273.879
 223.961 268.277 c 231.457 256.375 239.629 244.902 247.922 233.535 c 256.93
 221.195 266.629 208.172 271.691 193.566 c 275.375 182.941 277.293 171.707
 277.293 160.469 c 277.293 107.402 236.34 63.902 184.312 59.859 c 186.93
 59.652 189.57 59.551 192.242 59.551 c 247.977 59.551 293.16 104.73 293.16
 160.469 c h
293.16 160.469 m f
0.996078 0.756863 0.396078 rg
232.621 228.055 m 230.301 225.988 226.742 226.199 224.68 228.52 c 217.035
 237.121 l 208.383 230.824 l 206.41 229.391 203.738 229.391 201.766 230.828
 c 192.23 237.766 l 182.695 230.828 l 180.723 229.391 178.047 229.391 176.074
 230.828 c 167.438 237.113 l 159.801 228.52 l 157.734 226.199 154.18 225.988
 151.859 228.055 c 149.535 230.117 149.328 233.672 151.391 235.996 c 161.719
 247.613 l 161.805 247.754 161.895 247.898 161.996 248.035 c 162.32 248.48
 162.695 248.859 163.109 249.176 c 171.527 258.648 l 171.527 296.094 l 171.527
 299.203 174.047 301.719 177.152 301.719 c 180.258 301.719 182.777 299.203
 182.777 296.094 c 182.777 256.508 l 182.777 255.129 182.273 253.801 181.355
 252.773 c 174.949 245.562 l 179.387 242.332 l 188.922 249.273 l 190.898
 250.711 193.57 250.707 195.543 249.273 c 205.078 242.332 l 209.527 245.57
 l 203.125 252.773 l 202.207 253.801 201.703 255.133 201.703 256.508 c 201.703
 296.094 l 201.703 299.203 204.219 301.719 207.328 301.719 c 210.434 301.719
 212.953 299.203 212.953 296.094 c 212.953 258.648 l 221.406 249.137 l 221.801
 248.824 222.164 248.461 222.477 248.035 c 222.566 247.91 222.645 247.781
 222.723 247.652 c 233.09 235.992 l 235.152 233.672 234.945 230.117 232.621
 228.055 c h
232.621 228.055 m f
0.352941 g
236.309 351.859 m 148.172 351.859 l 143.203 351.859 139.176 347.832 139.176
 342.863 c 139.176 332.824 l 139.176 327.855 143.203 323.828 148.172 323.828
 c 236.309 323.828 l 241.277 323.828 245.305 327.855 245.305 332.824 c 245.305
 342.863 l 245.305 347.832 241.277 351.859 236.309 351.859 c h
236.309 351.859 m f
236.309 324.016 m 148.172 324.016 l 143.203 324.016 139.176 319.988 139.176
 315.02 c 139.176 304.98 l 139.176 300.012 143.203 295.984 148.172 295.984
 c 236.309 295.984 l 241.277 295.984 245.305 300.012 245.305 304.98 c 245.305
 315.02 l 245.305 319.988 241.277 324.016 236.309 324.016 c h
236.309 324.016 m f
0.266667 g
245.305 332.824 m 245.305 342.867 l 245.305 347.836 241.277 351.863 236.309
 351.863 c 221.219 351.863 l 226.191 351.863 230.219 347.836 230.219 342.867
 c 230.219 332.824 l 230.219 328.488 227.148 324.871 223.066 324.016 c 221.219
 324.016 l 221.664 324.016 222.102 323.984 222.527 323.922 c 222.102 323.859
 221.664 323.828 221.219 323.828 c 236.309 323.828 l 236.754 323.828 237.188
 323.859 237.617 323.922 c 241.965 324.551 245.305 328.301 245.305 332.824
 c h
245.305 332.824 m f
245.305 304.977 m 245.305 315.016 l 245.305 319.543 241.965 323.289 237.617
 323.922 c 237.191 323.984 236.754 324.016 236.309 324.016 c 221.219 324.016
 l 221.664 324.016 222.102 323.984 222.527 323.922 c 222.102 323.859 221.664
 323.828 221.219 323.828 c 223.066 323.828 l 227.148 322.969 230.219 319.355
 230.219 315.016 c 230.219 304.977 l 230.219 300.016 226.191 295.988 221.223
 295.988 c 236.309 295.988 l 241.277 295.988 245.305 300.016 245.305 304.977
 c h
245.305 304.977 m f
Q Q
showpage
%%Trailer
end
%%EOF
