%!PS-Adobe-3.0 EPSF-3.0
%%Creator: cairo 1.16.0 (https://cairographics.org)
%%CreationDate: Thu Nov  7 08:25:57 2019
%%Pages: 1
%%DocumentData: Clean7Bit
%%LanguageLevel: 2
%%BoundingBox: 0 9 384 375
%%EndComments
%%BeginProlog
50 dict begin
/q { gsave } bind def
/Q { grestore } bind def
/cm { 6 array astore concat } bind def
/w { setlinewidth } bind def
/J { setlinecap } bind def
/j { setlinejoin } bind def
/M { setmiterlimit } bind def
/d { setdash } bind def
/m { moveto } bind def
/l { lineto } bind def
/c { curveto } bind def
/h { closepath } bind def
/re { exch dup neg 3 1 roll 5 3 roll moveto 0 rlineto
      0 exch rlineto 0 rlineto closepath } bind def
/S { stroke } bind def
/f { fill } bind def
/f* { eofill } bind def
/n { newpath } bind def
/W { clip } bind def
/W* { eoclip } bind def
/BT { } bind def
/ET { } bind def
/BDC { mark 3 1 roll /BDC pdfmark } bind def
/EMC { mark /EMC pdfmark } bind def
/cairo_store_point { /cairo_point_y exch def /cairo_point_x exch def } def
/Tj { show currentpoint cairo_store_point } bind def
/TJ {
  {
    dup
    type /stringtype eq
    { show } { -0.001 mul 0 cairo_font_matrix dtransform rmoveto } ifelse
  } forall
  currentpoint cairo_store_point
} bind def
/cairo_selectfont { cairo_font_matrix aload pop pop pop 0 0 6 array astore
    cairo_font exch selectfont cairo_point_x cairo_point_y moveto } bind def
/Tf { pop /cairo_font exch def /cairo_font_matrix where
      { pop cairo_selectfont } if } bind def
/Td { matrix translate cairo_font_matrix matrix concatmatrix dup
      /cairo_font_matrix exch def dup 4 get exch 5 get cairo_store_point
      /cairo_font where { pop cairo_selectfont } if } bind def
/Tm { 2 copy 8 2 roll 6 array astore /cairo_font_matrix exch def
      cairo_store_point /cairo_font where { pop cairo_selectfont } if } bind def
/g { setgray } bind def
/rg { setrgbcolor } bind def
/d1 { setcachedevice } bind def
/cairo_data_source {
  CairoDataIndex CairoData length lt
    { CairoData CairoDataIndex get /CairoDataIndex CairoDataIndex 1 add def }
    { () } ifelse
} def
/cairo_flush_ascii85_file { cairo_ascii85_file status { cairo_ascii85_file flushfile } if } def
/cairo_image { image cairo_flush_ascii85_file } def
/cairo_imagemask { imagemask cairo_flush_ascii85_file } def
%%EndProlog
%%BeginSetup
%%EndSetup
%%Page: 1 1
%%BeginPageSetup
%%PageBoundingBox: 0 9 384 375
%%EndPageSetup
q 0 9 384 366 rectclip
1 0 0 -1 0 384 cm q
0.952941 0.917647 0.901961 rg
373.145 374.883 m 10.855 374.883 l 4.859 374.883 0 370.023 0 364.027 c 
0 89.348 l 384 89.348 l 384 364.027 l 384 370.023 379.141 374.883 373.145
 374.883 c h
373.145 374.883 m f
0.541176 0.788235 0.996078 rg
384 96.945 m 0 96.945 l 0 48.449 l 0 42.453 4.859 37.594 10.855 37.594 
c 373.145 37.594 l 379.141 37.594 384 42.453 384 48.449 c h
384 96.945 m f
0.882353 0.827451 0.807843 rg
383.996 96.941 m 383.996 364.023 l 383.996 370.02 379.145 374.883 373.145
 374.883 c 357.711 374.883 l 363.707 374.883 368.562 370.02 368.562 364.023
 c 366.816 96.941 l h
383.996 96.941 m f
0.376471 0.717647 1 rg
383.996 48.449 m 383.996 96.941 l 366.816 96.941 l 366.816 48.449 l 366.816
 42.453 361.961 37.59 355.965 37.59 c 373.145 37.59 l 379.145 37.59 383.996
 42.453 383.996 48.449 c h
383.996 48.449 m f
0.611765 g
57.699 64.688 m 50.879 64.688 45.348 59.156 45.348 52.336 c 45.348 21.465
 l 45.348 14.645 50.879 9.117 57.699 9.117 c 64.52 9.117 70.047 14.645 70.047
 21.465 c 70.047 52.336 l 70.047 59.156 64.52 64.688 57.699 64.688 c h
57.699 64.688 m f
124.848 64.688 m 118.027 64.688 112.5 59.156 112.5 52.336 c 112.5 21.465
 l 112.5 14.645 118.027 9.117 124.848 9.117 c 131.668 9.117 137.199 14.645
 137.199 21.465 c 137.199 52.336 l 137.199 59.156 131.668 64.688 124.848
 64.688 c h
124.848 64.688 m f
192 64.688 m 185.18 64.688 179.652 59.156 179.652 52.336 c 179.652 21.465
 l 179.652 14.645 185.18 9.117 192 9.117 c 198.82 9.117 204.348 14.645 204.348
 21.465 c 204.348 52.336 l 204.348 59.156 198.82 64.688 192 64.688 c h
192 64.688 m f
259.152 64.688 m 252.332 64.688 246.801 59.156 246.801 52.336 c 246.801
 21.465 l 246.801 14.645 252.332 9.117 259.152 9.117 c 265.973 9.117 271.5
 14.645 271.5 21.465 c 271.5 52.336 l 271.5 59.156 265.973 64.688 259.152
 64.688 c h
259.152 64.688 m f
326.301 64.688 m 319.48 64.688 313.953 59.156 313.953 52.336 c 313.953 
21.465 l 313.953 14.645 319.48 9.117 326.301 9.117 c 333.121 9.117 338.652
 14.645 338.652 21.465 c 338.652 52.336 l 338.652 59.156 333.121 64.688 
326.301 64.688 c h
326.301 64.688 m f
0.513726 g
70.043 21.465 m 70.043 52.34 l 70.043 59.156 64.52 64.688 57.695 64.688
 c 55.449 64.688 53.344 64.086 51.531 63.027 c 55.219 60.891 57.695 56.898
 57.695 52.34 c 57.695 21.465 l 57.695 18.055 56.316 14.969 54.078 12.738
 c 53.32 11.98 52.465 11.316 51.531 10.777 c 53.344 9.719 55.449 9.117 57.695
 9.117 c 61.109 9.117 64.195 10.5 66.426 12.738 c 68.664 14.969 70.043 18.055
 70.043 21.465 c h
70.043 21.465 m f
137.203 21.465 m 137.203 52.34 l 137.203 59.156 131.668 64.688 124.852 
64.688 c 122.598 64.688 120.492 64.086 118.68 63.027 c 122.367 60.898 124.852
 56.906 124.852 52.34 c 124.852 21.465 l 124.852 18.055 123.473 14.969 121.234
 12.738 c 120.477 11.973 119.613 11.309 118.68 10.777 c 120.492 9.719 122.598
 9.117 124.852 9.117 c 128.266 9.117 131.352 10.5 133.582 12.738 c 135.82
 14.969 137.203 18.055 137.203 21.465 c h
137.203 21.465 m f
204.348 21.465 m 204.348 52.34 l 204.348 59.156 198.824 64.688 192 64.688
 c 189.746 64.688 187.641 64.086 185.824 63.027 c 189.516 60.898 192 56.906
 192 52.34 c 192 21.465 l 192 18.055 190.617 14.969 188.387 12.738 c 187.625
 11.973 186.766 11.309 185.824 10.777 c 187.641 9.719 189.746 9.117 192 
9.117 c 195.41 9.117 198.5 10.5 200.738 12.738 c 202.969 14.969 204.348 
18.055 204.348 21.465 c h
204.348 21.465 m f
271.496 21.465 m 271.496 52.34 l 271.496 59.156 265.973 64.688 259.148 
64.688 c 256.895 64.688 254.789 64.086 252.973 63.027 c 256.664 60.898 259.148
 56.906 259.148 52.34 c 259.148 21.465 l 259.148 18.055 257.766 14.969 255.535
 12.738 c 254.773 11.973 253.914 11.309 252.973 10.777 c 254.785 9.719 256.895
 9.117 259.148 9.117 c 262.559 9.117 265.648 10.5 267.887 12.738 c 270.117
 14.969 271.496 18.055 271.496 21.465 c h
271.496 21.465 m f
338.652 21.465 m 338.652 52.34 l 338.652 59.156 333.121 64.688 326.305 
64.688 c 324.051 64.688 321.945 64.086 320.129 63.027 c 323.82 60.891 326.305
 56.898 326.305 52.34 c 326.305 21.465 l 326.305 18.055 324.922 14.969 322.684
 12.738 c 321.93 11.98 321.066 11.316 320.129 10.777 c 321.945 9.719 324.051
 9.117 326.305 9.117 c 329.711 9.117 332.797 10.5 335.035 12.738 c 337.273
 14.969 338.652 18.055 338.652 21.465 c h
338.652 21.465 m f
0.996078 0.756863 0.396078 rg
344.664 338.512 m 39.336 338.512 l 35.148 338.512 31.754 335.117 31.754
 330.93 c 31.754 140.898 l 31.754 136.711 35.148 133.316 39.336 133.316 
c 344.664 133.316 l 348.852 133.316 352.246 136.711 352.246 140.898 c 352.246
 330.93 l 352.246 335.117 348.852 338.512 344.664 338.512 c h
344.664 338.512 m f
0.992157 0.705882 0.254902 rg
352.246 140.898 m 352.246 330.93 l 352.246 335.117 348.848 338.516 344.664
 338.516 c 331.613 338.516 l 335.797 338.516 339.195 335.117 339.195 330.93
 c 339.195 140.898 l 339.195 136.707 335.797 133.32 331.613 133.32 c 344.664
 133.32 l 348.848 133.32 352.246 136.707 352.246 140.898 c h
352.246 140.898 m f
0.996078 0.65098 0.0745098 rg
352.246 178.039 m 352.246 166.461 l 304.301 166.461 l 304.301 133.32 l 
292.723 133.32 l 292.723 166.461 l 251.043 166.461 l 251.043 133.32 l 239.469
 133.32 l 239.469 166.461 l 197.789 166.461 l 197.789 133.32 l 186.211 133.32
 l 186.211 166.461 l 144.535 166.461 l 144.535 133.32 l 132.957 133.32 l
 132.957 166.461 l 91.277 166.461 l 91.277 133.32 l 79.703 133.32 l 79.703
 166.461 l 31.754 166.461 l 31.754 178.039 l 79.699 178.039 l 79.699 208.902
 l 31.754 208.902 l 31.754 220.48 l 79.699 220.48 l 79.699 251.344 l 31.754
 251.344 l 31.754 262.922 l 79.699 262.922 l 79.699 293.785 l 31.754 293.785
 l 31.754 305.363 l 79.699 305.363 l 79.699 338.516 l 91.277 338.516 l 91.277
 305.363 l 132.957 305.363 l 132.957 338.516 l 144.531 338.516 l 144.531
 305.363 l 186.211 305.363 l 186.211 338.516 l 197.789 338.516 l 197.789
 305.363 l 239.465 305.363 l 239.465 338.516 l 251.043 338.516 l 251.043
 305.363 l 292.723 305.363 l 292.723 338.516 l 304.297 338.516 l 304.297
 305.363 l 352.242 305.363 l 352.242 293.785 l 304.297 293.785 l 304.297
 262.922 l 352.242 262.922 l 352.242 251.344 l 304.297 251.344 l 304.297
 220.48 l 352.242 220.48 l 352.242 208.902 l 304.297 208.902 l 304.297 178.039
 l h
132.957 293.785 m 91.277 293.785 l 91.277 262.922 l 132.957 262.922 l h
132.957 251.344 m 91.277 251.344 l 91.277 220.48 l 132.957 220.48 l h
132.957 208.902 m 91.277 208.902 l 91.277 178.039 l 132.957 178.039 l h
186.211 293.785 m 144.535 293.785 l 144.535 262.922 l 186.211 262.922 l
 h
186.211 251.344 m 144.535 251.344 l 144.535 220.48 l 186.211 220.48 l h
186.211 208.902 m 144.535 208.902 l 144.535 178.039 l 186.211 178.039 l
 h
239.465 293.785 m 197.789 293.785 l 197.789 262.922 l 239.465 262.922 l
 h
239.465 251.344 m 197.789 251.344 l 197.789 220.48 l 239.465 220.48 l h
239.465 208.902 m 197.789 208.902 l 197.789 178.039 l 239.465 178.039 l
 h
292.723 293.785 m 251.043 293.785 l 251.043 262.922 l 292.723 262.922 l
 h
292.723 251.344 m 251.043 251.344 l 251.043 220.48 l 292.723 220.48 l h
292.723 208.902 m 251.043 208.902 l 251.043 178.039 l 292.723 178.039 l
 h
292.723 208.902 m f
Q Q
showpage
%%Trailer
end
%%EOF
