%!PS-Adobe-3.0 EPSF-3.0
%%Creator: cairo 1.16.0 (https://cairographics.org)
%%CreationDate: Thu Nov  7 08:25:57 2019
%%Pages: 1
%%DocumentData: Clean7Bit
%%LanguageLevel: 2
%%BoundingBox: 30 0 354 384
%%EndComments
%%BeginProlog
50 dict begin
/q { gsave } bind def
/Q { grestore } bind def
/cm { 6 array astore concat } bind def
/w { setlinewidth } bind def
/J { setlinecap } bind def
/j { setlinejoin } bind def
/M { setmiterlimit } bind def
/d { setdash } bind def
/m { moveto } bind def
/l { lineto } bind def
/c { curveto } bind def
/h { closepath } bind def
/re { exch dup neg 3 1 roll 5 3 roll moveto 0 rlineto
      0 exch rlineto 0 rlineto closepath } bind def
/S { stroke } bind def
/f { fill } bind def
/f* { eofill } bind def
/n { newpath } bind def
/W { clip } bind def
/W* { eoclip } bind def
/BT { } bind def
/ET { } bind def
/BDC { mark 3 1 roll /BDC pdfmark } bind def
/EMC { mark /EMC pdfmark } bind def
/cairo_store_point { /cairo_point_y exch def /cairo_point_x exch def } def
/Tj { show currentpoint cairo_store_point } bind def
/TJ {
  {
    dup
    type /stringtype eq
    { show } { -0.001 mul 0 cairo_font_matrix dtransform rmoveto } ifelse
  } forall
  currentpoint cairo_store_point
} bind def
/cairo_selectfont { cairo_font_matrix aload pop pop pop 0 0 6 array astore
    cairo_font exch selectfont cairo_point_x cairo_point_y moveto } bind def
/Tf { pop /cairo_font exch def /cairo_font_matrix where
      { pop cairo_selectfont } if } bind def
/Td { matrix translate cairo_font_matrix matrix concatmatrix dup
      /cairo_font_matrix exch def dup 4 get exch 5 get cairo_store_point
      /cairo_font where { pop cairo_selectfont } if } bind def
/Tm { 2 copy 8 2 roll 6 array astore /cairo_font_matrix exch def
      cairo_store_point /cairo_font where { pop cairo_selectfont } if } bind def
/g { setgray } bind def
/rg { setrgbcolor } bind def
/d1 { setcachedevice } bind def
/cairo_data_source {
  CairoDataIndex CairoData length lt
    { CairoData CairoDataIndex get /CairoDataIndex CairoDataIndex 1 add def }
    { () } ifelse
} def
/cairo_flush_ascii85_file { cairo_ascii85_file status { cairo_ascii85_file flushfile } if } def
/cairo_image { image cairo_flush_ascii85_file } def
/cairo_imagemask { imagemask cairo_flush_ascii85_file } def
%%EndProlog
%%BeginSetup
%%EndSetup
%%Page: 1 1
%%BeginPageSetup
%%PageBoundingBox: 30 0 354 384
%%EndPageSetup
q 30 0 324 384 rectclip
1 0 0 -1 0 384 cm q
0.952941 0.917647 0.901961 rg
30.617 56.652 m 30.617 369.453 l 30.617 377.488 37.129 384 45.164 384 c
 290.219 384 l 298.25 384 304.766 377.488 304.766 369.453 c 304.766 14.547
 l 304.766 6.512 298.254 0 290.219 0 c 90.684 0 l h
30.617 56.652 m f
0.882353 0.827451 0.807843 rg
304.762 14.543 m 304.762 369.453 l 304.762 377.484 298.25 384 290.219 384
 c 272.211 384 l 280.25 384 286.766 377.484 286.766 369.453 c 286.766 14.543
 l 286.766 6.516 280.25 0 272.211 0 c 290.219 0 l 298.25 0 304.762 6.516
 304.762 14.543 c h
304.762 14.543 m f
0.803922 0.74902 0.729412 rg
30.617 56.652 m 76.137 56.652 l 84.172 56.652 90.684 50.141 90.684 42.105
 c 90.684 0 l h
30.617 56.652 m f
274.816 98.371 m 60.566 98.371 l 57.461 98.371 54.941 95.852 54.941 92.746
 c 54.941 89.637 57.461 87.121 60.566 87.121 c 274.816 87.121 l 277.922 
87.121 280.441 89.637 280.441 92.746 c 280.441 95.852 277.922 98.371 274.816
 98.371 c h
274.816 98.371 m f
127.473 128.199 m 60.566 128.199 l 57.461 128.199 54.941 125.68 54.941 
122.574 c 54.941 119.465 57.461 116.949 60.566 116.949 c 127.473 116.949
 l 130.578 116.949 133.098 119.465 133.098 122.574 c 133.098 125.68 130.578
 128.199 127.473 128.199 c h
127.473 128.199 m f
103.492 158.023 m 60.566 158.023 l 57.461 158.023 54.941 155.508 54.941
 152.398 c 54.941 149.293 57.461 146.773 60.566 146.773 c 103.492 146.773
 l 106.602 146.773 109.117 149.293 109.117 152.398 c 109.117 155.508 106.602
 158.023 103.492 158.023 c h
103.492 158.023 m f
94.02 187.852 m 60.566 187.852 l 57.461 187.852 54.941 185.332 54.941 182.227
 c 54.941 179.117 57.461 176.602 60.566 176.602 c 94.02 176.602 l 97.125
 176.602 99.645 179.117 99.645 182.227 c 99.645 185.332 97.125 187.852 94.02
 187.852 c h
94.02 187.852 m f
94.02 217.68 m 60.566 217.68 l 57.461 217.68 54.941 215.16 54.941 212.055
 c 54.941 208.945 57.461 206.43 60.566 206.43 c 94.02 206.43 l 97.125 206.43
 99.645 208.945 99.645 212.055 c 99.645 215.16 97.125 217.68 94.02 217.68
 c h
94.02 217.68 m f
94.02 247.504 m 60.566 247.504 l 57.461 247.504 54.941 244.988 54.941 241.879
 c 54.941 238.773 57.461 236.254 60.566 236.254 c 94.02 236.254 l 97.125
 236.254 99.645 238.773 99.645 241.879 c 99.645 244.988 97.125 247.504 94.02
 247.504 c h
94.02 247.504 m f
122.715 277.332 m 60.566 277.332 l 57.461 277.332 54.941 274.812 54.941
 271.707 c 54.941 268.598 57.461 266.082 60.566 266.082 c 122.715 266.082
 l 125.82 266.082 128.34 268.598 128.34 271.707 c 128.34 274.812 125.82 
277.332 122.715 277.332 c h
122.715 277.332 m f
161.473 307.156 m 60.566 307.156 l 57.461 307.156 54.941 304.641 54.941
 301.531 c 54.941 298.426 57.461 295.906 60.566 295.906 c 161.473 295.906
 l 164.578 295.906 167.098 298.426 167.098 301.531 c 167.098 304.641 164.578
 307.156 161.473 307.156 c h
161.473 307.156 m f
259.57 336.984 m 60.566 336.984 l 57.461 336.984 54.941 334.469 54.941 
331.359 c 54.941 328.254 57.461 325.734 60.566 325.734 c 259.57 325.734 
l 262.68 325.734 265.195 328.254 265.195 331.359 c 265.195 334.469 262.68
 336.984 259.57 336.984 c h
259.57 336.984 m f
0.611765 g
237.035 262.469 m 256.461 243.043 l 284.469 271.055 l 265.043 290.477 l
 h
237.035 262.469 m f
0.513726 g
269.484 256.008 m 266.844 259.715 263.859 263.246 260.535 266.57 c 257.246
 269.863 253.738 272.828 250.074 275.453 c 237.086 262.469 l 256.52 243.043
 l h
269.484 256.008 m f
0.67451 0.368627 0.180392 rg
347.156 353.109 m 338.855 361.41 325.398 361.41 317.098 353.109 c 258.945
 294.957 l 258.043 294.055 258.043 292.59 258.945 291.688 c 285.734 264.898
 l 286.637 263.996 288.102 263.996 289.004 264.898 c 347.156 323.051 l 355.457
 331.352 355.457 344.809 347.156 353.109 c h
347.156 353.109 m f
0.619608 0.333333 0.156863 rg
347.16 353.109 m 344.277 355.992 340.77 357.871 337.074 358.754 c 345.008
 350.43 344.883 337.246 336.711 329.066 c 279.141 271.496 l 285.738 264.898
 l 286.641 263.996 288.102 263.996 289.004 264.898 c 347.16 323.055 l 355.457
 331.352 355.457 344.809 347.16 353.109 c h
347.16 353.109 m f
0.352941 g
275.625 203.043 m 275.625 246.461 240.43 281.66 197.008 281.66 c 153.59
 281.66 118.391 246.461 118.391 203.043 c 118.391 159.621 153.59 124.426
 197.008 124.426 c 240.43 124.426 275.625 159.621 275.625 203.043 c h
275.625 203.043 m f
0.541176 0.788235 0.996078 rg
252.035 203.043 m 252.035 233.43 227.398 258.066 197.008 258.066 c 166.621
 258.066 141.984 233.43 141.984 203.043 c 141.984 172.652 166.621 148.016
 197.008 148.016 c 227.398 148.016 252.035 172.652 252.035 203.043 c h
252.035 203.043 m f
0.996078 0.65098 0.0745098 rg
201.848 177.109 m 207.633 188.832 l 208.012 189.602 208.746 190.137 209.598
 190.258 c 222.535 192.141 l 226.961 192.781 228.727 198.223 225.523 201.344
 c 216.164 210.469 l 215.551 211.066 215.27 211.93 215.414 212.777 c 217.625
 225.66 l 218.379 230.07 213.754 233.43 209.793 231.348 c 198.223 225.266
 l 197.465 224.867 196.555 224.867 195.797 225.266 c 184.227 231.348 l 180.266
 233.43 175.641 230.07 176.395 225.66 c 178.605 212.777 l 178.75 211.93 
178.473 211.066 177.855 210.469 c 168.496 201.344 l 165.293 198.223 167.059
 192.781 171.484 192.141 c 184.422 190.258 l 185.273 190.137 186.008 189.602
 186.387 188.832 c 192.172 177.109 l 194.148 173.098 199.867 173.098 201.848
 177.109 c h
201.848 177.109 m f
0.984314 0.533333 0.00392157 rg
216.164 210.469 m 215.547 211.07 215.273 211.926 215.418 212.773 c 217.621
 225.664 l 218.379 230.07 213.754 233.43 209.793 231.348 c 198.219 225.266
 l 197.465 224.863 196.555 224.863 195.797 225.266 c 184.227 231.348 l 180.266
 233.43 175.641 230.07 176.395 225.664 c 176.898 222.723 l 177.16 222.641
 177.426 222.523 177.688 222.387 c 179.391 221.492 181.094 220.594 182.797
 219.699 c 185.359 218.352 187.926 216.973 190.645 215.957 c 192.871 215.125
 195.25 214.801 197.609 214.711 c 200.16 214.617 203.93 216.379 205.508 
213.445 c 205.992 212.543 205.84 211.285 206.016 210.305 c 206.816 205.746
 209.426 201.691 212.777 198.484 c 214.879 196.484 216.906 194.406 218.988
 192.379 c 219.203 192.16 219.406 191.941 219.57 191.703 c 222.535 192.141
 l 226.961 192.777 228.727 198.223 225.523 201.348 c h
216.164 210.469 m f
Q Q
showpage
%%Trailer
end
%%EOF
