%!PS-Adobe-3.0 EPSF-3.0
%%Creator: cairo 1.16.0 (https://cairographics.org)
%%CreationDate: Thu Nov  7 08:25:58 2019
%%Pages: 1
%%DocumentData: Clean7Bit
%%LanguageLevel: 2
%%BoundingBox: 47 0 337 384
%%EndComments
%%BeginProlog
50 dict begin
/q { gsave } bind def
/Q { grestore } bind def
/cm { 6 array astore concat } bind def
/w { setlinewidth } bind def
/J { setlinecap } bind def
/j { setlinejoin } bind def
/M { setmiterlimit } bind def
/d { setdash } bind def
/m { moveto } bind def
/l { lineto } bind def
/c { curveto } bind def
/h { closepath } bind def
/re { exch dup neg 3 1 roll 5 3 roll moveto 0 rlineto
      0 exch rlineto 0 rlineto closepath } bind def
/S { stroke } bind def
/f { fill } bind def
/f* { eofill } bind def
/n { newpath } bind def
/W { clip } bind def
/W* { eoclip } bind def
/BT { } bind def
/ET { } bind def
/BDC { mark 3 1 roll /BDC pdfmark } bind def
/EMC { mark /EMC pdfmark } bind def
/cairo_store_point { /cairo_point_y exch def /cairo_point_x exch def } def
/Tj { show currentpoint cairo_store_point } bind def
/TJ {
  {
    dup
    type /stringtype eq
    { show } { -0.001 mul 0 cairo_font_matrix dtransform rmoveto } ifelse
  } forall
  currentpoint cairo_store_point
} bind def
/cairo_selectfont { cairo_font_matrix aload pop pop pop 0 0 6 array astore
    cairo_font exch selectfont cairo_point_x cairo_point_y moveto } bind def
/Tf { pop /cairo_font exch def /cairo_font_matrix where
      { pop cairo_selectfont } if } bind def
/Td { matrix translate cairo_font_matrix matrix concatmatrix dup
      /cairo_font_matrix exch def dup 4 get exch 5 get cairo_store_point
      /cairo_font where { pop cairo_selectfont } if } bind def
/Tm { 2 copy 8 2 roll 6 array astore /cairo_font_matrix exch def
      cairo_store_point /cairo_font where { pop cairo_selectfont } if } bind def
/g { setgray } bind def
/rg { setrgbcolor } bind def
/d1 { setcachedevice } bind def
/cairo_data_source {
  CairoDataIndex CairoData length lt
    { CairoData CairoDataIndex get /CairoDataIndex CairoDataIndex 1 add def }
    { () } ifelse
} def
/cairo_flush_ascii85_file { cairo_ascii85_file status { cairo_ascii85_file flushfile } if } def
/cairo_image { image cairo_flush_ascii85_file } def
/cairo_imagemask { imagemask cairo_flush_ascii85_file } def
%%EndProlog
%%BeginSetup
%%EndSetup
%%Page: 1 1
%%BeginPageSetup
%%PageBoundingBox: 47 0 337 384
%%EndPageSetup
q 47 0 290 384 rectclip
1 0 0 -1 0 384 cm q
0.952941 0.917647 0.901961 rg
255.16 236.371 m 128.84 236.371 l 128.84 100.566 l 128.84 95.633 132.84
 91.633 137.773 91.633 c 246.227 91.633 l 251.16 91.633 255.16 95.633 255.16
 100.566 c h
255.16 236.371 m f
0.882353 0.827451 0.807843 rg
255.156 100.566 m 255.156 236.371 l 240.469 236.371 l 240.469 95.496 l 
240.469 93.363 238.738 91.633 236.605 91.633 c 246.223 91.633 l 251.156 
91.633 255.156 95.633 255.156 100.566 c h
255.156 100.566 m f
0.996078 0.756863 0.396078 rg
284.195 299.824 m 99.805 299.824 l 99.805 242.801 l 99.805 239.25 102.684
 236.371 106.23 236.371 c 277.77 236.371 l 281.316 236.371 284.195 239.25
 284.195 242.801 c h
284.195 299.824 m f
0.996078 0.65098 0.0745098 rg
305.516 360.5 m 78.48 360.5 l 78.48 303.629 l 78.48 300.078 81.359 297.199
 84.91 297.199 c 299.09 297.199 l 302.641 297.199 305.52 300.078 305.52 
303.629 c 305.52 360.5 l h
305.516 360.5 m f
0.996078 0.6 0.00392157 rg
305.52 303.629 m 305.52 358.031 l 291.219 358.031 l 291.219 303.629 l 291.219
 300.082 288.344 297.199 284.789 297.199 c 299.086 297.199 l 302.641 297.199
 305.52 300.082 305.52 303.629 c h
305.52 303.629 m f
0.992157 0.705882 0.254902 rg
284.199 242.801 m 284.199 297.199 l 269.902 297.199 l 269.902 242.801 l
 269.902 239.254 267.02 236.371 263.469 236.371 c 277.77 236.371 l 281.316
 236.371 284.199 239.254 284.199 242.801 c h
284.199 242.801 m f
0.984314 0.168627 0.227451 rg
192 97.41 m 158.621 97.41 l 158.621 152.57 l 158.621 155.961 162.02 158.301
 165.188 157.09 c 190.27 147.5 l 191.383 147.074 192.613 147.074 193.727
 147.5 c 218.812 157.09 l 221.98 158.301 225.379 155.961 225.379 152.57 
c 225.379 97.41 l h
192 97.41 m f
0.894118 0.121569 0.176471 rg
225.379 97.41 m 225.379 152.574 l 225.379 155.961 221.984 158.301 218.809
 157.094 c 208.414 153.113 l 208.742 152.477 208.926 151.75 208.926 150.957
 c 208.926 97.41 l h
225.379 97.41 m f
0.996078 0.756863 0.396078 rg
249.715 57.715 m 249.715 89.594 223.875 115.434 192 115.434 c 160.125 115.434
 134.285 89.594 134.285 57.715 c 134.285 25.84 160.125 0 192 0 c 223.875
 0 249.715 25.84 249.715 57.715 c h
249.715 57.715 m f
0.996078 0.6 0.00392157 rg
197.145 27.125 m 203.293 39.586 l 203.699 40.402 204.477 40.973 205.379
 41.102 c 219.133 43.102 l 223.84 43.785 225.719 49.566 222.312 52.883 c
 212.359 62.586 l 211.707 63.223 211.41 64.137 211.562 65.039 c 213.914 
78.734 l 214.715 83.422 209.797 86.996 205.59 84.781 c 193.289 78.316 l 
192.48 77.891 191.516 77.891 190.711 78.316 c 178.41 84.781 l 174.199 86.996
 169.281 83.422 170.086 78.734 c 172.434 65.039 l 172.59 64.141 172.289 
63.223 171.637 62.586 c 161.688 52.883 l 158.281 49.566 160.16 43.785 164.867
 43.102 c 178.617 41.102 l 179.52 40.973 180.301 40.402 180.703 39.586 c
 186.855 27.125 l 188.961 22.859 195.039 22.859 197.145 27.125 c h
197.145 27.125 m f
0.984314 0.533333 0.00392157 rg
212.363 62.586 m 211.703 63.227 211.414 64.133 211.57 65.035 c 213.91 78.738
 l 214.715 83.422 209.797 86.992 205.59 84.777 c 193.289 78.312 l 192.484
 77.887 191.516 77.887 190.715 78.312 c 178.414 84.777 l 174.203 86.992 
169.285 83.422 170.09 78.738 c 170.621 75.613 l 170.902 75.527 171.184 75.398
 171.465 75.254 c 173.273 74.301 175.082 73.352 176.891 72.398 c 179.617
 70.965 182.348 69.496 185.238 68.418 c 187.602 67.535 190.129 67.191 192.641
 67.098 c 195.352 66.996 199.355 68.871 201.035 65.754 c 201.551 64.793 
201.391 63.453 201.574 62.41 c 202.426 57.566 205.199 53.254 208.762 49.848
 c 210.996 47.719 213.152 45.512 215.363 43.355 c 215.598 43.125 215.809
 42.891 215.984 42.641 c 219.141 43.105 l 223.844 43.781 225.719 49.57 222.312
 52.891 c h
212.363 62.586 m f
0.352941 g
332.195 384 m 51.805 384 l 49.668 384 47.938 382.27 47.938 380.137 c 47.938
 361.648 l 47.938 359.516 49.668 357.785 51.805 357.785 c 332.195 357.785
 l 334.332 357.785 336.062 359.516 336.062 361.648 c 336.062 380.137 l 336.062
 382.27 334.332 384 332.195 384 c h
332.195 384 m f
Q Q
showpage
%%Trailer
end
%%EOF
