%!PS-Adobe-3.0 EPSF-3.0
%%Creator: cairo 1.16.0 (https://cairographics.org)
%%CreationDate: Thu Nov  7 08:25:58 2019
%%Pages: 1
%%DocumentData: Clean7Bit
%%LanguageLevel: 2
%%BoundingBox: 0 0 384 384
%%EndComments
%%BeginProlog
50 dict begin
/q { gsave } bind def
/Q { grestore } bind def
/cm { 6 array astore concat } bind def
/w { setlinewidth } bind def
/J { setlinecap } bind def
/j { setlinejoin } bind def
/M { setmiterlimit } bind def
/d { setdash } bind def
/m { moveto } bind def
/l { lineto } bind def
/c { curveto } bind def
/h { closepath } bind def
/re { exch dup neg 3 1 roll 5 3 roll moveto 0 rlineto
      0 exch rlineto 0 rlineto closepath } bind def
/S { stroke } bind def
/f { fill } bind def
/f* { eofill } bind def
/n { newpath } bind def
/W { clip } bind def
/W* { eoclip } bind def
/BT { } bind def
/ET { } bind def
/BDC { mark 3 1 roll /BDC pdfmark } bind def
/EMC { mark /EMC pdfmark } bind def
/cairo_store_point { /cairo_point_y exch def /cairo_point_x exch def } def
/Tj { show currentpoint cairo_store_point } bind def
/TJ {
  {
    dup
    type /stringtype eq
    { show } { -0.001 mul 0 cairo_font_matrix dtransform rmoveto } ifelse
  } forall
  currentpoint cairo_store_point
} bind def
/cairo_selectfont { cairo_font_matrix aload pop pop pop 0 0 6 array astore
    cairo_font exch selectfont cairo_point_x cairo_point_y moveto } bind def
/Tf { pop /cairo_font exch def /cairo_font_matrix where
      { pop cairo_selectfont } if } bind def
/Td { matrix translate cairo_font_matrix matrix concatmatrix dup
      /cairo_font_matrix exch def dup 4 get exch 5 get cairo_store_point
      /cairo_font where { pop cairo_selectfont } if } bind def
/Tm { 2 copy 8 2 roll 6 array astore /cairo_font_matrix exch def
      cairo_store_point /cairo_font where { pop cairo_selectfont } if } bind def
/g { setgray } bind def
/rg { setrgbcolor } bind def
/d1 { setcachedevice } bind def
/cairo_data_source {
  CairoDataIndex CairoData length lt
    { CairoData CairoDataIndex get /CairoDataIndex CairoDataIndex 1 add def }
    { () } ifelse
} def
/cairo_flush_ascii85_file { cairo_ascii85_file status { cairo_ascii85_file flushfile } if } def
/cairo_image { image cairo_flush_ascii85_file } def
/cairo_imagemask { imagemask cairo_flush_ascii85_file } def
%%EndProlog
%%BeginSetup
%%EndSetup
%%Page: 1 1
%%BeginPageSetup
%%PageBoundingBox: 0 0 384 384
%%EndPageSetup
q 0 0 384 384 rectclip
1 0 0 -1 0 384 cm q
0 0.760784 0.478431 rg
93.141 384 m 6.965 384 l 3.145 384 0.043 380.898 0.043 377.078 c 0.043 
336.012 l 0.043 332.188 3.145 329.09 6.965 329.09 c 93.137 329.09 l 96.961
 329.09 100.059 332.188 100.059 336.012 c 100.059 377.078 l 100.059 380.898
 96.961 384 93.141 384 c h
93.141 384 m f
235.086 384 m 148.914 384 l 145.09 384 141.992 380.898 141.992 377.078 
c 141.992 336.012 l 141.992 332.188 145.09 329.09 148.914 329.09 c 235.086
 329.09 l 238.91 329.09 242.008 332.188 242.008 336.012 c 242.008 377.078
 l 242.008 380.898 238.91 384 235.086 384 c h
235.086 384 m f
377.035 384 m 290.859 384 l 287.039 384 283.941 380.898 283.941 377.078
 c 283.941 336.012 l 283.941 332.188 287.039 329.09 290.859 329.09 c 377.035
 329.09 l 380.855 329.09 383.953 332.188 383.953 336.012 c 383.953 377.078
 l 383.953 380.898 380.855 384 377.035 384 c h
377.035 384 m f
0.0313726 0.721569 0.396078 rg
100.062 336.012 m 100.062 377.078 l 100.062 380.898 96.961 384 93.141 384
 c 76.637 384 l 80.465 384 83.559 380.898 83.559 377.078 c 83.559 336.012
 l 83.559 332.191 80.465 329.09 76.637 329.09 c 93.141 329.09 l 96.961 329.09
 100.062 332.191 100.062 336.012 c h
100.062 336.012 m f
242.004 336.012 m 242.004 377.078 l 242.004 380.898 238.91 384 235.082 
384 c 218.59 384 l 222.41 384 225.512 380.898 225.512 377.078 c 225.512 
336.012 l 225.512 332.191 222.41 329.09 218.59 329.09 c 235.082 329.09 l
 238.91 329.09 242.004 332.191 242.004 336.012 c h
242.004 336.012 m f
383.953 336.012 m 383.953 377.078 l 383.953 380.898 380.855 384 377.035
 384 c 360.539 384 l 364.359 384 367.457 380.898 367.457 377.078 c 367.457
 336.012 l 367.457 332.191 364.359 329.09 360.539 329.09 c 377.035 329.09
 l 380.855 329.09 383.953 332.191 383.953 336.012 c h
383.953 336.012 m f
0.996078 0.756863 0.396078 rg
205.07 214.324 m 205.07 185.18 l 205.07 182.66 203.027 180.621 200.512 
180.621 c 183.488 180.621 l 180.973 180.621 178.93 182.66 178.93 185.18 
c 178.93 214.324 l 178.93 216.457 177.199 218.188 175.066 218.188 c 53.309
 218.188 l 44.293 218.188 36.984 225.496 36.984 234.512 c 36.984 301.988
 l 36.984 304.504 39.023 306.547 41.543 306.547 c 58.562 306.547 l 61.082
 306.547 63.121 304.504 63.121 301.988 c 63.121 248.188 l 63.121 246.055
 64.852 244.324 66.984 244.324 c 175.066 244.324 l 177.199 244.324 178.93
 246.055 178.93 248.188 c 178.93 301.988 l 178.93 304.504 180.973 306.547
 183.492 306.547 c 200.512 306.547 l 203.027 306.547 205.07 304.504 205.07
 301.988 c 205.07 248.188 l 205.07 246.055 206.801 244.324 208.934 244.324
 c 317.016 244.324 l 319.148 244.324 320.879 246.055 320.879 248.188 c 320.879
 301.988 l 320.879 304.504 322.922 306.547 325.438 306.547 c 342.457 306.547
 l 344.977 306.547 347.02 304.504 347.02 301.988 c 347.02 234.512 l 347.02
 225.496 339.711 218.188 330.691 218.188 c 208.934 218.188 l 206.801 218.184
 205.07 216.457 205.07 214.324 c h
205.07 214.324 m f
0.964706 0.662745 0.423529 rg
134.887 107.617 m 134.887 130.387 153.344 148.844 176.113 148.844 c 207.883
 148.844 l 230.652 148.844 249.113 130.387 249.113 107.617 c 249.113 49.742
 l 134.887 49.742 l h
134.887 107.617 m f
0.917647 0.607843 0.345098 rg
249.113 49.742 m 249.113 107.621 l 249.113 130.387 230.66 148.852 207.879
 148.852 c 189.898 148.852 l 212.668 148.852 231.129 130.387 231.129 107.621
 c 231.129 49.742 l h
249.113 49.742 m f
0.352941 g
140.953 1.129 m 146.676 4.129 l 151.234 6.52 156.676 6.52 161.234 4.129
 c 165.695 1.793 l 170.254 -0.598 175.695 -0.598 180.258 1.793 c 184.715
 4.129 l 189.273 6.52 194.719 6.52 199.277 4.129 c 203.738 1.793 l 208.297
 -0.598 213.738 -0.598 218.297 1.789 c 222.762 4.129 l 227.32 6.52 232.762
 6.52 237.32 4.129 c 243.047 1.129 l 245.785 -0.305 249.062 1.68 249.062
 4.77 c 249.062 85.852 l 249.062 87.078 247.574 87.672 246.727 86.785 c 
242.52 82.395 233.941 72.094 232.102 59.504 c 231.809 57.477 229.906 56.184
 227.906 56.625 c 225.305 57.195 222.285 57.859 221.961 57.914 c 213.66 
59.328 204.977 60.176 196.258 60.266 c 192 60.227 l 187.742 60.266 l 179.023
 60.176 170.34 59.328 162.035 57.914 c 161.715 57.859 158.691 57.195 156.09
 56.625 c 154.098 56.184 152.184 57.543 151.887 59.559 c 150.031 72.129 
141.469 82.406 137.27 86.789 c 136.422 87.676 134.934 87.074 134.934 85.852
 c 134.934 4.77 l 134.934 1.68 138.215 -0.305 140.953 1.129 c h
140.953 1.129 m f
0.266667 g
249.066 4.766 m 249.066 85.852 l 249.066 87.082 247.574 87.676 246.723 
86.793 c 242.52 82.398 233.945 72.094 232.105 59.508 c 231.992 58.723 231.633
 58.051 231.129 57.543 c 231.129 5.887 l 233.262 5.742 235.367 5.16 237.316
 4.129 c 243.047 1.133 l 245.781 -0.301 249.066 1.684 249.066 4.766 c h
249.066 4.766 m f
0.352941 g
169.953 91.496 m 166.676 91.496 164.023 94.148 164.023 97.426 c 164.023
 105.648 l 164.023 108.922 166.676 111.578 169.953 111.578 c 173.23 111.578
 175.883 108.922 175.883 105.648 c 175.883 97.426 l 175.883 94.148 173.23
 91.496 169.953 91.496 c h
169.953 91.496 m f
214.047 91.496 m 210.77 91.496 208.117 94.148 208.117 97.426 c 208.117 
105.648 l 208.117 108.922 210.77 111.578 214.047 111.578 c 217.324 111.578
 219.977 108.922 219.977 105.648 c 219.977 97.426 l 219.977 94.148 217.324
 91.496 214.047 91.496 c h
214.047 91.496 m f
Q Q
showpage
%%Trailer
end
%%EOF
