%!PS-Adobe-3.0 EPSF-3.0
%%Creator: cairo 1.16.0 (https://cairographics.org)
%%CreationDate: Thu Nov  7 08:25:58 2019
%%Pages: 1
%%DocumentData: Clean7Bit
%%LanguageLevel: 2
%%BoundingBox: 32 0 352 384
%%EndComments
%%BeginProlog
50 dict begin
/q { gsave } bind def
/Q { grestore } bind def
/cm { 6 array astore concat } bind def
/w { setlinewidth } bind def
/J { setlinecap } bind def
/j { setlinejoin } bind def
/M { setmiterlimit } bind def
/d { setdash } bind def
/m { moveto } bind def
/l { lineto } bind def
/c { curveto } bind def
/h { closepath } bind def
/re { exch dup neg 3 1 roll 5 3 roll moveto 0 rlineto
      0 exch rlineto 0 rlineto closepath } bind def
/S { stroke } bind def
/f { fill } bind def
/f* { eofill } bind def
/n { newpath } bind def
/W { clip } bind def
/W* { eoclip } bind def
/BT { } bind def
/ET { } bind def
/BDC { mark 3 1 roll /BDC pdfmark } bind def
/EMC { mark /EMC pdfmark } bind def
/cairo_store_point { /cairo_point_y exch def /cairo_point_x exch def } def
/Tj { show currentpoint cairo_store_point } bind def
/TJ {
  {
    dup
    type /stringtype eq
    { show } { -0.001 mul 0 cairo_font_matrix dtransform rmoveto } ifelse
  } forall
  currentpoint cairo_store_point
} bind def
/cairo_selectfont { cairo_font_matrix aload pop pop pop 0 0 6 array astore
    cairo_font exch selectfont cairo_point_x cairo_point_y moveto } bind def
/Tf { pop /cairo_font exch def /cairo_font_matrix where
      { pop cairo_selectfont } if } bind def
/Td { matrix translate cairo_font_matrix matrix concatmatrix dup
      /cairo_font_matrix exch def dup 4 get exch 5 get cairo_store_point
      /cairo_font where { pop cairo_selectfont } if } bind def
/Tm { 2 copy 8 2 roll 6 array astore /cairo_font_matrix exch def
      cairo_store_point /cairo_font where { pop cairo_selectfont } if } bind def
/g { setgray } bind def
/rg { setrgbcolor } bind def
/d1 { setcachedevice } bind def
/cairo_data_source {
  CairoDataIndex CairoData length lt
    { CairoData CairoDataIndex get /CairoDataIndex CairoDataIndex 1 add def }
    { () } ifelse
} def
/cairo_flush_ascii85_file { cairo_ascii85_file status { cairo_ascii85_file flushfile } if } def
/cairo_image { image cairo_flush_ascii85_file } def
/cairo_imagemask { imagemask cairo_flush_ascii85_file } def
%%EndProlog
%%BeginSetup
%%EndSetup
%%Page: 1 1
%%BeginPageSetup
%%PageBoundingBox: 32 0 352 384
%%EndPageSetup
q 32 0 320 384 rectclip
1 0 0 -1 0 384 cm q
0.541176 0.788235 0.996078 rg
254.184 166.402 m 280.168 166.402 301.082 144.719 299.82 118.461 c 298.684
 94.781 279.27 75.754 255.57 75.043 c 251.23 74.914 247.023 75.398 243.023
 76.406 c 240.008 77.164 236.863 76.02 234.895 73.617 c 229.648 67.215 222.348
 62.562 214.004 60.664 c 210.945 59.973 208.566 57.574 207.918 54.508 c 
201.34 23.371 173.707 0 140.613 0 c 102.617 0 71.816 30.801 71.816 68.793
 c 71.816 68.863 l 71.82 72.52 69.426 75.723 65.898 76.703 c 48.82 81.457
 35.766 95.875 33.02 113.703 c 28.738 141.496 50.797 166.402 78.922 166.402
 c h
254.184 166.402 m f
0.376471 0.717647 1 rg
254.184 166.406 m 78.918 166.406 l 50.797 166.406 28.738 141.496 33.023
 113.699 c 33.277 112.035 33.625 110.406 34.051 108.805 c 34.793 131.465
 53.844 150.254 77.473 150.254 c 241.426 150.254 l 265.734 150.254 285.293
 129.973 284.121 105.41 c 283.641 95.445 279.699 86.359 273.488 79.324 c
 288.387 86.32 298.996 101.141 299.824 118.461 c 301.082 144.719 280.168
 166.406 254.184 166.406 c h
254.184 166.406 m f
0.843137 0.498039 0.290196 rg
120.914 154.031 90.535 24.742 re f
120.914 211.246 90.535 24.742 re f
120.914 268.465 90.535 24.738 re f
120.914 325.68 90.535 24.742 re f
0.784314 0.427451 0.211765 rg
194.27 154.031 14.332 24.742 re f
194.27 211.246 14.332 24.742 re f
194.27 268.465 14.332 24.738 re f
194.27 325.68 14.332 24.742 re f
0.67451 0.368627 0.180392 rg
109.762 384 m 102.027 384 95.762 377.73 95.762 370 c 95.762 134.453 l 95.762
 126.723 102.027 120.453 109.762 120.453 c 117.492 120.453 123.762 126.723
 123.762 134.453 c 123.762 370 l 123.762 377.73 117.492 384 109.762 384 
c h
109.762 384 m f
222.602 384 m 214.871 384 208.602 377.73 208.602 370 c 208.602 134.453 
l 208.602 126.723 214.871 120.453 222.602 120.453 c 230.336 120.453 236.602
 126.723 236.602 134.453 c 236.602 370 l 236.602 377.73 230.336 384 222.602
 384 c h
222.602 384 m f
0.952941 0.917647 0.901961 rg
351.516 86.426 m 351.516 112.949 330.012 134.453 303.484 134.453 c 276.961
 134.453 255.457 112.949 255.457 86.426 c 255.457 59.898 276.961 38.395 
303.484 38.395 c 330.012 38.395 351.516 59.898 351.516 86.426 c h
351.516 86.426 m f
0.568627 0.870588 0.713726 rg
326.348 77.742 m 308.871 60.273 l 305.82 57.223 300.875 57.223 297.824 
60.273 c 280.734 77.359 l 277.691 80.406 277.52 85.551 280.355 88.789 c 
280.355 88.793 l 283.191 92.035 288.004 92.191 291.051 89.148 c 292.875 
87.32 l 294.043 86.152 296.043 86.98 296.043 88.633 c 296.043 107.047 l 
296.043 111.363 299.539 114.859 303.855 114.859 c 308.172 114.859 311.668
 111.363 311.668 107.047 c 311.668 89.641 l 311.668 87.988 313.664 87.16
 314.836 88.328 c 315.297 88.789 l 318.348 91.844 323.297 91.844 326.348
 88.789 c 329.398 85.742 329.398 80.793 326.348 77.742 c h
326.348 77.742 m f
0.431373 0.835294 0.631373 rg
328.633 83.27 m 328.633 85.266 327.871 87.27 326.348 88.793 c 323.297 91.848
 318.348 91.848 315.297 88.793 c 314.832 88.332 l 313.664 87.164 311.668
 87.988 311.668 89.645 c 311.668 107.047 l 311.668 109.207 310.793 111.16
 309.379 112.578 c 307.965 113.988 306.012 114.863 303.852 114.863 c 302.363
 114.863 300.973 114.445 299.785 113.723 c 301.914 112.402 303.332 110.035
 303.332 107.34 c 303.332 96.422 l 303.332 91.473 302.766 86.238 307.328
 83.059 c 308.25 82.426 309.41 82.285 310.469 81.93 c 311.875 81.453 312.754
 80.352 313.117 79.066 c 313.469 77.832 313.336 76.426 312.742 75.25 c 311.465
 72.723 309.152 70.84 307.188 68.867 c 305.004 66.688 302.824 64.504 300.641
 62.32 c 299.77 61.449 298.73 60.832 297.621 60.477 c 297.824 60.277 l 300.875
 57.223 305.82 57.223 308.871 60.277 c 326.344 77.742 l 327.871 79.27 328.633
 81.266 328.633 83.27 c h
328.633 83.27 m f
Q Q
showpage
%%Trailer
end
%%EOF
