%!PS-Adobe-3.0 EPSF-3.0
%%Creator: cairo 1.16.0 (https://cairographics.org)
%%CreationDate: Thu Nov  7 08:25:58 2019
%%Pages: 1
%%DocumentData: Clean7Bit
%%LanguageLevel: 2
%%BoundingBox: 70 0 314 384
%%EndComments
%%BeginProlog
50 dict begin
/q { gsave } bind def
/Q { grestore } bind def
/cm { 6 array astore concat } bind def
/w { setlinewidth } bind def
/J { setlinecap } bind def
/j { setlinejoin } bind def
/M { setmiterlimit } bind def
/d { setdash } bind def
/m { moveto } bind def
/l { lineto } bind def
/c { curveto } bind def
/h { closepath } bind def
/re { exch dup neg 3 1 roll 5 3 roll moveto 0 rlineto
      0 exch rlineto 0 rlineto closepath } bind def
/S { stroke } bind def
/f { fill } bind def
/f* { eofill } bind def
/n { newpath } bind def
/W { clip } bind def
/W* { eoclip } bind def
/BT { } bind def
/ET { } bind def
/BDC { mark 3 1 roll /BDC pdfmark } bind def
/EMC { mark /EMC pdfmark } bind def
/cairo_store_point { /cairo_point_y exch def /cairo_point_x exch def } def
/Tj { show currentpoint cairo_store_point } bind def
/TJ {
  {
    dup
    type /stringtype eq
    { show } { -0.001 mul 0 cairo_font_matrix dtransform rmoveto } ifelse
  } forall
  currentpoint cairo_store_point
} bind def
/cairo_selectfont { cairo_font_matrix aload pop pop pop 0 0 6 array astore
    cairo_font exch selectfont cairo_point_x cairo_point_y moveto } bind def
/Tf { pop /cairo_font exch def /cairo_font_matrix where
      { pop cairo_selectfont } if } bind def
/Td { matrix translate cairo_font_matrix matrix concatmatrix dup
      /cairo_font_matrix exch def dup 4 get exch 5 get cairo_store_point
      /cairo_font where { pop cairo_selectfont } if } bind def
/Tm { 2 copy 8 2 roll 6 array astore /cairo_font_matrix exch def
      cairo_store_point /cairo_font where { pop cairo_selectfont } if } bind def
/g { setgray } bind def
/rg { setrgbcolor } bind def
/d1 { setcachedevice } bind def
/cairo_data_source {
  CairoDataIndex CairoData length lt
    { CairoData CairoDataIndex get /CairoDataIndex CairoDataIndex 1 add def }
    { () } ifelse
} def
/cairo_flush_ascii85_file { cairo_ascii85_file status { cairo_ascii85_file flushfile } if } def
/cairo_image { image cairo_flush_ascii85_file } def
/cairo_imagemask { imagemask cairo_flush_ascii85_file } def
%%EndProlog
%%BeginSetup
%%EndSetup
%%Page: 1 1
%%BeginPageSetup
%%PageBoundingBox: 70 0 314 384
%%EndPageSetup
q 70 0 244 384 rectclip
1 0 0 -1 0 384 cm q
0.568627 0.870588 0.713726 rg
261.625 383.996 m 84.406 383.996 l 84.406 300.504 l 84.406 264.848 113.312
 235.941 148.973 235.941 c 197.059 235.941 l 232.719 235.941 261.625 264.848
 261.625 300.504 c h
261.625 383.996 m f
0.431373 0.835294 0.631373 rg
261.625 300.508 m 261.625 383.996 l 249.246 383.996 l 249.246 300.508 l
 249.246 264.844 220.344 235.941 184.676 235.941 c 197.059 235.941 l 232.723
 235.941 261.625 264.844 261.625 300.508 c h
261.625 300.508 m f
128.504 326.508 m 128.504 384 l 116.914 384 l 116.914 326.508 l 116.914
 323.309 119.512 320.711 122.711 320.711 c 125.906 320.711 128.504 323.309
 128.504 326.508 c h
128.504 326.508 m f
229.117 326.508 m 229.117 384 l 217.527 384 l 217.527 326.508 l 217.527
 323.309 220.125 320.711 223.32 320.711 c 226.523 320.711 229.117 323.309
 229.117 326.508 c h
229.117 326.508 m f
0.882353 0.827451 0.807843 rg
191.699 383.996 m 184.711 287.23 l 161.324 287.23 l 154.332 383.996 l h
191.699 383.996 m f
0.803922 0.74902 0.729412 rg
191.699 383.996 m 180.133 383.996 l 173.145 287.23 l 184.715 287.23 l h
191.699 383.996 m f
0.996078 0.756863 0.396078 rg
313.648 290.266 m 313.648 312.809 295.375 331.082 272.832 331.082 c 250.293
 331.082 232.02 312.809 232.02 290.266 c 232.02 267.723 250.293 249.449 
272.832 249.449 c 295.375 249.449 313.648 267.723 313.648 290.266 c h
313.648 290.266 m f
0.996078 0.6 0.00392157 rg
276.473 268.633 m 280.82 277.445 l 281.105 278.023 281.656 278.422 282.297
 278.516 c 292.02 279.93 l 295.348 280.414 296.676 284.504 294.27 286.848
 c 287.23 293.707 l 286.77 294.16 286.559 294.809 286.668 295.441 c 288.328
 305.129 l 288.898 308.441 285.422 310.969 282.445 309.406 c 273.746 304.832
 l 273.176 304.531 272.492 304.531 271.922 304.832 c 263.223 309.406 l 260.246
 310.969 256.77 308.441 257.336 305.129 c 259 295.441 l 259.109 294.809 
258.898 294.16 258.438 293.707 c 251.398 286.848 l 248.992 284.504 250.32
 280.414 253.648 279.93 c 263.371 278.516 l 264.012 278.422 264.562 278.023
 264.848 277.445 c 269.195 268.633 l 270.684 265.617 274.984 265.617 276.473
 268.633 c h
276.473 268.633 m f
0.984314 0.533333 0.00392157 rg
287.234 293.711 m 286.77 294.16 286.562 294.805 286.672 295.441 c 288.328
 305.133 l 288.895 308.445 285.418 310.969 282.441 309.402 c 273.742 304.828
 l 273.176 304.527 272.492 304.527 271.922 304.828 c 263.223 309.402 l 260.246
 310.969 256.77 308.445 257.34 305.133 c 257.715 302.922 l 257.914 302.859
 258.113 302.77 258.309 302.668 c 259.59 301.996 260.867 301.32 262.148 
300.648 c 264.074 299.633 266.004 298.598 268.051 297.832 c 269.723 297.211
 271.512 296.965 273.285 296.898 c 275.203 296.824 278.035 298.152 279.223
 295.949 c 279.586 295.27 279.473 294.32 279.602 293.586 c 280.207 290.16
 282.168 287.109 284.688 284.703 c 286.266 283.195 287.793 281.633 289.355
 280.109 c 289.52 279.945 289.672 279.781 289.793 279.605 c 292.023 279.934
 l 295.352 280.41 296.68 284.504 294.27 286.852 c h
287.234 293.711 m f
0.917647 0.607843 0.345098 rg
190.426 214.887 m 190.426 249.727 l 190.426 251.863 189.68 253.93 188.312
 255.57 c 179.207 266.504 l 176.449 271.262 169.586 271.262 166.832 266.504
 c 157.719 255.57 l 156.352 253.93 155.605 251.859 155.605 249.727 c 155.605
 214.887 l h
190.426 214.887 m f
0.866667 0.529412 0.278431 rg
155.605 216.594 34.82 12.238 re f
0.952941 0.917647 0.901961 rg
173.016 264.418 m 156.613 266.043 l 161.324 287.23 l 184.707 287.23 l 189.352
 266.34 l h
173.016 264.418 m f
0.882353 0.827451 0.807843 rg
189.406 266.094 m 184.707 287.23 l 173.098 287.23 l 176.02 276.207 l 176.262
 275.301 175.977 274.34 175.289 273.707 c 165.844 265.102 l 173.012 264.418
 l 173.02 264.418 l h
189.406 266.094 m f
0 0.760784 0.478431 rg
173.016 264.371 m 206.855 268.242 l 210.215 268.625 213.074 265.816 212.754
 262.449 c 210.383 237.805 l 205.609 236.59 200.613 235.941 195.457 235.941
 c 190.43 235.941 l h
173.016 264.371 m f
173.016 264.371 m 135.309 268.215 l 131.633 268.59 128.707 265.199 129.613
 261.617 c 135.648 237.805 l 140.426 236.59 145.422 235.941 150.578 235.941
 c 155.605 235.941 l h
173.016 264.371 m f
0.964706 0.662745 0.423529 rg
257.215 119.086 m 256.121 119.086 l 256.121 72.383 l 89.906 72.383 l 89.906
 119.086 l 88.812 119.086 l 78.617 119.086 70.352 127.352 70.352 137.547
 c 70.352 147.742 78.617 156.004 88.812 156.004 c 89.906 156.004 l 89.906
 156.598 l 89.906 189.73 116.766 216.59 149.898 216.59 c 196.129 216.59 
l 229.262 216.59 256.121 189.73 256.121 156.598 c 256.121 156.004 l 257.215
 156.004 l 267.41 156.004 275.676 147.742 275.676 137.547 c 275.676 127.352
 267.41 119.086 257.215 119.086 c h
257.215 119.086 m f
0.917647 0.607843 0.345098 rg
275.68 137.547 m 275.68 147.738 267.406 156.008 257.219 156.008 c 256.121
 156.008 l 256.121 156.598 l 256.121 189.734 229.258 216.594 196.125 216.594
 c 180.137 216.594 l 213.27 216.594 240.129 189.734 240.129 156.598 c 240.129
 72.387 l 256.121 72.387 l 256.121 119.086 l 257.219 119.086 l 262.312 119.086
 266.934 121.152 270.273 124.492 c 273.613 127.844 275.68 132.453 275.68
 137.547 c h
275.68 137.547 m f
0.352941 g
98.73 1.645 m 107.059 6.008 l 113.691 9.488 121.613 9.488 128.246 6.008
 c 134.734 2.609 l 141.371 -0.871 149.289 -0.871 155.926 2.609 c 162.414
 6.008 l 169.047 9.488 176.965 9.488 183.602 6.008 c 190.094 2.605 l 196.727
 -0.871 204.645 -0.871 211.281 2.605 c 217.773 6.008 l 224.41 9.484 232.328
 9.484 238.961 6.008 c 247.293 1.645 l 251.273 -0.441 256.051 2.445 256.051
 6.941 c 256.051 124.926 l 256.051 126.707 253.879 127.574 252.645 126.285
 c 246.523 119.895 234.043 104.906 231.371 86.582 c 230.941 83.637 228.172
 81.754 225.266 82.395 c 221.473 83.227 217.082 84.191 216.613 84.27 c 204.531
 86.328 191.895 87.562 179.207 87.695 c 173.012 87.641 l 166.816 87.695 
l 154.129 87.562 141.496 86.328 129.414 84.27 c 128.945 84.191 124.547 83.227
 120.758 82.395 c 117.859 81.758 115.074 83.734 114.645 86.668 c 111.945
 104.957 99.484 119.914 93.371 126.293 c 92.141 127.578 89.973 126.707 89.973
 124.926 c 89.973 6.941 l 89.977 2.445 94.75 -0.441 98.73 1.645 c h
98.73 1.645 m f
0.266667 g
256.051 6.938 m 256.051 124.93 l 256.051 126.711 253.879 127.574 252.645
 126.281 c 249.523 123.023 244.738 117.523 240.453 110.488 c 240.453 6.938
 l 240.453 6.383 240.383 5.84 240.234 5.344 c 247.293 1.645 l 251.277 -0.445
 256.051 2.445 256.051 6.938 c h
256.051 6.938 m f
0.352941 g
173.57 193.086 m 165.789 193.086 158.805 188.457 155.777 181.293 c 154.566
 178.434 155.906 175.133 158.766 173.922 c 161.629 172.711 164.93 174.051
 166.137 176.91 c 167.402 179.902 170.32 181.836 173.57 181.836 c 176.82
 181.836 179.734 179.902 181 176.91 c 182.211 174.051 185.512 172.711 188.371
 173.922 c 191.234 175.133 192.574 178.434 191.363 181.293 c 188.332 188.457
 181.348 193.086 173.57 193.086 c h
173.57 193.086 m f
145.391 156.734 m 142.285 156.734 139.766 154.219 139.766 151.109 c 139.766
 139.945 l 139.766 136.836 142.285 134.32 145.391 134.32 c 148.496 134.32
 151.016 136.836 151.016 139.945 c 151.016 151.109 l 151.016 154.219 148.496
 156.734 145.391 156.734 c h
145.391 156.734 m f
201.75 156.734 m 198.645 156.734 196.125 154.219 196.125 151.109 c 196.125
 139.945 l 196.125 136.836 198.645 134.32 201.75 134.32 c 204.855 134.32
 207.375 136.836 207.375 139.945 c 207.375 151.109 l 207.375 154.219 204.855
 156.734 201.75 156.734 c h
201.75 156.734 m f
Q Q
showpage
%%Trailer
end
%%EOF
