%!PS-Adobe-3.0 EPSF-3.0
%%Creator: cairo 1.16.0 (https://cairographics.org)
%%CreationDate: Thu Nov  7 08:25:59 2019
%%Pages: 1
%%DocumentData: Clean7Bit
%%LanguageLevel: 2
%%BoundingBox: 0 0 384 384
%%EndComments
%%BeginProlog
50 dict begin
/q { gsave } bind def
/Q { grestore } bind def
/cm { 6 array astore concat } bind def
/w { setlinewidth } bind def
/J { setlinecap } bind def
/j { setlinejoin } bind def
/M { setmiterlimit } bind def
/d { setdash } bind def
/m { moveto } bind def
/l { lineto } bind def
/c { curveto } bind def
/h { closepath } bind def
/re { exch dup neg 3 1 roll 5 3 roll moveto 0 rlineto
      0 exch rlineto 0 rlineto closepath } bind def
/S { stroke } bind def
/f { fill } bind def
/f* { eofill } bind def
/n { newpath } bind def
/W { clip } bind def
/W* { eoclip } bind def
/BT { } bind def
/ET { } bind def
/BDC { mark 3 1 roll /BDC pdfmark } bind def
/EMC { mark /EMC pdfmark } bind def
/cairo_store_point { /cairo_point_y exch def /cairo_point_x exch def } def
/Tj { show currentpoint cairo_store_point } bind def
/TJ {
  {
    dup
    type /stringtype eq
    { show } { -0.001 mul 0 cairo_font_matrix dtransform rmoveto } ifelse
  } forall
  currentpoint cairo_store_point
} bind def
/cairo_selectfont { cairo_font_matrix aload pop pop pop 0 0 6 array astore
    cairo_font exch selectfont cairo_point_x cairo_point_y moveto } bind def
/Tf { pop /cairo_font exch def /cairo_font_matrix where
      { pop cairo_selectfont } if } bind def
/Td { matrix translate cairo_font_matrix matrix concatmatrix dup
      /cairo_font_matrix exch def dup 4 get exch 5 get cairo_store_point
      /cairo_font where { pop cairo_selectfont } if } bind def
/Tm { 2 copy 8 2 roll 6 array astore /cairo_font_matrix exch def
      cairo_store_point /cairo_font where { pop cairo_selectfont } if } bind def
/g { setgray } bind def
/rg { setrgbcolor } bind def
/d1 { setcachedevice } bind def
/cairo_data_source {
  CairoDataIndex CairoData length lt
    { CairoData CairoDataIndex get /CairoDataIndex CairoDataIndex 1 add def }
    { () } ifelse
} def
/cairo_flush_ascii85_file { cairo_ascii85_file status { cairo_ascii85_file flushfile } if } def
/cairo_image { image cairo_flush_ascii85_file } def
/cairo_imagemask { imagemask cairo_flush_ascii85_file } def
%%EndProlog
%%BeginSetup
%%EndSetup
%%Page: 1 1
%%BeginPageSetup
%%PageBoundingBox: 0 0 384 384
%%EndPageSetup
q 0 0 384 384 rectclip
1 0 0 -1 0 384 cm q
0.984314 0.168627 0.227451 rg
41.355 235.031 m 10.344 235.031 l 5.18 235.031 0.996 230.848 0.996 225.684
 c 0.996 152.738 l 0.996 147.578 5.18 143.391 10.344 143.391 c 41.355 143.391
 l h
41.355 235.031 m f
0.611765 g
57.84 244.977 m 115.332 244.977 l 115.332 355.254 l 115.332 371.129 102.461
 384 86.586 384 c 70.711 384 57.84 371.129 57.84 355.254 c h
57.84 244.977 m f
336.574 222.969 m 336.574 155.457 l 355.105 155.457 370.133 170.48 370.133
 189.012 c 370.133 189.41 l 370.133 207.945 355.105 222.969 336.574 222.969
 c h
336.574 222.969 m f
0.513726 g
370.133 189.012 m 370.133 189.414 l 370.133 207.945 355.105 222.965 336.574
 222.965 c 336.574 210.82 l 351.121 207.148 361.879 193.977 361.879 178.293
 c 361.879 177.898 l 361.879 172.902 360.789 168.16 358.832 163.898 c 359.336
 164.348 359.824 164.805 360.301 165.285 c 366.375 171.355 370.133 179.746
 370.133 189.012 c h
370.133 189.012 m f
0.352941 g
132.789 248.469 m 47.242 248.469 l 42.922 248.469 39.422 244.965 39.422
 240.648 c 39.422 137.773 l 39.422 133.457 42.926 129.957 47.242 129.957
 c 132.789 129.957 l h
132.789 248.469 m f
0.952941 0.917647 0.901961 rg
132.789 129.957 m 132.789 248.469 l 307.023 312.863 l 307.023 65.562 l 
h
132.789 129.957 m f
0.882353 0.827451 0.807843 rg
307.02 65.562 m 307.02 312.863 l 132.789 248.465 l 132.789 229.059 l 284.555
 285.156 l 287.445 286.223 290.52 284.082 290.52 281 c 290.52 71.66 l h
307.02 65.562 m f
0.984314 0.168627 0.227451 rg
330.191 330.461 m 316.551 330.461 l 311.289 330.461 307.023 326.195 307.023
 320.934 c 307.023 57.492 l 307.023 52.227 311.289 47.961 316.551 47.961
 c 330.191 47.961 l 335.453 47.961 339.719 52.227 339.719 57.492 c 339.719
 320.934 l 339.719 326.195 335.453 330.461 330.191 330.461 c h
330.191 330.461 m f
0.513726 g
115.328 248.695 m 115.328 355.254 l 115.328 371.129 102.461 384 86.582 
384 c 78.648 384 71.465 380.781 66.258 375.578 c 66.164 375.484 66.074 375.391
 65.988 375.301 c 67.156 375.438 68.34 375.516 69.547 375.516 c 85.422 375.516
 98.293 362.648 98.293 346.77 c 98.293 248.695 l h
115.328 248.695 m f
0.611765 g
103.891 161.66 m 68.32 161.66 l 65.117 161.66 62.52 159.066 62.52 155.859
 c 62.52 152.656 65.117 150.059 68.32 150.059 c 103.887 150.059 l 107.09
 150.059 109.688 152.656 109.688 155.859 c 109.688 159.066 107.094 161.66
 103.891 161.66 c h
103.891 161.66 m f
103.891 183.895 m 68.32 183.895 l 65.117 183.895 62.52 181.301 62.52 178.094
 c 62.52 174.891 65.117 172.293 68.32 172.293 c 103.887 172.293 l 107.09
 172.293 109.688 174.891 109.688 178.094 c 109.688 181.301 107.094 183.895
 103.891 183.895 c h
103.891 183.895 m f
103.891 206.129 m 68.32 206.129 l 65.117 206.129 62.52 203.531 62.52 200.328
 c 62.52 197.125 65.117 194.527 68.32 194.527 c 103.887 194.527 l 107.09
 194.527 109.688 197.125 109.688 200.328 c 109.688 203.531 107.094 206.129
 103.891 206.129 c h
103.891 206.129 m f
103.891 228.363 m 68.32 228.363 l 65.117 228.363 62.52 225.766 62.52 222.562
 c 62.52 219.359 65.117 216.762 68.32 216.762 c 103.887 216.762 l 107.09
 216.762 109.688 219.359 109.688 222.562 c 109.688 225.766 107.094 228.363
 103.891 228.363 c h
103.891 228.363 m f
0.541176 0.788235 0.996078 rg
383.004 60.406 m 383.004 93.77 355.961 120.816 322.598 120.816 c 289.234
 120.816 262.191 93.77 262.191 60.406 c 262.191 27.047 289.234 0 322.598
 0 c 355.961 0 383.004 27.047 383.004 60.406 c h
383.004 60.406 m f
0.996078 0.756863 0.396078 rg
355.734 47.824 m 330.406 22.504 l 325.984 18.082 318.816 18.082 314.391
 22.504 c 289.625 47.27 l 285.211 51.684 284.961 59.141 289.074 63.84 c 
293.184 68.539 300.16 68.77 304.574 64.355 c 307.223 61.711 l 308.914 60.016
 311.809 61.215 311.809 63.609 c 311.809 90.301 l 311.809 96.555 316.879
 101.629 323.137 101.629 c 329.391 101.629 334.461 96.555 334.461 90.301
 c 334.461 65.07 l 334.461 62.676 337.355 61.477 339.051 63.172 c 339.719
 63.84 l 344.141 68.262 351.312 68.262 355.734 63.84 c 360.156 59.418 360.156
 52.246 355.734 47.824 c h
355.734 47.824 m f
0.992157 0.705882 0.254902 rg
359.051 55.832 m 359.051 58.73 357.945 61.633 355.738 63.84 c 351.312 68.266
 344.141 68.266 339.719 63.84 c 339.047 63.168 l 337.355 61.477 334.461 
62.672 334.461 65.074 c 334.461 90.301 l 334.461 93.426 333.195 96.258 331.141
 98.312 c 329.094 100.359 326.258 101.625 323.133 101.625 c 320.973 101.625
 318.957 101.023 317.234 99.973 c 320.324 98.059 322.375 94.629 322.375 
90.723 c 322.375 74.898 l 322.375 67.723 321.559 60.133 328.168 55.527 c
 329.504 54.605 331.188 54.406 332.723 53.887 c 334.762 53.203 336.035 51.602
 336.559 49.742 c 337.07 47.953 336.875 45.914 336.02 44.207 c 334.164 40.547
 330.816 37.812 327.965 34.957 c 324.801 31.801 321.645 28.633 318.477 25.469
 c 317.211 24.203 315.707 23.305 314.102 22.797 c 314.395 22.504 l 318.816
 18.078 325.98 18.078 330.406 22.504 c 355.73 47.82 l 357.945 50.035 359.051
 52.93 359.051 55.832 c h
359.051 55.832 m f
Q Q
showpage
%%Trailer
end
%%EOF
