%!PS-Adobe-3.0 EPSF-3.0
%%Creator: cairo 1.16.0 (https://cairographics.org)
%%CreationDate: Thu Nov  7 08:26:00 2019
%%Pages: 1
%%DocumentData: Clean7Bit
%%LanguageLevel: 2
%%BoundingBox: 0 23 384 361
%%EndComments
%%BeginProlog
50 dict begin
/q { gsave } bind def
/Q { grestore } bind def
/cm { 6 array astore concat } bind def
/w { setlinewidth } bind def
/J { setlinecap } bind def
/j { setlinejoin } bind def
/M { setmiterlimit } bind def
/d { setdash } bind def
/m { moveto } bind def
/l { lineto } bind def
/c { curveto } bind def
/h { closepath } bind def
/re { exch dup neg 3 1 roll 5 3 roll moveto 0 rlineto
      0 exch rlineto 0 rlineto closepath } bind def
/S { stroke } bind def
/f { fill } bind def
/f* { eofill } bind def
/n { newpath } bind def
/W { clip } bind def
/W* { eoclip } bind def
/BT { } bind def
/ET { } bind def
/BDC { mark 3 1 roll /BDC pdfmark } bind def
/EMC { mark /EMC pdfmark } bind def
/cairo_store_point { /cairo_point_y exch def /cairo_point_x exch def } def
/Tj { show currentpoint cairo_store_point } bind def
/TJ {
  {
    dup
    type /stringtype eq
    { show } { -0.001 mul 0 cairo_font_matrix dtransform rmoveto } ifelse
  } forall
  currentpoint cairo_store_point
} bind def
/cairo_selectfont { cairo_font_matrix aload pop pop pop 0 0 6 array astore
    cairo_font exch selectfont cairo_point_x cairo_point_y moveto } bind def
/Tf { pop /cairo_font exch def /cairo_font_matrix where
      { pop cairo_selectfont } if } bind def
/Td { matrix translate cairo_font_matrix matrix concatmatrix dup
      /cairo_font_matrix exch def dup 4 get exch 5 get cairo_store_point
      /cairo_font where { pop cairo_selectfont } if } bind def
/Tm { 2 copy 8 2 roll 6 array astore /cairo_font_matrix exch def
      cairo_store_point /cairo_font where { pop cairo_selectfont } if } bind def
/g { setgray } bind def
/rg { setrgbcolor } bind def
/d1 { setcachedevice } bind def
/cairo_data_source {
  CairoDataIndex CairoData length lt
    { CairoData CairoDataIndex get /CairoDataIndex CairoDataIndex 1 add def }
    { () } ifelse
} def
/cairo_flush_ascii85_file { cairo_ascii85_file status { cairo_ascii85_file flushfile } if } def
/cairo_image { image cairo_flush_ascii85_file } def
/cairo_imagemask { imagemask cairo_flush_ascii85_file } def
%%EndProlog
%%BeginSetup
%%EndSetup
%%Page: 1 1
%%BeginPageSetup
%%PageBoundingBox: 0 23 384 361
%%EndPageSetup
q 0 23 384 338 rectclip
1 0 0 -1 0 384 cm q
0.996078 0.756863 0.396078 rg
344.328 285.93 m 11.895 285.93 l 5.324 285.93 0 280.602 0 274.031 c 0 34.398
 l 0 28.559 4.734 23.82 10.578 23.82 c 345.645 23.82 l 351.484 23.82 356.223
 28.559 356.223 34.398 c 356.223 274.031 l 356.223 280.602 350.898 285.93
 344.328 285.93 c h
344.328 285.93 m f
0.992157 0.705882 0.254902 rg
356.223 34.402 m 356.223 274.035 l 356.223 280.605 350.895 285.926 344.328
 285.926 c 323.859 285.926 l 330.434 285.926 335.762 280.605 335.762 274.035
 c 335.762 34.402 l 335.762 28.555 331.023 23.82 325.18 23.82 c 345.641 
23.82 l 351.488 23.82 356.223 28.555 356.223 34.402 c h
356.223 34.402 m f
0.996078 0.65098 0.0745098 rg
20.391 285.93 m 169.797 139.902 l 174.422 135.383 181.805 135.383 186.426
 139.902 c 335.832 285.93 l h
20.391 285.93 m f
0.984314 0.533333 0.00392157 rg
12.867 23.82 m 169.398 176.812 l 174.242 181.547 181.98 181.547 186.824
 176.812 c 343.355 23.82 l h
12.867 23.82 m f
0.541176 0.788235 0.996078 rg
325.484 299.34 m 291.641 299.34 l 291.641 355.266 l 291.641 358.707 295.086
 361.078 298.297 359.848 c 323.73 350.125 l 324.859 349.695 326.105 349.695
 327.234 350.125 c 352.668 359.848 l 355.879 361.078 359.324 358.707 359.324
 355.266 c 359.324 299.34 l h
325.484 299.34 m f
0.376471 0.717647 1 rg
359.324 299.34 m 359.324 355.27 l 359.324 358.703 355.883 361.078 352.664
 359.852 c 342.125 355.82 l 342.457 355.172 342.645 354.434 342.645 353.629
 c 342.645 299.34 l h
359.324 299.34 m f
0.952941 0.917647 0.901961 rg
384 259.098 m 384 291.414 357.801 317.613 325.484 317.613 c 293.164 317.613
 266.965 291.414 266.965 259.098 c 266.965 226.777 293.164 200.578 325.484
 200.578 c 357.801 200.578 384 226.777 384 259.098 c h
384 259.098 m f
0.996078 0.6 0.00392157 rg
330.699 228.078 m 336.934 240.715 l 337.344 241.543 338.133 242.117 339.047
 242.25 c 352.992 244.277 l 357.762 244.969 359.668 250.832 356.215 254.195
 c 346.125 264.031 l 345.465 264.676 345.16 265.605 345.316 266.516 c 347.699
 280.402 l 348.516 285.156 343.527 288.777 339.262 286.535 c 326.789 279.98
 l 325.973 279.547 324.992 279.547 324.176 279.98 c 311.703 286.535 l 307.438
 288.777 302.449 285.156 303.266 280.402 c 305.648 266.516 l 305.805 265.605
 305.504 264.676 304.84 264.031 c 294.75 254.195 l 291.297 250.832 293.203
 244.969 297.973 244.277 c 311.918 242.25 l 312.832 242.117 313.621 241.543
 314.031 240.715 c 320.266 228.078 l 322.398 223.758 328.566 223.758 330.699
 228.078 c h
330.699 228.078 m f
0.984314 0.533333 0.00392157 rg
346.129 264.031 m 345.461 264.68 345.164 265.602 345.324 266.516 c 347.695
 280.41 l 348.512 285.156 343.527 288.777 339.258 286.531 c 326.785 279.977
 l 325.973 279.547 324.992 279.547 324.176 279.977 c 311.707 286.531 l 307.438
 288.777 302.453 285.156 303.27 280.41 c 303.809 277.238 l 304.094 277.152
 304.379 277.023 304.66 276.875 c 306.496 275.91 308.328 274.945 310.164
 273.98 c 312.93 272.523 315.691 271.039 318.625 269.945 c 321.02 269.051
 323.586 268.699 326.129 268.602 c 328.879 268.5 332.941 270.402 334.641
 267.242 c 335.164 266.27 335 264.91 335.188 263.852 c 336.051 258.941 338.863
 254.57 342.477 251.117 c 344.742 248.957 346.93 246.719 349.168 244.535
 c 349.406 244.297 349.621 244.062 349.797 243.809 c 352.996 244.277 l 357.766
 244.965 359.668 250.832 356.215 254.199 c h
346.129 264.031 m f
Q Q
showpage
%%Trailer
end
%%EOF
