%!PS-Adobe-3.0 EPSF-3.0
%%Creator: cairo 1.16.0 (https://cairographics.org)
%%CreationDate: Thu Nov  7 08:26:00 2019
%%Pages: 1
%%DocumentData: Clean7Bit
%%LanguageLevel: 2
%%BoundingBox: 0 42 384 342
%%EndComments
%%BeginProlog
50 dict begin
/q { gsave } bind def
/Q { grestore } bind def
/cm { 6 array astore concat } bind def
/w { setlinewidth } bind def
/J { setlinecap } bind def
/j { setlinejoin } bind def
/M { setmiterlimit } bind def
/d { setdash } bind def
/m { moveto } bind def
/l { lineto } bind def
/c { curveto } bind def
/h { closepath } bind def
/re { exch dup neg 3 1 roll 5 3 roll moveto 0 rlineto
      0 exch rlineto 0 rlineto closepath } bind def
/S { stroke } bind def
/f { fill } bind def
/f* { eofill } bind def
/n { newpath } bind def
/W { clip } bind def
/W* { eoclip } bind def
/BT { } bind def
/ET { } bind def
/BDC { mark 3 1 roll /BDC pdfmark } bind def
/EMC { mark /EMC pdfmark } bind def
/cairo_store_point { /cairo_point_y exch def /cairo_point_x exch def } def
/Tj { show currentpoint cairo_store_point } bind def
/TJ {
  {
    dup
    type /stringtype eq
    { show } { -0.001 mul 0 cairo_font_matrix dtransform rmoveto } ifelse
  } forall
  currentpoint cairo_store_point
} bind def
/cairo_selectfont { cairo_font_matrix aload pop pop pop 0 0 6 array astore
    cairo_font exch selectfont cairo_point_x cairo_point_y moveto } bind def
/Tf { pop /cairo_font exch def /cairo_font_matrix where
      { pop cairo_selectfont } if } bind def
/Td { matrix translate cairo_font_matrix matrix concatmatrix dup
      /cairo_font_matrix exch def dup 4 get exch 5 get cairo_store_point
      /cairo_font where { pop cairo_selectfont } if } bind def
/Tm { 2 copy 8 2 roll 6 array astore /cairo_font_matrix exch def
      cairo_store_point /cairo_font where { pop cairo_selectfont } if } bind def
/g { setgray } bind def
/rg { setrgbcolor } bind def
/d1 { setcachedevice } bind def
/cairo_data_source {
  CairoDataIndex CairoData length lt
    { CairoData CairoDataIndex get /CairoDataIndex CairoDataIndex 1 add def }
    { () } ifelse
} def
/cairo_flush_ascii85_file { cairo_ascii85_file status { cairo_ascii85_file flushfile } if } def
/cairo_image { image cairo_flush_ascii85_file } def
/cairo_imagemask { imagemask cairo_flush_ascii85_file } def
%%EndProlog
%%BeginSetup
%%EndSetup
%%Page: 1 1
%%BeginPageSetup
%%PageBoundingBox: 0 42 384 342
%%EndPageSetup
q 0 42 384 300 rectclip
1 0 0 -1 0 384 cm q
0.352941 g
357.414 300.906 m 26.586 300.906 l 26.586 87.934 l 26.586 75.746 36.465
 65.867 48.652 65.867 c 335.344 65.867 l 347.531 65.867 357.414 75.746 357.414
 87.934 c h
357.414 300.906 m f
0.952941 0.917647 0.901961 rg
321.852 265.438 m 62.148 265.438 l 57.871 265.438 54.406 261.969 54.406
 257.695 c 54.406 102.371 l 54.406 98.098 57.875 94.633 62.148 94.633 c 
321.852 94.633 l 326.125 94.633 329.59 98.098 329.59 102.371 c 329.59 257.695
 l 329.59 261.969 326.125 265.438 321.852 265.438 c h
321.852 265.438 m f
0.541176 0.788235 0.996078 rg
289.836 241.195 m 245.852 241.195 l 245.852 44.562 l 245.852 43.152 246.992
 42.012 248.402 42.012 c 287.285 42.012 l 288.695 42.012 289.836 43.152 
289.836 44.562 c h
289.836 241.195 m f
0.376471 0.717647 1 rg
289.836 44.566 m 289.836 241.195 l 277.379 241.195 l 277.379 44.566 l 277.379
 43.152 276.234 42.016 274.828 42.016 c 287.285 42.016 l 288.695 42.016 
289.836 43.152 289.836 44.566 c h
289.836 44.566 m f
0.984314 0.168627 0.227451 rg
214.281 241.195 m 170.297 241.195 l 170.297 155.809 l 170.297 154.398 171.438
 153.258 172.844 153.258 c 211.73 153.258 l 213.141 153.258 214.281 154.398
 214.281 155.809 c h
214.281 241.195 m f
0.894118 0.121569 0.176471 rg
214.281 155.809 m 214.281 241.195 l 201.82 241.195 l 201.82 155.809 l 201.82
 154.398 200.68 153.258 199.27 153.258 c 211.73 153.258 l 213.137 153.258
 214.281 154.398 214.281 155.809 c h
214.281 155.809 m f
0.996078 0.756863 0.396078 rg
138.148 241.195 m 94.164 241.195 l 94.164 123.797 l 94.164 122.387 95.305
 121.246 96.711 121.246 c 135.598 121.246 l 137.008 121.246 138.148 122.387
 138.148 123.797 c h
138.148 241.195 m f
0.992157 0.705882 0.254902 rg
138.148 123.797 m 138.148 241.195 l 125.688 241.195 l 125.688 123.797 l
 125.688 122.383 124.547 121.246 123.137 121.246 c 135.598 121.246 l 137.004
 121.246 138.148 122.387 138.148 123.797 c h
138.148 123.797 m f
0.611765 g
304.766 246.988 m 79.234 246.988 l 76.035 246.988 73.441 244.395 73.441
 241.195 c 73.441 237.996 76.035 235.402 79.234 235.402 c 304.766 235.402
 l 307.965 235.402 310.559 237.996 310.559 241.195 c 310.559 244.395 307.965
 246.988 304.766 246.988 c h
304.766 246.988 m f
0.952941 0.917647 0.901961 rg
145.863 293.633 92.273 27.035 re f
0.611765 g
377.461 293.633 m 235.82 293.633 l 235.82 305.066 l 235.82 309.672 232.086
 313.41 227.477 313.41 c 156.523 313.41 l 151.914 313.41 148.18 309.672 
148.18 305.066 c 148.18 293.633 l 6.539 293.633 l 2.93 293.633 0 296.559
 0 300.172 c 0 321.508 l 0 332.816 9.168 341.988 20.48 341.988 c 363.52 
341.988 l 374.828 341.988 384 332.816 384 321.508 c 384 300.172 l 384 296.559
 381.07 293.633 377.461 293.633 c h
377.461 293.633 m f
0.513726 g
384 300.172 m 384 321.508 l 384 332.82 374.832 341.988 363.52 341.988 c
 351.844 341.988 l 360.535 341.988 367.582 334.941 367.582 326.25 c 367.582
 300.172 l 367.582 296.559 364.66 293.629 361.047 293.629 c 377.457 293.629
 l 381.07 293.629 384 296.559 384 300.172 c h
384 300.172 m f
Q Q
showpage
%%Trailer
end
%%EOF
