%!PS-Adobe-3.0 EPSF-3.0
%%Creator: cairo 1.16.0 (https://cairographics.org)
%%CreationDate: Thu Nov  7 08:26:00 2019
%%Pages: 1
%%DocumentData: Clean7Bit
%%LanguageLevel: 2
%%BoundingBox: 22 0 362 384
%%EndComments
%%BeginProlog
50 dict begin
/q { gsave } bind def
/Q { grestore } bind def
/cm { 6 array astore concat } bind def
/w { setlinewidth } bind def
/J { setlinecap } bind def
/j { setlinejoin } bind def
/M { setmiterlimit } bind def
/d { setdash } bind def
/m { moveto } bind def
/l { lineto } bind def
/c { curveto } bind def
/h { closepath } bind def
/re { exch dup neg 3 1 roll 5 3 roll moveto 0 rlineto
      0 exch rlineto 0 rlineto closepath } bind def
/S { stroke } bind def
/f { fill } bind def
/f* { eofill } bind def
/n { newpath } bind def
/W { clip } bind def
/W* { eoclip } bind def
/BT { } bind def
/ET { } bind def
/BDC { mark 3 1 roll /BDC pdfmark } bind def
/EMC { mark /EMC pdfmark } bind def
/cairo_store_point { /cairo_point_y exch def /cairo_point_x exch def } def
/Tj { show currentpoint cairo_store_point } bind def
/TJ {
  {
    dup
    type /stringtype eq
    { show } { -0.001 mul 0 cairo_font_matrix dtransform rmoveto } ifelse
  } forall
  currentpoint cairo_store_point
} bind def
/cairo_selectfont { cairo_font_matrix aload pop pop pop 0 0 6 array astore
    cairo_font exch selectfont cairo_point_x cairo_point_y moveto } bind def
/Tf { pop /cairo_font exch def /cairo_font_matrix where
      { pop cairo_selectfont } if } bind def
/Td { matrix translate cairo_font_matrix matrix concatmatrix dup
      /cairo_font_matrix exch def dup 4 get exch 5 get cairo_store_point
      /cairo_font where { pop cairo_selectfont } if } bind def
/Tm { 2 copy 8 2 roll 6 array astore /cairo_font_matrix exch def
      cairo_store_point /cairo_font where { pop cairo_selectfont } if } bind def
/g { setgray } bind def
/rg { setrgbcolor } bind def
/d1 { setcachedevice } bind def
/cairo_data_source {
  CairoDataIndex CairoData length lt
    { CairoData CairoDataIndex get /CairoDataIndex CairoDataIndex 1 add def }
    { () } ifelse
} def
/cairo_flush_ascii85_file { cairo_ascii85_file status { cairo_ascii85_file flushfile } if } def
/cairo_image { image cairo_flush_ascii85_file } def
/cairo_imagemask { imagemask cairo_flush_ascii85_file } def
%%EndProlog
%%BeginSetup
%%EndSetup
%%Page: 1 1
%%BeginPageSetup
%%PageBoundingBox: 22 0 362 384
%%EndPageSetup
q 22 0 340 384 rectclip
1 0 0 -1 0 384 cm q
0.952941 0.917647 0.901961 rg
22.723 56.652 m 22.723 369.453 l 22.723 377.488 29.238 384 37.27 384 c 
282.324 384 l 290.359 384 296.871 377.488 296.871 369.453 c 296.871 14.547
 l 296.871 6.512 290.359 0 282.324 0 c 82.789 0 l h
22.723 56.652 m f
0.882353 0.827451 0.807843 rg
296.867 14.543 m 296.867 369.453 l 296.867 377.484 290.355 384 282.324 
384 c 264.316 384 l 272.355 384 278.871 377.484 278.871 369.453 c 278.871
 14.543 l 278.871 6.516 272.355 0 264.316 0 c 282.324 0 l 290.355 0 296.867
 6.516 296.867 14.543 c h
296.867 14.543 m f
0.803922 0.74902 0.729412 rg
22.723 56.652 m 68.242 56.652 l 76.277 56.652 82.789 50.141 82.789 42.105
 c 82.789 0 l h
22.723 56.652 m f
0.67451 0.368627 0.180392 rg
103.754 111.238 m 103.754 189.656 l 103.754 201.918 113.695 211.859 125.957
 211.859 c 195.527 211.859 l 207.789 211.859 217.73 201.918 217.73 189.656
 c 217.73 111.238 l h
103.754 111.238 m f
0.619608 0.333333 0.156863 rg
217.73 111.234 m 217.73 189.656 l 217.73 201.922 207.785 211.859 195.527
 211.859 c 180.902 211.859 l 193.164 211.859 203.102 201.922 203.102 189.656
 c 203.102 111.234 l h
217.73 111.234 m f
0.964706 0.662745 0.423529 rg
211.508 150.793 m 211.508 151.152 l 211.508 171.395 195.102 187.805 174.859
 187.805 c 146.621 187.805 l 126.379 187.805 109.973 171.395 109.973 151.152
 c 109.973 106.941 l 211.508 106.941 l h
211.508 150.793 m f
0.917647 0.607843 0.345098 rg
211.508 106.945 m 211.508 151.156 l 211.508 171.398 195.102 187.805 174.859
 187.805 c 160.871 187.805 l 181.109 187.805 197.52 171.398 197.52 151.156
 c 197.52 106.945 l h
211.508 106.945 m f
0.67451 0.368627 0.180392 rg
174.09 67.746 m 147.465 67.746 l 123.363 67.746 103.824 87.281 103.824 
111.383 c 103.824 134.941 l 127.883 136.391 147.121 125.785 158.129 117.539
 c 159.703 116.363 161.852 116.363 163.426 117.539 c 174.434 125.785 193.672
 136.395 217.73 134.941 c 217.73 111.383 l 217.73 87.281 198.191 67.746 
174.09 67.746 c h
174.09 67.746 m f
0.619608 0.333333 0.156863 rg
217.73 111.383 m 217.73 134.941 l 212.629 135.254 207.738 135.016 203.102
 134.375 c 203.102 111.383 l 203.102 87.281 183.566 67.746 159.465 67.746
 c 174.094 67.746 l 198.195 67.746 217.73 87.281 217.73 111.383 c h
217.73 111.383 m f
0.352941 g
141.891 161.676 m 144.996 161.676 147.516 159.16 147.516 156.051 c 147.516
 149.359 l 147.516 146.254 144.996 143.734 141.891 143.734 c 138.781 143.734
 136.266 146.254 136.266 149.359 c 136.266 156.051 l 136.266 159.16 138.781
 161.676 141.891 161.676 c h
141.891 161.676 m f
177.781 161.676 m 180.891 161.676 183.406 159.16 183.406 156.051 c 183.406
 149.359 l 183.406 146.254 180.891 143.734 177.781 143.734 c 174.676 143.734
 172.156 146.254 172.156 149.359 c 172.156 156.051 l 172.156 159.16 174.676
 161.676 177.781 161.676 c h
177.781 161.676 m f
0.568627 0.870588 0.713726 rg
361.277 295.438 m 361.277 326.875 335.789 352.359 304.355 352.359 c 272.918
 352.359 247.434 326.875 247.434 295.438 c 247.434 264 272.918 238.516 304.355
 238.516 c 335.789 238.516 361.277 264 361.277 295.438 c h
361.277 295.438 m f
0.431373 0.835294 0.631373 rg
361.277 295.438 m 361.277 326.871 335.789 352.359 304.359 352.359 c 285.949
 352.359 269.582 343.625 259.18 330.074 c 268.152 335.984 278.895 339.418
 290.434 339.418 c 321.867 339.418 347.355 313.934 347.355 282.492 c 347.355
 269.465 342.977 257.453 335.613 247.863 c 351.074 258.035 361.277 275.547
 361.277 295.438 c h
361.277 295.438 m f
0.803922 0.74902 0.729412 rg
237.715 250.184 m 90.629 250.184 l 87.426 250.184 84.832 247.59 84.832 
244.391 c 84.832 241.188 87.426 238.594 90.629 238.594 c 237.715 238.594
 l 240.918 238.594 243.512 241.188 243.512 244.391 c 243.512 247.59 240.918
 250.184 237.715 250.184 c h
237.715 250.184 m f
221.539 275.711 m 90.629 275.711 l 87.426 275.711 84.832 273.117 84.832
 269.914 c 84.832 266.715 87.426 264.121 90.629 264.121 c 221.539 264.121
 l 224.738 264.121 227.336 266.715 227.336 269.914 c 227.336 273.117 224.738
 275.711 221.539 275.711 c h
221.539 275.711 m f
221.473 301.234 m 90.629 301.234 l 87.426 301.234 84.832 298.641 84.832
 295.438 c 84.832 292.238 87.426 289.645 90.629 289.645 c 221.473 289.645
 l 224.676 289.645 227.27 292.238 227.27 295.438 c 227.27 298.641 224.676
 301.234 221.473 301.234 c h
221.473 301.234 m f
221.539 326.758 m 90.629 326.758 l 87.426 326.758 84.832 324.164 84.832
 320.961 c 84.832 317.762 87.426 315.168 90.629 315.168 c 221.539 315.168
 l 224.738 315.168 227.336 317.762 227.336 320.961 c 227.336 324.164 224.738
 326.758 221.539 326.758 c h
221.539 326.758 m f
237.715 352.281 m 90.629 352.281 l 87.426 352.281 84.832 349.688 84.832
 346.488 c 84.832 343.285 87.426 340.691 90.629 340.691 c 237.715 340.691
 l 240.918 340.691 243.512 343.285 243.512 346.488 c 243.512 349.688 240.918
 352.281 237.715 352.281 c h
237.715 352.281 m f
0.352941 g
341.375 270.027 m 338.793 269.547 336.289 270.859 335.148 273.086 c 328.035
 263.324 316.527 257.371 304.355 257.371 c 283.363 257.371 266.285 274.449
 266.285 295.438 c 266.285 316.43 283.363 333.508 304.355 333.508 c 307.555
 333.508 310.148 330.914 310.148 327.715 c 310.148 324.512 307.555 321.918
 304.355 321.918 c 289.754 321.918 277.875 310.039 277.875 295.438 c 277.875
 280.836 289.754 268.957 304.355 268.957 c 312.758 268.957 320.434 272.824
 325.426 279.414 c 322.5 278.742 319.496 280.43 318.598 283.352 c 317.656
 286.41 319.371 289.652 322.43 290.598 c 336.066 294.797 l 336.625 294.969
 337.199 295.055 337.773 295.055 c 338.82 295.055 339.855 294.77 340.77 
294.219 c 342.184 293.363 343.164 291.949 343.469 290.324 c 346.004 276.789
 l 346.594 273.645 344.52 270.617 341.375 270.027 c h
341.375 270.027 m f
322.18 304.516 m 310.148 297.676 l 310.148 279.582 l 310.148 276.383 307.555
 273.789 304.355 273.789 c 301.152 273.789 298.559 276.383 298.559 279.582
 c 298.559 301.047 l 298.559 303.133 299.676 305.055 301.488 306.086 c 316.453
 314.594 l 317.355 315.105 318.34 315.352 319.309 315.352 c 321.328 315.352
 323.285 314.297 324.352 312.418 c 325.938 309.637 324.961 306.098 322.18
 304.516 c h
322.18 304.516 m f
Q Q
showpage
%%Trailer
end
%%EOF
