%!PS-Adobe-3.0 EPSF-3.0
%%Creator: cairo 1.16.0 (https://cairographics.org)
%%CreationDate: Thu Nov  7 08:26:00 2019
%%Pages: 1
%%DocumentData: Clean7Bit
%%LanguageLevel: 2
%%BoundingBox: 0 0 384 384
%%EndComments
%%BeginProlog
50 dict begin
/q { gsave } bind def
/Q { grestore } bind def
/cm { 6 array astore concat } bind def
/w { setlinewidth } bind def
/J { setlinecap } bind def
/j { setlinejoin } bind def
/M { setmiterlimit } bind def
/d { setdash } bind def
/m { moveto } bind def
/l { lineto } bind def
/c { curveto } bind def
/h { closepath } bind def
/re { exch dup neg 3 1 roll 5 3 roll moveto 0 rlineto
      0 exch rlineto 0 rlineto closepath } bind def
/S { stroke } bind def
/f { fill } bind def
/f* { eofill } bind def
/n { newpath } bind def
/W { clip } bind def
/W* { eoclip } bind def
/BT { } bind def
/ET { } bind def
/BDC { mark 3 1 roll /BDC pdfmark } bind def
/EMC { mark /EMC pdfmark } bind def
/cairo_store_point { /cairo_point_y exch def /cairo_point_x exch def } def
/Tj { show currentpoint cairo_store_point } bind def
/TJ {
  {
    dup
    type /stringtype eq
    { show } { -0.001 mul 0 cairo_font_matrix dtransform rmoveto } ifelse
  } forall
  currentpoint cairo_store_point
} bind def
/cairo_selectfont { cairo_font_matrix aload pop pop pop 0 0 6 array astore
    cairo_font exch selectfont cairo_point_x cairo_point_y moveto } bind def
/Tf { pop /cairo_font exch def /cairo_font_matrix where
      { pop cairo_selectfont } if } bind def
/Td { matrix translate cairo_font_matrix matrix concatmatrix dup
      /cairo_font_matrix exch def dup 4 get exch 5 get cairo_store_point
      /cairo_font where { pop cairo_selectfont } if } bind def
/Tm { 2 copy 8 2 roll 6 array astore /cairo_font_matrix exch def
      cairo_store_point /cairo_font where { pop cairo_selectfont } if } bind def
/g { setgray } bind def
/rg { setrgbcolor } bind def
/d1 { setcachedevice } bind def
/cairo_data_source {
  CairoDataIndex CairoData length lt
    { CairoData CairoDataIndex get /CairoDataIndex CairoDataIndex 1 add def }
    { () } ifelse
} def
/cairo_flush_ascii85_file { cairo_ascii85_file status { cairo_ascii85_file flushfile } if } def
/cairo_image { image cairo_flush_ascii85_file } def
/cairo_imagemask { imagemask cairo_flush_ascii85_file } def
%%EndProlog
%%BeginSetup
%%EndSetup
%%Page: 1 1
%%BeginPageSetup
%%PageBoundingBox: 0 0 384 384
%%EndPageSetup
q 0 0 384 384 rectclip
1 0 0 -1 0 384 cm q
0.984314 0.168627 0.227451 rg
93.215 384 m 7.105 384 l 3.285 384 0.191 380.902 0.191 377.082 c 0.191 
336.047 l 0.191 332.227 3.285 329.133 7.105 329.133 c 93.215 329.133 l 97.035
 329.133 100.129 332.227 100.129 336.047 c 100.129 377.082 l 100.129 380.902
 97.031 384 93.215 384 c h
93.215 384 m f
235.055 384 m 148.945 384 l 145.125 384 142.031 380.902 142.031 377.082
 c 142.031 336.047 l 142.031 332.227 145.125 329.133 148.945 329.133 c 235.055
 329.133 l 238.875 329.133 241.969 332.227 241.969 336.047 c 241.969 377.082
 l 241.969 380.902 238.875 384 235.055 384 c h
235.055 384 m f
376.895 384 m 290.785 384 l 286.965 384 283.871 380.902 283.871 377.082
 c 283.871 336.047 l 283.871 332.227 286.965 329.133 290.785 329.133 c 376.895
 329.133 l 380.715 329.133 383.809 332.227 383.809 336.047 c 383.809 377.082
 l 383.809 380.902 380.715 384 376.895 384 c h
376.895 384 m f
0.894118 0.121569 0.176471 rg
100.133 336.051 m 100.133 377.086 l 100.133 380.902 97.035 384 93.215 384
 c 76.727 384 l 80.551 384 83.641 380.902 83.641 377.086 c 83.641 336.051
 l 83.641 332.23 80.551 329.133 76.727 329.133 c 93.215 329.133 l 97.035
 329.133 100.133 332.23 100.133 336.051 c h
100.133 336.051 m f
241.969 336.051 m 241.969 377.086 l 241.969 380.902 238.875 384 235.051
 384 c 218.566 384 l 222.383 384 225.484 380.902 225.484 377.086 c 225.484
 336.051 l 225.484 332.23 222.383 329.133 218.566 329.133 c 235.051 329.133
 l 238.875 329.133 241.969 332.23 241.969 336.051 c h
241.969 336.051 m f
383.812 336.051 m 383.812 377.086 l 383.812 380.902 380.711 384 376.895
 384 c 360.41 384 l 364.227 384 367.328 380.902 367.328 377.086 c 367.328
 336.051 l 367.328 332.23 364.227 329.133 360.41 329.133 c 376.895 329.133
 l 380.711 329.133 383.812 332.23 383.812 336.051 c h
383.812 336.051 m f
0.996078 0.756863 0.396078 rg
205.059 214.449 m 205.059 185.328 l 205.059 182.812 203.02 180.773 200.504
 180.773 c 183.496 180.773 l 180.98 180.773 178.941 182.812 178.941 185.328
 c 178.941 214.449 l 178.941 216.582 177.211 218.312 175.078 218.312 c 53.414
 218.312 l 44.402 218.312 37.098 225.613 37.098 234.625 c 37.098 302.051
 l 37.098 304.566 39.141 306.605 41.656 306.605 c 58.664 306.605 l 61.18
 306.605 63.219 304.566 63.219 302.051 c 63.219 248.289 l 63.219 246.16 
64.949 244.43 67.078 244.43 c 175.078 244.43 l 177.211 244.43 178.941 246.16
 178.941 248.289 c 178.941 302.051 l 178.941 304.566 180.98 306.605 183.496
 306.605 c 200.504 306.605 l 203.02 306.605 205.059 304.566 205.059 302.051
 c 205.059 248.289 l 205.059 246.16 206.789 244.43 208.922 244.43 c 316.922
 244.43 l 319.055 244.43 320.781 246.16 320.781 248.289 c 320.781 302.051
 l 320.781 304.566 322.82 306.605 325.34 306.605 c 342.348 306.605 l 344.863
 306.605 346.902 304.566 346.902 302.051 c 346.902 234.625 l 346.902 225.613
 339.598 218.312 330.59 218.312 c 208.922 218.312 l 206.789 218.312 205.059
 216.582 205.059 214.449 c h
205.059 214.449 m f
0.67451 0.368627 0.180392 rg
130.016 47.309 m 130.016 132.602 l 130.016 145.938 140.828 156.75 154.164
 156.75 c 229.832 156.75 l 243.172 156.75 253.98 145.941 253.98 132.602 
c 253.98 47.309 l h
130.016 47.309 m f
0.619608 0.333333 0.156863 rg
253.984 47.305 m 253.984 132.602 l 253.984 145.941 243.164 156.746 229.836
 156.746 c 213.926 156.746 l 227.266 156.746 238.074 145.941 238.074 132.602
 c 238.074 47.305 l h
253.984 47.305 m f
0.964706 0.662745 0.423529 rg
247.219 90.328 m 247.219 90.723 l 247.219 112.738 229.371 130.586 207.355
 130.586 c 176.641 130.586 l 154.625 130.586 136.777 112.738 136.777 90.723
 c 136.777 42.633 l 247.219 42.633 l h
247.219 90.328 m f
0.917647 0.607843 0.345098 rg
247.215 42.641 m 247.215 90.727 l 247.215 112.738 229.371 130.586 207.355
 130.586 c 192.141 130.586 l 214.152 130.586 232 112.738 232 90.727 c 232
 42.641 l h
247.215 42.641 m f
0.67451 0.368627 0.180392 rg
206.52 0 m 177.559 0 l 151.344 0 130.094 21.25 130.094 47.465 c 130.094
 73.09 l 156.262 74.668 177.188 63.129 189.16 54.16 c 190.871 52.879 193.207
 52.879 194.918 54.16 c 206.891 63.129 227.816 74.668 253.984 73.09 c 253.984
 47.465 l 253.984 21.25 232.734 0 206.52 0 c h
206.52 0 m f
0.619608 0.333333 0.156863 rg
253.984 47.461 m 253.984 73.09 l 248.438 73.426 243.117 73.168 238.074 
72.473 c 238.074 47.461 l 238.074 21.25 216.824 0 190.613 0 c 206.523 0 
l 232.734 0 253.984 21.25 253.984 47.461 c h
253.984 47.461 m f
0.352941 g
171.496 102 m 174.781 102 177.441 99.336 177.441 96.051 c 177.441 88.773
 l 177.441 85.484 174.781 82.824 171.496 82.824 c 168.207 82.824 165.547
 85.484 165.547 88.773 c 165.547 96.051 l 165.547 99.336 168.211 102 171.496
 102 c h
171.496 102 m f
210.535 102 m 213.82 102 216.48 99.336 216.48 96.051 c 216.48 88.773 l 
216.48 85.484 213.82 82.824 210.535 82.824 c 207.246 82.824 204.586 85.484
 204.586 88.773 c 204.586 96.051 l 204.586 99.336 207.246 102 210.535 102
 c h
210.535 102 m f
Q Q
showpage
%%Trailer
end
%%EOF
