%!PS-Adobe-3.0 EPSF-3.0
%%Creator: cairo 1.16.0 (https://cairographics.org)
%%CreationDate: Thu Nov  7 08:26:01 2019
%%Pages: 1
%%DocumentData: Clean7Bit
%%LanguageLevel: 2
%%BoundingBox: 0 0 384 384
%%EndComments
%%BeginProlog
50 dict begin
/q { gsave } bind def
/Q { grestore } bind def
/cm { 6 array astore concat } bind def
/w { setlinewidth } bind def
/J { setlinecap } bind def
/j { setlinejoin } bind def
/M { setmiterlimit } bind def
/d { setdash } bind def
/m { moveto } bind def
/l { lineto } bind def
/c { curveto } bind def
/h { closepath } bind def
/re { exch dup neg 3 1 roll 5 3 roll moveto 0 rlineto
      0 exch rlineto 0 rlineto closepath } bind def
/S { stroke } bind def
/f { fill } bind def
/f* { eofill } bind def
/n { newpath } bind def
/W { clip } bind def
/W* { eoclip } bind def
/BT { } bind def
/ET { } bind def
/BDC { mark 3 1 roll /BDC pdfmark } bind def
/EMC { mark /EMC pdfmark } bind def
/cairo_store_point { /cairo_point_y exch def /cairo_point_x exch def } def
/Tj { show currentpoint cairo_store_point } bind def
/TJ {
  {
    dup
    type /stringtype eq
    { show } { -0.001 mul 0 cairo_font_matrix dtransform rmoveto } ifelse
  } forall
  currentpoint cairo_store_point
} bind def
/cairo_selectfont { cairo_font_matrix aload pop pop pop 0 0 6 array astore
    cairo_font exch selectfont cairo_point_x cairo_point_y moveto } bind def
/Tf { pop /cairo_font exch def /cairo_font_matrix where
      { pop cairo_selectfont } if } bind def
/Td { matrix translate cairo_font_matrix matrix concatmatrix dup
      /cairo_font_matrix exch def dup 4 get exch 5 get cairo_store_point
      /cairo_font where { pop cairo_selectfont } if } bind def
/Tm { 2 copy 8 2 roll 6 array astore /cairo_font_matrix exch def
      cairo_store_point /cairo_font where { pop cairo_selectfont } if } bind def
/g { setgray } bind def
/rg { setrgbcolor } bind def
/d1 { setcachedevice } bind def
/cairo_data_source {
  CairoDataIndex CairoData length lt
    { CairoData CairoDataIndex get /CairoDataIndex CairoDataIndex 1 add def }
    { () } ifelse
} def
/cairo_flush_ascii85_file { cairo_ascii85_file status { cairo_ascii85_file flushfile } if } def
/cairo_image { image cairo_flush_ascii85_file } def
/cairo_imagemask { imagemask cairo_flush_ascii85_file } def
%%EndProlog
%%BeginSetup
%%EndSetup
%%Page: 1 1
%%BeginPageSetup
%%PageBoundingBox: 0 0 384 384
%%EndPageSetup
q 0 0 384 384 rectclip
1 0 0 -1 0 384 cm q
0.952941 0.917647 0.901961 rg
0.117 61.617 m 0.117 368.18 l 0.117 376.918 7.199 384 15.938 384 c 282.477
 384 l 291.215 384 298.297 376.918 298.297 368.18 c 298.297 15.82 l 298.297
 7.082 291.215 0 282.477 0 c 65.445 0 l h
0.117 61.617 m f
0.882353 0.827451 0.807843 rg
298.293 15.82 m 298.293 368.18 l 298.293 376.914 291.211 384 282.477 384
 c 262.891 384 l 271.633 384 278.719 376.914 278.719 368.18 c 278.719 15.82
 l 278.719 7.086 271.633 0 262.891 0 c 282.477 0 l 291.211 0 298.293 7.086
 298.293 15.82 c h
298.293 15.82 m f
0.803922 0.74902 0.729412 rg
0.117 61.617 m 49.629 61.617 l 58.363 61.617 65.445 54.535 65.445 45.797
 c 65.445 0 l h
0.117 61.617 m f
0.964706 0.662745 0.423529 rg
99.266 176.297 m 99.266 196.711 115.812 213.258 136.227 213.258 c 164.707
 213.258 l 185.117 213.258 201.664 196.711 201.664 176.297 c 201.664 124.418
 l 99.266 124.418 l h
99.266 176.297 m f
0.917647 0.607843 0.345098 rg
201.664 124.414 m 201.664 176.301 l 201.664 196.711 185.121 213.262 164.703
 213.262 c 148.582 213.262 l 168.992 213.262 185.543 196.711 185.543 176.301
 c 185.543 124.414 l h
201.664 124.414 m f
0.352941 g
104.703 80.84 m 109.832 83.527 l 113.922 85.668 118.801 85.668 122.887 
83.527 c 126.887 81.434 l 130.973 79.289 135.852 79.289 139.938 81.434 c
 143.934 83.527 l 148.023 85.668 152.902 85.668 156.988 83.527 c 160.988
 81.43 l 165.074 79.289 169.953 79.289 174.039 81.43 c 178.043 83.527 l 
182.129 85.672 187.008 85.672 191.094 83.527 c 196.227 80.84 l 198.68 79.551
 201.621 81.332 201.621 84.102 c 201.621 156.785 l 201.621 157.887 200.285
 158.418 199.527 157.625 c 195.754 153.688 188.062 144.453 186.418 133.168
 c 186.152 131.352 184.449 130.191 182.656 130.586 c 180.324 131.102 177.613
 131.691 177.328 131.742 c 169.883 133.008 162.102 133.77 154.285 133.852
 c 150.469 133.816 l 146.652 133.852 l 138.836 133.77 131.051 133.008 123.609
 131.742 c 123.32 131.691 120.609 131.102 118.277 130.586 c 116.492 130.191
 114.777 131.41 114.508 133.219 c 112.848 144.484 105.168 153.699 101.406
 157.629 c 100.645 158.422 99.312 157.883 99.312 156.785 c 99.312 84.102
 l 99.309 81.332 102.25 79.551 104.703 80.84 c h
104.703 80.84 m f
0.266667 g
201.625 84.098 m 201.625 156.785 l 201.625 157.891 200.285 158.422 199.523
 157.629 c 195.754 153.691 188.066 144.453 186.418 133.168 c 186.316 132.465
 185.996 131.863 185.543 131.41 c 185.543 85.102 l 187.453 84.973 189.344
 84.449 191.09 83.523 c 196.227 80.84 l 198.68 79.555 201.625 81.336 201.625
 84.098 c h
201.625 84.098 m f
0.352941 g
130.703 161.539 m 127.598 161.539 125.078 164.055 125.078 167.164 c 125.078
 174.531 l 125.078 177.641 127.598 180.156 130.703 180.156 c 133.809 180.156
 136.328 177.641 136.328 174.531 c 136.328 167.164 l 136.328 164.055 133.809
 161.539 130.703 161.539 c h
130.703 161.539 m f
170.23 161.539 m 167.125 161.539 164.605 164.055 164.605 167.164 c 164.605
 174.531 l 164.605 177.641 167.125 180.156 170.23 180.156 c 173.336 180.156
 175.855 177.641 175.855 174.531 c 175.855 167.164 l 175.855 164.055 173.336
 161.539 170.23 161.539 c h
170.23 161.539 m f
0.803922 0.74902 0.729412 rg
200.078 250.246 m 80.004 250.246 l 76.898 250.246 74.379 247.727 74.379
 244.621 c 74.379 241.512 76.898 238.996 80.004 238.996 c 200.078 238.996
 l 203.184 238.996 205.703 241.512 205.703 244.621 c 205.703 247.727 203.184
 250.246 200.078 250.246 c h
200.078 250.246 m f
180.473 275.781 m 80.004 275.781 l 76.898 275.781 74.379 273.262 74.379
 270.156 c 74.379 267.047 76.898 264.531 80.004 264.531 c 180.473 264.531
 l 183.582 264.531 186.098 267.047 186.098 270.156 c 186.098 273.262 183.582
 275.781 180.473 275.781 c h
180.473 275.781 m f
180.473 301.316 m 80.004 301.316 l 76.898 301.316 74.379 298.797 74.379
 295.691 c 74.379 292.582 76.898 290.066 80.004 290.066 c 180.473 290.066
 l 183.582 290.066 186.098 292.582 186.098 295.691 c 186.098 298.797 183.582
 301.316 180.473 301.316 c h
180.473 301.316 m f
218.41 326.852 m 80.004 326.852 l 76.898 326.852 74.379 324.332 74.379 
321.227 c 74.379 318.121 76.898 315.602 80.004 315.602 c 218.41 315.602 
l 221.516 315.602 224.035 318.121 224.035 321.227 c 224.035 324.332 221.516
 326.852 218.41 326.852 c h
218.41 326.852 m f
218.41 352.387 m 80.004 352.387 l 76.898 352.387 74.379 349.871 74.379 
346.762 c 74.379 343.656 76.898 341.137 80.004 341.137 c 218.41 341.137 
l 221.516 341.137 224.035 343.656 224.035 346.762 c 224.035 349.871 221.516
 352.387 218.41 352.387 c h
218.41 352.387 m f
0 0.760784 0.478431 rg
364.074 177.668 m 328.32 183.977 l 322.344 185.035 318.113 190.816 318.918
 196.836 c 319.793 203.355 325.812 207.758 332.293 206.613 c 338.457 205.523
 l 310.309 249.91 l 308.082 253.422 303.43 254.465 299.918 252.238 c 251.277
 226.848 l 245.211 223 237.176 224.797 233.328 230.863 c 203.281 277.18 
l 199.57 283.031 201.305 290.785 207.156 294.496 c 213.008 298.207 220.758
 296.469 224.469 290.621 c 243.984 260.852 l 246.211 257.34 250.863 256.297
 254.375 258.523 c 303.043 283.934 l 309.109 287.781 317.148 285.98 320.996
 279.914 c 359.688 218.902 l 361.074 226.762 l 362.176 233.008 368.137 237.18
 374.387 236.078 c 380.637 234.977 384.809 229.016 383.703 222.766 c 377.387
 186.984 l 376.281 180.738 370.32 176.566 364.074 177.668 c h
364.074 177.668 m f
0.0313726 0.721569 0.396078 rg
383.707 222.766 m 377.391 186.984 l 376.285 180.738 370.32 176.566 364.074
 177.668 c 363.5 177.766 l 364.598 182.125 365.953 186.426 366.457 190.922
 c 366.969 195.473 369.801 203.645 364.68 206.602 c 361.547 208.41 357.941
 206.426 354.688 208.469 c 351.828 210.266 350.289 212.926 348.516 215.719
 c 344.141 222.602 339.785 229.48 335.426 236.355 c 329.145 246.262 323.23
 256.41 316.578 266.078 c 311.895 272.887 308 273.594 298.621 268.406 c 
249.953 243 l 246.445 240.77 241.789 241.809 239.559 245.32 c 220.047 276.781
 l 216.332 282.633 208.586 284.367 202.734 280.66 c 202.453 280.477 202.176
 280.289 201.914 280.086 c 200.223 285.391 202.23 291.371 207.156 294.496
 c 209.242 295.82 211.566 296.449 213.863 296.449 c 218.016 296.449 222.078
 294.383 224.469 290.621 c 243.984 260.852 l 246.211 257.34 250.867 256.301
 254.375 258.531 c 303.047 283.938 l 309.109 287.785 317.145 285.98 320.992
 279.918 c 359.688 218.902 l 361.074 226.762 l 362.18 233.008 368.133 237.184
 374.391 236.082 c 379.965 235.098 383.883 230.242 383.883 224.773 c 383.883
 224.109 383.828 223.438 383.707 222.766 c h
383.707 222.766 m f
Q Q
showpage
%%Trailer
end
%%EOF
