%!PS-Adobe-3.0 EPSF-3.0
%%Creator: cairo 1.16.0 (https://cairographics.org)
%%CreationDate: Thu Nov  7 08:26:01 2019
%%Pages: 1
%%DocumentData: Clean7Bit
%%LanguageLevel: 2
%%BoundingBox: 0 0 384 384
%%EndComments
%%BeginProlog
50 dict begin
/q { gsave } bind def
/Q { grestore } bind def
/cm { 6 array astore concat } bind def
/w { setlinewidth } bind def
/J { setlinecap } bind def
/j { setlinejoin } bind def
/M { setmiterlimit } bind def
/d { setdash } bind def
/m { moveto } bind def
/l { lineto } bind def
/c { curveto } bind def
/h { closepath } bind def
/re { exch dup neg 3 1 roll 5 3 roll moveto 0 rlineto
      0 exch rlineto 0 rlineto closepath } bind def
/S { stroke } bind def
/f { fill } bind def
/f* { eofill } bind def
/n { newpath } bind def
/W { clip } bind def
/W* { eoclip } bind def
/BT { } bind def
/ET { } bind def
/BDC { mark 3 1 roll /BDC pdfmark } bind def
/EMC { mark /EMC pdfmark } bind def
/cairo_store_point { /cairo_point_y exch def /cairo_point_x exch def } def
/Tj { show currentpoint cairo_store_point } bind def
/TJ {
  {
    dup
    type /stringtype eq
    { show } { -0.001 mul 0 cairo_font_matrix dtransform rmoveto } ifelse
  } forall
  currentpoint cairo_store_point
} bind def
/cairo_selectfont { cairo_font_matrix aload pop pop pop 0 0 6 array astore
    cairo_font exch selectfont cairo_point_x cairo_point_y moveto } bind def
/Tf { pop /cairo_font exch def /cairo_font_matrix where
      { pop cairo_selectfont } if } bind def
/Td { matrix translate cairo_font_matrix matrix concatmatrix dup
      /cairo_font_matrix exch def dup 4 get exch 5 get cairo_store_point
      /cairo_font where { pop cairo_selectfont } if } bind def
/Tm { 2 copy 8 2 roll 6 array astore /cairo_font_matrix exch def
      cairo_store_point /cairo_font where { pop cairo_selectfont } if } bind def
/g { setgray } bind def
/rg { setrgbcolor } bind def
/d1 { setcachedevice } bind def
/cairo_data_source {
  CairoDataIndex CairoData length lt
    { CairoData CairoDataIndex get /CairoDataIndex CairoDataIndex 1 add def }
    { () } ifelse
} def
/cairo_flush_ascii85_file { cairo_ascii85_file status { cairo_ascii85_file flushfile } if } def
/cairo_image { image cairo_flush_ascii85_file } def
/cairo_imagemask { imagemask cairo_flush_ascii85_file } def
%%EndProlog
%%BeginSetup
%%EndSetup
%%Page: 1 1
%%BeginPageSetup
%%PageBoundingBox: 0 0 384 384
%%EndPageSetup
q 0 0 384 384 rectclip
1 0 0 -1 0 384 cm q
0.984314 0.168627 0.227451 rg
110.281 361.027 m 43.719 361.027 l 43.719 270.309 l 43.719 268.176 45.445
 266.449 47.578 266.449 c 106.422 266.449 l 108.551 266.449 110.277 268.176
 110.277 270.309 c 110.277 361.027 l h
110.281 361.027 m f
0.894118 0.121569 0.176471 rg
110.277 270.309 m 110.277 356.977 l 91.426 356.977 l 91.426 270.309 l 91.426
 268.172 89.695 266.453 87.566 266.453 c 106.418 266.453 l 108.551 266.453
 110.277 268.172 110.277 270.309 c h
110.277 270.309 m f
0 0.760784 0.478431 rg
225.281 361.027 m 158.719 361.027 l 158.719 206.996 l 158.719 204.867 160.449
 203.141 162.578 203.141 c 221.422 203.141 l 223.551 203.141 225.281 204.867
 225.281 206.996 c h
225.281 361.027 m f
0.0313726 0.721569 0.396078 rg
225.277 207 m 225.277 356.977 l 206.426 356.977 l 206.426 207 l 206.426
 204.863 204.695 203.141 202.566 203.141 c 221.422 203.141 l 223.551 203.141
 225.277 204.863 225.277 207 c h
225.277 207 m f
0.541176 0.788235 0.996078 rg
340.281 361.027 m 273.719 361.027 l 273.719 133.711 l 273.719 131.582 275.449
 129.852 277.578 129.852 c 336.422 129.852 l 338.555 129.852 340.281 131.582
 340.281 133.711 c h
340.281 361.027 m f
0.376471 0.717647 1 rg
340.281 133.715 m 340.281 356.977 l 321.426 356.977 l 321.426 133.715 l
 321.426 131.578 319.695 129.855 317.566 129.855 c 336.422 129.855 l 338.551
 129.855 340.281 131.578 340.281 133.715 c h
340.281 133.715 m f
0.996078 0.6 0.00392157 rg
84.582 151.238 m 93.648 169.609 l 94.242 170.812 95.391 171.648 96.723 
171.844 c 116.992 174.789 l 123.93 175.797 126.699 184.32 121.68 189.211
 c 107.012 203.512 l 106.051 204.449 105.609 205.801 105.836 207.125 c 109.301
 227.316 l 110.484 234.223 103.234 239.492 97.031 236.23 c 78.898 226.695
 l 77.711 226.07 76.289 226.07 75.098 226.695 c 56.965 236.23 l 50.762 239.492
 43.512 234.223 44.695 227.316 c 48.16 207.125 l 48.387 205.801 47.945 204.449
 46.984 203.512 c 32.316 189.211 l 27.297 184.32 30.066 175.797 37.004 174.789
 c 57.273 171.844 l 58.605 171.648 59.754 170.812 60.348 169.609 c 69.414
 151.238 l 72.516 144.953 81.48 144.953 84.582 151.238 c h
84.582 151.238 m f
0.984314 0.533333 0.00392157 rg
107.016 203.512 m 106.043 204.453 105.617 205.793 105.844 207.121 c 109.297
 227.32 l 110.48 234.227 103.234 239.488 97.027 236.223 c 78.895 226.691
 l 77.711 226.066 76.285 226.066 75.102 226.691 c 56.969 236.223 l 50.762
 239.488 43.516 234.227 44.699 227.32 c 45.484 222.711 l 45.898 222.586 
46.312 222.398 46.727 222.184 c 49.391 220.781 52.059 219.379 54.727 217.973
 c 58.742 215.859 62.766 213.699 67.027 212.109 c 70.512 210.809 74.242 
210.297 77.941 210.16 c 81.938 210.008 87.84 212.773 90.312 208.176 c 91.074
 206.762 90.836 204.785 91.109 203.25 c 92.363 196.109 96.453 189.758 101.707
 184.734 c 105 181.598 108.176 178.34 111.434 175.164 c 111.777 174.82 112.09
 174.48 112.348 174.109 c 117 174.793 l 123.93 175.793 126.699 184.32 121.68
 189.215 c h
107.016 203.512 m f
0.996078 0.6 0.00392157 rg
199.582 80.809 m 208.648 99.18 l 209.242 100.387 210.391 101.223 211.723
 101.414 c 231.996 104.359 l 238.93 105.367 241.699 113.891 236.68 118.785
 c 222.012 133.082 l 221.051 134.02 220.609 135.371 220.84 136.695 c 224.301
 156.887 l 225.484 163.793 218.234 169.062 212.031 165.801 c 193.898 156.27
 l 192.711 155.645 191.289 155.645 190.098 156.27 c 171.965 165.801 l 165.762
 169.062 158.512 163.793 159.699 156.887 c 163.16 136.695 l 163.387 135.371
 162.949 134.02 161.984 133.082 c 147.316 118.785 l 142.297 113.891 145.066
 105.367 152.004 104.359 c 172.273 101.414 l 173.605 101.223 174.754 100.387
 175.352 99.18 c 184.414 80.809 l 187.52 74.523 196.48 74.523 199.582 80.809
 c h
199.582 80.809 m f
0.984314 0.533333 0.00392157 rg
222.016 133.082 m 221.043 134.023 220.617 135.363 220.844 136.691 c 224.297
 156.891 l 225.48 163.797 218.234 169.059 212.027 165.793 c 193.895 156.266
 l 192.711 155.637 191.285 155.637 190.102 156.266 c 171.969 165.793 l 165.762
 169.059 158.516 163.797 159.699 156.891 c 160.484 152.285 l 160.898 152.156
 161.312 151.969 161.727 151.754 c 164.391 150.352 167.059 148.949 169.727
 147.543 c 173.746 145.43 177.766 143.27 182.027 141.68 c 185.512 140.379
 189.242 139.867 192.941 139.73 c 196.938 139.578 202.84 142.344 205.316
 137.746 c 206.074 136.336 205.84 134.359 206.109 132.82 c 207.363 125.68
 211.453 119.328 216.707 114.305 c 220 111.168 223.176 107.91 226.434 104.734
 c 226.777 104.395 227.09 104.051 227.348 103.68 c 232 104.363 l 238.934
 105.363 241.699 113.895 236.68 118.785 c h
222.016 133.082 m f
0.996078 0.6 0.00392157 rg
314.582 5.562 m 323.648 23.93 l 324.242 25.137 325.395 25.973 326.723 26.164
 c 346.996 29.109 l 353.934 30.121 356.699 38.641 351.684 43.535 c 337.012
 57.832 l 336.051 58.77 335.609 60.121 335.84 61.445 c 339.301 81.637 l 
340.484 88.543 333.234 93.812 327.031 90.551 c 308.898 81.02 l 307.711 80.391
 306.289 80.391 305.098 81.02 c 286.965 90.551 l 280.762 93.812 273.512 
88.543 274.695 81.637 c 278.16 61.445 l 278.387 60.121 277.949 58.77 276.984
 57.832 c 262.316 43.531 l 257.297 38.641 260.066 30.117 267.004 29.109 
c 287.273 26.164 l 288.605 25.969 289.754 25.133 290.352 23.93 c 299.414
 5.559 l 302.52 -0.723 311.48 -0.723 314.582 5.562 c h
314.582 5.562 m f
0.984314 0.533333 0.00392157 rg
337.016 57.832 m 336.047 58.773 335.617 60.113 335.844 61.441 c 339.297
 81.641 l 340.48 88.547 333.234 93.812 327.027 90.543 c 308.898 81.016 l
 307.715 80.387 306.285 80.387 305.102 81.016 c 286.969 90.543 l 280.766
 93.812 273.516 88.547 274.703 81.641 c 275.484 77.035 l 275.898 76.906 
276.312 76.719 276.727 76.508 c 279.395 75.102 282.062 73.699 284.727 72.293
 c 288.746 70.18 292.766 68.02 297.027 66.43 c 300.512 65.129 304.242 64.621
 307.941 64.48 c 311.938 64.328 317.84 67.094 320.316 62.5 c 321.078 61.086
 320.84 59.109 321.109 57.57 c 322.363 50.43 326.457 44.078 331.707 39.055
 c 335 35.918 338.18 32.66 341.438 29.484 c 341.777 29.145 342.094 28.801
 342.348 28.43 c 347 29.113 l 353.934 30.113 356.699 38.645 351.68 43.535
 c h
337.016 57.832 m f
0.352941 g
380.141 383.152 m 3.859 383.152 l 1.727 383.152 0 381.426 0 379.293 c 0
 360.836 l 0 358.703 1.727 356.977 3.859 356.977 c 380.141 356.977 l 382.273
 356.977 384 358.703 384 360.836 c 384 379.293 l 384 381.426 382.273 383.152
 380.141 383.152 c h
380.141 383.152 m f
Q Q
showpage
%%Trailer
end
%%EOF
