%!PS-Adobe-3.0 EPSF-3.0
%%Creator: cairo 1.16.0 (https://cairographics.org)
%%CreationDate: Thu Nov  7 08:26:01 2019
%%Pages: 1
%%DocumentData: Clean7Bit
%%LanguageLevel: 2
%%BoundingBox: 52 0 332 384
%%EndComments
%%BeginProlog
50 dict begin
/q { gsave } bind def
/Q { grestore } bind def
/cm { 6 array astore concat } bind def
/w { setlinewidth } bind def
/J { setlinecap } bind def
/j { setlinejoin } bind def
/M { setmiterlimit } bind def
/d { setdash } bind def
/m { moveto } bind def
/l { lineto } bind def
/c { curveto } bind def
/h { closepath } bind def
/re { exch dup neg 3 1 roll 5 3 roll moveto 0 rlineto
      0 exch rlineto 0 rlineto closepath } bind def
/S { stroke } bind def
/f { fill } bind def
/f* { eofill } bind def
/n { newpath } bind def
/W { clip } bind def
/W* { eoclip } bind def
/BT { } bind def
/ET { } bind def
/BDC { mark 3 1 roll /BDC pdfmark } bind def
/EMC { mark /EMC pdfmark } bind def
/cairo_store_point { /cairo_point_y exch def /cairo_point_x exch def } def
/Tj { show currentpoint cairo_store_point } bind def
/TJ {
  {
    dup
    type /stringtype eq
    { show } { -0.001 mul 0 cairo_font_matrix dtransform rmoveto } ifelse
  } forall
  currentpoint cairo_store_point
} bind def
/cairo_selectfont { cairo_font_matrix aload pop pop pop 0 0 6 array astore
    cairo_font exch selectfont cairo_point_x cairo_point_y moveto } bind def
/Tf { pop /cairo_font exch def /cairo_font_matrix where
      { pop cairo_selectfont } if } bind def
/Td { matrix translate cairo_font_matrix matrix concatmatrix dup
      /cairo_font_matrix exch def dup 4 get exch 5 get cairo_store_point
      /cairo_font where { pop cairo_selectfont } if } bind def
/Tm { 2 copy 8 2 roll 6 array astore /cairo_font_matrix exch def
      cairo_store_point /cairo_font where { pop cairo_selectfont } if } bind def
/g { setgray } bind def
/rg { setrgbcolor } bind def
/d1 { setcachedevice } bind def
/cairo_data_source {
  CairoDataIndex CairoData length lt
    { CairoData CairoDataIndex get /CairoDataIndex CairoDataIndex 1 add def }
    { () } ifelse
} def
/cairo_flush_ascii85_file { cairo_ascii85_file status { cairo_ascii85_file flushfile } if } def
/cairo_image { image cairo_flush_ascii85_file } def
/cairo_imagemask { imagemask cairo_flush_ascii85_file } def
%%EndProlog
%%BeginSetup
%%EndSetup
%%Page: 1 1
%%BeginPageSetup
%%PageBoundingBox: 52 0 332 384
%%EndPageSetup
q 52 0 280 384 rectclip
1 0 0 -1 0 384 cm q
0.541176 0.788235 0.996078 rg
279.707 334.781 m 52.984 334.781 l 52.984 16.336 l 52.984 7.316 60.297 
0.004 69.32 0.004 c 263.375 0.004 l 272.395 0.004 279.711 7.316 279.711 
16.336 c 279.711 334.781 l h
279.707 334.781 m f
0.376471 0.717647 1 rg
279.703 16.336 m 279.703 321.266 l 258.762 321.266 l 258.762 16.336 l 258.762
 7.316 251.445 0 242.422 0 c 263.375 0 l 272.395 0 279.703 7.316 279.703
 16.336 c h
279.703 16.336 m f
0.352941 g
184.934 29.652 m 147.758 29.652 l 144.652 29.652 142.133 27.137 142.133
 24.027 c 142.133 20.922 144.652 18.402 147.758 18.402 c 184.934 18.402 
l 188.039 18.402 190.559 20.922 190.559 24.027 c 190.559 27.137 188.039 
29.652 184.934 29.652 c h
184.934 29.652 m f
0.14902 0.65098 0.996078 rg
203.633 248.734 m 85.48 248.734 l 82.375 248.734 79.855 246.215 79.855 
243.109 c 79.855 240 82.375 237.484 85.48 237.484 c 203.633 237.484 l 206.742
 237.484 209.258 240 209.258 243.109 c 209.258 246.215 206.742 248.734 203.633
 248.734 c h
203.633 248.734 m f
205.699 272.598 m 85.48 272.598 l 82.375 272.598 79.855 270.082 79.855 
266.973 c 79.855 263.867 82.375 261.348 85.48 261.348 c 205.699 261.348 
l 208.805 261.348 211.324 263.867 211.324 266.973 c 211.324 270.082 208.805
 272.598 205.699 272.598 c h
205.699 272.598 m f
220.98 296.465 m 85.48 296.465 l 82.375 296.465 79.855 293.945 79.855 290.84
 c 79.855 287.73 82.375 285.215 85.48 285.215 c 220.98 285.215 l 224.09 
285.215 226.605 287.73 226.605 290.84 c 226.605 293.945 224.09 296.465 220.98
 296.465 c h
220.98 296.465 m f
0.984314 0.168627 0.227451 rg
166.348 152.582 m 132.914 152.582 l 132.914 207.828 l 132.914 211.227 136.32
 213.57 139.492 212.355 c 164.617 202.75 l 165.73 202.324 166.961 202.324
 168.078 202.75 c 193.199 212.355 l 196.375 213.57 199.777 211.227 199.777
 207.828 c 199.777 152.582 l h
166.348 152.582 m f
0.894118 0.121569 0.176471 rg
199.777 152.582 m 199.777 207.832 l 199.777 211.223 196.375 213.57 193.195
 212.355 c 182.785 208.375 l 183.117 207.734 183.301 207.008 183.301 206.211
 c 183.301 152.582 l h
199.777 152.582 m f
0.996078 0.756863 0.396078 rg
224.152 112.828 m 224.152 144.754 198.273 170.633 166.348 170.633 c 134.422
 170.633 108.539 144.754 108.539 112.828 c 108.539 80.902 134.422 55.02 
166.348 55.02 c 198.273 55.02 224.152 80.902 224.152 112.828 c h
224.152 112.828 m f
0.996078 0.6 0.00392157 rg
171.496 82.188 m 177.656 94.668 l 178.062 95.488 178.844 96.055 179.746
 96.188 c 193.52 98.188 l 198.234 98.875 200.113 104.664 196.707 107.988
 c 186.738 117.703 l 186.086 118.34 185.785 119.262 185.941 120.16 c 188.293
 133.879 l 189.098 138.57 184.172 142.152 179.957 139.938 c 167.637 133.457
 l 166.828 133.035 165.863 133.035 165.055 133.457 c 152.734 139.938 l 148.52
 142.152 143.594 138.57 144.398 133.879 c 146.754 120.16 l 146.906 119.262
 146.609 118.34 145.953 117.703 c 135.988 107.988 l 132.578 104.664 134.461
 98.875 139.172 98.188 c 152.945 96.188 l 153.852 96.055 154.633 95.488 
155.035 94.668 c 161.195 82.188 l 163.301 77.918 169.391 77.918 171.496 
82.188 c h
171.496 82.188 m f
0.984314 0.533333 0.00392157 rg
186.742 117.703 m 186.082 118.344 185.789 119.254 185.945 120.156 c 188.293
 133.883 l 189.098 138.574 184.172 142.148 179.953 139.93 c 167.637 133.457
 l 166.832 133.027 165.863 133.027 165.059 133.457 c 152.738 139.93 l 148.52
 142.152 143.598 138.574 144.402 133.883 c 144.934 130.75 l 145.215 130.664
 145.496 130.539 145.777 130.395 c 147.59 129.438 149.402 128.484 151.215
 127.531 c 153.945 126.094 156.676 124.625 159.57 123.547 c 161.938 122.664
 164.473 122.316 166.988 122.223 c 169.703 122.121 173.715 124 175.395 120.875
 c 175.91 119.914 175.75 118.57 175.934 117.527 c 176.785 112.676 179.566
 108.359 183.137 104.949 c 185.371 102.816 187.531 100.602 189.746 98.445
 c 189.98 98.211 190.191 97.98 190.367 97.727 c 193.527 98.191 l 198.238
 98.871 200.117 104.668 196.707 107.992 c h
186.742 117.703 m f
0.952941 0.917647 0.901961 rg
331.016 245.043 m 331.016 273.379 308.043 296.352 279.707 296.352 c 251.371
 296.352 228.402 273.379 228.402 245.043 c 228.402 216.707 251.371 193.734
 279.707 193.734 c 308.043 193.734 331.016 216.707 331.016 245.043 c h
331.016 245.043 m f
0.568627 0.870588 0.713726 rg
307.852 234.355 m 286.34 212.848 l 282.582 209.094 276.492 209.094 272.738
 212.848 c 251.699 233.887 l 247.953 237.637 247.742 243.969 251.23 247.957
 c 251.234 247.957 l 254.723 251.949 260.648 252.145 264.398 248.395 c 266.645
 246.148 l 268.082 244.711 270.543 245.727 270.543 247.762 c 270.543 270.434
 l 270.543 275.746 274.848 280.055 280.164 280.055 c 285.477 280.055 289.781
 275.746 289.781 270.434 c 289.781 249.004 l 289.781 246.969 292.242 245.953
 293.68 247.391 c 294.25 247.957 l 298.004 251.715 304.094 251.715 307.852
 247.957 c 311.609 244.203 311.609 238.113 307.852 234.355 c h
307.852 234.355 m f
0.431373 0.835294 0.631373 rg
310.668 241.16 m 310.668 243.617 309.73 246.082 307.855 247.961 c 304.098
 251.715 298.004 251.715 294.25 247.961 c 293.676 247.387 l 292.242 245.953
 289.781 246.969 289.781 249.008 c 289.781 270.434 l 289.781 273.086 288.707
 275.496 286.961 277.238 c 285.223 278.977 282.816 280.051 280.16 280.051
 c 278.324 280.051 276.613 279.539 275.152 278.648 c 277.773 277.023 279.52
 274.113 279.52 270.793 c 279.52 257.352 l 279.52 251.258 278.824 244.812
 284.438 240.898 c 285.57 240.117 287 239.945 288.309 239.508 c 290.039 
238.922 291.121 237.566 291.566 235.984 c 292 234.465 291.836 232.734 291.105
 231.285 c 289.535 228.176 286.688 225.855 284.27 223.426 c 281.578 220.746
 278.898 218.055 276.207 215.367 c 275.133 214.293 273.855 213.531 272.488
 213.098 c 272.738 212.852 l 276.496 209.094 282.582 209.094 286.34 212.852
 c 307.848 234.352 l 309.73 236.234 310.668 238.691 310.668 241.16 c h
310.668 241.16 m f
0.611765 g
279.707 321.27 m 52.984 321.27 l 52.984 367.664 l 52.984 376.684 60.297
 383.996 69.32 383.996 c 263.375 383.996 l 272.395 383.996 279.711 376.684
 279.711 367.664 c 279.711 321.27 l h
279.707 321.27 m f
0.513726 g
279.703 321.266 m 279.703 367.664 l 279.703 376.684 272.395 384 263.375
 384 c 242.422 384 l 251.445 384 258.762 376.684 258.762 367.664 c 258.762
 321.266 l h
279.703 321.266 m f
0.352941 g
184.566 363.562 m 148.129 363.562 l 142.09 363.562 137.195 358.668 137.195
 352.633 c 137.195 346.594 142.09 341.703 148.129 341.703 c 184.566 341.703
 l 190.602 341.703 195.496 346.594 195.496 352.633 c 195.496 358.668 190.602
 363.562 184.566 363.562 c h
184.566 363.562 m f
Q Q
showpage
%%Trailer
end
%%EOF
