%!PS-Adobe-3.0 EPSF-3.0
%%Creator: cairo 1.16.0 (https://cairographics.org)
%%CreationDate: Thu Nov  7 08:26:01 2019
%%Pages: 1
%%DocumentData: Clean7Bit
%%LanguageLevel: 2
%%BoundingBox: 0 57 384 327
%%EndComments
%%BeginProlog
50 dict begin
/q { gsave } bind def
/Q { grestore } bind def
/cm { 6 array astore concat } bind def
/w { setlinewidth } bind def
/J { setlinecap } bind def
/j { setlinejoin } bind def
/M { setmiterlimit } bind def
/d { setdash } bind def
/m { moveto } bind def
/l { lineto } bind def
/c { curveto } bind def
/h { closepath } bind def
/re { exch dup neg 3 1 roll 5 3 roll moveto 0 rlineto
      0 exch rlineto 0 rlineto closepath } bind def
/S { stroke } bind def
/f { fill } bind def
/f* { eofill } bind def
/n { newpath } bind def
/W { clip } bind def
/W* { eoclip } bind def
/BT { } bind def
/ET { } bind def
/BDC { mark 3 1 roll /BDC pdfmark } bind def
/EMC { mark /EMC pdfmark } bind def
/cairo_store_point { /cairo_point_y exch def /cairo_point_x exch def } def
/Tj { show currentpoint cairo_store_point } bind def
/TJ {
  {
    dup
    type /stringtype eq
    { show } { -0.001 mul 0 cairo_font_matrix dtransform rmoveto } ifelse
  } forall
  currentpoint cairo_store_point
} bind def
/cairo_selectfont { cairo_font_matrix aload pop pop pop 0 0 6 array astore
    cairo_font exch selectfont cairo_point_x cairo_point_y moveto } bind def
/Tf { pop /cairo_font exch def /cairo_font_matrix where
      { pop cairo_selectfont } if } bind def
/Td { matrix translate cairo_font_matrix matrix concatmatrix dup
      /cairo_font_matrix exch def dup 4 get exch 5 get cairo_store_point
      /cairo_font where { pop cairo_selectfont } if } bind def
/Tm { 2 copy 8 2 roll 6 array astore /cairo_font_matrix exch def
      cairo_store_point /cairo_font where { pop cairo_selectfont } if } bind def
/g { setgray } bind def
/rg { setrgbcolor } bind def
/d1 { setcachedevice } bind def
/cairo_data_source {
  CairoDataIndex CairoData length lt
    { CairoData CairoDataIndex get /CairoDataIndex CairoDataIndex 1 add def }
    { () } ifelse
} def
/cairo_flush_ascii85_file { cairo_ascii85_file status { cairo_ascii85_file flushfile } if } def
/cairo_image { image cairo_flush_ascii85_file } def
/cairo_imagemask { imagemask cairo_flush_ascii85_file } def
%%EndProlog
%%BeginSetup
%%EndSetup
%%Page: 1 1
%%BeginPageSetup
%%PageBoundingBox: 0 57 384 327
%%EndPageSetup
q 0 57 384 270 rectclip
1 0 0 -1 0 384 cm q
0.843137 0.498039 0.290196 rg
74.566 78.941 21.934 41.531 re f
214.539 78.941 21.934 41.531 re f
287.039 326.379 m 21.445 326.379 l 13.195 326.379 6.504 319.691 6.504 311.438
 c 6.504 120.473 l 301.98 120.473 l 301.98 311.438 l 301.98 319.691 295.293
 326.379 287.039 326.379 c h
287.039 326.379 m f
0.784314 0.427451 0.211765 rg
301.98 120.477 m 301.98 311.438 l 301.98 319.691 295.293 326.387 287.039
 326.387 c 272.109 326.387 l 280.363 326.387 287.051 319.691 287.051 311.438
 c 287.051 120.477 l h
301.98 120.477 m f
0.67451 0.368627 0.180392 rg
294.207 226.238 m 14.277 226.238 l 6.395 226.238 0 219.848 0 211.961 c 
0 130.094 l 0 122.207 6.395 115.816 14.277 115.816 c 294.207 115.816 l 302.094
 115.816 308.484 122.207 308.484 130.094 c 308.484 211.961 l 308.484 219.848
 302.094 226.238 294.207 226.238 c h
294.207 226.238 m f
0.619608 0.333333 0.156863 rg
308.484 130.094 m 308.484 211.961 l 308.484 219.848 302.094 226.238 294.211
 226.238 c 14.277 226.238 l 6.391 226.238 0 219.848 0 211.961 c 0 203.23
 l 1.965 208.191 6.812 211.707 12.473 211.707 c 284.215 211.707 l 288.289
 211.707 291.59 208.406 291.59 204.328 c 291.59 121.387 l 291.59 119.402
 291.16 117.512 290.383 115.82 c 294.211 115.82 l 302.09 115.82 308.484 
122.207 308.484 130.094 c h
308.484 130.094 m f
0.996078 0.65098 0.0745098 rg
172.59 245.891 m 135.895 245.891 l 133.109 245.891 130.848 243.633 130.848
 240.848 c 130.848 211.629 l 130.848 208.844 133.109 206.582 135.895 206.582
 c 172.59 206.582 l 175.379 206.582 177.637 208.844 177.637 211.629 c 177.637
 240.848 l 177.637 243.633 175.379 245.891 172.59 245.891 c h
172.59 245.891 m f
0.996078 0.6 0.00392157 rg
177.637 211.629 m 177.637 240.844 l 177.637 243.633 175.379 245.891 172.594
 245.891 c 160.773 245.891 l 163.562 245.891 165.82 243.633 165.82 240.844
 c 165.82 211.629 l 165.82 208.84 163.562 206.582 160.773 206.582 c 172.594
 206.582 l 175.379 206.582 177.637 208.84 177.637 211.629 c h
177.637 211.629 m f
0.67451 0.368627 0.180392 rg
242.695 86.148 m 65.789 86.148 l 61.805 86.148 58.574 82.918 58.574 78.934
 c 58.574 64.832 l 58.574 60.848 61.805 57.617 65.789 57.617 c 242.695 57.617
 l 246.68 57.617 249.91 60.848 249.91 64.832 c 249.91 78.934 l 249.91 82.918
 246.684 86.148 242.695 86.148 c h
242.695 86.148 m f
0.619608 0.333333 0.156863 rg
249.914 64.828 m 249.914 78.934 l 249.914 82.918 246.68 86.148 242.699 
86.148 c 228.309 86.148 l 232.297 86.148 235.527 82.918 235.527 78.934 c
 235.527 64.828 l 235.527 60.848 232.297 57.613 228.309 57.613 c 242.699
 57.613 l 246.68 57.613 249.914 60.848 249.914 64.828 c h
249.914 64.828 m f
0.541176 0.788235 0.996078 rg
364.176 87.828 m 328.395 94.141 l 322.414 95.195 318.18 100.984 318.988
 107.008 c 319.863 113.531 325.887 117.938 332.371 116.793 c 338.543 115.703
 l 310.375 160.121 l 308.145 163.637 303.488 164.68 299.973 162.449 c 251.301
 137.039 l 245.23 133.191 237.188 134.988 233.336 141.059 c 203.27 187.41
 l 199.551 193.266 201.289 201.023 207.145 204.738 c 213 208.453 220.754
 206.715 224.469 200.859 c 244 171.07 l 246.23 167.555 250.887 166.512 254.398
 168.742 c 303.102 194.168 l 309.172 198.02 317.215 196.219 321.066 190.148
 c 359.789 129.09 l 361.176 136.953 l 362.277 143.207 368.242 147.383 374.496
 146.277 c 380.75 145.176 384.926 139.211 383.82 132.957 c 377.5 97.148 
l 376.395 90.898 370.43 86.723 364.176 87.828 c h
364.176 87.828 m f
0.376471 0.717647 1 rg
383.824 132.957 m 377.5 97.152 l 376.395 90.898 370.426 86.723 364.176 
87.828 c 363.602 87.926 l 364.699 92.285 366.059 96.59 366.562 101.09 c 
367.07 105.641 369.906 113.82 364.785 116.781 c 361.648 118.59 358.039 116.605
 354.785 118.652 c 351.922 120.449 350.383 123.109 348.605 125.906 c 344.23
 132.793 339.867 139.676 335.508 146.559 c 329.219 156.469 323.305 166.629
 316.645 176.301 c 311.957 183.113 308.062 183.824 298.676 178.629 c 249.973
 153.207 l 246.461 150.977 241.801 152.016 239.57 155.527 c 220.043 187.012
 l 216.328 192.867 208.574 194.602 202.719 190.895 c 202.434 190.711 202.16
 190.523 201.898 190.32 c 200.207 195.629 202.215 201.613 207.145 204.742
 c 209.234 206.066 211.555 206.695 213.855 206.695 c 218.012 206.695 222.074
 204.629 224.469 200.863 c 243.996 171.07 l 246.227 167.559 250.883 166.516
 254.398 168.746 c 303.102 194.172 l 309.168 198.023 317.211 196.219 321.062
 190.152 c 359.785 129.09 l 361.172 136.957 l 362.277 143.207 368.238 147.387
 374.5 146.281 c 380.078 145.297 384 140.441 384 134.969 c 384 134.301 383.945
 133.629 383.824 132.957 c h
383.824 132.957 m f
Q Q
showpage
%%Trailer
end
%%EOF
