%!PS-Adobe-3.0 EPSF-3.0
%%Creator: cairo 1.14.2 (http://cairographics.org)
%%CreationDate: Thu Oct 26 12:36:05 2017
%%Pages: 1
%%DocumentData: Clean7Bit
%%LanguageLevel: 2
%%BoundingBox: 13 -1 293 306
%%EndComments
%%BeginProlog
save
50 dict begin
/q { gsave } bind def
/Q { grestore } bind def
/cm { 6 array astore concat } bind def
/w { setlinewidth } bind def
/J { setlinecap } bind def
/j { setlinejoin } bind def
/M { setmiterlimit } bind def
/d { setdash } bind def
/m { moveto } bind def
/l { lineto } bind def
/c { curveto } bind def
/h { closepath } bind def
/re { exch dup neg 3 1 roll 5 3 roll moveto 0 rlineto
      0 exch rlineto 0 rlineto closepath } bind def
/S { stroke } bind def
/f { fill } bind def
/f* { eofill } bind def
/n { newpath } bind def
/W { clip } bind def
/W* { eoclip } bind def
/BT { } bind def
/ET { } bind def
/pdfmark where { pop globaldict /?pdfmark /exec load put }
    { globaldict begin /?pdfmark /pop load def /pdfmark
    /cleartomark load def end } ifelse
/BDC { mark 3 1 roll /BDC pdfmark } bind def
/EMC { mark /EMC pdfmark } bind def
/cairo_store_point { /cairo_point_y exch def /cairo_point_x exch def } def
/Tj { show currentpoint cairo_store_point } bind def
/TJ {
  {
    dup
    type /stringtype eq
    { show } { -0.001 mul 0 cairo_font_matrix dtransform rmoveto } ifelse
  } forall
  currentpoint cairo_store_point
} bind def
/cairo_selectfont { cairo_font_matrix aload pop pop pop 0 0 6 array astore
    cairo_font exch selectfont cairo_point_x cairo_point_y moveto } bind def
/Tf { pop /cairo_font exch def /cairo_font_matrix where
      { pop cairo_selectfont } if } bind def
/Td { matrix translate cairo_font_matrix matrix concatmatrix dup
      /cairo_font_matrix exch def dup 4 get exch 5 get cairo_store_point
      /cairo_font where { pop cairo_selectfont } if } bind def
/Tm { 2 copy 8 2 roll 6 array astore /cairo_font_matrix exch def
      cairo_store_point /cairo_font where { pop cairo_selectfont } if } bind def
/g { setgray } bind def
/rg { setrgbcolor } bind def
/d1 { setcachedevice } bind def
%%EndProlog
%%BeginSetup
%%EndSetup
%%Page: 1 1
%%BeginPageSetup
%%PageBoundingBox: 13 -1 293 306
%%EndPageSetup
q 13 -1 280 307 rectclip q
0.917647 0.921569 0.760784 rg
248.16 278.4 m 57.441 278.4 l 33.441 278.4 13.602 258.561 13.602 234.561
 c 13.602 43.842 l 13.602 19.842 33.441 -0.002 57.441 -0.002 c 248.16 -0.002
 l 272.16 -0.002 292 19.842 292 43.842 c 292 234.561 l 292 258.881 272.48
 278.4 248.16 278.4 c h
248.16 278.4 m f
0.933333 0.27451 0.290196 rg
248.16 278.4 m 57.441 278.4 l 33.441 278.4 13.602 258.561 13.602 234.561
 c 13.602 200.318 l 292.32 200.318 l 292.32 234.561 l 292 258.881 272.48
 278.4 248.16 278.4 c h
248.16 278.4 m f
0 0.145098 0.207843 rg
84.641 250.881 m 80.801 250.881 77.602 254.08 77.602 257.92 c 77.602 298.881
 l 77.602 302.721 80.801 305.92 84.641 305.92 c 88.48 305.92 91.68 302.721
 91.68 298.881 c 91.68 258.24 l 92 254.08 88.801 250.881 84.641 250.881 
c h
84.641 250.881 m f
220.961 250.881 m 217.121 250.881 213.922 254.08 213.922 257.92 c 213.922
 298.881 l 213.922 302.721 217.121 305.92 220.961 305.92 c 224.801 305.92
 228 302.721 228 298.881 c 228 258.24 l 228 254.08 224.801 250.881 220.961
 250.881 c h
220.961 250.881 m f
Q Q
showpage
%%Trailer
end restore
%%EOF
