%!PS-Adobe-3.0 EPSF-3.0
%%Creator: cairo 1.14.2 (http://cairographics.org)
%%CreationDate: Thu Oct 26 12:36:05 2017
%%Pages: 1
%%DocumentData: Clean7Bit
%%LanguageLevel: 2
%%BoundingBox: 34 -1 296 330
%%EndComments
%%BeginProlog
save
50 dict begin
/q { gsave } bind def
/Q { grestore } bind def
/cm { 6 array astore concat } bind def
/w { setlinewidth } bind def
/J { setlinecap } bind def
/j { setlinejoin } bind def
/M { setmiterlimit } bind def
/d { setdash } bind def
/m { moveto } bind def
/l { lineto } bind def
/c { curveto } bind def
/h { closepath } bind def
/re { exch dup neg 3 1 roll 5 3 roll moveto 0 rlineto
      0 exch rlineto 0 rlineto closepath } bind def
/S { stroke } bind def
/f { fill } bind def
/f* { eofill } bind def
/n { newpath } bind def
/W { clip } bind def
/W* { eoclip } bind def
/BT { } bind def
/ET { } bind def
/pdfmark where { pop globaldict /?pdfmark /exec load put }
    { globaldict begin /?pdfmark /pop load def /pdfmark
    /cleartomark load def end } ifelse
/BDC { mark 3 1 roll /BDC pdfmark } bind def
/EMC { mark /EMC pdfmark } bind def
/cairo_store_point { /cairo_point_y exch def /cairo_point_x exch def } def
/Tj { show currentpoint cairo_store_point } bind def
/TJ {
  {
    dup
    type /stringtype eq
    { show } { -0.001 mul 0 cairo_font_matrix dtransform rmoveto } ifelse
  } forall
  currentpoint cairo_store_point
} bind def
/cairo_selectfont { cairo_font_matrix aload pop pop pop 0 0 6 array astore
    cairo_font exch selectfont cairo_point_x cairo_point_y moveto } bind def
/Tf { pop /cairo_font exch def /cairo_font_matrix where
      { pop cairo_selectfont } if } bind def
/Td { matrix translate cairo_font_matrix matrix concatmatrix dup
      /cairo_font_matrix exch def dup 4 get exch 5 get cairo_store_point
      /cairo_font where { pop cairo_selectfont } if } bind def
/Tm { 2 copy 8 2 roll 6 array astore /cairo_font_matrix exch def
      cairo_store_point /cairo_font where { pop cairo_selectfont } if } bind def
/g { setgray } bind def
/rg { setrgbcolor } bind def
/d1 { setcachedevice } bind def
%%EndProlog
%%BeginSetup
%%EndSetup
%%Page: 1 1
%%BeginPageSetup
%%PageBoundingBox: 34 -1 296 330
%%EndPageSetup
q 34 -1 262 331 rectclip q
0.32549 0.72549 0.670588 rg
232.641 281.92 m 70.398 281.92 l 50.559 281.92 34.238 265.6 34.238 245.76
 c 34.238 83.838 l 34.238 63.998 50.559 47.678 70.398 47.678 c 232.32 47.678
 l 252.16 47.678 268.48 63.998 268.48 83.838 c 268.48 245.76 l 268.801 265.6
 252.48 281.92 232.641 281.92 c h
232.641 281.92 m f
0.917647 0.921569 0.760784 rg
241.602 164.799 m 241.602 114.963 201.199 74.561 151.359 74.561 c 101.523
 74.561 61.121 114.963 61.121 164.799 c 61.121 214.639 101.523 255.041 151.359
 255.041 c 201.199 255.041 241.602 214.639 241.602 164.799 c h
241.602 164.799 m f
0.25098 0.156863 0.0627451 rg
151.359 231.678 m 154.879 231.678 157.762 234.561 157.762 238.08 c 157.762
 255.362 l 157.762 258.881 154.879 261.76 151.359 261.76 c 147.84 261.76
 144.961 258.881 144.961 255.362 c 144.961 238.08 l 144.961 234.241 147.84
 231.678 151.359 231.678 c h
151.359 231.678 m f
241.922 171.202 m 224.641 171.202 l 221.121 171.202 218.238 168.319 218.238
 164.799 c 218.238 161.28 221.121 158.401 224.641 158.401 c 241.922 158.401
 l 245.441 158.401 248.32 161.28 248.32 164.799 c 248.32 168.319 245.441
 171.202 241.922 171.202 c h
241.922 171.202 m f
144.961 91.838 m 144.961 74.561 l 144.961 71.041 147.84 68.159 151.359 
68.159 c 154.879 68.159 157.762 71.041 157.762 74.561 c 157.762 91.838 l
 157.762 95.362 154.879 98.241 151.359 98.241 c 147.84 97.92 144.961 95.362
 144.961 91.838 c h
144.961 91.838 m f
84.801 164.799 m 84.801 168.319 81.922 171.202 78.398 171.202 c 61.121 
171.202 l 57.602 171.202 54.719 168.319 54.719 164.799 c 54.719 161.28 57.602
 158.401 61.121 158.401 c 78.398 158.401 l 81.922 158.401 84.801 161.28 
84.801 164.799 c h
84.801 164.799 m f
163.52 152.959 m 166.719 156.159 168.32 160.319 168.32 164.799 c 168.32
 169.6 166.398 173.76 163.52 176.639 c 161.922 178.241 160 179.522 158.078
 180.479 c 158.078 218.881 l 158.078 222.401 155.199 225.28 151.68 225.28
 c 148.16 225.28 145.281 222.401 145.281 218.881 c 145.281 180.479 l 143.039
 179.522 141.441 178.241 139.84 176.639 c 138.238 175.041 136.961 173.12
 136 171.202 c 107.199 171.202 l 103.68 171.202 100.801 168.319 100.801 
164.799 c 100.801 161.28 103.68 158.401 107.199 158.401 c 135.68 158.401
 l 136.32 156.479 137.602 154.881 138.879 153.28 c 139.199 152.959 l 142.398
 149.76 146.559 148.159 151.039 148.159 c 156.16 147.838 160.32 149.76 163.52
 152.959 c h
154.559 161.92 m 153.922 161.28 152.641 160.639 151.68 160.639 c 150.398
 160.639 149.441 160.959 148.801 161.92 c 148.48 162.241 l 147.84 162.881
 147.52 163.838 147.52 165.12 c 147.52 166.401 147.84 167.362 148.801 167.998
 c 149.441 168.639 150.719 169.28 151.68 169.28 c 152.961 169.28 153.922
 168.959 154.559 167.998 c 155.199 167.362 155.84 166.08 155.84 165.12 c
 155.52 163.522 155.199 162.561 154.559 161.92 c h
154.559 161.92 m f
77.441 311.362 m 77.441 281.92 l 225.602 281.92 l 225.602 311.362 l 225.602
 321.28 217.602 329.6 207.359 329.6 c 95.359 329.6 l 85.441 329.6 77.441
 321.28 77.441 311.362 c h
77.441 311.362 m f
77.441 47.678 m 77.441 18.241 l 77.441 8.319 85.441 -0.002 95.68 -0.002
 c 207.68 -0.002 l 217.602 -0.002 225.922 7.998 225.922 18.241 c 225.922
 47.678 l h
77.441 47.678 m f
286.398 186.561 m 268.801 186.561 l 268.801 143.041 l 286.398 143.041 l
 291.52 143.041 295.359 147.202 295.359 151.998 c 295.359 177.28 l 295.359
 182.401 291.199 186.561 286.398 186.561 c h
286.398 186.561 m f
Q Q
showpage
%%Trailer
end restore
%%EOF
