%!PS-Adobe-3.0 EPSF-3.0
%%Creator: cairo 1.14.2 (http://cairographics.org)
%%CreationDate: Thu Oct 26 12:36:05 2017
%%Pages: 1
%%DocumentData: Clean7Bit
%%LanguageLevel: 2
%%BoundingBox: 11 -1 323 334
%%EndComments
%%BeginProlog
save
50 dict begin
/q { gsave } bind def
/Q { grestore } bind def
/cm { 6 array astore concat } bind def
/w { setlinewidth } bind def
/J { setlinecap } bind def
/j { setlinejoin } bind def
/M { setmiterlimit } bind def
/d { setdash } bind def
/m { moveto } bind def
/l { lineto } bind def
/c { curveto } bind def
/h { closepath } bind def
/re { exch dup neg 3 1 roll 5 3 roll moveto 0 rlineto
      0 exch rlineto 0 rlineto closepath } bind def
/S { stroke } bind def
/f { fill } bind def
/f* { eofill } bind def
/n { newpath } bind def
/W { clip } bind def
/W* { eoclip } bind def
/BT { } bind def
/ET { } bind def
/pdfmark where { pop globaldict /?pdfmark /exec load put }
    { globaldict begin /?pdfmark /pop load def /pdfmark
    /cleartomark load def end } ifelse
/BDC { mark 3 1 roll /BDC pdfmark } bind def
/EMC { mark /EMC pdfmark } bind def
/cairo_store_point { /cairo_point_y exch def /cairo_point_x exch def } def
/Tj { show currentpoint cairo_store_point } bind def
/TJ {
  {
    dup
    type /stringtype eq
    { show } { -0.001 mul 0 cairo_font_matrix dtransform rmoveto } ifelse
  } forall
  currentpoint cairo_store_point
} bind def
/cairo_selectfont { cairo_font_matrix aload pop pop pop 0 0 6 array astore
    cairo_font exch selectfont cairo_point_x cairo_point_y moveto } bind def
/Tf { pop /cairo_font exch def /cairo_font_matrix where
      { pop cairo_selectfont } if } bind def
/Td { matrix translate cairo_font_matrix matrix concatmatrix dup
      /cairo_font_matrix exch def dup 4 get exch 5 get cairo_store_point
      /cairo_font where { pop cairo_selectfont } if } bind def
/Tm { 2 copy 8 2 roll 6 array astore /cairo_font_matrix exch def
      cairo_store_point /cairo_font where { pop cairo_selectfont } if } bind def
/g { setgray } bind def
/rg { setrgbcolor } bind def
/d1 { setcachedevice } bind def
%%EndProlog
%%BeginSetup
%%EndSetup
%%Page: 1 1
%%BeginPageSetup
%%PageBoundingBox: 11 -1 323 334
%%EndPageSetup
q 11 -1 312 335 rectclip q
0.968627 0.780392 0.25098 rg
300.32 144.639 m 300.32 64.756 235.562 -0.001 155.68 -0.001 c 75.797 -0.001
 11.039 64.756 11.039 144.639 c 11.039 224.522 75.797 289.28 155.68 289.28
 c 235.562 289.28 300.32 224.522 300.32 144.639 c h
300.32 144.639 m f
0.917647 0.921569 0.760784 rg
267.039 144.639 m 267.039 83.139 217.184 33.28 155.68 33.28 c 94.176 33.28
 44.32 83.139 44.32 144.639 c 44.32 206.143 94.176 255.999 155.68 255.999
 c 217.184 255.999 267.039 206.143 267.039 144.639 c h
267.039 144.639 m f
0.968627 0.780392 0.25098 rg
283.039 267.202 m 310.879 239.362 l 326.238 254.721 326.238 279.999 310.879
 295.362 c 295.52 310.721 270.238 310.721 254.879 295.362 c h
283.039 267.202 m f
0.25098 0.156863 0.0627451 rg
196.961 333.44 m 114.398 333.44 l 110.879 333.44 108 330.561 108 327.042
 c 108 323.518 110.879 320.639 114.398 320.639 c 149.281 320.639 l 149.281
 289.28 l 149.281 285.76 152.16 282.881 155.68 282.881 c 159.199 282.881
 162.078 285.76 162.078 289.28 c 162.078 320.639 l 196.961 320.639 l 200.48
 320.639 203.359 323.518 203.359 327.042 c 203.359 330.561 200.48 333.44
 196.961 333.44 c h
196.961 333.44 m f
278.559 271.678 m 255.84 248.96 l 253.281 246.401 253.281 242.561 255.84
 239.999 c 258.398 237.44 262.238 237.44 264.801 239.999 c 287.52 262.721
 l 290.078 265.28 290.078 269.12 287.52 271.678 c 285.281 273.92 281.121
 273.92 278.559 271.678 c h
278.559 271.678 m f
169.441 158.401 m 167.52 160.319 164.961 161.92 162.078 162.881 c 162.078
 211.518 l 162.078 215.042 159.199 217.92 155.68 217.92 c 152.16 217.92 
149.281 215.042 149.281 211.518 c 149.281 162.881 l 146.398 161.92 144.16
 160.319 141.922 158.401 c 138.398 154.881 136.16 150.081 136.16 144.639
 c 136.16 139.202 138.398 134.401 141.922 130.881 c 145.441 127.362 150.238
 125.12 155.68 125.12 c 160.801 125.12 165.602 127.042 168.801 130.561 c
 169.121 130.881 l 172.641 134.401 174.879 139.202 174.879 144.639 c 175.199
 150.081 172.961 154.881 169.441 158.401 c h
160.48 140.159 m 160.16 139.838 160.16 139.838 160.48 140.159 c 159.199
 138.881 157.602 138.241 155.68 138.241 c 153.762 138.241 152.16 138.881
 150.879 140.159 c 149.602 141.44 148.961 143.042 148.961 144.96 c 148.961
 146.881 149.602 148.479 150.879 149.76 c 152.16 151.042 153.762 151.678
 155.68 151.678 c 157.602 151.678 159.199 151.042 160.48 149.76 c 161.762
 148.479 162.398 146.881 162.398 144.96 c 162.398 143.042 161.441 141.12
 160.48 140.159 c h
160.48 140.159 m f
Q Q
showpage
%%Trailer
end restore
%%EOF
