%!PS-Adobe-3.0 EPSF-3.0
%%Creator: cairo 1.14.2 (http://cairographics.org)
%%CreationDate: Thu Oct 26 12:36:05 2017
%%Pages: 1
%%DocumentData: Clean7Bit
%%LanguageLevel: 2
%%BoundingBox: 13 -1 292 306
%%EndComments
%%BeginProlog
save
50 dict begin
/q { gsave } bind def
/Q { grestore } bind def
/cm { 6 array astore concat } bind def
/w { setlinewidth } bind def
/J { setlinecap } bind def
/j { setlinejoin } bind def
/M { setmiterlimit } bind def
/d { setdash } bind def
/m { moveto } bind def
/l { lineto } bind def
/c { curveto } bind def
/h { closepath } bind def
/re { exch dup neg 3 1 roll 5 3 roll moveto 0 rlineto
      0 exch rlineto 0 rlineto closepath } bind def
/S { stroke } bind def
/f { fill } bind def
/f* { eofill } bind def
/n { newpath } bind def
/W { clip } bind def
/W* { eoclip } bind def
/BT { } bind def
/ET { } bind def
/pdfmark where { pop globaldict /?pdfmark /exec load put }
    { globaldict begin /?pdfmark /pop load def /pdfmark
    /cleartomark load def end } ifelse
/BDC { mark 3 1 roll /BDC pdfmark } bind def
/EMC { mark /EMC pdfmark } bind def
/cairo_store_point { /cairo_point_y exch def /cairo_point_x exch def } def
/Tj { show currentpoint cairo_store_point } bind def
/TJ {
  {
    dup
    type /stringtype eq
    { show } { -0.001 mul 0 cairo_font_matrix dtransform rmoveto } ifelse
  } forall
  currentpoint cairo_store_point
} bind def
/cairo_selectfont { cairo_font_matrix aload pop pop pop 0 0 6 array astore
    cairo_font exch selectfont cairo_point_x cairo_point_y moveto } bind def
/Tf { pop /cairo_font exch def /cairo_font_matrix where
      { pop cairo_selectfont } if } bind def
/Td { matrix translate cairo_font_matrix matrix concatmatrix dup
      /cairo_font_matrix exch def dup 4 get exch 5 get cairo_store_point
      /cairo_font where { pop cairo_selectfont } if } bind def
/Tm { 2 copy 8 2 roll 6 array astore /cairo_font_matrix exch def
      cairo_store_point /cairo_font where { pop cairo_selectfont } if } bind def
/g { setgray } bind def
/rg { setrgbcolor } bind def
/d1 { setcachedevice } bind def
%%EndProlog
%%BeginSetup
%%EndSetup
%%Page: 1 1
%%BeginPageSetup
%%PageBoundingBox: 13 -1 292 306
%%EndPageSetup
q 13 -1 279 307 rectclip q
0.917647 0.921569 0.760784 rg
247.84 278.721 m 57.121 278.721 l 33.121 278.721 13.281 258.882 13.281 
234.882 c 13.281 43.839 l 13.281 19.839 33.121 -0.001 57.121 -0.001 c 247.84
 -0.001 l 271.84 -0.001 291.68 19.839 291.68 43.839 c 291.68 234.561 l 291.68
 258.882 272.16 278.721 247.84 278.721 c h
247.84 278.721 m f
0.933333 0.27451 0.290196 rg
247.84 278.721 m 57.121 278.721 l 33.121 278.721 13.281 258.882 13.281 
234.882 c 13.281 200.639 l 292 200.639 l 292 234.561 l 291.68 258.882 272.16
 278.721 247.84 278.721 c h
247.84 278.721 m f
0.819608 0.788235 0.65098 rg
82.719 156.479 m 82.719 148.882 76.559 142.721 68.961 142.721 c 61.359 
142.721 55.199 148.882 55.199 156.479 c 55.199 164.081 61.359 170.241 68.961
 170.241 c 76.559 170.241 82.719 164.081 82.719 156.479 c h
82.719 156.479 m f
138.398 156.479 m 138.398 148.882 132.238 142.721 124.641 142.721 c 117.039
 142.721 110.879 148.882 110.879 156.479 c 110.879 164.081 117.039 170.241
 124.641 170.241 c 132.238 170.241 138.398 164.081 138.398 156.479 c h
138.398 156.479 m f
194.078 156.479 m 194.078 148.882 187.918 142.721 180.32 142.721 c 172.719
 142.721 166.559 148.882 166.559 156.479 c 166.559 164.081 172.719 170.241
 180.32 170.241 c 187.918 170.241 194.078 164.081 194.078 156.479 c h
194.078 156.479 m f
249.762 156.479 m 249.762 148.882 243.598 142.721 236 142.721 c 228.402
 142.721 222.238 148.882 222.238 156.479 c 222.238 164.081 228.402 170.241
 236 170.241 c 243.598 170.241 249.762 164.081 249.762 156.479 c h
249.762 156.479 m f
82.719 100.8 m 82.719 93.202 76.559 87.042 68.961 87.042 c 61.359 87.042
 55.199 93.202 55.199 100.8 c 55.199 108.401 61.359 114.561 68.961 114.561
 c 76.559 114.561 82.719 108.401 82.719 100.8 c h
82.719 100.8 m f
138.398 100.8 m 138.398 93.202 132.238 87.042 124.641 87.042 c 117.039 
87.042 110.879 93.202 110.879 100.8 c 110.879 108.401 117.039 114.561 124.641
 114.561 c 132.238 114.561 138.398 108.401 138.398 100.8 c h
138.398 100.8 m f
194.078 100.8 m 194.078 93.202 187.918 87.042 180.32 87.042 c 172.719 87.042
 166.559 93.202 166.559 100.8 c 166.559 108.401 172.719 114.561 180.32 114.561
 c 187.918 114.561 194.078 108.401 194.078 100.8 c h
194.078 100.8 m f
249.762 100.8 m 249.762 93.202 243.598 87.042 236 87.042 c 228.402 87.042
 222.238 93.202 222.238 100.8 c 222.238 108.401 228.402 114.561 236 114.561
 c 243.598 114.561 249.762 108.401 249.762 100.8 c h
249.762 100.8 m f
82.719 45.76 m 82.719 38.159 76.559 31.999 68.961 31.999 c 61.359 31.999
 55.199 38.159 55.199 45.76 c 55.199 53.358 61.359 59.518 68.961 59.518 
c 76.559 59.518 82.719 53.358 82.719 45.76 c h
82.719 45.76 m f
138.398 45.76 m 138.398 38.159 132.238 31.999 124.641 31.999 c 117.039 
31.999 110.879 38.159 110.879 45.76 c 110.879 53.358 117.039 59.518 124.641
 59.518 c 132.238 59.518 138.398 53.358 138.398 45.76 c h
138.398 45.76 m f
194.078 45.76 m 194.078 38.159 187.918 31.999 180.32 31.999 c 172.719 31.999
 166.559 38.159 166.559 45.76 c 166.559 53.358 172.719 59.518 180.32 59.518
 c 187.918 59.518 194.078 53.358 194.078 45.76 c h
194.078 45.76 m f
0.933333 0.27451 0.290196 rg
249.762 45.76 m 249.762 38.159 243.598 31.999 236 31.999 c 228.402 31.999
 222.238 38.159 222.238 45.76 c 222.238 53.358 228.402 59.518 236 59.518
 c 243.598 59.518 249.762 53.358 249.762 45.76 c h
249.762 45.76 m f
0.25098 0.156863 0.0627451 rg
84.32 305.28 m 80.801 305.28 77.922 302.401 77.922 298.882 c 77.922 258.241
 l 77.922 254.721 80.801 251.839 84.32 251.839 c 87.84 251.839 90.719 254.721
 90.719 258.241 c 90.719 298.882 l 90.719 302.401 87.84 305.28 84.32 305.28
 c h
84.32 305.28 m f
220.641 305.28 m 217.121 305.28 214.238 302.401 214.238 298.882 c 214.238
 258.241 l 214.238 254.721 217.121 251.839 220.641 251.839 c 224.16 251.839
 227.039 254.721 227.039 258.241 c 227.039 298.882 l 227.039 302.401 224.16
 305.28 220.641 305.28 c h
220.641 305.28 m f
Q Q
showpage
%%Trailer
end restore
%%EOF
