%!PS-Adobe-3.0 EPSF-3.0
%%Creator: cairo 1.14.2 (http://cairographics.org)
%%CreationDate: Thu Oct 26 12:36:05 2017
%%Pages: 1
%%DocumentData: Clean7Bit
%%LanguageLevel: 2
%%BoundingBox: 0 0 309 309
%%EndComments
%%BeginProlog
save
50 dict begin
/q { gsave } bind def
/Q { grestore } bind def
/cm { 6 array astore concat } bind def
/w { setlinewidth } bind def
/J { setlinecap } bind def
/j { setlinejoin } bind def
/M { setmiterlimit } bind def
/d { setdash } bind def
/m { moveto } bind def
/l { lineto } bind def
/c { curveto } bind def
/h { closepath } bind def
/re { exch dup neg 3 1 roll 5 3 roll moveto 0 rlineto
      0 exch rlineto 0 rlineto closepath } bind def
/S { stroke } bind def
/f { fill } bind def
/f* { eofill } bind def
/n { newpath } bind def
/W { clip } bind def
/W* { eoclip } bind def
/BT { } bind def
/ET { } bind def
/pdfmark where { pop globaldict /?pdfmark /exec load put }
    { globaldict begin /?pdfmark /pop load def /pdfmark
    /cleartomark load def end } ifelse
/BDC { mark 3 1 roll /BDC pdfmark } bind def
/EMC { mark /EMC pdfmark } bind def
/cairo_store_point { /cairo_point_y exch def /cairo_point_x exch def } def
/Tj { show currentpoint cairo_store_point } bind def
/TJ {
  {
    dup
    type /stringtype eq
    { show } { -0.001 mul 0 cairo_font_matrix dtransform rmoveto } ifelse
  } forall
  currentpoint cairo_store_point
} bind def
/cairo_selectfont { cairo_font_matrix aload pop pop pop 0 0 6 array astore
    cairo_font exch selectfont cairo_point_x cairo_point_y moveto } bind def
/Tf { pop /cairo_font exch def /cairo_font_matrix where
      { pop cairo_selectfont } if } bind def
/Td { matrix translate cairo_font_matrix matrix concatmatrix dup
      /cairo_font_matrix exch def dup 4 get exch 5 get cairo_store_point
      /cairo_font where { pop cairo_selectfont } if } bind def
/Tm { 2 copy 8 2 roll 6 array astore /cairo_font_matrix exch def
      cairo_store_point /cairo_font where { pop cairo_selectfont } if } bind def
/g { setgray } bind def
/rg { setrgbcolor } bind def
/d1 { setcachedevice } bind def
%%EndProlog
%%BeginSetup
%%EndSetup
%%Page: 1 1
%%BeginPageSetup
%%PageBoundingBox: 0 0 309 309
%%EndPageSetup
q 0 0 309 309 rectclip q
0.964706 0.54902 0.160784 rg
307.199 154.242 m 307.199 69.41 238.43 0.64 153.602 0.64 c 68.77 0.64 0
 69.41 0 154.242 c 0 239.07 68.77 307.839 153.602 307.839 c 238.43 307.839
 307.199 239.07 307.199 154.242 c h
307.199 154.242 m f
0.917647 0.921569 0.760784 rg
272 154.242 m 272 88.851 218.992 35.839 153.602 35.839 c 88.211 35.839 
35.199 88.851 35.199 154.242 c 35.199 219.632 88.211 272.64 153.602 272.64
 c 218.992 272.64 272 219.632 272 154.242 c h
272 154.242 m f
0.25098 0.156863 0.0627451 rg
147.199 272.64 m 147.199 250.242 l 147.199 246.718 150.078 243.839 153.602
 243.839 c 157.121 243.839 160 246.718 160 250.242 c 160 272.64 l 160 276.16
 157.121 279.039 153.602 279.039 c 150.078 279.039 147.199 276.16 147.199
 272.64 c h
147.199 272.64 m f
249.281 160.64 m 245.762 160.64 242.879 157.761 242.879 154.242 c 242.879
 150.718 245.762 147.839 249.281 147.839 c 272 147.839 l 275.52 147.839 
278.398 150.718 278.398 154.242 c 278.398 157.761 275.52 160.64 272 160.64
 c h
249.281 160.64 m f
57.602 160.64 m 34.879 160.64 l 31.359 160.64 28.48 157.761 28.48 154.242
 c 28.48 150.718 31.359 147.839 34.879 147.839 c 57.602 147.839 l 61.121
 147.839 64 150.718 64 154.242 c 64 157.761 61.121 160.64 57.602 160.64 
c h
57.602 160.64 m f
167.68 168.64 m 165.441 170.878 162.879 172.48 159.68 173.441 c 159.68 
225.281 l 159.68 228.8 156.801 231.679 153.281 231.679 c 149.762 231.679
 146.879 228.8 146.879 225.281 c 146.879 173.441 l 144 172.48 141.441 170.878
 139.52 168.96 c 139.199 168.64 l 136.961 166.402 135.359 163.839 134.398
 160.64 c 95.359 160.64 l 91.84 160.64 88.961 157.761 88.961 154.242 c 88.961
 150.718 91.84 147.839 95.359 147.839 c 134.398 147.839 l 135.359 144.96
 136.961 142.082 139.199 139.839 c 142.719 136.32 147.84 134.082 153.602
 134.082 c 159.039 134.082 164.16 136.32 168 139.839 c 171.52 143.359 173.762
 148.48 173.762 154.242 c 173.762 159.679 171.52 164.8 167.68 168.64 c h
158.719 149.121 m 157.441 147.839 155.52 146.878 153.602 146.878 c 151.68
 146.878 149.762 147.839 148.48 149.121 c 147.199 150.402 146.238 152.32
 146.238 154.242 c 146.238 156.16 147.199 158.082 148.48 159.359 c 148.48
 159.359 148.48 159.679 148.801 159.679 c 150.078 160.96 152 161.601 153.922
 161.601 c 155.84 161.601 157.762 160.64 159.039 159.359 c 160.32 158.082
 161.281 156.16 161.281 154.242 c 160.961 152.32 160 150.402 158.719 149.121
 c h
158.719 149.121 m f
153.602 64.64 m 150.078 64.64 147.199 61.761 147.199 58.242 c 147.199 35.519
 l 147.199 32 150.078 29.121 153.602 29.121 c 157.121 29.121 160 32 160 
35.519 c 160 58.242 l 160 61.761 157.121 64.64 153.602 64.64 c h
153.602 64.64 m f
308.48 59.199 m 308.48 26.859 282.262 0.64 249.922 0.64 c 217.578 0.64 
191.359 26.859 191.359 59.199 c 191.359 91.543 217.578 117.761 249.922 117.761
 c 282.262 117.761 308.48 91.543 308.48 59.199 c h
308.48 59.199 m f
0.964706 0.54902 0.160784 rg
226.238 29.761 m 217.602 36.8 212.16 47.359 212.16 59.199 c 212.16 76.8
 224.32 91.519 240.641 95.679 c 240.641 105.281 l 219.199 100.8 202.879 
81.921 202.879 58.878 c 202.879 44.8 208.961 32 218.879 23.359 c 226.238
 16.64 231.039 26.242 226.238 29.761 c h
280.961 95.039 m 276.16 99.519 269.121 92.48 273.602 88.96 c 282.238 81.921
 288 71.359 288 59.199 c 288 41.601 275.84 26.878 259.52 22.718 c 259.52
 13.121 l 280.961 17.601 297.281 36.48 297.281 59.519 c 297.281 73.601 290.879
 86.402 280.961 95.039 c h
244.801 87.679 m 260.16 96.96 l 262.398 98.242 262.398 100.48 260.16 101.761
 c 244.48 111.039 l 242.238 112.64 240.641 111.679 240.641 108.8 c 240.641
 89.921 l 240.641 87.359 242.559 86.402 244.801 87.679 c h
255.359 30.718 m 239.68 21.441 l 237.441 20.16 237.441 17.921 239.68 16.64
 c 255.039 7.359 l 257.281 6.082 259.199 7.039 259.199 9.601 c 259.199 28.48
 l 259.52 31.039 257.602 32 255.359 30.718 c h
255.359 30.718 m f
Q Q
showpage
%%Trailer
end restore
%%EOF
