%!PS-Adobe-3.0 EPSF-3.0
%%Creator: cairo 1.14.2 (http://cairographics.org)
%%CreationDate: Thu Oct 26 12:36:05 2017
%%Pages: 1
%%DocumentData: Clean7Bit
%%LanguageLevel: 2
%%BoundingBox: 0 -1 284 284
%%EndComments
%%BeginProlog
save
50 dict begin
/q { gsave } bind def
/Q { grestore } bind def
/cm { 6 array astore concat } bind def
/w { setlinewidth } bind def
/J { setlinecap } bind def
/j { setlinejoin } bind def
/M { setmiterlimit } bind def
/d { setdash } bind def
/m { moveto } bind def
/l { lineto } bind def
/c { curveto } bind def
/h { closepath } bind def
/re { exch dup neg 3 1 roll 5 3 roll moveto 0 rlineto
      0 exch rlineto 0 rlineto closepath } bind def
/S { stroke } bind def
/f { fill } bind def
/f* { eofill } bind def
/n { newpath } bind def
/W { clip } bind def
/W* { eoclip } bind def
/BT { } bind def
/ET { } bind def
/pdfmark where { pop globaldict /?pdfmark /exec load put }
    { globaldict begin /?pdfmark /pop load def /pdfmark
    /cleartomark load def end } ifelse
/BDC { mark 3 1 roll /BDC pdfmark } bind def
/EMC { mark /EMC pdfmark } bind def
/cairo_store_point { /cairo_point_y exch def /cairo_point_x exch def } def
/Tj { show currentpoint cairo_store_point } bind def
/TJ {
  {
    dup
    type /stringtype eq
    { show } { -0.001 mul 0 cairo_font_matrix dtransform rmoveto } ifelse
  } forall
  currentpoint cairo_store_point
} bind def
/cairo_selectfont { cairo_font_matrix aload pop pop pop 0 0 6 array astore
    cairo_font exch selectfont cairo_point_x cairo_point_y moveto } bind def
/Tf { pop /cairo_font exch def /cairo_font_matrix where
      { pop cairo_selectfont } if } bind def
/Td { matrix translate cairo_font_matrix matrix concatmatrix dup
      /cairo_font_matrix exch def dup 4 get exch 5 get cairo_store_point
      /cairo_font where { pop cairo_selectfont } if } bind def
/Tm { 2 copy 8 2 roll 6 array astore /cairo_font_matrix exch def
      cairo_store_point /cairo_font where { pop cairo_selectfont } if } bind def
/g { setgray } bind def
/rg { setrgbcolor } bind def
/d1 { setcachedevice } bind def
%%EndProlog
%%BeginSetup
%%EndSetup
%%Page: 1 1
%%BeginPageSetup
%%PageBoundingBox: 0 -1 284 284
%%EndPageSetup
q 0 -1 284 285 rectclip q
0.968627 0.780392 0.25098 rg
239.68 283.2 m 43.84 283.2 l 19.84 283.2 0 263.36 0 239.36 c 0 43.841 l
 0 19.841 19.84 0.001 43.84 0.001 c 239.359 0.001 l 263.359 0.001 283.199
 19.841 283.199 43.841 c 283.199 239.68 l 283.199 263.68 263.68 283.2 239.68
 283.2 c h
239.68 283.2 m f
0.917647 0.921569 0.760784 rg
250.879 141.759 m 250.879 81.493 202.023 32.641 141.762 32.641 c 81.496
 32.641 32.641 81.493 32.641 141.759 c 32.641 202.024 81.496 250.88 141.762
 250.88 c 202.023 250.88 250.879 202.024 250.879 141.759 c h
250.879 141.759 m f
0.25098 0.156863 0.0627451 rg
135.359 250.88 m 135.359 230.079 l 135.359 226.559 138.238 223.68 141.762
 223.68 c 145.281 223.68 148.16 226.559 148.16 230.079 c 148.16 250.88 l
 148.16 254.399 145.281 257.278 141.762 257.278 c 138.238 257.278 135.359
 254.399 135.359 250.88 c h
135.359 250.88 m f
257.281 141.759 m 257.281 145.278 254.398 148.161 250.879 148.161 c 230.078
 148.161 l 226.559 148.161 223.68 145.278 223.68 141.759 c 223.68 138.239
 226.559 135.36 230.078 135.36 c 250.879 135.36 l 254.398 135.36 257.281
 138.239 257.281 141.759 c h
257.281 141.759 m f
135.359 53.438 m 135.359 32.641 l 135.359 29.122 138.238 26.239 141.762
 26.239 c 145.281 26.239 148.16 29.122 148.16 32.641 c 148.16 53.438 l 148.16
 56.962 145.281 59.841 141.762 59.841 c 138.238 59.841 135.359 56.962 135.359
 53.438 c h
135.359 53.438 m f
53.441 135.36 m 56.961 135.36 59.84 138.239 59.84 141.759 c 59.84 145.278
 56.961 148.161 53.441 148.161 c 32.641 148.161 l 29.121 148.161 26.238 
145.278 26.238 141.759 c 26.238 138.239 29.121 135.36 32.641 135.36 c h
53.441 135.36 m f
155.199 128.321 m 158.719 131.841 160.641 136.641 160.641 141.759 c 160.641
 146.88 158.398 151.68 155.199 155.2 c 153.281 157.122 150.719 158.72 148.16
 159.68 c 148.16 207.04 l 148.16 210.559 145.281 213.438 141.762 213.438
 c 138.238 213.438 135.359 210.559 135.359 207.04 c 135.359 159.68 l 132.801
 158.72 130.238 157.122 128.32 155.2 c 126.398 153.278 124.801 150.72 123.84
 148.161 c 88.32 148.161 l 84.801 148.161 81.922 145.278 81.922 141.759 
c 81.922 138.239 84.801 135.36 88.32 135.36 c 123.84 135.36 l 124.801 132.802
 126.078 130.559 128 128.641 c 128.32 128.321 l 131.84 124.802 136.641 122.88
 141.762 122.88 c 146.879 122.559 151.68 124.802 155.199 128.321 c h
146.238 137.278 m 144.961 136.001 143.359 135.36 141.762 135.36 c 140.16
 135.36 138.559 136.001 137.281 137.278 c 136.961 137.598 l 136 138.559 
135.359 140.161 135.359 141.759 c 135.359 143.36 136 144.962 137.281 146.239
 c 138.559 147.52 140.16 148.161 141.762 148.161 c 143.359 148.161 144.961
 147.52 146.238 146.239 c 147.52 144.962 148.16 143.36 148.16 141.759 c 
148.16 140.161 147.52 138.559 146.238 137.278 c h
146.238 137.278 m f
Q Q
showpage
%%Trailer
end restore
%%EOF
