%!PS-Adobe-3.0 EPSF-3.0
%%Creator: cairo 1.14.2 (http://cairographics.org)
%%CreationDate: Thu Oct 26 12:36:05 2017
%%Pages: 1
%%DocumentData: Clean7Bit
%%LanguageLevel: 2
%%BoundingBox: 0 0 309 309
%%EndComments
%%BeginProlog
save
50 dict begin
/q { gsave } bind def
/Q { grestore } bind def
/cm { 6 array astore concat } bind def
/w { setlinewidth } bind def
/J { setlinecap } bind def
/j { setlinejoin } bind def
/M { setmiterlimit } bind def
/d { setdash } bind def
/m { moveto } bind def
/l { lineto } bind def
/c { curveto } bind def
/h { closepath } bind def
/re { exch dup neg 3 1 roll 5 3 roll moveto 0 rlineto
      0 exch rlineto 0 rlineto closepath } bind def
/S { stroke } bind def
/f { fill } bind def
/f* { eofill } bind def
/n { newpath } bind def
/W { clip } bind def
/W* { eoclip } bind def
/BT { } bind def
/ET { } bind def
/pdfmark where { pop globaldict /?pdfmark /exec load put }
    { globaldict begin /?pdfmark /pop load def /pdfmark
    /cleartomark load def end } ifelse
/BDC { mark 3 1 roll /BDC pdfmark } bind def
/EMC { mark /EMC pdfmark } bind def
/cairo_store_point { /cairo_point_y exch def /cairo_point_x exch def } def
/Tj { show currentpoint cairo_store_point } bind def
/TJ {
  {
    dup
    type /stringtype eq
    { show } { -0.001 mul 0 cairo_font_matrix dtransform rmoveto } ifelse
  } forall
  currentpoint cairo_store_point
} bind def
/cairo_selectfont { cairo_font_matrix aload pop pop pop 0 0 6 array astore
    cairo_font exch selectfont cairo_point_x cairo_point_y moveto } bind def
/Tf { pop /cairo_font exch def /cairo_font_matrix where
      { pop cairo_selectfont } if } bind def
/Td { matrix translate cairo_font_matrix matrix concatmatrix dup
      /cairo_font_matrix exch def dup 4 get exch 5 get cairo_store_point
      /cairo_font where { pop cairo_selectfont } if } bind def
/Tm { 2 copy 8 2 roll 6 array astore /cairo_font_matrix exch def
      cairo_store_point /cairo_font where { pop cairo_selectfont } if } bind def
/g { setgray } bind def
/rg { setrgbcolor } bind def
/d1 { setcachedevice } bind def
%%EndProlog
%%BeginSetup
%%EndSetup
%%Page: 1 1
%%BeginPageSetup
%%PageBoundingBox: 0 0 309 309
%%EndPageSetup
q 0 0 309 309 rectclip q
0.690196 0.792157 0.294118 rg
307.199 154.242 m 307.199 69.41 238.43 0.64 153.602 0.64 c 68.77 0.64 0
 69.41 0 154.242 c 0 239.07 68.77 307.839 153.602 307.839 c 238.43 307.839
 307.199 239.07 307.199 154.242 c h
307.199 154.242 m f
0.917647 0.921569 0.760784 rg
272 154.242 m 272 88.851 218.992 35.839 153.602 35.839 c 88.211 35.839 
35.199 88.851 35.199 154.242 c 35.199 219.632 88.211 272.64 153.602 272.64
 c 218.992 272.64 272 219.632 272 154.242 c h
272 154.242 m f
0.25098 0.156863 0.0627451 rg
153.602 279.039 m 150.078 279.039 147.199 276.16 147.199 272.64 c 147.199
 250.242 l 147.199 246.718 150.078 243.839 153.602 243.839 c 157.121 243.839
 160 246.718 160 250.242 c 160 272.64 l 160 276.16 157.121 279.039 153.602
 279.039 c h
153.602 279.039 m f
249.281 160.64 m 245.762 160.64 242.879 157.761 242.879 154.242 c 242.879
 150.718 245.762 147.839 249.281 147.839 c 272 147.839 l 275.52 147.839 
278.398 150.718 278.398 154.242 c 278.398 157.761 275.52 160.64 272 160.64
 c h
249.281 160.64 m f
57.602 160.64 m 34.879 160.64 l 31.359 160.64 28.48 157.761 28.48 154.242
 c 28.48 150.718 31.359 147.839 34.879 147.839 c 57.602 147.839 l 61.121
 147.839 64 150.718 64 154.242 c 64 157.761 61.121 160.64 57.602 160.64 
c h
57.602 160.64 m f
134.398 147.839 m 135.359 144.96 136.961 142.082 139.199 139.839 c 142.719
 136.32 147.84 134.082 153.602 134.082 c 159.039 134.082 164.16 136.32 168
 139.839 c 171.52 143.359 173.762 148.48 173.762 154.242 c 173.762 159.679
 171.52 164.8 168 168.64 c 165.762 170.878 163.199 172.48 160 173.441 c 
160 225.281 l 160 228.8 157.121 231.679 153.602 231.679 c 150.078 231.679
 147.199 228.8 147.199 225.281 c 147.199 173.441 l 144.32 172.48 141.762
 170.878 139.84 168.96 c 139.52 168.64 l 137.281 166.402 135.68 163.839 
134.719 160.64 c 95.359 160.64 l 91.84 160.64 88.961 157.761 88.961 154.242
 c 88.961 150.718 91.84 147.839 95.359 147.839 c h
158.719 149.121 m 157.441 147.839 155.52 146.878 153.602 146.878 c 151.68
 146.878 149.762 147.839 148.48 149.121 c 147.199 150.402 146.238 152.32
 146.238 154.242 c 146.238 156.16 147.199 158.082 148.48 159.359 c 148.48
 159.359 148.48 159.679 148.801 159.679 c 150.078 160.96 152 161.601 153.922
 161.601 c 155.84 161.601 157.762 160.64 159.039 159.359 c 160.32 158.082
 161.281 156.16 161.281 154.242 c 160.961 152.32 160 150.402 158.719 149.121
 c h
158.719 149.121 m f
147.199 58.242 m 147.199 35.519 l 147.199 32 150.078 29.121 153.602 29.121
 c 157.121 29.121 160 32 160 35.519 c 160 58.242 l 160 61.761 157.121 64.64
 153.602 64.64 c 150.078 64.64 147.199 61.761 147.199 58.242 c h
147.199 58.242 m f
308.48 59.199 m 308.48 26.859 282.262 0.64 249.922 0.64 c 217.578 0.64 
191.359 26.859 191.359 59.199 c 191.359 91.543 217.578 117.761 249.922 117.761
 c 282.262 117.761 308.48 91.543 308.48 59.199 c h
308.48 59.199 m f
0.690196 0.792157 0.294118 rg
245.441 91.199 m 245.441 87.039 l 241.281 86.082 237.762 83.839 234.879
 80.64 c 232.32 77.441 230.719 73.921 230.719 69.761 c 230.719 65.281 232.32
 61.761 235.52 59.519 c 238.719 56.96 243.199 55.359 248.641 54.082 c 253.762
 53.121 256.32 51.199 256.32 48.64 c 256.32 47.359 255.68 46.082 254.398
 45.121 c 253.121 44.16 251.52 43.519 249.602 43.519 c 247.359 43.519 l 
246.719 43.519 245.762 43.839 245.121 43.839 c 244.48 44.16 243.84 44.16
 243.52 44.48 c 243.199 44.48 242.559 44.8 241.922 45.121 c 241.281 45.441
 240.961 45.441 240.641 45.761 c 238.719 46.402 236.801 47.039 235.52 47.039
 c 233.922 47.039 232.641 46.402 231.359 45.121 c 230.078 43.839 229.762
 42.242 229.762 40.32 c 229.762 37.761 231.039 35.519 233.922 34.242 c 236.801
 32.64 240.32 31.679 245.121 31.039 c 245.121 26.242 l 245.121 24.96 245.762
 23.679 246.719 23.039 c 247.68 22.402 248.961 22.082 250.559 22.082 c 252.16
 22.082 253.441 22.402 254.398 23.039 c 255.359 23.679 256 24.96 255.68 
26.558 c 255.68 31.359 l 260.16 32.32 263.68 34.558 266.238 37.441 c 268.801
 40.32 270.078 44.16 270.078 48.96 c 270.078 54.082 268.48 57.601 265.602
 60.16 c 262.719 62.718 258.238 64.64 252.801 65.601 c 249.922 66.242 247.68
 66.878 246.398 67.519 c 245.121 68.16 244.16 69.121 244.16 70.402 c 244.16
 71.679 244.801 72.96 246.078 73.921 c 247.359 74.878 248.961 75.519 250.559
 75.519 c 252.48 75.519 254.719 75.199 256.961 74.242 c 259.52 73.281 261.121
 72.64 262.398 72.64 c 264 72.64 265.281 73.281 266.238 74.558 c 267.199
 75.839 267.84 77.441 267.84 78.718 c 267.84 81.601 266.879 83.519 264.641
 84.48 c 262.078 85.761 258.879 86.718 255.359 87.359 c 255.359 91.519 l
 255.359 93.121 254.719 94.082 253.762 95.039 c 252.801 95.679 251.52 96.32
 249.922 96.32 c 248.32 96.32 247.359 96 246.398 95.039 c 245.762 94.082
 245.121 92.8 245.441 91.199 c h
245.441 91.199 m f
Q Q
showpage
%%Trailer
end restore
%%EOF
