%!PS-Adobe-3.0 EPSF-3.0
%%Creator: cairo 1.14.2 (http://cairographics.org)
%%CreationDate: Thu Oct 26 12:36:05 2017
%%Pages: 1
%%DocumentData: Clean7Bit
%%LanguageLevel: 2
%%BoundingBox: 34 -1 296 330
%%EndComments
%%BeginProlog
save
50 dict begin
/q { gsave } bind def
/Q { grestore } bind def
/cm { 6 array astore concat } bind def
/w { setlinewidth } bind def
/J { setlinecap } bind def
/j { setlinejoin } bind def
/M { setmiterlimit } bind def
/d { setdash } bind def
/m { moveto } bind def
/l { lineto } bind def
/c { curveto } bind def
/h { closepath } bind def
/re { exch dup neg 3 1 roll 5 3 roll moveto 0 rlineto
      0 exch rlineto 0 rlineto closepath } bind def
/S { stroke } bind def
/f { fill } bind def
/f* { eofill } bind def
/n { newpath } bind def
/W { clip } bind def
/W* { eoclip } bind def
/BT { } bind def
/ET { } bind def
/pdfmark where { pop globaldict /?pdfmark /exec load put }
    { globaldict begin /?pdfmark /pop load def /pdfmark
    /cleartomark load def end } ifelse
/BDC { mark 3 1 roll /BDC pdfmark } bind def
/EMC { mark /EMC pdfmark } bind def
/cairo_store_point { /cairo_point_y exch def /cairo_point_x exch def } def
/Tj { show currentpoint cairo_store_point } bind def
/TJ {
  {
    dup
    type /stringtype eq
    { show } { -0.001 mul 0 cairo_font_matrix dtransform rmoveto } ifelse
  } forall
  currentpoint cairo_store_point
} bind def
/cairo_selectfont { cairo_font_matrix aload pop pop pop 0 0 6 array astore
    cairo_font exch selectfont cairo_point_x cairo_point_y moveto } bind def
/Tf { pop /cairo_font exch def /cairo_font_matrix where
      { pop cairo_selectfont } if } bind def
/Td { matrix translate cairo_font_matrix matrix concatmatrix dup
      /cairo_font_matrix exch def dup 4 get exch 5 get cairo_store_point
      /cairo_font where { pop cairo_selectfont } if } bind def
/Tm { 2 copy 8 2 roll 6 array astore /cairo_font_matrix exch def
      cairo_store_point /cairo_font where { pop cairo_selectfont } if } bind def
/g { setgray } bind def
/rg { setrgbcolor } bind def
/d1 { setcachedevice } bind def
%%EndProlog
%%BeginSetup
%%EndSetup
%%Page: 1 1
%%BeginPageSetup
%%PageBoundingBox: 34 -1 296 330
%%EndPageSetup
q 34 -1 262 331 rectclip q
0.933333 0.27451 0.290196 rg
268.801 165.119 m 268.801 100.436 216.363 47.998 151.68 47.998 c 86.996
 47.998 34.559 100.436 34.559 165.119 c 34.559 229.803 86.996 282.24 151.68
 282.24 c 216.363 282.24 268.801 229.803 268.801 165.119 c h
268.801 165.119 m f
0.917647 0.921569 0.760784 rg
241.922 165.119 m 241.922 115.283 201.52 74.881 151.68 74.881 c 101.844
 74.881 61.441 115.283 61.441 165.119 c 61.441 214.959 101.844 255.361 151.68
 255.361 c 201.52 255.361 241.922 214.959 241.922 165.119 c h
241.922 165.119 m f
0.25098 0.156863 0.0627451 rg
151.68 231.998 m 155.199 231.998 158.078 234.881 158.078 238.4 c 158.078
 255.682 l 158.078 259.201 155.199 262.08 151.68 262.08 c 148.16 262.08 
145.281 259.201 145.281 255.682 c 145.281 238.4 l 145.281 234.561 148.16
 231.998 151.68 231.998 c h
151.68 231.998 m f
224.961 171.522 m 221.441 171.522 218.559 168.639 218.559 165.119 c 218.559
 161.6 221.441 158.721 224.961 158.721 c 242.238 158.721 l 245.762 158.721
 248.641 161.6 248.641 165.119 c 248.641 168.639 245.762 171.522 242.238
 171.522 c h
224.961 171.522 m f
145.281 92.158 m 145.281 74.881 l 145.281 71.361 148.16 68.479 151.68 68.479
 c 155.199 68.479 158.078 71.361 158.078 74.881 c 158.078 92.158 l 158.078
 95.682 155.199 98.561 151.68 98.561 c 148.16 98.24 145.281 95.682 145.281
 92.158 c h
145.281 92.158 m f
61.441 158.721 m 78.719 158.721 l 82.238 158.721 85.121 161.6 85.121 165.119
 c 85.121 168.639 82.238 171.522 78.719 171.522 c 61.441 171.522 l 57.922
 171.522 55.039 168.639 55.039 165.119 c 55.039 161.6 57.922 158.721 61.441
 158.721 c h
61.441 158.721 m f
163.84 153.279 m 167.039 156.479 168.641 160.639 168.641 165.119 c 168.641
 169.92 166.719 174.08 163.84 176.959 c 162.238 178.561 160.32 179.842 158.398
 180.799 c 158.398 219.201 l 158.398 222.721 155.52 225.6 152 225.6 c 148.48
 225.6 145.602 222.721 145.602 219.201 c 145.602 180.799 l 143.68 179.842
 141.762 178.561 140.16 177.279 c 138.559 175.682 137.281 173.76 136.32 
171.842 c 107.52 171.842 l 104 171.842 101.121 168.959 101.121 165.44 c 
101.121 161.92 104 159.041 107.52 159.041 c 136 159.041 l 136.641 157.119
 137.922 155.522 139.199 153.92 c 139.52 153.6 l 142.719 150.4 146.879 148.799
 151.359 148.799 c 156.48 148.158 160.641 150.08 163.84 153.279 c h
154.879 162.24 m 154.238 161.6 152.961 160.959 152 160.959 c 150.719 160.959
 149.762 161.279 149.121 162.24 c 148.801 162.561 l 148.16 163.201 147.84
 164.158 147.84 165.44 c 147.84 166.721 148.16 167.682 149.121 168.318 c
 149.762 168.959 151.039 169.6 152 169.6 c 153.281 169.6 154.238 169.279
 154.879 168.318 c 155.52 167.682 156.16 166.4 156.16 165.44 c 155.84 163.842
 155.52 162.881 154.879 162.24 c h
154.879 162.24 m f
77.762 311.682 m 77.762 255.682 l 97.922 272.318 123.84 282.24 152 282.24
 c 180.16 282.24 206.078 272.318 226.238 255.682 c 226.238 311.682 l 226.238
 321.6 218.238 329.92 208 329.92 c 96 329.92 l 85.762 329.92 77.762 321.6
 77.762 311.682 c h
77.762 311.682 m f
225.922 18.561 m 225.922 74.24 l 205.762 57.6 179.84 47.682 151.68 47.682
 c 123.52 47.682 97.602 57.6 77.441 74.24 c 77.441 18.24 l 77.441 8.318 
85.441 -0.002 95.68 -0.002 c 207.68 -0.002 l 217.922 0.318 225.922 8.639
 225.922 18.561 c h
225.922 18.561 m f
266.879 143.361 m 286.398 143.361 l 291.52 143.361 295.359 147.522 295.359
 152.318 c 295.359 177.6 l 295.359 182.721 291.199 186.561 286.398 186.561
 c 266.879 186.561 l 268.16 179.522 268.801 172.158 268.801 164.799 c 269.121
 157.76 268.48 150.4 266.879 143.361 c h
266.879 143.361 m f
Q Q
showpage
%%Trailer
end restore
%%EOF
