%!PS-Adobe-3.0 EPSF-3.0
%%Creator: cairo 1.14.2 (http://cairographics.org)
%%CreationDate: Thu Oct 26 12:36:05 2017
%%Pages: 1
%%DocumentData: Clean7Bit
%%LanguageLevel: 2
%%BoundingBox: 0 3 315 312
%%EndComments
%%BeginProlog
save
50 dict begin
/q { gsave } bind def
/Q { grestore } bind def
/cm { 6 array astore concat } bind def
/w { setlinewidth } bind def
/J { setlinecap } bind def
/j { setlinejoin } bind def
/M { setmiterlimit } bind def
/d { setdash } bind def
/m { moveto } bind def
/l { lineto } bind def
/c { curveto } bind def
/h { closepath } bind def
/re { exch dup neg 3 1 roll 5 3 roll moveto 0 rlineto
      0 exch rlineto 0 rlineto closepath } bind def
/S { stroke } bind def
/f { fill } bind def
/f* { eofill } bind def
/n { newpath } bind def
/W { clip } bind def
/W* { eoclip } bind def
/BT { } bind def
/ET { } bind def
/pdfmark where { pop globaldict /?pdfmark /exec load put }
    { globaldict begin /?pdfmark /pop load def /pdfmark
    /cleartomark load def end } ifelse
/BDC { mark 3 1 roll /BDC pdfmark } bind def
/EMC { mark /EMC pdfmark } bind def
/cairo_store_point { /cairo_point_y exch def /cairo_point_x exch def } def
/Tj { show currentpoint cairo_store_point } bind def
/TJ {
  {
    dup
    type /stringtype eq
    { show } { -0.001 mul 0 cairo_font_matrix dtransform rmoveto } ifelse
  } forall
  currentpoint cairo_store_point
} bind def
/cairo_selectfont { cairo_font_matrix aload pop pop pop 0 0 6 array astore
    cairo_font exch selectfont cairo_point_x cairo_point_y moveto } bind def
/Tf { pop /cairo_font exch def /cairo_font_matrix where
      { pop cairo_selectfont } if } bind def
/Td { matrix translate cairo_font_matrix matrix concatmatrix dup
      /cairo_font_matrix exch def dup 4 get exch 5 get cairo_store_point
      /cairo_font where { pop cairo_selectfont } if } bind def
/Tm { 2 copy 8 2 roll 6 array astore /cairo_font_matrix exch def
      cairo_store_point /cairo_font where { pop cairo_selectfont } if } bind def
/g { setgray } bind def
/rg { setrgbcolor } bind def
/d1 { setcachedevice } bind def
%%EndProlog
%%BeginSetup
%%EndSetup
%%Page: 1 1
%%BeginPageSetup
%%PageBoundingBox: 0 3 315 312
%%EndPageSetup
q 0 3 315 309 rectclip q
0.964706 0.54902 0.160784 rg
307.199 157.279 m 307.199 72.451 238.43 3.681 153.602 3.681 c 68.77 3.681
 0 72.451 0 157.279 c 0 242.111 68.77 310.881 153.602 310.881 c 238.43 310.881
 307.199 242.111 307.199 157.279 c h
307.199 157.279 m f
0.917647 0.921569 0.760784 rg
272 157.279 m 272 91.888 218.992 38.881 153.602 38.881 c 88.211 38.881 
35.199 91.888 35.199 157.279 c 35.199 222.67 88.211 275.681 153.602 275.681
 c 218.992 275.681 272 222.67 272 157.279 c h
272 157.279 m f
0.25098 0.156863 0.0627451 rg
147.199 276.002 m 147.199 253.279 l 147.199 249.76 150.078 246.881 153.602
 246.881 c 157.121 246.881 160 249.76 160 253.279 c 160 276.002 l 160 279.521
 157.121 282.4 153.602 282.4 c 150.078 282.4 147.199 279.521 147.199 276.002
 c h
147.199 276.002 m f
249.602 150.881 m 272.32 150.881 l 275.84 150.881 278.719 153.76 278.719
 157.279 c 278.719 160.799 275.84 163.681 272.32 163.681 c 249.602 163.681
 l 246.078 163.681 243.199 160.799 243.199 157.279 c 243.199 153.76 246.078
 150.881 249.602 150.881 c h
249.602 150.881 m f
64 157.279 m 64 160.799 61.121 163.681 57.602 163.681 c 34.879 163.681 
l 31.359 163.681 28.48 160.799 28.48 157.279 c 28.48 153.76 31.359 150.881
 34.879 150.881 c 57.602 150.881 l 61.121 150.881 64 153.76 64 157.279 c
 h
64 157.279 m f
95.68 150.881 m 134.719 150.881 l 135.68 148.002 137.281 145.119 139.52
 142.881 c 143.039 139.361 148.16 137.119 153.922 137.119 c 159.359 137.119
 164.48 139.361 168.32 142.881 c 171.84 146.4 174.078 151.521 174.078 157.279
 c 174.078 162.72 171.84 167.842 168.32 171.681 c 166.078 173.92 163.52 
175.521 160.32 176.478 c 160.32 228.318 l 160.32 231.842 157.441 234.72 
153.922 234.72 c 150.398 234.72 147.52 231.842 147.52 228.318 c 147.52 176.478
 l 144.641 175.521 142.078 173.92 140.16 172.002 c 139.84 171.681 l 137.602
 169.439 136 166.881 135.039 163.681 c 95.68 163.681 l 92.16 163.681 89.281
 160.799 89.281 157.279 c 89.281 153.76 92.16 150.881 95.68 150.881 c h
158.719 152.162 m 157.441 150.881 155.52 149.92 153.602 149.92 c 151.68
 149.92 149.762 150.881 148.48 152.162 c 147.199 153.439 146.238 155.361
 146.238 157.279 c 146.238 159.201 147.199 161.119 148.48 162.4 c 148.48
 162.4 148.48 162.72 148.801 162.72 c 150.078 164.002 152 164.638 153.922
 164.638 c 155.84 164.638 157.762 163.681 159.039 162.4 c 160.32 161.119
 161.281 159.201 161.281 157.279 c 160.961 155.361 160.32 153.439 158.719
 152.162 c h
158.719 152.162 m f
153.602 68.002 m 150.078 68.002 147.199 65.119 147.199 61.599 c 147.199
 38.881 l 147.199 35.361 150.078 32.478 153.602 32.478 c 157.121 32.478 
160 35.361 160 38.881 c 160 61.599 l 160 65.119 157.121 68.002 153.602 68.002
 c h
153.602 68.002 m f
314.238 66.08 m 314.238 31.439 286.16 3.361 251.52 3.361 c 216.879 3.361
 188.801 31.439 188.801 66.08 c 188.801 100.72 216.879 128.799 251.52 128.799
 c 286.16 128.799 314.238 100.72 314.238 66.08 c h
314.238 66.08 m f
0.964706 0.54902 0.160784 rg
274.238 67.041 m 274.238 60.959 l 265.922 60.959 l 270.078 68.318 l 270.719
 69.279 272 71.842 274.559 75.681 c 276.801 79.521 278.719 82.4 280 84.959
 c 280.641 86.24 280.961 87.201 280.961 88.162 c 280.961 89.439 280.32 90.72
 278.719 92.002 c 277.121 93.279 275.52 93.599 273.922 93.599 c 271.359 
93.599 269.441 92.318 268.16 90.08 c 260.801 76.959 256.32 68.638 254.398
 65.119 c 252.801 62.56 251.84 60.002 251.84 57.119 c 251.84 55.521 252.48
 53.92 253.441 52.318 c 254.719 50.72 256 50.08 257.922 50.08 c 274.879 
50.08 l 274.879 45.279 l 274.879 43.681 275.52 42.4 276.48 41.439 c 277.441
 40.478 279.039 40.162 280.641 40.162 c 284.48 40.162 286.398 41.76 286.719
 45.279 c 286.719 50.08 l 290.238 50.08 l 293.441 50.08 295.039 52.318 295.039
 56.478 c 295.039 58.08 294.719 59.361 293.762 60.318 c 292.801 61.279 291.52
 61.599 289.922 61.599 c 286.719 61.599 l 286.719 68.959 l 286.719 70.56
 286.078 71.842 285.121 72.478 c 284.16 73.119 282.559 73.76 280.641 73.76
 c 275.84 72.799 274.238 70.881 274.238 67.041 c h
226.559 80.799 m 228.16 80.799 229.762 80.478 231.039 79.521 c 232.32 78.56
 232.961 77.599 232.961 76.002 c 232.961 75.041 232.641 74.08 232 73.119
 c 231.359 71.842 229.121 69.599 225.602 66.08 c 224.32 64.799 221.762 62.56
 218.879 60.002 c 215.68 57.439 214.078 55.842 213.441 55.201 c 211.84 53.92
 210.879 52.318 210.238 51.361 c 209.602 50.08 209.281 48.799 209.281 47.201
 c 209.281 45.279 209.922 43.681 211.199 42.4 c 212.48 41.119 213.762 40.478
 215.68 40.478 c 241.602 40.478 l 243.52 40.478 244.801 40.799 246.078 42.08
 c 247.039 43.041 247.68 44.638 247.68 46.881 c 247.68 48.478 247.039 49.76
 246.078 51.041 c 245.121 52.318 243.84 52.959 242.238 52.959 c 237.762 
52.959 l 232.961 52.959 229.441 52.638 227.199 52.959 c 232.32 57.119 l 
234.559 59.041 236.16 60.318 237.121 60.959 c 240.641 64.478 l 242.238 66.08
 243.52 67.361 243.84 68.318 c 244.48 69.279 244.801 70.56 245.441 72.162
 c 246.078 73.76 246.398 75.361 246.398 76.959 c 246.398 82.08 244.48 86.24
 240.641 89.119 c 236.801 92.318 232 93.599 226.559 93.599 c 222.078 93.599
 218.238 92.318 214.719 89.439 c 211.52 87.201 209.922 84.638 209.922 82.08
 c 209.922 80.478 210.559 79.201 211.52 77.92 c 212.48 76.638 214.078 76.002
 215.359 76.002 c 217.602 76.002 219.52 76.638 220.801 77.92 c 222.719 79.521
 224.641 80.799 226.559 80.799 c h
226.559 80.799 m f
Q Q
showpage
%%Trailer
end restore
%%EOF
