%!PS-Adobe-3.0 EPSF-3.0
%%Creator: cairo 1.14.2 (http://cairographics.org)
%%CreationDate: Thu Oct 26 12:36:05 2017
%%Pages: 1
%%DocumentData: Clean7Bit
%%LanguageLevel: 2
%%BoundingBox: 13 -1 292 306
%%EndComments
%%BeginProlog
save
50 dict begin
/q { gsave } bind def
/Q { grestore } bind def
/cm { 6 array astore concat } bind def
/w { setlinewidth } bind def
/J { setlinecap } bind def
/j { setlinejoin } bind def
/M { setmiterlimit } bind def
/d { setdash } bind def
/m { moveto } bind def
/l { lineto } bind def
/c { curveto } bind def
/h { closepath } bind def
/re { exch dup neg 3 1 roll 5 3 roll moveto 0 rlineto
      0 exch rlineto 0 rlineto closepath } bind def
/S { stroke } bind def
/f { fill } bind def
/f* { eofill } bind def
/n { newpath } bind def
/W { clip } bind def
/W* { eoclip } bind def
/BT { } bind def
/ET { } bind def
/pdfmark where { pop globaldict /?pdfmark /exec load put }
    { globaldict begin /?pdfmark /pop load def /pdfmark
    /cleartomark load def end } ifelse
/BDC { mark 3 1 roll /BDC pdfmark } bind def
/EMC { mark /EMC pdfmark } bind def
/cairo_store_point { /cairo_point_y exch def /cairo_point_x exch def } def
/Tj { show currentpoint cairo_store_point } bind def
/TJ {
  {
    dup
    type /stringtype eq
    { show } { -0.001 mul 0 cairo_font_matrix dtransform rmoveto } ifelse
  } forall
  currentpoint cairo_store_point
} bind def
/cairo_selectfont { cairo_font_matrix aload pop pop pop 0 0 6 array astore
    cairo_font exch selectfont cairo_point_x cairo_point_y moveto } bind def
/Tf { pop /cairo_font exch def /cairo_font_matrix where
      { pop cairo_selectfont } if } bind def
/Td { matrix translate cairo_font_matrix matrix concatmatrix dup
      /cairo_font_matrix exch def dup 4 get exch 5 get cairo_store_point
      /cairo_font where { pop cairo_selectfont } if } bind def
/Tm { 2 copy 8 2 roll 6 array astore /cairo_font_matrix exch def
      cairo_store_point /cairo_font where { pop cairo_selectfont } if } bind def
/g { setgray } bind def
/rg { setrgbcolor } bind def
/d1 { setcachedevice } bind def
%%EndProlog
%%BeginSetup
%%EndSetup
%%Page: 1 1
%%BeginPageSetup
%%PageBoundingBox: 13 -1 292 306
%%EndPageSetup
q 13 -1 279 307 rectclip q
0.917647 0.921569 0.760784 rg
247.84 278.721 m 57.121 278.721 l 33.121 278.721 13.281 258.882 13.281 
234.882 c 13.281 43.839 l 13.281 19.839 33.121 -0.001 57.121 -0.001 c 247.84
 -0.001 l 271.84 -0.001 291.68 19.839 291.68 43.839 c 291.68 234.561 l 291.68
 258.882 272.16 278.721 247.84 278.721 c h
247.84 278.721 m f
0.933333 0.27451 0.290196 rg
247.84 278.721 m 57.121 278.721 l 33.121 278.721 13.281 258.882 13.281 
234.882 c 13.281 200.639 l 292 200.639 l 292 234.561 l 291.68 258.882 272.16
 278.721 247.84 278.721 c h
247.84 278.721 m f
188.961 136.639 m 195.039 136.639 199.52 133.76 202.719 127.678 c 205.922
 121.6 207.52 113.6 207.52 103.999 c 207.52 94.721 205.922 87.358 202.398
 81.921 c 198.879 76.479 194.398 73.921 188.32 73.921 c 182.879 73.921 178.398
 76.479 175.199 81.6 c 172 86.721 170.398 93.76 170.398 102.401 c 170.398
 125.12 176.48 136.639 188.961 136.639 c h
144.16 101.44 m 144.16 85.12 148.32 72.319 156.961 63.358 c 165.602 54.401
 176.16 49.6 188.961 49.6 c 201.762 49.6 212 54.401 220.641 63.999 c 228.961
 73.6 233.121 87.042 233.121 104.639 c 233.121 122.241 229.281 135.999 221.281
 145.921 c 213.281 155.839 202.398 160.96 188.641 160.96 c 174.559 160.96
 163.359 155.518 155.68 144.96 c 148.32 134.081 144.16 119.678 144.16 101.44
 c h
89.762 119.999 m 92.961 121.921 95.84 123.839 98.398 126.081 c 98.398 105.921
 l 98.398 98.882 98.398 90.561 98.078 80.639 c 97.762 70.721 97.762 64.319
 97.762 61.76 c 97.762 57.921 99.039 55.042 101.602 52.8 c 104.16 50.561
 107.039 49.6 110.879 49.6 c 114.398 49.6 117.602 50.561 120.16 52.479 c
 122.719 54.401 124 56.96 124 60.159 c 124 149.76 l 124 153.6 122.078 156.8
 118.238 159.042 c 116.32 160.319 113.762 160.96 110.559 160.96 c 108.32
 160.96 105.121 159.999 100.961 157.76 c 96.801 155.518 89.441 150.401 78.559
 143.042 c 76 141.12 74.398 139.518 73.121 137.921 c 71.84 136.319 71.52
 134.081 71.52 131.518 c 71.52 128.639 72.801 125.76 75.039 122.882 c 77.281
 119.999 79.84 118.721 82.719 118.721 c 85.281 118.401 87.84 119.042 89.762
 119.999 c h
89.762 119.999 m f
0.25098 0.156863 0.0627451 rg
90.719 258.241 m 90.719 298.882 l 90.719 302.401 87.84 305.28 84.32 305.28
 c 80.801 305.28 77.922 302.401 77.922 298.882 c 77.922 258.241 l 77.922
 254.721 80.801 251.839 84.32 251.839 c 87.84 251.839 90.719 254.721 90.719
 258.241 c h
90.719 258.241 m f
220.641 251.839 m 224.16 251.839 227.039 254.721 227.039 258.241 c 227.039
 298.882 l 227.039 302.401 224.16 305.28 220.641 305.28 c 217.121 305.28
 214.238 302.401 214.238 298.882 c 214.238 258.241 l 214.238 254.721 217.121
 251.839 220.641 251.839 c h
220.641 251.839 m f
Q Q
showpage
%%Trailer
end restore
%%EOF
