%!PS-Adobe-3.0 EPSF-3.0
%%Creator: cairo 1.14.2 (http://cairographics.org)
%%CreationDate: Thu Oct 26 12:36:05 2017
%%Pages: 1
%%DocumentData: Clean7Bit
%%LanguageLevel: 2
%%BoundingBox: 50 -1 271 321
%%EndComments
%%BeginProlog
save
50 dict begin
/q { gsave } bind def
/Q { grestore } bind def
/cm { 6 array astore concat } bind def
/w { setlinewidth } bind def
/J { setlinecap } bind def
/j { setlinejoin } bind def
/M { setmiterlimit } bind def
/d { setdash } bind def
/m { moveto } bind def
/l { lineto } bind def
/c { curveto } bind def
/h { closepath } bind def
/re { exch dup neg 3 1 roll 5 3 roll moveto 0 rlineto
      0 exch rlineto 0 rlineto closepath } bind def
/S { stroke } bind def
/f { fill } bind def
/f* { eofill } bind def
/n { newpath } bind def
/W { clip } bind def
/W* { eoclip } bind def
/BT { } bind def
/ET { } bind def
/pdfmark where { pop globaldict /?pdfmark /exec load put }
    { globaldict begin /?pdfmark /pop load def /pdfmark
    /cleartomark load def end } ifelse
/BDC { mark 3 1 roll /BDC pdfmark } bind def
/EMC { mark /EMC pdfmark } bind def
/cairo_store_point { /cairo_point_y exch def /cairo_point_x exch def } def
/Tj { show currentpoint cairo_store_point } bind def
/TJ {
  {
    dup
    type /stringtype eq
    { show } { -0.001 mul 0 cairo_font_matrix dtransform rmoveto } ifelse
  } forall
  currentpoint cairo_store_point
} bind def
/cairo_selectfont { cairo_font_matrix aload pop pop pop 0 0 6 array astore
    cairo_font exch selectfont cairo_point_x cairo_point_y moveto } bind def
/Tf { pop /cairo_font exch def /cairo_font_matrix where
      { pop cairo_selectfont } if } bind def
/Td { matrix translate cairo_font_matrix matrix concatmatrix dup
      /cairo_font_matrix exch def dup 4 get exch 5 get cairo_store_point
      /cairo_font where { pop cairo_selectfont } if } bind def
/Tm { 2 copy 8 2 roll 6 array astore /cairo_font_matrix exch def
      cairo_store_point /cairo_font where { pop cairo_selectfont } if } bind def
/g { setgray } bind def
/rg { setrgbcolor } bind def
/d1 { setcachedevice } bind def
%%EndProlog
%%BeginSetup
%%EndSetup
%%Page: 1 1
%%BeginPageSetup
%%PageBoundingBox: 50 -1 271 321
%%EndPageSetup
q 50 -1 221 322 rectclip q
0.917647 0.921569 0.760784 rg
86.078 6.402 m 234.238 6.402 l 234.238 80.64 l 234.238 115.519 209.602 
145.281 176.961 152.96 c 176.961 167.679 l 209.602 175.359 234.238 204.8
 234.238 239.999 c 234.238 314.242 l 86.078 314.242 l 86.078 239.999 l 86.078
 205.12 110.719 175.359 143.359 167.679 c 143.359 152.96 l 110.719 145.281
 86.078 115.839 86.078 80.64 c h
86.078 6.402 m f
0.964706 0.54902 0.160784 rg
95.68 21.12 m 224.961 21.12 l 224.961 75.199 l 220.801 81.921 215.039 87.359
 208 91.199 c 200.641 95.359 192.32 97.921 183.359 97.921 c 169.602 97.921
 157.441 92.48 148.48 83.519 c 139.52 74.562 134.078 62.402 134.078 48.64
 c 134.078 46.081 l 134.078 45.12 134.078 44.48 134.398 43.519 c 135.039
 38.402 131.199 33.601 125.762 32.96 c 123.199 32.64 120.961 33.281 119.039
 34.878 c 117.441 36.16 115.52 37.12 113.602 37.761 c 111.68 38.402 109.762
 38.718 107.52 38.718 c 104.641 38.718 102.078 38.081 99.84 37.12 c 98.559
 36.48 97.281 35.839 96 34.878 c 96 21.12 l h
95.68 21.12 m f
0.25098 0.156863 0.0627451 rg
50.238 314.242 m 50.238 310.718 53.121 307.839 56.641 307.839 c 264 307.519
 l 267.52 307.519 270.398 310.402 270.398 313.921 c 270.398 317.441 267.52
 320.32 264 320.32 c 56.961 320.64 l 53.121 320.64 50.238 317.761 50.238
 314.242 c h
50.238 314.242 m f
270.398 6.402 m 270.398 9.921 267.52 12.8 264 12.8 c 56.641 13.12 l 53.121
 13.12 50.238 10.242 50.238 6.718 c 50.238 3.199 53.121 0.32 56.641 0.32
 c 263.68 -0.001 l 267.52 -0.001 270.398 2.878 270.398 6.402 c h
270.398 6.402 m f
Q Q
showpage
%%Trailer
end restore
%%EOF
