%!PS-Adobe-3.0 EPSF-3.0
%%Creator: cairo 1.14.2 (http://cairographics.org)
%%CreationDate: Thu Oct 26 12:36:05 2017
%%Pages: 1
%%DocumentData: Clean7Bit
%%LanguageLevel: 2
%%BoundingBox: 0 3 327 324
%%EndComments
%%BeginProlog
save
50 dict begin
/q { gsave } bind def
/Q { grestore } bind def
/cm { 6 array astore concat } bind def
/w { setlinewidth } bind def
/J { setlinecap } bind def
/j { setlinejoin } bind def
/M { setmiterlimit } bind def
/d { setdash } bind def
/m { moveto } bind def
/l { lineto } bind def
/c { curveto } bind def
/h { closepath } bind def
/re { exch dup neg 3 1 roll 5 3 roll moveto 0 rlineto
      0 exch rlineto 0 rlineto closepath } bind def
/S { stroke } bind def
/f { fill } bind def
/f* { eofill } bind def
/n { newpath } bind def
/W { clip } bind def
/W* { eoclip } bind def
/BT { } bind def
/ET { } bind def
/pdfmark where { pop globaldict /?pdfmark /exec load put }
    { globaldict begin /?pdfmark /pop load def /pdfmark
    /cleartomark load def end } ifelse
/BDC { mark 3 1 roll /BDC pdfmark } bind def
/EMC { mark /EMC pdfmark } bind def
/cairo_store_point { /cairo_point_y exch def /cairo_point_x exch def } def
/Tj { show currentpoint cairo_store_point } bind def
/TJ {
  {
    dup
    type /stringtype eq
    { show } { -0.001 mul 0 cairo_font_matrix dtransform rmoveto } ifelse
  } forall
  currentpoint cairo_store_point
} bind def
/cairo_selectfont { cairo_font_matrix aload pop pop pop 0 0 6 array astore
    cairo_font exch selectfont cairo_point_x cairo_point_y moveto } bind def
/Tf { pop /cairo_font exch def /cairo_font_matrix where
      { pop cairo_selectfont } if } bind def
/Td { matrix translate cairo_font_matrix matrix concatmatrix dup
      /cairo_font_matrix exch def dup 4 get exch 5 get cairo_store_point
      /cairo_font where { pop cairo_selectfont } if } bind def
/Tm { 2 copy 8 2 roll 6 array astore /cairo_font_matrix exch def
      cairo_store_point /cairo_font where { pop cairo_selectfont } if } bind def
/g { setgray } bind def
/rg { setrgbcolor } bind def
/d1 { setcachedevice } bind def
%%EndProlog
%%BeginSetup
%%EndSetup
%%Page: 1 1
%%BeginPageSetup
%%PageBoundingBox: 0 3 327 324
%%EndPageSetup
q 0 3 327 321 rectclip q
0.32549 0.72549 0.670588 rg
325.762 181.279 m 325.762 185.439 288.641 199.201 280.961 201.759 c 273.922
 218.08 l 277.121 225.439 292.801 261.599 289.602 264.478 c 265.281 288.798
 l 262.398 291.681 226.238 275.681 218.879 272.478 c 201.922 279.201 l 199.039
 286.56 184 322.72 179.84 322.72 c 144.641 322.72 l 140.16 322.72 126.398
 286.56 123.52 278.88 c 106.559 272.162 l 99.199 275.361 62.398 290.72 59.199
 287.521 c 34.879 263.521 l 33.602 262.24 33.602 260.002 34.879 258.72 c
 37.441 248.162 48.641 223.841 51.52 218.08 c 44.48 201.439 l 36.801 198.56
 0 183.841 0 179.681 c 0 145.439 l 0 141.279 37.121 127.521 44.801 124.638
 c 51.84 108.322 l 48.641 100.959 32.961 64.798 36.16 61.92 c 61.121 37.599
 l 64 34.72 100.16 50.72 107.52 53.92 c 124.48 47.201 l 127.359 39.841 142.398
 3.681 146.559 3.681 c 181.441 3.681 l 185.922 3.681 199.68 39.841 202.559
 47.521 c 219.52 54.24 l 226.879 51.041 263.68 35.681 266.559 38.56 c 291.52
 62.88 l 292.801 64.162 292.801 66.4 291.52 67.681 c 288.961 78.24 277.762
 102.56 274.879 108.322 c 281.922 124.638 l 289.602 127.521 326.398 142.24
 326.398 146.4 c h
325.762 181.279 m f
0.917647 0.921569 0.760784 rg
254.398 164.322 m 254.398 114.834 214.285 74.72 164.801 74.72 c 115.316
 74.72 75.199 114.834 75.199 164.322 c 75.199 213.806 115.316 253.92 164.801
 253.92 c 214.285 253.92 254.398 213.806 254.398 164.322 c h
254.398 164.322 m f
0.25098 0.156863 0.0627451 rg
164.801 230.56 m 168.32 230.56 171.199 233.439 171.199 236.959 c 171.199
 253.92 l 171.199 257.439 168.32 260.322 164.801 260.322 c 161.281 260.322
 158.398 257.439 158.398 253.92 c 158.398 236.959 l 158.398 233.439 161.281
 230.56 164.801 230.56 c h
164.801 230.56 m f
237.121 157.92 m 254.078 157.92 l 257.602 157.92 260.48 160.798 260.48 
164.322 c 260.48 167.841 257.602 170.72 254.078 170.72 c 237.121 170.72 
l 233.602 170.72 230.719 167.841 230.719 164.322 c 230.719 160.798 233.602
 157.92 237.121 157.92 c h
237.121 157.92 m f
171.199 74.72 m 171.199 91.681 l 171.199 95.201 168.32 98.08 164.801 98.08
 c 161.281 98.08 158.398 95.201 158.398 91.681 c 158.398 74.72 l 158.398
 71.201 161.281 68.322 164.801 68.322 c 168.32 68.322 171.199 71.201 171.199
 74.72 c h
171.199 74.72 m f
75.199 157.92 m 92.48 157.92 l 96 157.92 98.879 160.798 98.879 164.322 
c 98.879 167.841 96 170.72 92.48 170.72 c 75.52 170.72 l 72 170.72 69.121
 167.841 69.121 164.322 c 68.801 160.798 71.68 157.92 75.199 157.92 c h
75.199 157.92 m f
120.961 157.92 m 149.121 157.92 l 149.762 156.002 151.039 154.4 152.32 
152.798 c 152.641 152.478 l 155.84 149.279 160 147.681 164.48 147.681 c 
168.961 147.681 172.801 149.279 176 152.162 c 176.32 152.478 l 179.52 155.681
 181.121 159.841 181.121 164.322 c 181.121 168.798 179.52 172.638 176.641
 175.841 c 176.32 176.162 l 174.719 177.759 172.801 179.041 170.879 179.681
 c 170.879 218.08 l 170.879 221.599 168 224.478 164.48 224.478 c 160.961
 224.478 158.078 221.599 158.078 218.08 c 158.078 180.002 l 156.16 179.041
 154.238 177.759 152.641 176.478 c 151.039 174.88 149.762 172.959 149.121
 171.041 c 120.961 171.041 l 117.441 171.041 114.559 168.162 114.559 164.638
 c 114.559 160.798 117.441 157.92 120.961 157.92 c h
167.68 161.439 m 166.719 160.478 165.762 160.162 164.801 160.162 c 163.84
 160.162 162.559 160.478 161.922 161.439 c 161.602 161.759 l 160.961 162.4
 160.641 163.361 160.641 164.322 c 160.641 165.279 160.961 166.56 161.922
 167.201 c 162.559 167.841 163.52 168.478 164.801 168.478 c 165.762 168.478
 167.039 168.162 167.68 167.201 c 168 166.88 l 168.641 166.24 168.961 165.279
 168.961 164.322 c 168.961 163.361 168.32 162.4 167.68 161.439 c h
167.68 161.439 m f
Q Q
showpage
%%Trailer
end restore
%%EOF
