%!PS-Adobe-3.0 EPSF-3.0
%%Creator: cairo 1.14.2 (http://cairographics.org)
%%CreationDate: Thu Oct 26 12:36:05 2017
%%Pages: 1
%%DocumentData: Clean7Bit
%%LanguageLevel: 2
%%BoundingBox: 22 -1 312 334
%%EndComments
%%BeginProlog
save
50 dict begin
/q { gsave } bind def
/Q { grestore } bind def
/cm { 6 array astore concat } bind def
/w { setlinewidth } bind def
/J { setlinecap } bind def
/j { setlinejoin } bind def
/M { setmiterlimit } bind def
/d { setdash } bind def
/m { moveto } bind def
/l { lineto } bind def
/c { curveto } bind def
/h { closepath } bind def
/re { exch dup neg 3 1 roll 5 3 roll moveto 0 rlineto
      0 exch rlineto 0 rlineto closepath } bind def
/S { stroke } bind def
/f { fill } bind def
/f* { eofill } bind def
/n { newpath } bind def
/W { clip } bind def
/W* { eoclip } bind def
/BT { } bind def
/ET { } bind def
/pdfmark where { pop globaldict /?pdfmark /exec load put }
    { globaldict begin /?pdfmark /pop load def /pdfmark
    /cleartomark load def end } ifelse
/BDC { mark 3 1 roll /BDC pdfmark } bind def
/EMC { mark /EMC pdfmark } bind def
/cairo_store_point { /cairo_point_y exch def /cairo_point_x exch def } def
/Tj { show currentpoint cairo_store_point } bind def
/TJ {
  {
    dup
    type /stringtype eq
    { show } { -0.001 mul 0 cairo_font_matrix dtransform rmoveto } ifelse
  } forall
  currentpoint cairo_store_point
} bind def
/cairo_selectfont { cairo_font_matrix aload pop pop pop 0 0 6 array astore
    cairo_font exch selectfont cairo_point_x cairo_point_y moveto } bind def
/Tf { pop /cairo_font exch def /cairo_font_matrix where
      { pop cairo_selectfont } if } bind def
/Td { matrix translate cairo_font_matrix matrix concatmatrix dup
      /cairo_font_matrix exch def dup 4 get exch 5 get cairo_store_point
      /cairo_font where { pop cairo_selectfont } if } bind def
/Tm { 2 copy 8 2 roll 6 array astore /cairo_font_matrix exch def
      cairo_store_point /cairo_font where { pop cairo_selectfont } if } bind def
/g { setgray } bind def
/rg { setrgbcolor } bind def
/d1 { setcachedevice } bind def
%%EndProlog
%%BeginSetup
%%EndSetup
%%Page: 1 1
%%BeginPageSetup
%%PageBoundingBox: 22 -1 312 334
%%EndPageSetup
q 22 -1 290 335 rectclip q
0.690196 0.792157 0.294118 rg
311.359 144.639 m 311.359 64.756 246.602 -0.001 166.719 -0.001 c 86.836
 -0.001 22.078 64.756 22.078 144.639 c 22.078 224.522 86.836 289.28 166.719
 289.28 c 246.602 289.28 311.359 224.522 311.359 144.639 c h
311.359 144.639 m f
0.917647 0.921569 0.760784 rg
278.078 144.639 m 278.078 83.139 228.223 33.28 166.719 33.28 c 105.219 
33.28 55.359 83.139 55.359 144.639 c 55.359 206.143 105.219 255.999 166.719
 255.999 c 228.223 255.999 278.078 206.143 278.078 144.639 c h
278.078 144.639 m f
0.25098 0.156863 0.0627451 rg
112 138.241 m 148.48 138.241 l 149.441 135.362 151.039 133.12 152.961 130.881
 c 156.48 127.362 161.281 125.12 166.719 125.12 c 172.16 125.12 176.961 
127.362 180.48 130.881 c 184 134.401 186.238 139.202 186.238 144.639 c 186.238
 150.081 184 154.881 180.48 158.401 c 178.559 160.319 176 161.92 173.121
 162.881 c 173.121 211.518 l 173.121 215.042 170.238 217.92 166.719 217.92
 c 163.199 217.92 160.32 215.042 160.32 211.518 c 160.32 162.881 l 157.441
 161.92 155.199 160.319 152.961 158.401 c 151.039 156.479 149.441 153.92
 148.48 151.042 c 112 151.042 l 108.48 151.042 105.602 148.159 105.602 144.639
 c 105.602 141.12 108.48 138.241 112 138.241 c h
171.52 140.159 m 170.238 138.881 168.641 138.241 166.719 138.241 c 164.801
 138.241 163.199 138.881 161.922 140.159 c 160.641 141.44 160 143.042 160
 144.96 c 160 146.881 160.641 148.479 161.922 149.76 c 163.199 151.042 164.801
 151.678 166.719 151.678 c 168.641 151.678 170.238 151.042 171.52 149.76
 c 172.801 148.479 173.441 146.881 173.441 144.96 c 173.441 143.042 172.48
 141.12 171.52 140.159 c h
171.52 140.159 m f
125.441 320.639 m 160.32 320.639 l 160.32 289.28 l 160.32 285.76 163.199
 282.881 166.719 282.881 c 170.238 282.881 173.121 285.76 173.121 289.28
 c 173.121 320.639 l 208 320.639 l 211.52 320.639 214.398 323.518 214.398
 327.042 c 214.398 330.561 211.52 333.44 208 333.44 c 125.441 333.44 l 121.922
 333.44 119.039 330.561 119.039 327.042 c 119.039 323.518 121.922 320.639
 125.441 320.639 c h
125.441 320.639 m f
Q Q
showpage
%%Trailer
end restore
%%EOF
