%!PS-Adobe-3.0 EPSF-3.0
%%Creator: cairo 1.14.2 (http://cairographics.org)
%%CreationDate: Thu Oct 26 12:36:05 2017
%%Pages: 1
%%DocumentData: Clean7Bit
%%LanguageLevel: 2
%%BoundingBox: 0 12 333 321
%%EndComments
%%BeginProlog
save
50 dict begin
/q { gsave } bind def
/Q { grestore } bind def
/cm { 6 array astore concat } bind def
/w { setlinewidth } bind def
/J { setlinecap } bind def
/j { setlinejoin } bind def
/M { setmiterlimit } bind def
/d { setdash } bind def
/m { moveto } bind def
/l { lineto } bind def
/c { curveto } bind def
/h { closepath } bind def
/re { exch dup neg 3 1 roll 5 3 roll moveto 0 rlineto
      0 exch rlineto 0 rlineto closepath } bind def
/S { stroke } bind def
/f { fill } bind def
/f* { eofill } bind def
/n { newpath } bind def
/W { clip } bind def
/W* { eoclip } bind def
/BT { } bind def
/ET { } bind def
/pdfmark where { pop globaldict /?pdfmark /exec load put }
    { globaldict begin /?pdfmark /pop load def /pdfmark
    /cleartomark load def end } ifelse
/BDC { mark 3 1 roll /BDC pdfmark } bind def
/EMC { mark /EMC pdfmark } bind def
/cairo_store_point { /cairo_point_y exch def /cairo_point_x exch def } def
/Tj { show currentpoint cairo_store_point } bind def
/TJ {
  {
    dup
    type /stringtype eq
    { show } { -0.001 mul 0 cairo_font_matrix dtransform rmoveto } ifelse
  } forall
  currentpoint cairo_store_point
} bind def
/cairo_selectfont { cairo_font_matrix aload pop pop pop 0 0 6 array astore
    cairo_font exch selectfont cairo_point_x cairo_point_y moveto } bind def
/Tf { pop /cairo_font exch def /cairo_font_matrix where
      { pop cairo_selectfont } if } bind def
/Td { matrix translate cairo_font_matrix matrix concatmatrix dup
      /cairo_font_matrix exch def dup 4 get exch 5 get cairo_store_point
      /cairo_font where { pop cairo_selectfont } if } bind def
/Tm { 2 copy 8 2 roll 6 array astore /cairo_font_matrix exch def
      cairo_store_point /cairo_font where { pop cairo_selectfont } if } bind def
/g { setgray } bind def
/rg { setrgbcolor } bind def
/d1 { setcachedevice } bind def
%%EndProlog
%%BeginSetup
%%EndSetup
%%Page: 1 1
%%BeginPageSetup
%%PageBoundingBox: 0 12 333 321
%%EndPageSetup
q 0 12 333 309 rectclip q
0.968627 0.780392 0.25098 rg
311.039 157.601 m 311.039 77.718 246.281 12.96 166.398 12.96 c 86.516 12.96
 21.762 77.718 21.762 157.601 c 21.762 237.484 86.516 302.242 166.398 302.242
 c 246.281 302.242 311.039 237.484 311.039 157.601 c h
311.039 157.601 m f
0.917647 0.921569 0.760784 rg
277.762 157.601 m 277.762 96.097 227.902 46.242 166.398 46.242 c 104.898
 46.242 55.039 96.097 55.039 157.601 c 55.039 219.101 104.898 268.96 166.398
 268.96 c 227.902 268.96 277.762 219.101 277.762 157.601 c h
277.762 157.601 m f
0.968627 0.780392 0.25098 rg
39.68 280.16 m 11.52 252 l -3.84 267.359 -3.84 292.64 11.52 308 c 26.879
 323.359 52.16 323.359 67.52 308 c h
39.68 280.16 m f
293.121 280.16 m 320.961 252 l 336.32 267.359 336.32 292.64 320.961 308
 c 305.602 323.359 280.32 323.359 264.961 308 c h
293.121 280.16 m f
0.25098 0.156863 0.0627451 rg
66.879 52 m 69.441 54.558 69.441 58.402 66.879 60.96 c 64.32 63.519 60.48
 63.519 57.922 60.96 c 35.199 38.242 l 32.641 35.679 32.641 31.839 35.199
 29.281 c 37.762 26.718 41.602 26.718 44.16 29.281 c h
66.879 52 m f
297.602 29.281 m 300.16 31.839 300.16 35.679 297.602 38.242 c 274.879 60.96
 l 272.32 63.519 268.48 63.519 265.922 60.96 c 263.359 58.402 263.359 54.558
 265.922 52 c 288.641 29.281 l 290.879 27.039 295.039 27.039 297.602 29.281
 c h
297.602 29.281 m f
57.922 252.96 m 60.48 250.402 64.32 250.402 66.879 252.96 c 69.441 255.519
 69.441 259.359 66.879 261.921 c 44.16 284.64 l 41.602 287.199 37.762 287.199
 35.199 284.64 c 32.641 282.082 32.641 278.242 35.199 275.679 c h
57.922 252.96 m f
274.879 252.96 m 297.602 275.679 l 300.16 278.242 300.16 282.082 297.602
 284.64 c 295.039 287.199 291.199 287.199 288.641 284.64 c 265.922 261.921
 l 263.359 259.359 263.359 255.519 265.922 252.96 c 268.48 250.402 272.32
 250.402 274.879 252.96 c h
274.879 252.96 m f
166.398 241.441 m 169.922 241.441 172.801 244.32 172.801 247.839 c 172.801
 269.281 l 172.801 272.8 169.922 275.679 166.398 275.679 c 162.879 275.679
 160 272.8 160 269.281 c 160 247.839 l 160 244.32 162.879 241.441 166.398
 241.441 c h
166.398 241.441 m f
256.641 151.199 m 278.078 151.199 l 281.602 151.199 284.48 154.082 284.48
 157.601 c 284.48 161.121 281.602 164 278.078 164 c 256.641 164 l 253.121
 164 250.238 161.121 250.238 157.601 c 250.238 154.082 253.121 151.199 256.641
 151.199 c h
256.641 151.199 m f
172.801 67.359 m 172.801 70.878 169.922 73.761 166.398 73.761 c 162.879
 73.761 160 70.878 160 67.359 c 160 45.921 l 160 42.402 162.879 39.519 166.398
 39.519 c 169.922 39.519 172.801 42.402 172.801 45.921 c h
172.801 67.359 m f
76.16 164 m 54.719 164 l 51.199 164 48.32 161.121 48.32 157.601 c 48.32
 154.082 51.199 151.199 54.719 151.199 c 76.16 151.199 l 79.68 151.199 82.559
 154.082 82.559 157.601 c 82.559 161.121 79.68 164 76.16 164 c h
76.16 164 m f
111.68 151.199 m 148.16 151.199 l 149.121 148.32 150.719 146.082 152.641
 143.839 c 156.16 140.32 160.961 138.082 166.398 138.082 c 171.84 138.082
 176.641 140.32 180.16 143.839 c 183.68 147.359 185.922 152.16 185.922 157.601
 c 185.922 163.039 183.68 167.839 180.16 171.359 c 178.238 173.281 175.68
 174.878 172.801 175.839 c 172.801 224.48 l 172.801 228 169.922 230.878 
166.398 230.878 c 162.879 230.878 160 228 160 224.48 c 160 175.839 l 157.121
 174.878 154.879 173.281 152.641 171.359 c 150.719 169.441 149.121 166.878
 148.16 164 c 111.68 164 l 108.16 164 105.281 161.121 105.281 157.601 c 
105.281 154.082 108.16 151.199 111.68 151.199 c h
171.199 152.8 m 169.922 151.519 168.32 150.878 166.398 150.878 c 164.48
 150.878 162.879 151.519 161.602 152.8 c 160.32 154.082 159.68 155.679 159.68
 157.601 c 159.68 159.519 160.32 161.121 161.602 162.402 c 162.879 163.679
 164.48 164.32 166.398 164.32 c 168.32 164.32 169.922 163.679 171.199 162.402
 c 172.48 161.121 173.121 159.519 173.121 157.601 c 173.121 155.679 172.16
 154.082 171.199 152.8 c h
171.199 152.8 m f
Q Q
showpage
%%Trailer
end restore
%%EOF
