%!PS-Adobe-3.0 EPSF-3.0
%%Creator: cairo 1.14.2 (http://cairographics.org)
%%CreationDate: Thu Oct 26 12:36:05 2017
%%Pages: 1
%%DocumentData: Clean7Bit
%%LanguageLevel: 2
%%BoundingBox: 0 -1 308 308
%%EndComments
%%BeginProlog
save
50 dict begin
/q { gsave } bind def
/Q { grestore } bind def
/cm { 6 array astore concat } bind def
/w { setlinewidth } bind def
/J { setlinecap } bind def
/j { setlinejoin } bind def
/M { setmiterlimit } bind def
/d { setdash } bind def
/m { moveto } bind def
/l { lineto } bind def
/c { curveto } bind def
/h { closepath } bind def
/re { exch dup neg 3 1 roll 5 3 roll moveto 0 rlineto
      0 exch rlineto 0 rlineto closepath } bind def
/S { stroke } bind def
/f { fill } bind def
/f* { eofill } bind def
/n { newpath } bind def
/W { clip } bind def
/W* { eoclip } bind def
/BT { } bind def
/ET { } bind def
/pdfmark where { pop globaldict /?pdfmark /exec load put }
    { globaldict begin /?pdfmark /pop load def /pdfmark
    /cleartomark load def end } ifelse
/BDC { mark 3 1 roll /BDC pdfmark } bind def
/EMC { mark /EMC pdfmark } bind def
/cairo_store_point { /cairo_point_y exch def /cairo_point_x exch def } def
/Tj { show currentpoint cairo_store_point } bind def
/TJ {
  {
    dup
    type /stringtype eq
    { show } { -0.001 mul 0 cairo_font_matrix dtransform rmoveto } ifelse
  } forall
  currentpoint cairo_store_point
} bind def
/cairo_selectfont { cairo_font_matrix aload pop pop pop 0 0 6 array astore
    cairo_font exch selectfont cairo_point_x cairo_point_y moveto } bind def
/Tf { pop /cairo_font exch def /cairo_font_matrix where
      { pop cairo_selectfont } if } bind def
/Td { matrix translate cairo_font_matrix matrix concatmatrix dup
      /cairo_font_matrix exch def dup 4 get exch 5 get cairo_store_point
      /cairo_font where { pop cairo_selectfont } if } bind def
/Tm { 2 copy 8 2 roll 6 array astore /cairo_font_matrix exch def
      cairo_store_point /cairo_font where { pop cairo_selectfont } if } bind def
/g { setgray } bind def
/rg { setrgbcolor } bind def
/d1 { setcachedevice } bind def
%%EndProlog
%%BeginSetup
%%EndSetup
%%Page: 1 1
%%BeginPageSetup
%%PageBoundingBox: 0 -1 308 308
%%EndPageSetup
q 0 -1 308 309 rectclip q
0.933333 0.27451 0.290196 rg
307.199 153.598 m 307.199 68.77 238.43 0.001 153.602 0.001 c 68.77 0.001
 0 68.77 0 153.598 c 0 238.43 68.77 307.2 153.602 307.2 c 238.43 307.2 307.199
 238.43 307.199 153.598 c h
307.199 153.598 m f
0.917647 0.921569 0.760784 rg
272 153.598 m 272 88.208 218.992 35.2 153.602 35.2 c 88.211 35.2 35.199
 88.208 35.199 153.598 c 35.199 218.989 88.211 272.001 153.602 272.001 c
 218.992 272.001 272 218.989 272 153.598 c h
272 153.598 m f
0.25098 0.156863 0.0627451 rg
153.602 243.2 m 157.121 243.2 160 246.079 160 249.598 c 160 272.001 l 160
 275.52 157.121 278.399 153.602 278.399 c 150.078 278.399 147.199 275.52
 147.199 272.001 c 147.199 249.598 l 147.199 246.079 150.078 243.2 153.602
 243.2 c h
153.602 243.2 m f
249.602 147.2 m 272.32 147.2 l 275.84 147.2 278.719 150.079 278.719 153.598
 c 278.719 157.122 275.84 160.001 272.32 160.001 c 249.602 160.001 l 246.078
 160.001 243.199 157.122 243.199 153.598 c 243.199 150.079 246.078 147.2
 249.602 147.2 c h
249.602 147.2 m f
160 35.2 m 160 57.598 l 160 61.122 157.121 64.001 153.602 64.001 c 150.078
 64.001 147.199 61.122 147.199 57.598 c 147.199 34.88 l 147.199 31.36 150.078
 28.481 153.602 28.481 c 157.121 28.481 160 31.68 160 35.2 c h
160 35.2 m f
35.199 147.2 m 57.602 147.2 l 61.121 147.2 64 150.079 64 153.598 c 64 157.122
 61.121 160.001 57.602 160.001 c 35.199 160.001 l 31.68 160.001 28.801 157.122
 28.801 153.598 c 28.801 150.079 31.68 147.2 35.199 147.2 c h
35.199 147.2 m f
95.68 147.2 m 134.398 147.2 l 135.359 144.321 136.961 141.438 139.199 139.2
 c 142.719 135.68 147.84 133.438 153.602 133.438 c 159.039 133.438 164.16
 135.68 168 139.2 c 171.52 142.72 173.762 147.841 173.762 153.598 c 173.762
 159.04 171.52 164.161 168 168.001 c 165.762 170.239 163.199 171.841 160
 172.802 c 160 224.641 l 160 228.161 157.121 231.04 153.602 231.04 c 150.078
 231.04 147.199 228.161 147.199 224.641 c 147.199 172.802 l 144.32 171.841
 141.762 170.239 139.84 168.321 c 139.52 168.001 l 137.281 165.759 135.68
 163.2 134.719 160.001 c 95.68 160.001 l 92.16 160.001 89.281 157.122 89.281
 153.598 c 89.281 150.079 92.16 147.2 95.68 147.2 c h
158.719 148.481 m 157.441 147.2 155.52 146.239 153.602 146.239 c 151.68
 146.239 149.762 147.2 148.48 148.481 c 147.199 149.759 146.238 151.68 146.238
 153.598 c 146.238 155.52 147.199 157.438 148.48 158.72 c 148.48 158.72 
148.48 159.04 148.801 159.04 c 150.078 160.321 152 160.962 153.922 160.962
 c 155.84 160.962 157.762 160.001 159.039 158.72 c 160.32 157.438 161.281
 155.52 161.281 153.598 c 160.961 151.68 160.32 149.759 158.719 148.481 
c h
158.719 148.481 m f
Q Q
showpage
%%Trailer
end restore
%%EOF
